No;variant_repo;pr_no;created_at;closed_at;merged_at;repo_origin_ml;repo_destin;pr_owner;no_commenters;pr_commenters;pr_comments
0;andy128k/aes-es;58;2020-09-14T04:15:22Z;2020-09-14T21:35:28Z;;andy128k/aes-es;andy128k/aes-es;dependabot-preview[bot];1;dependabot-preview[bot];Looks like eslint-plugin-jest is no longer updatable, so this is no longer needed.
1;andy128k/aes-es;57;2020-09-05T01:30:40Z;2020-09-14T04:15:24Z;;andy128k/aes-es;andy128k/aes-es;dependabot-preview[bot];1;dependabot-preview[bot];Superseded by #58.
3;andy128k/aes-es;55;2020-05-25T04:13:21Z;2020-06-08T04:13:45Z;;andy128k/aes-es;andy128k/aes-es;dependabot-preview[bot];1;dependabot-preview[bot];Superseded by #56.
5;andy128k/aes-es;53;2020-05-11T04:12:45Z;2020-05-25T04:13:23Z;;andy128k/aes-es;andy128k/aes-es;dependabot-preview[bot];1;dependabot-preview[bot];Superseded by #55.
7;andy128k/aes-es;51;2020-03-16T04:13:00Z;2020-03-19T04:14:33Z;;andy128k/aes-es;andy128k/aes-es;dependabot-preview[bot];1;dependabot-preview[bot];Superseded by #52.
8;andy128k/aes-es;50;2020-03-13T04:13:09Z;2020-03-16T04:13:03Z;;andy128k/aes-es;andy128k/aes-es;dependabot-preview[bot];1;dependabot-preview[bot];Superseded by #51.
9;andy128k/aes-es;49;2020-03-11T04:13:01Z;2020-03-13T04:13:12Z;;andy128k/aes-es;andy128k/aes-es;dependabot-preview[bot];1;dependabot-preview[bot];Superseded by #50.
10;andy128k/aes-es;48;2020-03-09T04:13:45Z;2020-03-11T04:13:04Z;;andy128k/aes-es;andy128k/aes-es;dependabot-preview[bot];1;dependabot-preview[bot];Superseded by #49.
12;andy128k/aes-es;46;2019-12-02T04:17:22Z;2019-12-02T14:24:09Z;;andy128k/aes-es;andy128k/aes-es;dependabot-preview[bot];1;dependabot-preview[bot];Looks like eslint-plugin-jest is up-to-date now, so this is no longer needed.
13;andy128k/aes-es;45;2019-12-02T04:16:53Z;2019-12-02T14:24:13Z;;andy128k/aes-es;andy128k/aes-es;dependabot-preview[bot];1;dependabot-preview[bot];Looks like eslint is up-to-date now, so this is no longer needed.
14;andy128k/aes-es;44;2019-11-27T04:17:42Z;2019-12-02T04:17:24Z;;andy128k/aes-es;andy128k/aes-es;dependabot-preview[bot];1;dependabot-preview[bot];Superseded by #46.
15;andy128k/aes-es;43;2019-11-25T04:14:16Z;2019-12-02T04:16:56Z;;andy128k/aes-es;andy128k/aes-es;dependabot-preview[bot];1;dependabot-preview[bot];Superseded by #45.
16;andy128k/aes-es;42;2019-11-15T04:15:00Z;2019-11-27T04:17:45Z;;andy128k/aes-es;andy128k/aes-es;dependabot-preview[bot];1;dependabot-preview[bot];Superseded by #44.
17;andy128k/aes-es;41;2019-11-11T04:15:57Z;2019-11-15T04:15:09Z;;andy128k/aes-es;andy128k/aes-es;dependabot-preview[bot];1;dependabot-preview[bot];Superseded by #42.
18;andy128k/aes-es;40;2019-10-29T04:14:46Z;2019-11-11T04:15:59Z;;andy128k/aes-es;andy128k/aes-es;dependabot-preview[bot];1;dependabot-preview[bot];Superseded by #41.
20;andy128k/aes-es;38;2019-10-28T04:20:34Z;2019-11-25T04:14:20Z;;andy128k/aes-es;andy128k/aes-es;dependabot-preview[bot];1;dependabot-preview[bot];Superseded by #43.
21;andy128k/aes-es;37;2019-10-01T04:18:32Z;2019-10-28T04:20:37Z;;andy128k/aes-es;andy128k/aes-es;dependabot-preview[bot];1;dependabot-preview[bot];Superseded by #38.
23;andy128k/aes-es;35;2019-06-24T04:14:20Z;2019-09-30T04:15:53Z;;andy128k/aes-es;andy128k/aes-es;dependabot-preview[bot];1;dependabot-preview[bot];Superseded by #36.
24;andy128k/aes-es;34;2019-04-01T04:24:14Z;2019-04-01T22:17:06Z;;andy128k/aes-es;andy128k/aes-es;dependabot-preview[bot];1;dependabot-preview[bot];Looks like eslint is up-to-date now, so this is no longer needed.
25;andy128k/aes-es;33;2019-03-19T04:46:01Z;2019-04-01T04:24:21Z;;andy128k/aes-es;andy128k/aes-es;dependabot-preview[bot];1;dependabot-preview[bot];Superseded by #34.
26;andy128k/aes-es;32;2019-03-18T04:33:00Z;2019-03-19T04:46:04Z;;andy128k/aes-es;andy128k/aes-es;dependabot-preview[bot];1;dependabot-preview[bot];Superseded by #33.
27;andy128k/aes-es;31;2019-03-05T04:30:22Z;2019-03-18T04:33:07Z;;andy128k/aes-es;andy128k/aes-es;dependabot-preview[bot];1;dependabot-preview[bot];Superseded by #32.
28;andy128k/aes-es;30;2019-03-04T04:23:07Z;2019-03-05T04:30:25Z;;andy128k/aes-es;andy128k/aes-es;dependabot-preview[bot];1;dependabot-preview[bot];Superseded by #31.
29;andy128k/aes-es;29;2019-03-01T04:18:21Z;2019-04-01T22:16:55Z;;andy128k/aes-es;andy128k/aes-es;dependabot-preview[bot];1;dependabot-preview[bot];Looks like karma is no longer a dependency, so this is no longer needed.
30;andy128k/aes-es;28;2019-02-19T04:17:39Z;2019-03-04T04:23:10Z;;andy128k/aes-es;andy128k/aes-es;dependabot-preview[bot];1;dependabot-preview[bot];Superseded by #30.
31;andy128k/aes-es;27;2019-02-18T05:23:04Z;2019-02-19T04:17:41Z;;andy128k/aes-es;andy128k/aes-es;dependabot-preview[bot];1;dependabot-preview[bot];Superseded by #28.
32;andy128k/aes-es;26;2019-02-04T04:44:36Z;2019-02-18T05:23:07Z;;andy128k/aes-es;andy128k/aes-es;dependabot-preview[bot];1;dependabot-preview[bot];Superseded by #27.
33;andy128k/aes-es;25;2019-01-24T04:34:36Z;2019-03-01T04:18:24Z;;andy128k/aes-es;andy128k/aes-es;dependabot-preview[bot];1;dependabot-preview[bot];Superseded by #29.
36;andy128k/aes-es;22;2018-12-27T04:51:44Z;2019-01-07T04:29:56Z;;andy128k/aes-es;andy128k/aes-es;dependabot-preview[bot];1;dependabot-preview[bot];Superseded by #23.
37;andy128k/aes-es;21;2018-12-24T04:46:44Z;2018-12-27T04:51:46Z;;andy128k/aes-es;andy128k/aes-es;dependabot-preview[bot];1;dependabot-preview[bot];Superseded by #22.
38;andy128k/aes-es;20;2018-12-18T04:22:36Z;2019-01-24T04:34:39Z;;andy128k/aes-es;andy128k/aes-es;dependabot-preview[bot];1;dependabot-preview[bot];Superseded by #25.
39;andy128k/aes-es;19;2018-12-10T04:22:59Z;2018-12-24T04:46:48Z;;andy128k/aes-es;andy128k/aes-es;dependabot-preview[bot];1;dependabot-preview[bot];Superseded by #21.
40;andy128k/aes-es;18;2018-12-06T04:32:43Z;2019-04-01T22:17:02Z;;andy128k/aes-es;andy128k/aes-es;dependabot-preview[bot];1;dependabot-preview[bot];Looks like jasmine is no longer a dependency, so this is no longer needed.
41;andy128k/aes-es;17;2018-12-03T05:01:12Z;2018-12-18T04:22:39Z;;andy128k/aes-es;andy128k/aes-es;dependabot-preview[bot];1;dependabot-preview[bot];Superseded by #20.
42;andy128k/aes-es;16;2018-11-19T04:16:54Z;2019-04-01T22:16:55Z;;andy128k/aes-es;andy128k/aes-es;dependabot-preview[bot];1;dependabot-preview[bot];Looks like karma-jasmine is no longer a dependency, so this is no longer needed.
43;andy128k/aes-es;15;2018-11-15T04:23:16Z;2018-11-19T04:16:56Z;;andy128k/aes-es;andy128k/aes-es;dependabot-preview[bot];1;dependabot-preview[bot];Superseded by #16.
44;andy128k/aes-es;14;2018-11-12T04:30:38Z;2018-12-10T04:23:02Z;;andy128k/aes-es;andy128k/aes-es;dependabot-preview[bot];1;dependabot-preview[bot];Superseded by #19.
45;andy128k/aes-es;13;2018-10-29T04:52:34Z;2018-11-12T04:30:42Z;;andy128k/aes-es;andy128k/aes-es;dependabot-preview[bot];1;dependabot-preview[bot];Superseded by #14.
46;andy128k/aes-es;12;2018-10-26T04:40:13Z;2018-12-06T04:32:46Z;;andy128k/aes-es;andy128k/aes-es;dependabot-preview[bot];1;dependabot-preview[bot];Superseded by #18.
47;andy128k/aes-es;11;2018-10-24T04:28:50Z;2018-12-03T05:01:15Z;;andy128k/aes-es;andy128k/aes-es;dependabot-preview[bot];1;dependabot-preview[bot];Superseded by #17.
48;andy128k/aes-es;10;2018-10-22T21:40:45Z;2018-10-24T04:28:53Z;;andy128k/aes-es;andy128k/aes-es;dependabot-preview[bot];1;dependabot-preview[bot];Superseded by #11.
49;andy128k/aes-es;9;2018-10-15T04:35:37Z;2018-10-29T04:52:36Z;;andy128k/aes-es;andy128k/aes-es;dependabot-preview[bot];1;dependabot-preview[bot];Superseded by #13.
50;andy128k/aes-es;8;2018-10-01T04:56:17Z;2018-10-15T04:35:39Z;;andy128k/aes-es;andy128k/aes-es;dependabot-preview[bot];1;dependabot-preview[bot];Superseded by #9.
54;andy128k/aes-es;4;2018-09-22T12:48:09Z;2019-04-01T22:16:54Z;;andy128k/aes-es;andy128k/aes-es;dependabot-preview[bot];1;dependabot-preview[bot];Looks like karma-chrome-launcher is no longer a dependency, so this is no longer needed.
55;andy128k/aes-es;3;2018-09-22T12:48:08Z;2019-04-01T22:16:53Z;;andy128k/aes-es;andy128k/aes-es;dependabot-preview[bot];1;dependabot-preview[bot];Looks like karma-commonjs is no longer a dependency, so this is no longer needed.
