No;variant_repo;pr_no;created_at;closed_at;merged_at;repo_origin_ml;repo_destin;pr_owner;no_commenters;pr_commenters;pr_comments
0;appscot/waterline-sequel-orientdb;3;2015-08-20T17:51:49Z;2015-08-20T19:31:26Z;;mitom/waterline-sequel-orientdb;appscot/waterline-sequel-orientdb;mitom;2;dmarcelino/mitom;"Hi @mitom, if I understood your changes correctly you are proposing we extend waterline's query language (through sails-orientdb) to support the below?

``` js
Model.find({
  name : {
    'lucene' : 'alt'
  }
})
```

Do you think you can create a failing test over at `sails-orientdb` that works with these changes but breaks without?
 Hi @dmarcelino after having some more time to investigate I'd rather just assume orientdb doesn't have lucene support. It is so broken that barely anything works in it.

To name a few:
There are shady limitations on what can be used in a query that involves lucene which may sometime fail quietly and return the entire dataset without filtering.
The order of statements in OR may change the endresult.
The syntax that works differs between versions - I found no notes on how. In 2.1 for example the syntax described in the docs doesn't seem to work for multiple fields (`SELECT * FROM Class WHERE [prop1,prop2] LUCENE ""query""` quoted), it did work on 2.0.14 but there.. were other issues.. In the end I tried to get a query working on a database with **2** items, and failed.

These are only the ones I found in less than an hour, while I was looking for solutions I found plenty of issues with other bugs (maybe these are in there somewhere too).

Point is, the implementation is so disappoingly poor I suggest we just pretend it doesn't exist.

If you wish I can provide a test, but honestly I don't believe it will be worth anything given that there are silent failures as well, which seem to change in behaviour between versions probably due to attempts to fix them.

I suggest we just close this as it is, maybe those few lines will be useful once.

_edit:_ Oh yeah, these issues are all unrelated to sails or anything, purely orientdb bugs. So the implementations could work, but it would be useless.
"
