No;variant_repo;pr_no;created_at;closed_at;merged_at;repo_origin_ml;repo_destin;pr_owner;no_commenters;pr_commenters;pr_comments
0;badunk/js-fixtures;26;2014-12-10T19:31:54Z;2014-12-12T01:12:38Z;;MichaelXavier/js-fixtures;badunk/js-fixtures;MichaelXavier;3;badunk/badunk/badunk;"ah, thanks for the PR and explanation.  I will take a look at it soon :)
 Can you write a test for this?
 I wrote the test for it, however this is actually not an issue on master due to this line:
https://github.com/badunk/js-fixtures/blob/master/fixtures.js#L50

The problem seems like my bower tag is completely out of date!  I've version bumped bower and npm.

Thanks
"
3;badunk/js-fixtures;20;2013-11-23T01:28:07Z;2013-12-03T02:28:36Z;2013-12-03T02:28:36Z;jagoda/js-fixtures;badunk/js-fixtures;jagoda;6;badunk/jagoda/badunk/jagoda/badunk/jagoda;"Wow, this feature seems like a necessity - I had never thought of this case.

I think it actually makes sense to turn it on by default - in fact I see no reason to make this configurable.  Perhaps js-fixtures should indicate in some way that the error is coming from the child window instead.  What do you think?

Is there a way to separate the visibility concerns away from the error throwing? (https://github.com/jagoda/js-fixtures/commit/60305001c1982b9ed54cc625b71cd57a836eb9ca#diff-21c86aaa4ceb2199139862a7abfa6dc4R70)
 Ya, I was also leaning towards making the error capturing a core behavior. However, I'm not sure how to separate the error capturing from the visibility. I found that Firefox would not report the errors as expected unless the frame was visible. I'm not sure why this is since I couldn't find any documentation indicating that this should (or does) happen. Chrome worked as expected regardless of the frame's visibility. In the end, it seemed to me that the options where to either make the fixture frame always visible or to make error capturing configurable. Thoughts?

Making the error message indicate that the error came from the child should be pretty easy.
 I just realized maybe I can hide the iframe via ""opacity: 0"" in firefox, it passes the tests you've written in the previous PR.

If that works for you, then I think the issue is side stepped.
 Nice, I hadn't thought of that. The opacity trick works great for my needs. It seems to me that if the opacity trick is used, then the visibility config option is no longer really useful. The reworked changes make it so that visibility and error capturing work in Firefox and Chrome without any additional config. I have no easy way to test on IE at the moment (I just have Linux at home), but maybe you could try the changes out on IE for me?
 Yeah absolutely,

I will have to get back to you in a couple days, currently on vacation
 I suppose you may still be on vacation, but if not, any chance you could take a look at the latest changes?
"
5;badunk/js-fixtures;13;2013-10-26T19:30:41Z;2013-10-28T08:08:16Z;2013-10-28T08:08:16Z;;badunk/js-fixtures;kiltec;1;badunk;"oops thanks!   I'll merge it in when I get the chance
"
6;badunk/js-fixtures;6;2013-05-01T16:45:10Z;2013-08-06T21:31:50Z;;rickeyvisinski-kanban/js-fixtures;badunk/js-fixtures;rickeyvisinski-kanban;5;badunk/rickeyvisinski-kanban/badunk/rickeyvisinski-kanban/badunk;"Hi - could you add tests for this?

Perhaps I should've taken a 2nd look at sandbox, it seems more useful than I thought.
 All set
 The project is currently running all fixtures through the iframe to reduce interaction effects w/ the test runner.  It seems as if this implementation of the sandbox creates elements alongside the iframe.  I think it would be more useful to have it quickly create fixtures inside the iframe through the same syntax.
 Ok, i will take a look at just patching appendSet instead.
 Hi @rickeyvisinski-kanban, so sorry to have missed your PR.

As I intentionally switched away from injecting fixtures on the same document, into the iframe implementation, I don't wish to go back.

I have re-implemented the sandbox feature such that if you provide it a js object into the method, it will add it to the fixtures container (https://github.com/badunk/js-fixtures/commit/9625793604967b1b595a6037c3108b00a64e2290)

Please let me know if this fixes your needs

Thanks!
"
7;badunk/js-fixtures;4;2013-01-10T18:04:04Z;2013-01-22T03:16:47Z;;;badunk/js-fixtures;jkresner;3;badunk/badunk/jkresner;"this is an interesting idea, I had never attempted to do this via node, I'll review the code and get back soon.
 I removed the jquery dependencies from the specs and the library itself.  Could you try another pull?
 Hey Duncan sorry for late reply. We've moved off JSDom and opted for PhantomJS instead, so the original version works for us. I was still having problems on JSDom even without jQuery. Appreciate you modifying the scripts. Thanks.
"
8;badunk/js-fixtures;3;2012-11-29T15:58:03Z;2012-12-14T06:47:00Z;2012-12-14T06:47:00Z;jpka/js-fixtures;badunk/js-fixtures;jpka;2;badunk/jpka;"Hi - I'll review this today and get back to you.  I'm all for supporting IE if this project can reach out to more people

Thanks!
 There, all done :).
"
