No;variant_repo;pr_no;created_at;closed_at;merged_at;repo_origin_ml;repo_destin;pr_owner;no_commenters;pr_commenters;pr_comments
0;slang800/editorconfig-tools;29;2016-07-29T01:45:20Z;2016-08-05T01:47:14Z;2016-08-05T01:47:14Z;uetchy/editorconfig-tools;notslang/editorconfig-tools;uetchy;2;uetchy/notslang;"/ping @slang800 
 sweet, thanks!
"
5;slang800/editorconfig-tools;3;2014-11-03T03:52:54Z;2014-12-14T07:54:58Z;;;notslang/editorconfig-tools;ljharb;3;ljharb/notslang/ljharb;"For the record; this was painful to fix because it's in coffeescript. Using normal JS will greatly increase the likelihood of community contribution.
 Thanks for noticing this, though I'm probably going to implement this fix in [fobject](https://github.com/slang800/fobject) (the library that I use for doing file manipulation)

As for the CoffeeScript: I find that it's easier to write CoffeeScript than JavaScript and it's generally more maintainable, so I'm going to stick with that. I think the community will gradually move to CoffeeScript as the dominant ""JavaScript dialect"", but in the meantime it should be pretty easy for new people to learn since it's effectively the same language (not cross-compiled like Dart or ClojureScript).
 Ah, even better :-) as long as this tool works on node 0.8 (ideally all the way down, since it's not doing anything that complex) I'm happy.

I can guarantee you that the community, which is already moving away from CoffeeScript, is never going to move to it as the predominant one, but certainly you're free to use whatever you like.

Thanks for working on the fix in fobject!
"
