No;variant_repo;pr_no;created_at;closed_at;merged_at;repo_origin_ml;repo_destin;pr_owner;no_commenters;pr_commenters;pr_comments
0;StartPolymer/gulp-html-postcss;35;2018-07-27T05:59:41Z;2018-07-27T06:12:55Z;2018-07-27T06:12:55Z;StartPolymer/gulp-html-postcss;StartPolymer/gulp-html-postcss;gucong3000;2;coveralls/coveralls;"
[![Coverage Status](https://coveralls.io/builds/18191548/badge)](https://coveralls.io/builds/18191548)

Coverage remained the same at 100.0% when pulling **52b3504f0f042405f11ff4587d704b74db832530 on deps** into **f2b1225804fd9b082bf0e2e9c8af8cdca1766274 on master**.
 
[![Coverage Status](https://coveralls.io/builds/18191441/badge)](https://coveralls.io/builds/18191441)

Coverage remained the same at 100.0% when pulling **9839c1710d6087626588767553a4ef6adc50215c on deps** into **f2b1225804fd9b082bf0e2e9c8af8cdca1766274 on master**.
"
1;StartPolymer/gulp-html-postcss;34;2018-06-12T11:47:39Z;2018-06-29T11:00:22Z;2018-06-29T11:00:22Z;StartPolymer/gulp-html-postcss;StartPolymer/gulp-html-postcss;gucong3000;1;coveralls;"
[![Coverage Status](https://coveralls.io/builds/17755736/badge)](https://coveralls.io/builds/17755736)

Coverage remained the same at 100.0% when pulling **585cded7759182bb70107bf07f0becafe1b7ca3a on deps** into **21606c9c1eedd463ad84dd9f5076ccee2b6a37d7 on master**.
"
2;StartPolymer/gulp-html-postcss;33;2018-05-29T01:20:36Z;2018-05-29T01:28:23Z;2018-05-29T01:28:23Z;StartPolymer/gulp-html-postcss;StartPolymer/gulp-html-postcss;gucong3000;1;coveralls;"
[![Coverage Status](https://coveralls.io/builds/17204201/badge)](https://coveralls.io/builds/17204201)

Coverage remained the same at 100.0% when pulling **aa54a3b47209d2a630588863ae98cb182cc11c50 on update_syntaxes** into **8e20cca873d0564f4191252fd3a14e8292eeacd1 on master**.
"
3;StartPolymer/gulp-html-postcss;32;2018-05-18T15:07:32Z;2018-05-18T15:15:51Z;2018-05-18T15:15:51Z;gucong3000/gulp-postcss;StartPolymer/gulp-html-postcss;gucong3000;2;coveralls/coveralls;"
[![Coverage Status](https://coveralls.io/builds/17055555/badge)](https://coveralls.io/builds/17055555)

Coverage remained the same at 100.0% when pulling **95d7eb83cae2c68e2fdaeffffc13ba5dbd24179c on gucong3000:deps** into **5e05931b570dfea04a313fbdd2a0ef73c2096e44 on StartPolymer:master**.
 
[![Coverage Status](https://coveralls.io/builds/17055668/badge)](https://coveralls.io/builds/17055668)

Coverage remained the same at 100.0% when pulling **f1e53562a72cd11dad241a8497391f6cdbaab41c on gucong3000:deps** into **5e05931b570dfea04a313fbdd2a0ef73c2096e44 on StartPolymer:master**.
"
4;StartPolymer/gulp-html-postcss;31;2018-05-08T11:13:02Z;2018-05-09T02:43:14Z;2018-05-09T02:43:14Z;StartPolymer/gulp-html-postcss;StartPolymer/gulp-html-postcss;gucong3000;1;coveralls;"
[![Coverage Status](https://coveralls.io/builds/16896625/badge)](https://coveralls.io/builds/16896625)

Coverage increased (+13.3%) to 100.0% when pulling **0759686d7bc9a91c028db1eed99a82b62651837f on postcss-syntax** into **5a9a24a389a3725bbbdde7b51755c6b37a0811d8 on master**.
"
5;StartPolymer/gulp-html-postcss;30;2018-03-23T10:35:12Z;2018-03-23T10:45:23Z;2018-03-23T10:45:23Z;StartPolymer/gulp-html-postcss;StartPolymer/gulp-html-postcss;gucong3000;3;coveralls/coveralls/coveralls;"
[![Coverage Status](https://coveralls.io/builds/16141595/badge)](https://coveralls.io/builds/16141595)

Coverage remained the same at 100.0% when pulling **7795ac9db9460624f2469f001e39363ba9a9c518 on eslint_config** into **6dcb086f7b41b6b09165f68f3aaf510934390c9b on master**.
 
[![Coverage Status](https://coveralls.io/builds/16141595/badge)](https://coveralls.io/builds/16141595)

Coverage remained the same at 100.0% when pulling **7795ac9db9460624f2469f001e39363ba9a9c518 on eslint_config** into **6dcb086f7b41b6b09165f68f3aaf510934390c9b on master**.
 
[![Coverage Status](https://coveralls.io/builds/16141709/badge)](https://coveralls.io/builds/16141709)

Coverage remained the same at 100.0% when pulling **cb980c08fa6e8fd552425206c86ea28f0dcf2db9 on eslint_config** into **4b6b5ec797b84474bee281935144886bc7a1a0e6 on master**.
"
6;StartPolymer/gulp-html-postcss;29;2018-03-15T03:09:26Z;2018-03-15T03:21:02Z;2018-03-15T03:21:02Z;StartPolymer/gulp-html-postcss;StartPolymer/gulp-html-postcss;gucong3000;1;coveralls;"
[![Coverage Status](https://coveralls.io/builds/15985896/badge)](https://coveralls.io/builds/15985896)

Coverage remained the same at 100.0% when pulling **62dc18cf35ff42a296dfef0dc2e7c9cc06c2d172 on dependencies** into **1defe975e599d75d651d8af349c8016623d76842 on master**.
"
10;StartPolymer/gulp-html-postcss;25;2018-01-02T03:58:09Z;2018-01-02T04:50:34Z;2018-01-02T04:50:34Z;gucong3000/gulp-postcss;StartPolymer/gulp-html-postcss;gucong3000;1;coveralls;"
[![Coverage Status](https://coveralls.io/builds/14861492/badge)](https://coveralls.io/builds/14861492)

Coverage remained the same at 100.0% when pulling **f8e1b28bc40265c6dc9dc63aae7a6c418c8ff0b7 on gucong3000:eslint_config** into **60da0d2d59ebd4154204fa7a015fb8cf77b89062 on StartPolymer:master**.
"
11;StartPolymer/gulp-html-postcss;24;2018-01-02T03:38:32Z;2018-01-02T05:11:10Z;2018-01-02T05:11:10Z;gucong3000/gulp-postcss;StartPolymer/gulp-html-postcss;gucong3000;4;coveralls/coveralls/coveralls/coveralls;"
[![Coverage Status](https://coveralls.io/builds/14861420/badge)](https://coveralls.io/builds/14861420)

Coverage remained the same at 100.0% when pulling **08e6efc7ae977d56f5be0defe12bb298b90bc1cf on gucong3000:refactor-remove-deprecated-gulp-util-dependency** into **60da0d2d59ebd4154204fa7a015fb8cf77b89062 on StartPolymer:master**.
 
[![Coverage Status](https://coveralls.io/builds/14861523/badge)](https://coveralls.io/builds/14861523)

Coverage remained the same at 100.0% when pulling **20ef1686f1b22f13bec21be6b256cabfa95a8cc3 on gucong3000:refactor-remove-deprecated-gulp-util-dependency** into **60da0d2d59ebd4154204fa7a015fb8cf77b89062 on StartPolymer:master**.
 
[![Coverage Status](https://coveralls.io/builds/14861750/badge)](https://coveralls.io/builds/14861750)

Coverage remained the same at 100.0% when pulling **7761957c1327aaeb520dc6e3eb41119297dad4e7 on gucong3000:refactor-remove-deprecated-gulp-util-dependency** into **411d2286519075726a4f2a8ac260fae147ed004c on StartPolymer:master**.
 
[![Coverage Status](https://coveralls.io/builds/14861750/badge)](https://coveralls.io/builds/14861750)

Coverage remained the same at 100.0% when pulling **7761957c1327aaeb520dc6e3eb41119297dad4e7 on gucong3000:refactor-remove-deprecated-gulp-util-dependency** into **411d2286519075726a4f2a8ac260fae147ed004c on StartPolymer:master**.
"
13;StartPolymer/gulp-html-postcss;22;2017-11-15T05:36:01Z;2017-11-15T07:42:07Z;2017-11-15T07:42:07Z;gucong3000/gulp-postcss;StartPolymer/gulp-html-postcss;gucong3000;5;coveralls/coveralls/coveralls/coveralls/coveralls;"
[![Coverage Status](https://coveralls.io/builds/14208492/badge)](https://coveralls.io/builds/14208492)

Coverage remained the same at 100.0% when pulling **62b3dd822db767306941b314a7116b8ec73e25ab on gucong3000:supports** into **6ad4d12802ed9690b49b4f8b1416824ba8d5e98a on StartPolymer:master**.
 
[![Coverage Status](https://coveralls.io/builds/14208492/badge)](https://coveralls.io/builds/14208492)

Coverage remained the same at 100.0% when pulling **62b3dd822db767306941b314a7116b8ec73e25ab on gucong3000:supports** into **6ad4d12802ed9690b49b4f8b1416824ba8d5e98a on StartPolymer:master**.
 
[![Coverage Status](https://coveralls.io/builds/14208492/badge)](https://coveralls.io/builds/14208492)

Coverage remained the same at 100.0% when pulling **62b3dd822db767306941b314a7116b8ec73e25ab on gucong3000:supports** into **6ad4d12802ed9690b49b4f8b1416824ba8d5e98a on StartPolymer:master**.
 
[![Coverage Status](https://coveralls.io/builds/14208599/badge)](https://coveralls.io/builds/14208599)

Coverage remained the same at 100.0% when pulling **24f0faef1502a78f7f813d0e6b7b372e9e51fd7c on gucong3000:supports** into **6ad4d12802ed9690b49b4f8b1416824ba8d5e98a on StartPolymer:master**.
 
[![Coverage Status](https://coveralls.io/builds/14209472/badge)](https://coveralls.io/builds/14209472)

Coverage remained the same at 100.0% when pulling **5ef08913276e4ac5cb5ef6eddb98e19f6c4d299b on gucong3000:supports** into **395352479845d77374331937cb727a2bcd21821d on StartPolymer:master**.
"
14;StartPolymer/gulp-html-postcss;21;2017-11-14T06:25:34Z;2017-11-14T06:28:50Z;2017-11-14T06:28:50Z;gucong3000/gulp-postcss;StartPolymer/gulp-html-postcss;gucong3000;1;coveralls;"
[![Coverage Status](https://coveralls.io/builds/14188705/badge)](https://coveralls.io/builds/14188705)

Coverage remained the same at 100.0% when pulling **918db492428266b144d4ac827a7e8e034f03066a on gucong3000:dependencies** into **34cb449eb4022bf400ca3314e8e2dc1fab46b840 on StartPolymer:master**.
"
15;StartPolymer/gulp-html-postcss;20;2017-07-19T07:12:39Z;2017-07-19T07:24:44Z;2017-07-19T07:24:43Z;StartPolymer/gulp-html-postcss;StartPolymer/gulp-html-postcss;gucong3000;1;coveralls;"
[![Coverage Status](https://coveralls.io/builds/12454033/badge)](https://coveralls.io/builds/12454033)

Coverage remained the same at 100.0% when pulling **440e50c57214f447ddfea20645f011e82cb6dd6c on fix-demo** into **3803d89eaf2f5f7df4e53cceed6f1667b5dc2c45 on master**.
"
16;StartPolymer/gulp-html-postcss;19;2017-07-18T08:21:19Z;2017-07-18T08:24:44Z;2017-07-18T08:24:44Z;gucong3000/gulp-postcss;StartPolymer/gulp-html-postcss;gucong3000;1;coveralls;"
[![Coverage Status](https://coveralls.io/builds/12436353/badge)](https://coveralls.io/builds/12436353)

Coverage remained the same at 100.0% when pulling **b83f80066467374ae89f3f82b343074f9a65eb35 on gucong3000:circleci** into **a443ddf324b6402a6d7737abfaccd4dc06ca84c8 on StartPolymer:master**.
"
17;StartPolymer/gulp-html-postcss;18;2017-07-11T10:47:50Z;2017-07-12T03:14:49Z;2017-07-12T03:14:49Z;StartPolymer/gulp-html-postcss;StartPolymer/gulp-html-postcss;gucong3000;4;coveralls/gucong3000/JosefJezek/coveralls;"
[![Coverage Status](https://coveralls.io/builds/12338667/badge)](https://coveralls.io/builds/12338667)

Coverage remained the same at 100.0% when pulling **c4df62091e6094753927039595ca06edccaa1ded on dependencies** into **ee7e72706c56b6bbd9a0092f9209aa7d52a1c46f on master**.
 @JosefJezek 
If you do not against this change, I will release a new version.
 @gucong3000 Ok 
[![Coverage Status](https://coveralls.io/builds/12353175/badge)](https://coveralls.io/builds/12353175)

Coverage remained the same at 100.0% when pulling **6b0597b6508b0225ffeb7d41f3f583b2f58651ba on dependencies** into **ee7e72706c56b6bbd9a0092f9209aa7d52a1c46f on master**.
"
18;StartPolymer/gulp-html-postcss;16;2017-07-07T09:53:19Z;2017-07-07T09:58:06Z;2017-07-07T09:58:06Z;StartPolymer/gulp-html-postcss;StartPolymer/gulp-html-postcss;gucong3000;2;coveralls/coveralls;"
[![Coverage Status](https://coveralls.io/builds/12291801/badge)](https://coveralls.io/builds/12291801)

Changes Unknown when pulling **c6b59bc5a3cb9ff40592abe50a4fe8e3e7a06278 on ci_config** into ** on master**.
 
[![Coverage Status](https://coveralls.io/builds/12291801/badge)](https://coveralls.io/builds/12291801)

Changes Unknown when pulling **c6b59bc5a3cb9ff40592abe50a4fe8e3e7a06278 on ci_config** into ** on master**.
"
29;StartPolymer/gulp-html-postcss;1;2015-10-13T05:18:13Z;2017-07-07T09:24:59Z;;;StartPolymer/gulp-html-postcss;chungchiehlun;1;JosefJezek;"Please write any example of your issue.
"
