No;mainline_repo;pr_no;created_at;closed_at;merged_at;repo_origin_ml;repo_destin;pr_owner;no_commenters;pr_commenters;pr_comments
2;apache/cordova-node-xcode;112;2020-06-09T00:28:25Z;2020-06-12T08:22:36Z;2020-06-12T08:22:36Z;DamienBitrise/cordova-node-xcode;apache/cordova-node-xcode;DamienBitrise;1;codecov-commenter;"# [Codecov](https://codecov.io/gh/apache/cordova-node-xcode/pull/112?src=pr&el=h1) Report
> Merging [#112](https://codecov.io/gh/apache/cordova-node-xcode/pull/112?src=pr&el=desc) into [master](https://codecov.io/gh/apache/cordova-node-xcode/commit/56b8ffd68f5f71f4686340d9ad32ce5fd617cb8a&el=desc) will **not change** coverage.
> The diff coverage is `100.00%`.

[![Impacted file tree graph](https://codecov.io/gh/apache/cordova-node-xcode/pull/112/graphs/tree.svg?width=650&height=150&src=pr&token=hF6uWuFokA)](https://codecov.io/gh/apache/cordova-node-xcode/pull/112?src=pr&el=tree)

```diff
@@           Coverage Diff           @@
##           master     #112   +/-   ##
=======================================
  Coverage   89.97%   89.97%           
=======================================
  Files           6        6           
  Lines        2374     2374           
=======================================
  Hits         2136     2136           
  Misses        238      238           
```


| [Impacted Files](https://codecov.io/gh/apache/cordova-node-xcode/pull/112?src=pr&el=tree) | Coverage Δ | |
|---|---|---|
| [lib/pbxProject.js](https://codecov.io/gh/apache/cordova-node-xcode/pull/112/diff?src=pr&el=tree#diff-bGliL3BieFByb2plY3QuanM=) | `96.08% <100.00%> (ø)` | |

------

[Continue to review full report at Codecov](https://codecov.io/gh/apache/cordova-node-xcode/pull/112?src=pr&el=continue).
> **Legend** - [Click here to learn more](https://docs.codecov.io/docs/codecov-delta)
> `Δ = absolute <relative> (impact)`, `ø = not affected`, `? = missing data`
> Powered by [Codecov](https://codecov.io/gh/apache/cordova-node-xcode/pull/112?src=pr&el=footer). Last update [56b8ffd...7d22f8d](https://codecov.io/gh/apache/cordova-node-xcode/pull/112?src=pr&el=lastupdated). Read the [comment docs](https://docs.codecov.io/docs/pull-request-comments).
"
3;apache/cordova-node-xcode;109;2020-04-19T13:13:51Z;2020-05-14T06:37:09Z;2020-05-14T06:37:08Z;apache/cordova-node-xcode;apache/cordova-node-xcode;NiklasMerz;1;erisu;@timbru31 If you have time, you think you can give a second review?
4;apache/cordova-node-xcode;107;2020-04-09T07:46:34Z;2020-04-09T07:50:36Z;2020-04-09T07:50:36Z;erisu/cordova-node-xcode;apache/cordova-node-xcode;erisu;1;codecov-io;"# [Codecov](https://codecov.io/gh/apache/cordova-node-xcode/pull/107?src=pr&el=h1) Report
> Merging [#107](https://codecov.io/gh/apache/cordova-node-xcode/pull/107?src=pr&el=desc) into [master](https://codecov.io/gh/apache/cordova-node-xcode/commit/511a06fbc965ea4ee1a2d91b22b0d35ed7f754d4&el=desc) will **not change** coverage by `%`.
> The diff coverage is `n/a`.

[![Impacted file tree graph](https://codecov.io/gh/apache/cordova-node-xcode/pull/107/graphs/tree.svg?width=650&height=150&src=pr&token=hF6uWuFokA)](https://codecov.io/gh/apache/cordova-node-xcode/pull/107?src=pr&el=tree)

```diff
@@           Coverage Diff           @@
##           master     #107   +/-   ##
=======================================
  Coverage   89.92%   89.92%           
=======================================
  Files           6        6           
  Lines        2362     2362           
=======================================
  Hits         2124     2124           
  Misses        238      238           
```



------

[Continue to review full report at Codecov](https://codecov.io/gh/apache/cordova-node-xcode/pull/107?src=pr&el=continue).
> **Legend** - [Click here to learn more](https://docs.codecov.io/docs/codecov-delta)
> `Δ = absolute <relative> (impact)`, `ø = not affected`, `? = missing data`
> Powered by [Codecov](https://codecov.io/gh/apache/cordova-node-xcode/pull/107?src=pr&el=footer). Last update [511a06f...1244a44](https://codecov.io/gh/apache/cordova-node-xcode/pull/107?src=pr&el=lastupdated). Read the [comment docs](https://docs.codecov.io/docs/pull-request-comments).
"
5;apache/cordova-node-xcode;106;2020-04-03T16:13:24Z;2020-04-09T07:43:59Z;2020-04-09T07:43:59Z;GEDYSIntraWare/cordova-node-xcode;apache/cordova-node-xcode;NiklasMerz;1;NiklasMerz;"I finally managed to write tests for this this. If it fits in we could get this and #79 in for the next ios release.

Let me know if the tests make sense."
15;apache/cordova-node-xcode;96;2020-04-03T09:32:26Z;2020-04-09T07:38:16Z;2020-04-09T07:38:16Z;erisu/cordova-node-xcode;apache/cordova-node-xcode;erisu;3;erisu/NiklasMerz/timbru31;"* Commit `package-lock.json` PR: https://github.com/apache/cordova/issues/4

Per NPMJS:
> It is highly recommended you commit the generated package lock to source control

Anyone using this library should install it though `npm install xcode` which does not use the `package-lock.json` as it is never bundled with the package. >     * Commit `package-lock.json` PR: [apache/cordova#4](https://github.com/apache/cordova/issues/4)
> 
> 
> Per NPMJS:
> 
> > It is highly recommended you commit the generated package lock to source control
> 
> Anyone using this library should install it though `npm install xcode` which does not use the `package-lock.json` as it is never bundled with the package.

Thank you. I learned something new! @NiklasMerz - FYI: https://github.com/apache/cordova/issues/4"
19;apache/cordova-node-xcode;92;2020-03-28T15:16:09Z;2020-03-30T10:42:44Z;2020-03-30T10:42:43Z;apache/cordova-node-xcode;apache/cordova-node-xcode;timbru31;2;brodybits/timbru31;"I wouldn't mind if we could consider please-upgrade-node, which I recently discovered from <https://github.com/prettier/prettier/pull/7837>. Thanks for the hint Brody. Would evaluate ""please-upgrade-node"" in a separate PR though."
20;apache/cordova-node-xcode;91;2020-03-28T15:14:09Z;2020-03-30T08:28:57Z;2020-03-30T08:28:57Z;apache/cordova-node-xcode;apache/cordova-node-xcode;timbru31;2;brodybits/timbru31;"My one comment is that I wish we could get things like major PR #79 integrated before making the new release. Or maybe this is not practical?

LGTM otherwise. Yes, we should try to fix/solve some issues and merge PR's - I don't want to make a release for ""just the node requirement bumped"", but on the other hand continue with our schedule of apache/cordova#79"
21;apache/cordova-node-xcode;90;2020-03-28T13:42:25Z;2020-03-30T10:43:10Z;2020-03-30T10:43:10Z;apache/cordova-node-xcode;apache/cordova-node-xcode;timbru31;1;timbru31;Combining as in one PR or merge quickly after another? I'd vote for the second approach - keep different changes in different PR's with different commit messages. This helps us to revert any potential wrong changes more cleanly and easily.
23;apache/cordova-node-xcode;82;2019-11-12T01:38:06Z;2019-11-12T16:40:32Z;2019-11-12T16:40:31Z;l3ender/cordova-node-xcode;apache/cordova-node-xcode;l3ender;1;l3ender;"Reran Styker on these changes and there's only one item left in `addTarget`:

```diff
diff --git a/lib/pbxProject.js b/lib/pbxProject.js
index 3097678..d3d05bd 100644
--- a/lib/pbxProject.js
+++ b/lib/pbxProject.js
@@ -1440,7 +1440,7 @@ pbxProject.prototype.addTarget = function(name, type, subfolder) {
     var productName = targetName,
         productType = producttypeForTargettype(targetType),
         productFileType = filetypeForProducttype(productType),
-        productFile = this.addProductFile(productName, { group: 'Copy Files', 'target': targetUuid, 'explicitFileType': productFileType}),
+        productFile = this.addProductFile(productName, { group: '', '': targetUuid, 'explicitFileType': productFileType}),
         productFileName = productFile.basename;
```

However, from what I can tell, the `group` and `target` options aren't used at all in this code path. I'm leaving them alone, but I think the PR is ready given that the method is well-covered now.

A nice side benefit of these changes is that `pbxProject.js` now has a mutation score in the green (>80%)!

@brodybits "
24;apache/cordova-node-xcode;81;2019-11-11T16:52:31Z;2019-11-11T22:58:46Z;2019-11-11T22:58:46Z;l3ender/cordova-node-xcode;apache/cordova-node-xcode;l3ender;1;l3ender;@brodybits Travis CI seems to be pokey today, but this should be good to go (verified by running stryker locally).
25;apache/cordova-node-xcode;79;2019-11-05T09:21:04Z;2020-04-09T07:42:13Z;2020-04-09T07:42:13Z;GEDYSIntraWare/cordova-node-xcode;apache/cordova-node-xcode;NiklasMerz;5;brodybits/NiklasMerz/timbru31/NiklasMerz/NiklasMerz;"Any news on this work or the issue on iOS? I need this for hooks in my plugin that needs to change the targets in the Xcode project. See https://github.com/GEDYSIntraWare/cordova-plugin-call-directory/commit/9ad709a6568a7edcca460a60019d7896696beafe Should we aim to merge the PR, even if apache/cordova-ios#538 is not yet fixed? I think yes. Some plugins need this package as a dependency for hooks that modify only one target. So getting this in the upcoming release would be good. https://github.com/apache/cordova-ios/issues/538 is no dependency for this change just needed for the same problem.

I cannot get my head around how to fix https://github.com/apache/cordova-ios/issues/538 properly but this is definitly an issue and I hacked around it. Cordova iOS definitly causes issues for the tiny percentage of apps that use more than the default target (watch, share, calldirectory extensions). But we should discuss this in the issue. Works together with #106 and https://github.com/apache/cordova-ios/pull/820 to fix https://github.com/apache/cordova-ios/issues/538

Should we consider it now?"
28;apache/cordova-node-xcode;71;2019-10-17T19:34:31Z;2019-10-18T13:06:37Z;2019-10-18T13:06:37Z;brodybits/cordova-node-xcode;apache/cordova-node-xcode;brodybits;4;l3ender/brodybits/l3ender/brodybits;"A few things I'm not positive on:
1. Regarding watch extensions: adding WatchKit2 extensions automatically adds the extension as a target to existing WatchKit2 app targets (if they exist). I don't see a similar test for original WatchKit, but admittedly I'm not sure if they are linked the same.
2. WatchKit2 apps are bundled into the products directory of the main app target (see [target type](https://github.com/l3ender/cordova-node-xcode/blob/a1b0da2c7017c3e8a3d0590c0ed22f26c26a6d88/lib/pbxProject.js#L1596) and [copy files phase](https://github.com/l3ender/cordova-node-xcode/blob/a1b0da2c7017c3e8a3d0590c0ed22f26c26a6d88/lib/pbxProject.js#L1479-L1488)). This was the main thing I wasn't sure on how original watch apps functioned as compared to watch2 apps, but not having an original watch 1 project I'm not quite sure on how to validate. Given that the existing watch app target is [wrapper](https://github.com/l3ender/cordova-node-xcode/blob/a1b0da2c7017c3e8a3d0590c0ed22f26c26a6d88/lib/pbxProject.js#L1595) instead of products, it must work slightly differently.

Having said that--and also commending the efforts for adding needed coverage for watch1--I don't believe extensive effort would need to be given for something that can now be considered legacy support. Since Apple has moved fully to watch2 support (I can't find any way to create watch1 apps in new projects), I think the current tests are more than adequate.

Thanks! Thanks @l3ender. The only purpose of this PR is to test existing functionality (for Watch 1) which is related to the new functionality (for Watch 2) proposed in #56. You can see that I am basically using most but not all of your test cases from #56 to test the existing functionality.

My purpose is in several parts:

- ensure test coverage for existing behavior (for Watch 1) which would be *related* to the new behavior for Watch 2
- avoid breaking existing behavior that is related (for Watch 1), if possible
- consistent testing for existing behavior and new behavior, as much as possible

If we merge this PR, it *may* imply that you have to move some of the WatchKit 2 tests that you added in PR #56 (or rename some files that you added).

Does this answer your questions?

Do you think this PR is ready to be merged?

Would you mind taking a *quick* look at the changes I made, which are in separate commits, to ensure I didn't add anything harmful? Your changes look good and I think this is ready to merge. After that's done, I can rebase the watch2 branch and move watch2 tests into separate files. Thanks, merging now. And thanks for all of your help with the development in general."
29;apache/cordova-node-xcode;69;2019-10-17T18:02:29Z;2019-10-18T13:26:21Z;2019-10-18T13:26:21Z;brodybits/cordova-node-xcode;apache/cordova-node-xcode;brodybits;1;brodybits;/cc @l3ender
34;apache/cordova-node-xcode;56;2019-06-15T19:06:17Z;2019-10-21T17:43:57Z;2019-10-21T17:43:56Z;l3ender/cordova-node-xcode;apache/cordova-node-xcode;l3ender;19;l3ender/brodybits/l3ender/brodybits/l3ender/l3ender/brodybits/l3ender/brodybits/l3ender/l3ender/brodybits/brodybits/l3ender/l3ender/l3ender/brodybits/erisu/brodybits;"From my testing, this is all that I needed to do in order to add watch2 apps and app extensions. Could a maintainer take a look to see if this could be merged? Let me know if there's anything else I can help with.

Thanks! I will probably need 2-3 weeks to look at this one. I think the test suite
needs to be updated to reduce the chance of breaking this functionality in
the future.
 Is there anything I can do to assist and help speed the process along? We would be happy to review this proposal once the update is covered by the test suite. Please do not hesitate to ask in case you have any questions.

You can always ping us at <dev@cordova.apache.org> or via the Slack channel. (I am not so active on Slack, through.) Some patience would be appreciated as I think all maintainers are overworked and not overpaid. Thanks for the detail. I found that the watch ability wasn't actually fully supported: when adding a watch app/extension, it wasn't actually creating/linking dependency and copying files. I've updated to support watch2 but since it currently isn't implemented for watch1 I want to leave that untouched (also, I don't have a sample project with a watch1 app/extension).

I'll dive into the test suite this coming week to add coverage for the items I've modified. In the meantime, if you have any comments on the changes please let me know. Thanks! Hi @brodybits -  after letting this fall off my plate, I've added test coverage for watch apps/extensions. Can you review and let me know if there's anything else I can add? Considering my lack of familiarity with watchkit2, I did mutation testing using Stryker to help ensure we do not lose any code coverage (see PR #61). Since all `lib` changes are in `lib/pbxProject.js`, we do not have to check for loss of code coverage in any other modules. Here are the HTML reports with and without this proposal for the sake of comparison:

- https://chrisbrody.com/node-xcode-mutation/index.html - without this proposal
- https://chrisbrody.com/node-xcode-mutation-with-watchkit2-ability/index.html - with this proposal

Stryker discovered that the following mutations of the proposed changes would not be detected by the added tests:

Mutant 1:

```diff
diff --git a/lib/pbxProject.js b/lib/pbxProject.js
index 48b6acd..e8624df 100644
--- a/lib/pbxProject.js
+++ b/lib/pbxProject.js
@@ -1486,7 +1486,7 @@ pbxProject.prototype.addTarget = function(name, type, subfolder) {
             targetType,
             '""$(CONTENTS_FOLDER_PATH)/Watch""'
         );
-    } else if (targetType === 'watch2_extension') {
+    } else if (true) {
         // Create CopyFiles phase in watch target (if exists)
         var watch2Target = this.getTarget(producttypeForTargettype('watch2_app'));
         if (watch2Target) {
```

This mutant is directly related to missing test coverage of build with `app_extension` target, now tracked in #63.

Mutant 2:

```diff
diff --git a/lib/pbxProject.js b/lib/pbxProject.js
index 48b6acd..43de7af 100644
--- a/lib/pbxProject.js
+++ b/lib/pbxProject.js
@@ -1491,7 +1491,7 @@ pbxProject.prototype.addTarget = function(name, type, subfolder) {
         var watch2Target = this.getTarget(producttypeForTargettype('watch2_app'));
         if (watch2Target) {
             this.addBuildPhase(
-                [targetName + '.appex'],
+                [targetName + ''],
                 'PBXCopyFilesBuildPhase',
                 'Embed App Extensions',
                 watch2Target.uuid,
```

In addition, I noticed that the existing WatchKit code is not covered by the existing test cases. I tried adapting the new test cases for the original WatchKit support in brodybits/cordova-node-xcode#1 (on my own fork). Would you like me to take a look at https://github.com/apache/cordova-node-xcode/issues/63 (coverage for `app_extension`) as it looks like you're already working on coverage for watch1 app/extension? Hi Bender, I would rather that you help with ""watch 1"" first, if it is ok
with you. I copied your test into a fork PR for the sake of discussion only.

I would also be grateful if you want to look at the app_extension coverage
in #63.

I will be taking some on-and-off break days over the next 1-2 weeks. I will
continue to monitor every 1-2 days.

Thanks again!

>
 Hi @brodybits - sorry for the delay on my part. I've taken a look at trying to add coverage for original WatchKit apps (AKA ""watch1"") but I have some doubt on being able to validate changes as compared to Xcode generated projects. I can't find a way to create an original WatchKit app/extension in Xcode (only WatchKit2), so I'm not able to confirm what is expected output in a pbxproj file.

I can add in coverage with how I believe it should work based on my [limited] knowledge of WatchKit2, but wanted to first see if you think that is worth the risk of adding coverage without certainty of desired outcome.

I'm happy to help either way--let me know. Thanks! I added better coverage for the mutants above--let me know if there's anything else I can take a look at. Thanks! Thanks. I checked that the mutants are now detected by the test suite.

I think that most but not all of the test cases you added would work on both the existing WatchKit functionality and WatchKit 2.

I would like to add test coverage of the existing WatchKit functionality, like I started in brodybits/cordova-node-xcode#1, to ensure it is not broken by these changes. I may need a few days to do this. I just updated https://chrisbrody.com/node-xcode-mutation-with-watchkit2-ability/index.html - unfortunately I do still see a few more mutants that we should try to kill. I would like to take care of testing the existing WatchKit functionality before dealing with the remaining WatchKit 2 mutants. This should be good to go:
* brought in latest from master
* moved watch2 tests to separate modules
* ensured coverage added in master was also added for watch2
* covered mutant above (https://github.com/apache/cordova-node-xcode/pull/56#pullrequestreview-303505602).

Attaching updated Stryker report: [bind-mutation-test-report.js.txt](https://github.com/apache/cordova-node-xcode/files/3746978/bind-mutation-test-report.js.txt)
 > I discovered one more surviving mutant in the proposed changes:
> ...
> I think this is the result of the mutant that I reported in #73. I think this mutant should be tested in a separate PR, to resolve #73, before we merge this one.

Please see https://github.com/apache/cordova-node-xcode/pull/76 to resolve #73.

> I also reported missing test coverage of related code in #74 and #75. I think #74 & #75 should be fixed but **not** block this PR.

I can take a look at these this week.

> I noticed you attached a txt report file. TBH I find the HTML report to be so much easier to understand.

I generated the Styker report as normal (`npm run stryker`), but the generated output from the run is in a javascript file, which gets referenced from the html file. Since the html file's contents doesn't change (just the reference to JS file), and since GH doesn't allow uploading JS files directly, I added `.txt` to the file and uploaded. I realize now that someone wanting to view these results would need to take a lot of steps--do you know of a better way to attach a report (short of hosting it somewhere).

Thanks!
 Seems like [the latest build](https://travis-ci.org/apache/cordova-node-xcode/builds/600524866?utm_source=github_status&utm_medium=notification) failed due to some sort of timeout--unsure how to resolve this. Thanks, I will check it out today. Yeah, something about the build seems
flakey. You may want to push an empty commit.
-- 
Sent from my mobile
 @brodybits @l3ender don't worry about submitting and empty commit or force push, I already re-triggered the build of the timeout job and it passed. All jobs are green now. Thanks @erisu, that was the right thing. I did not have access to my browser earlier today, that is why I wanted to give the author (@l3ender) a way to trigger a rebuild if needed. I would like to avoid having people start closing and reopening PRs just to trigger a rebuild due to the potential confusion.

@l3ender you can already see in PR #76 that it takes care of the remaining mutant. I will now approve & merge this PR, and then regenerate the report from Stryker."
37;apache/cordova-node-xcode;46;2019-03-08T23:48:07Z;2019-03-10T20:55:37Z;2019-03-10T20:55:37Z;fbartho/cordova-node-xcode;apache/cordova-node-xcode;fbartho;4;brodybits/fbartho/fbartho/brodybits;"> We've been noticing some thrash where a blank line gets deleted or re-added when adding new NativeModules to our react-native project.

Any pointers how I could reproduce this behavior on Cordova or React Native?

P.S. My Xcode shows the following version: Version 10.1 (10B61) > Any pointers how I could reproduce this behavior on Cordova or React Native?

Absolutely! In my project it was reproducible by editing the file name of any file or group using Xcode. That would force Xcode to rewrite the pbxproj, and that adds in the blank line! (So, modify a project using node-Xcode, and then cause Xcode to modify itself, and compare both versions; Or, take an Xcode generated project, and then force node-Xcode to rewrite it, even though you changed nothing) Changes to the release notes are removed! Travis CI build is now green, merging now. I think this change should be considered a MINOR change as opposed to a ""patch fix""."
45;apache/cordova-node-xcode;31;2018-12-11T21:03:14Z;2018-12-11T21:13:51Z;2018-12-11T21:13:50Z;brodybits/cordova-node-xcode;apache/cordova-node-xcode;brodybits;1;brodybits;All changes except for the quick test fix by @brodybits were already reviewed in PR #12. Merging now to help unblock the upcoming release.
46;apache/cordova-node-xcode;30;2018-12-09T22:02:37Z;2018-12-19T19:36:04Z;2018-12-19T19:36:04Z;n1ru4l/cordova-node-xcode;apache/cordova-node-xcode;n1ru4l;3;n1ru4l/brodybits/brodybits;"Tests will pass once https://github.com/apache/cordova-node-xcode/pull/29 is merged. Approved for next major release (#20) `uuid` was updated in PR #40; this PR is now limited to `simple-plist` update."
47;apache/cordova-node-xcode;29;2018-12-09T21:55:02Z;2018-12-19T19:28:24Z;2018-12-19T19:28:24Z;n1ru4l/cordova-node-xcode;apache/cordova-node-xcode;n1ru4l;2;brodybits/brodybits;"> #17

part of #20 I just made the title much more succinct. We would very likely do a ""squash merge"" which would use the title if there are more than a single commit."
48;apache/cordova-node-xcode;26;2018-12-07T17:13:18Z;2018-12-09T18:06:42Z;2018-12-09T18:06:42Z;apache/cordova-node-xcode;apache/cordova-node-xcode;brodybits;2;janpio/brodybits;"From an outdated suggestion comment by @brodybits:

> I actually unapplied this suggestion because it was _originally_ made by someone else ([alunny/node-xcode](https://github.com/alunny/node-xcode)).

That exactly why calling it `Cordova ...` is wrong imho.

> I would also like to have the top-level title as consistent with the package name as we can. I changed `tool` to `utility`, would like to keep something to make it clear that this project is not Xcode itself.

The package name on npm is `xcode`.  
The repository name is `cordova-node-xcode`.
What it actually is, is a tool to manipulate Xcode files in Node/JS.
It was created by someone, then donated to Apache Cordova.

I think the best choice here is to use the repository name as the title, cover the functionality and history via text and npm package via the npm badge.
 Updated (quick update, hope it is ok)"
50;apache/cordova-node-xcode;24;2018-12-07T11:55:27Z;2018-12-09T20:48:47Z;2018-12-09T20:48:47Z;n1ru4l/cordova-node-xcode;apache/cordova-node-xcode;n1ru4l;10;janpio/n1ru4l/n1ru4l/janpio/brodybits/n1ru4l/brodybits/n1ru4l/brodybits/n1ru4l;"Isn't this a bit broad, possibly also removing stuff that should not be removed but fail as the param really should be there or the value really should be set?

We will definitely need some tests around this to be confident enough that this is working as intended I would say :/ @janpio IMHO it does not make sense to set a value to null/undefined. And if the perpetrator intended to so he could simply set the value to `""null""` instead of `null` (or `""undefined""` instead of `undefined`.

However I can see your concern about breaking some stuff.

Maybe we could ship this with a option e.g. (`dropNullAndUndefined`: `boolean`)? @janpio I added some tests and fixed the implementation, also you will now have to pass `dropUndefinedOrNull` to `writeSync`, otherwise `undefined` and `null` values will be handled how they are atm Having tests is great - thanks for making the changes.  
I'll let someone with more JS experience review the actual code. I am not a super expert with Xcode projects, will review the best I can.

I would favor renaming the option to something more meaningful, such as ""dropFrameworksWithEmptyPath"".

Otherwise it looks good, thanks for contributing the test cases as well. @brodybits `dropFrameworksWithEmptyPath` would be misleading because it changes the writer to drop more than just paths a.k.a every value that is null or undefined. As I said I am not an Xcode expert so it would help if you could better explain the actual problem and proposed change in behavior.

I find ""NullOrUndefined"" to be a bit ugly for the exported API. Also ""dropUndefinedOrNull"" does not give me a clear idea of what it actually does. @brodybits  Maybe `dropUndefinedOrNullValues` would be better 😅.

The problem is explained here: https://github.com/apache/cordova-node-xcode/issues/23

My take on the solution is a broader approach, which not only works for the path ""property"".

In my opinion it makes sense to omit a key from ""writing"" that has `undefined` or `null` as a value instead of setting it to a stringified version of `undefined` or `null`. 

I do not think that anyone who is currently using this library intends to set any property value to `undefined` or `null`. Nevertheless if anyone wants to achieve it he could simply set the value to `String(undefined)""` or `String(null)` (which has currently the same effect, like a described in my earlier comment).

However because I like the idea of having no breaking changes in patch/feature versions, I introduced the functionality to omit properties whose value is `undefined` or `null` behind an option that has to be enabled first.

**Example:**

Input Object:
```
const group = {
  name: ""Frameworks"",
  path: undefined,
  someOtherKey: null,
  foo: String(undefined),
  bar: String(null)
}
```

Result without option disabled/current master:
```
8E63D5C4EFE34B3BAE93815F /* Frameworks */ = {
			name = Frameworks;
			path = undefined;
			someOtherKey = null;
			foo = undefined; 
			bar = null; 
		};
```

Result with option enabled:
```
8E63D5C4EFE34B3BAE93815F /* Frameworks */ = {
			name = Frameworks;
			foo = undefined; 
			bar = null;
		};
```

If you come up with a better name I will rename the option.

Here are some of my suggestions:

- `dropUndefinedOrNull`
- `dropUndefinedOrNullValues`
- `omitEmptyValues`
 I would probably favor `omitEmptyValues`. @brodybits Done."
55;apache/cordova-node-xcode;14;2018-12-04T08:53:32Z;2018-12-19T19:48:59Z;2018-12-19T19:48:59Z;rokobasilisk/cordova-node-xcode;apache/cordova-node-xcode;rokobasilisk;6;janpio/rokobasilisk/janpio/brodybits/rokobasilisk/brodybits;"Thanks for the PR!

> I was getting the above error when running link in the Ignite Bowser template.

Can you elaborate on that? Those names mean nothing to me. Yea sure, Ignite Bowser is a popular boilerplate template for React Native. It just helps you spin up a project with all the essential dependencies and boilerplate code for a proper (read not prototype) project. 

You can see they have an issue open here: https://github.com/infinitered/ignite-ir-boilerplate-bowser/issues/120 

I will link this PR in the issue. Ok thanks. Can you point me to where this library here is defined and used as a dependency in this boilerplate code? I am a bit confused by the stacktrace `at merge_obj (/Users/xxxx/node_modules/xcode/lib/parser/pbxproj.js:1883:25)`. Another thing is that the proposed change would require us to drop support for older Node.js versions, which would need to be done in a major release, as I proposed in #20. (There may still be some non-Cordova using this package on older Node.js versions, which we should not break according to `semver` etiquette.)

I am also looking forward to the answer to the latest question by @janpio.

P.S. I found a ""ponyfill"" at <https://github.com/sindresorhus/object-assign> in case it may help us with Node.js pre-4.0. Apologies for the delay in response. You are spot on, it isn't referenced directly in the boilerplate template. I actually went and looked through the dependencies and it looks like the library is a dependency of react-native and of appcenter-link-scripts in my specific project. 

There are quite a few of these `maximum call stack size exceeded` errors in the [react-native](https://github.com/facebook/react-native/issues?utf8=%E2%9C%93&q=maximum+call+stack+size+exceeded+xcode) repo. Some related to react-native link and one that seems related to this library: [Issue 12188](https://github.com/facebook/react-native/issues/12188). Honestly the information in that issue is all over the place and some of those solutions seem more like work arounds than anything else. 

I will probably have more time over the weekend to investigate what exactly was causing this error in my environment. At this point I can't be sure that the fix in this PR resolves the underlying issue, it just might be moving it further downstream. 

However it does help remove a good 12 lines of code ;) Whether that is worth the risk of dropping support for older version of Node is up for discussion. Travis CI passes if I merge this change in my own workarea: <https://travis-ci.org/brodybits/cordova-node-xcode/builds/470183332>, merging now."
