No;mainline_repo;pr_no;created_at;closed_at;merged_at;repo_origin_ml;repo_destin;pr_owner;no_commenters;pr_commenters;pr_comments
1;Automattic/i18n-calypso;79;2018-10-11T23:57:38Z;2018-10-12T13:08:02Z;2018-10-12T13:08:02Z;Automattic/i18n-calypso;Automattic/i18n-calypso;ramonjd;1;blowery;Added a note about PR #78 which opens up moment-timezone. Still GTG.
7;Automattic/i18n-calypso;72;2018-08-02T14:22:39Z;2018-10-12T16:42:17Z;2018-10-12T16:42:17Z;Automattic/i18n-calypso;Automattic/i18n-calypso;renovate[bot];10;ockham/ockham/renovate[bot]/ockham/ockham/tyxla/ockham/ockham/ockham/ockham;"Relevant: #19 https://github.com/messageformat/Jed/pull/33

/cc @tyxla  Looking into fixing this now ### PR has been edited

:construction_worker: This PR has received other commits, so Renovate will stop updating it to avoid conflicts or other problems. If you wish to abandon your changes and have Renovate start over then you can add the label `rebase` to this PR and Renovate will reset/recreate it. Don't merge yet, we still need to fix the generated translation (`.js`, `.json`) files. Probably some script in this repo. Translation generator script fix (WIP): D19319-code Noting that I've tested D19319-code and it looks good! This one also looks good, code-wise. Updated translation generator fix: D19382-code (retains current translation files for backwards compat with existing clients, adds `-v1.1` ones). This probably needs a major release, since it breaks compat of translation files. Let's ship 2.0.2 first tho I guess? (#79) Rebased"
10;Automattic/i18n-calypso;68;2018-07-20T01:20:36Z;2018-07-20T12:36:36Z;2018-07-20T12:36:36Z;Automattic/i18n-calypso;Automattic/i18n-calypso;blowery;2;blowery/blowery;"To test, from inside a calypso checkout:
```
npm link $this-project
npm run translate
```
It should complete successfully. 2.0.0 will not. Replaces #60 too"
11;Automattic/i18n-calypso;67;2018-07-17T16:36:47Z;2018-07-20T18:07:49Z;2018-07-20T18:07:49Z;Automattic/i18n-calypso;Automattic/i18n-calypso;blowery;2;blowery/blowery;"Testing... Yeah.

The existing unit tests sort of cover this, but there are no tests (that I can find) that explicitly cover the caching bit. I'll see if I can work something up. @sirreal added tests for hashed lookups. They pass on master as well as here."
14;Automattic/i18n-calypso;64;2018-07-16T15:24:27Z;2018-07-18T18:37:36Z;2018-07-18T18:37:36Z;Automattic/i18n-calypso;Automattic/i18n-calypso;ockham;5;sirreal/ockham/sirreal/blowery/ockham;Just note that we'll likely still be blocked on `<>` syntax due to an old sha in https://github.com/Automattic/gp-localci-client Let's maybe wait and see if Ben wants to include #65 in v2. 👍 on feedback from @blowery. My opinion would be to leave #65 for some next/alpha version and proceed with this v2 line. I think getting the current code out as v2 and then leaving the moment removal for v3 is a good idea. Okay, I'll merge and release then :+1: 
15;Automattic/i18n-calypso;63;2018-06-28T08:24:01Z;2018-06-29T06:56:36Z;2018-06-29T06:56:36Z;Automattic/i18n-calypso;Automattic/i18n-calypso;sirreal;1;alisterscott;"> Leverage npm cit shortcut that is essentially:
> 
> npm ci (install packages) && npm t (test)

Nice one, did not know about this"
19;Automattic/i18n-calypso;58;2018-06-07T20:12:40Z;2018-06-08T09:22:50Z;2018-06-08T09:22:50Z;Automattic/i18n-calypso;Automattic/i18n-calypso;ockham;2;Tug/sirreal;Very nice! LGTM 👍  Pushed package-lock by npm@6.1.0 to reduce diff
23;Automattic/i18n-calypso;54;2018-06-07T08:59:03Z;2018-06-18T04:49:20Z;2018-06-18T04:49:20Z;Automattic/i18n-calypso;Automattic/i18n-calypso;marekhrabe;2;frontdevde/Tug;"👋 @akirk and @Tug added you as reviewers as suggested by GitHub. Also added @ramonjd who reported the issue. We have this issue as a card on our board and it'd be cool if we could move this one along. Thanks in advance for taking a look! 💯  PR looks good to me!

I think we could also solve it by disabling caching for translates with args in general. It makes some sense to me as it could help in cases where we have a dynamic translate with frequent changes. In this case the LRU cache would fill up quickly and it would bust out all other useful translate results.
```
cacheable = ! options.components && ! options.args;
```

A try catch here is still a good addition, so 👍 for shipping it!"
24;Automattic/i18n-calypso;52;2018-03-12T13:57:13Z;2018-03-12T16:40:12Z;2018-03-12T16:40:12Z;Automattic/i18n-calypso;Automattic/i18n-calypso;zinigor;1;akirk;Sorry about that. I'll release the new version.
26;Automattic/i18n-calypso;49;2018-02-24T04:44:58Z;2018-03-01T14:40:33Z;2018-03-01T14:40:33Z;Automattic/i18n-calypso;Automattic/i18n-calypso;akirk;3;ramonjd/akirk/ramonjd;"For some items in the nav, the translations don't after a page refresh, only switching to German when the items rerender (triggered by clicking around).

![feb-26-2018 16-38-53](https://user-images.githubusercontent.com/6458278/36654894-964cac8a-1b13-11e8-8520-d694eb6e4d0d.gif)
 I see this behavior already in the current master, that piece of the sidebar is implemented in a slightly strange way. > I see this behavior already in the current master, that piece of the sidebar is implemented in a slightly strange way.

Cool. I should have mentioned that I was running sb. Might be laaaaaag. 👍 "
28;Automattic/i18n-calypso;47;2018-01-25T12:57:23Z;2018-01-26T11:52:21Z;2018-01-26T11:52:21Z;Automattic/i18n-calypso;Automattic/i18n-calypso;akirk;2;sirreal/sirreal;"Try running this:

```
$rm -fr node_modules && npm i && npm ls --depth=0

i18n-calypso@1.8.5 i18n-calypso
├── async@1.5.2
├── chai@3.5.0
├── commander@2.13.0
├── create-react-class@15.6.2
├── debug@2.2.0
├── enzyme@3.3.0
├── enzyme-adapter-react-14@1.0.5
├── enzyme-adapter-react-15.4@1.0.5
├── enzyme-adapter-react-16@1.1.1
├── enzyme-adapter-react-helper@1.2.3
├── globby@6.1.0
├── interpolate-components@1.1.1
├── jed@1.0.2
├── jstimezonedetect@1.0.5
├── lodash.assign@4.2.0
├── lodash.flatten@4.4.0
├── lru@3.1.0
├── mocha@2.5.3
├── moment-timezone@0.5.11
├── UNMET PEER DEPENDENCY react@16.2.0
├── UNMET PEER DEPENDENCY react-addons-test-utils@^0.14.0
├── UNMET PEER DEPENDENCY react-dom@16.2.0
├── react-test-env@0.1.1
├── react-test-renderer@16.2.0
├── rewire@2.5.2
└── xgettext-js@1.1.0

npm ERR! peer dep missing: react@^0.14.0, required by enzyme-adapter-react-14@1.0.5
npm ERR! peer dep missing: react@15.0.0-0 - 15.4.x, required by enzyme-adapter-react-15.4@1.0.5
npm ERR! peer dep missing: react-dom@^0.14.0, required by enzyme-adapter-react-14@1.0.5
npm ERR! peer dep missing: react-dom@15.0.0-0 - 15.4.x, required by enzyme-adapter-react-15.4@1.0.5
npm ERR! peer dep missing: react-addons-test-utils@^0.14.0, required by enzyme-adapter-react-14@1.0.5
npm ERR! peer dep missing: react-addons-test-utils@15.0.0-0 - 15.4.x, required by enzyme-adapter-react-15.4@1.0.5
npm ERR! peer dep missing: react@^0.14.0, required by enzyme-adapter-react-14@1.0.5
npm ERR! peer dep missing: react@15.0.0-0 - 15.4.x, required by enzyme-adapter-react-15.4@1.0.5
npm ERR! peer dep missing: react-dom@^0.14.0, required by enzyme-adapter-react-14@1.0.5
npm ERR! peer dep missing: react-dom@15.0.0-0 - 15.4.x, required by enzyme-adapter-react-15.4@1.0.5
```

There are some dependency problems… ❤️ those peer deps 😩  Simply removing the other adapter versions fixing the deps errors.

```patch
diff --git a/package.json b/package.json
index 103c685..c1c56b0 100644
--- a/package.json
+++ b/package.json
@@ -38,8 +38,6 @@
   ""devDependencies"": {
     ""chai"": ""^3.5.0"",
     ""enzyme"": ""^3.2.0"",
-    ""enzyme-adapter-react-14"": ""^1.0.5"",
-    ""enzyme-adapter-react-15.4"": ""^1.0.5"",
     ""enzyme-adapter-react-16"": ""^1.1.1"",
     ""enzyme-adapter-react-helper"": ""^1.2.3"",
     ""mocha"": ""^2.4.5"",
```"
29;Automattic/i18n-calypso;46;2018-01-25T10:55:54Z;2018-01-25T11:54:16Z;2018-01-25T11:54:16Z;atimmer/i18n-calypso;Automattic/i18n-calypso;atimmer;1;akirk;Tested and everything still works.
30;Automattic/i18n-calypso;45;2017-11-09T23:03:52Z;2017-11-21T16:13:04Z;2017-11-21T16:13:04Z;Automattic/i18n-calypso;Automattic/i18n-calypso;ockham;4;ockham/samouri/ockham/samouri;"Ready for review! @ockham: do we need to do anything other than ensure unit tests pass?
 I just (pre-)released this as `1.8.4-alpha.4` and updated https://github.com/Automattic/wp-calypso/pull/19658, so let's use that PR to test if it works fine with Calypso. i checked `update/i18n-calypso` in wp-calypso, cleared node_modules and reinstalled, and translations actually worked better than ever.

This branch makes clicking update settings work on the first try, whereas on `master` it takes a second refresh.

💯 🎉 ."
31;Automattic/i18n-calypso;44;2017-11-01T15:25:32Z;2017-11-01T17:51:18Z;2017-11-01T17:51:18Z;Automattic/i18n-calypso;Automattic/i18n-calypso;samouri;1;ockham;Builds fine 👍  One question tho :slightly_smiling_face: 
32;Automattic/i18n-calypso;43;2017-10-27T17:36:57Z;2017-10-31T18:30:38Z;2017-10-31T18:30:38Z;Automattic/i18n-calypso;Automattic/i18n-calypso;samouri;9;samouri/ockham/samouri/samouri/ockham/samouri/samouri/ockham/samouri;"This is getting an error on CircleCI that I don't get locally:
```
> i18n-calypso@1.8.2 test /home/ubuntu/i18n-calypso
> mocha --recursive

/home/ubuntu/i18n-calypso/lib/localize/index.js:19
		var component = class extends React.Component {
		                ^^^^^

SyntaxError: Block-scoped declarations (let, const, function, class) not yet supported outside strict mode
    at exports.runInThisContext (vm.js:53:16)
    at Module._compile (module.js:374:25)
    at Object.Module._extensions..js (module.js:417:10)
    at Module.load (module.js:344:32)
    at Function.Module._load (module.js:301:12)
```

Would updating Node versions fix this error? Can't we just rewrite to `class component extends React.Component { ... }`? @ockham: I did but didn't seem to fix the error. I'll look into updating circleci created a tiny `circle.yml` file that specifies a more recent node version > 1. release a `v2.0.0` with the mixin removed

Before doing so, we should bump `interpolate-components`' [React dependency](https://github.com/Automattic/interpolate-components/blob/ad0b008d7fe5f68d038b22671ba226bef618f4fd/package.json#L36-L38) (and ideally rid it from `react-addons-create-fragment`, and release a new version of i-c for i18n-calypso to use... @ockham: i updated the changelog.  i don't think we need to prerelease test for this because Calypso has i18n-calypso [pinned](https://github.com/Automattic/wp-calypso/blob/master/package.json#L86). @Tug: do you have npm access to do the release? >  i don't think we need to prerelease test for this because Calypso has i18n-calypso [pinned](https://github.com/Automattic/wp-calypso/blob/master/package.json#L86).

Hmm, the idea is more to make sure the changes work like they should with Calypso (rather than releasing a potentially broken npm)... @ockham: 

For that we can test by running: `npm install Automattic/i18n-calypso#upgrade/es6class` within `wp-calypso`.  I'll do that now and if translations look good i'll merge"
33;Automattic/i18n-calypso;42;2017-10-25T11:26:56Z;2017-10-25T16:31:46Z;2017-10-25T16:31:46Z;Automattic/i18n-calypso;Automattic/i18n-calypso;ockham;6;akirk/ockham/ockham/ockham/akirk/ockham;"I researched some and this was introduced in the inital commit of the repo. The only package I can see that is dependent on it is [enzyme](https://www.npmjs.com/package/enzyme) which is also just a devDependency. I don't know if this sub-depencency prevents us from removing this, though. Hmm, you're right :-/

```
rm -r node_modules/
npm install
npm run test
```

gives

```
react-addons-test-utils is an implicit dependency in order to support react@0.13-14. Please add the appropriate version to your devDependencies. See https://github.com/airbnb/enzyme#installation
``` Makes me wonder if we can make it work if we force `i18n-calypso` to use React >=15. Okay, so I tentatively updated `enzyme` to `2.9.1` (which is the latest 2.x version). That gave me

```
Error: react-dom@15.5+ and react-test-renderer are implicit dependencies when using react@15.5+ with enzyme. Please add the appropriate version to your devDependencies. See https://github.com/airbnb/enzyme#installation
```

3189d1f fixes that. Think that's legit? I'm pretty sure as the tests still pass (and enzyme is only used for them). Cool, I'll merge this then!"
34;Automattic/i18n-calypso;41;2017-10-20T15:09:11Z;2017-10-20T15:21:48Z;2017-10-20T15:21:47Z;Automattic/i18n-calypso;Automattic/i18n-calypso;akirk;1;Tug;LGTM, thanks for the fix @akirk !
37;Automattic/i18n-calypso;37;2017-05-11T09:59:55Z;2017-05-11T10:38:04Z;2017-05-11T10:38:04Z;Automattic/i18n-calypso;Automattic/i18n-calypso;yoavf;1;Tug;LGTM 👍 
38;Automattic/i18n-calypso;36;2017-04-03T10:13:39Z;2017-04-19T12:31:18Z;2017-04-19T12:31:18Z;Automattic/i18n-calypso;Automattic/i18n-calypso;DanReyLop;3;Tug/Tug/Tug;"Thanks for your effort, this looks like a good improvement 👍 
I just ran `make translate` in `wp-calypso` using your changes and the current version. I compared the results and there seem to be a slight change in the file path:

Currently:
```
#: client/state/ui/editor/contact-form/reducer.js:52
```

With this fix:
```
#: wp-calypso/client/state/ui/editor/contact-form/reducer.js:52
```

I haven't looked at the code yet but it sounds like an easy fix.
Other than that I haven't noticed any regression Nevermind, this is due to `npm link` messing up with the path. LGTM 👍 "
40;Automattic/i18n-calypso;34;2017-03-27T15:56:30Z;2017-09-22T20:39:47Z;2017-09-22T20:39:47Z;ryerh/i18n-calypso;Automattic/i18n-calypso;ryerh;1;Tug;"Nice fix, Thanks @ryerh!
I tested it on a few inputs and it seems to produce the desired behavior 👍.
Option 2 also seems to be `xgettext` behavior."
41;Automattic/i18n-calypso;33;2017-03-25T15:53:31Z;2017-03-25T20:35:50Z;2017-03-25T20:35:50Z;ryerh/i18n-calypso;Automattic/i18n-calypso;ryerh;1;Tug;"LGTM 👍 
"
42;Automattic/i18n-calypso;32;2017-03-25T03:44:03Z;2017-03-25T20:41:12Z;2017-03-25T20:41:12Z;ryerh/i18n-calypso;Automattic/i18n-calypso;ryerh;1;Tug;LGTM 👍 thx
43;Automattic/i18n-calypso;31;2017-03-24T09:51:03Z;2017-03-24T11:44:34Z;2017-03-24T11:44:34Z;Automattic/i18n-calypso;Automattic/i18n-calypso;stephanethomas;1;Tug;"Test pass as expected, we don't test anything related to moment-timezone though so I added a short test for that to check that there is no regression.
👍  Thanks for working on this @stephanethomas "
44;Automattic/i18n-calypso;30;2017-03-23T13:36:14Z;2017-03-23T13:44:26Z;2017-03-23T13:44:26Z;Automattic/i18n-calypso;Automattic/i18n-calypso;yoavf;2;Tug/yoavf;"LGTM 👍 
Do you want me to publish `1.7.1` to npm or you do it (I just gave you access)? > Do you want me to publish 1.7.1 to npm or you do it (I just gave you access)?

@tug - I'll appreciate it if you do that  :) "
45;Automattic/i18n-calypso;29;2017-03-22T08:19:38Z;2017-03-23T13:19:51Z;2017-03-23T13:19:51Z;edo-ran/i18n-calypso;Automattic/i18n-calypso;edo-ran;2;edo-ran/aduth;cc @yoavf  Should be fine.
46;Automattic/i18n-calypso;26;2017-01-08T11:45:17Z;2018-07-23T13:38:40Z;2018-07-23T13:38:40Z;Automattic/i18n-calypso;Automattic/i18n-calypso;yoavf;4;Tug/yoavf/blowery/yoavf;"That's cool, what's the use case? localci-client uses that to only get the strings added in changed/added lines in a diff:
https://github.com/Automattic/gp-localci-client/blob/master/generate-new-strings-pot.sh#L116

(We're running this branch in production for the a8ci18n bot) @yoavf do you still want to land this? Yes, I do."
47;Automattic/i18n-calypso;25;2016-12-31T01:32:44Z;2017-01-05T02:37:32Z;2017-01-05T02:37:32Z;Automattic/i18n-calypso;Automattic/i18n-calypso;umurkontaci;3;Tug/umurkontaci/Tug;"I'm not convinced it's a good pattern to unit test methods or our components individually but I guess there are cases where it's necessary.

@umurkontaci: Could you show me a real life exemple in calypso (or something else) before I just go and 👍 this? Component methods are public methods, it's not advised to use call methods on components though. Exposing them allows us to isolate and test the business logic.

Here's an example: https://github.com/Automattic/wp-calypso/blob/master/client/my-sites/upgrades/components/domain-warnings/test/index.js#L213-L235

 👍 "
48;Automattic/i18n-calypso;24;2016-11-07T22:58:01Z;2016-11-08T22:45:29Z;2016-11-08T22:45:29Z;Automattic/i18n-calypso;Automattic/i18n-calypso;deBhal;1;yoavf;"👍 
"
50;Automattic/i18n-calypso;18;2016-09-13T12:15:53Z;2016-09-13T13:33:15Z;2016-09-13T13:33:15Z;Automattic/i18n-calypso;Automattic/i18n-calypso;yurynix;1;Tug;"Looks good to me 👍 
"
52;Automattic/i18n-calypso;15;2016-08-15T00:26:46Z;2017-09-22T20:14:55Z;2017-09-22T20:14:55Z;Automattic/i18n-calypso;Automattic/i18n-calypso;deBhal;1;Tug;"LGTM. I'm not sure why those are called template literals though, they don't look like templates to me.
Edit: right, I forgot to look at the input js file."
54;Automattic/i18n-calypso;13;2016-07-29T09:43:18Z;2016-08-05T11:42:27Z;2016-08-05T11:42:26Z;Automattic/i18n-calypso;Automattic/i18n-calypso;akirk;5;akirk/akirk/deBhal/akirk/deBhal;"@deBhal could you help review this and get it ready to merge? Test from Calypso via `npm link i18n-calypso` from within https://github.com/Automattic/wp-calypso/pull/7152. Thanks!
 Maybe long term the file generation code should be moved to `xgettext-js`, see https://github.com/Automattic/xgettext-js/issues/4.
 It looks like we're not picking up backticks.  `./bin/index.js <( curl https://raw.githubusercontent.com/Automattic/wp-calypso/master/client/my-sites/site-settings/section-export.jsx )` is missing the string from `i18n.translate( `Visit your site's wp-admin for all your import and export needs.` )`
 @deBhal thanks for catching this. I'ts now fixed, could you take another look? Thanks!
 Backticks are working nicely now, nice!

Apart from the newline replace, this looks good.  I'd suggest pull that out and :shipit: and pop it into a new PR with the matching `translate()` change if you want to add that functionality.

We'll also need to bump the version to pick up this and #10 after they both land.
"
55;Automattic/i18n-calypso;12;2016-07-28T11:34:43Z;2016-07-28T14:43:15Z;2016-07-28T14:43:15Z;Automattic/i18n-calypso;Automattic/i18n-calypso;akirk;2;akirk/Tug;"@Tug nice, thanks!
 Thanks a lot for your contribution @akirk. I did a bit of refactoring in the pot formatter, didn't change the behavior and confirmed it was still working properly.
I think this is ready to land :)
"
56;Automattic/i18n-calypso;11;2016-07-28T10:01:06Z;2016-07-28T11:42:16Z;2016-07-28T11:42:16Z;Automattic/i18n-calypso;Automattic/i18n-calypso;akirk;1;Tug;"LGTM 👍 
"
59;Automattic/i18n-calypso;7;2016-06-26T16:54:03Z;2016-07-07T14:36:00Z;2016-07-07T14:36:00Z;Automattic/i18n-calypso;Automattic/i18n-calypso;zinigor;2;Tug/zinigor;"LGTM, I added a minor comment for this, feel free to fix it... or not ;)
 Thanks for the review, I have fixed the problem.
"
61;Automattic/i18n-calypso;5;2016-06-17T11:51:14Z;2016-06-17T13:51:38Z;2016-06-17T13:51:38Z;Automattic/i18n-calypso;Automattic/i18n-calypso;ockham;1;Tug;"LGTM! Thanks for your contribution \o/
"
62;Automattic/i18n-calypso;4;2016-06-17T11:47:48Z;2016-06-17T13:50:25Z;2016-06-17T13:50:25Z;Automattic/i18n-calypso;Automattic/i18n-calypso;ockham;1;Tug;"LGTM 👍 
"
63;Automattic/i18n-calypso;3;2016-06-13T17:32:25Z;2016-06-14T18:02:14Z;2016-06-14T18:02:14Z;Automattic/i18n-calypso;Automattic/i18n-calypso;ockham;5;blowery/blowery/blowery/ockham/Tug;"~~needs `make shrinkwrap` run too i think~~

wrong repo. :D
 looks good, ship away!
 I take that back. We should bump the react dep here to 15 too
 > I take that back. We should bump the react dep here to 15 too

a03b2b5
 LGTM 👍 
Creating version `1.2.0` for this change!
"
