No;mainline_repo;pr_no;created_at;closed_at;merged_at;repo_origin_ml;repo_destin;pr_owner;no_commenters;pr_commenters;pr_comments
25;benhurott/react-native-masked-text;108;2018-11-05T17:25:42Z;2019-01-06T23:23:27Z;2019-01-06T23:23:27Z;;benhurott/react-native-masked-text;mbezhanov;2;putuyoga/benhurott;any chance this PR can be merged? @benhurott  @putuyoga yes! I was on vacations, I will update in the next days =).
42;benhurott/react-native-masked-text;22;2017-05-13T15:58:56Z;2017-05-15T22:04:29Z;2017-05-15T22:04:29Z;helloncanella/react-native-masked-text;benhurott/react-native-masked-text;helloncanella;1;benhurott;"Hi!

Nice! Thank you!

I will run some tests here and i will merge this.
=)"
