No;mainline_repo;pr_no;created_at;closed_at;merged_at;repo_origin_ml;repo_destin;pr_owner;no_commenters;pr_commenters;pr_comments
7;blakeembrey/tslint-config-standard;50;2018-07-27T03:44:13Z;2018-07-29T03:58:21Z;2018-07-29T03:58:20Z;jrobeson/tslint-config-standard;blakeembrey/tslint-config-standard;jrobeson;2;jrobeson/jrobeson;oops, guess that's not right, let me try again. Oh i see that master was already failing here https://travis-ci.org/blakeembrey/tslint-config-standard/builds
10;blakeembrey/tslint-config-standard;38;2017-10-04T16:04:50Z;2017-10-17T20:06:01Z;2017-10-17T20:06:01Z;aigoncharov/tslint-config-standard;blakeembrey/tslint-config-standard;aigoncharov;2;blakeembrey/aigoncharov;If you'd like to regenerate the rule output file so the tests work, I'll be able to merge this. It's `npm run test:gen` and defined in the `package.json` file (https://github.com/blakeembrey/tslint-config-standard/blob/176759480db53a966a57d379d556a5b0babc566f/package.json#L13). @blakeembrey, done!
12;blakeembrey/tslint-config-standard;32;2017-06-19T18:51:27Z;2017-06-23T14:47:10Z;2017-06-23T14:47:10Z;blakeembrey/tslint-config-standard;blakeembrey/tslint-config-standard;greenkeeper[bot];1;greenkeeper[bot];"## Version **8.0.1** just got published. 
[Update to this version instead 🚀](https://github.com/blakeembrey/tslint-config-standard/compare/greenkeeper%2F%40types%2Fnode-8.0.1?expand=1) 
"
13;blakeembrey/tslint-config-standard;30;2017-06-13T05:02:23Z;2017-06-13T13:27:55Z;2017-06-13T13:27:55Z;Jessidhia/tslint-config-standard;blakeembrey/tslint-config-standard;Jessidhia;1;blakeembrey;Thanks for the catch! 👍 
15;blakeembrey/tslint-config-standard;22;2017-04-03T22:15:00Z;2017-04-05T14:26:28Z;2017-04-05T14:26:28Z;blakeembrey/tslint-config-standard;blakeembrey/tslint-config-standard;blakeembrey;3;blakeembrey/jmlopez-rod/blakeembrey;Waiting for https://github.com/buzinas/tslint-eslint-rules/pull/208. Try updating to the 4.0.0. I just released it. Thanks @jmlopez-rod, updating now! 😄 
16;blakeembrey/tslint-config-standard;21;2017-04-03T19:27:34Z;2017-04-03T19:52:45Z;2017-04-03T19:52:45Z;evollu/tslint-config-standard;blakeembrey/tslint-config-standard;evollu;1;blakeembrey;Thanks @evollu!
17;blakeembrey/tslint-config-standard;14;2016-11-21T15:55:37Z;2016-11-21T19:25:47Z;2016-11-21T19:25:47Z;;blakeembrey/tslint-config-standard;drtyh2o;7;drtyh2o/drtyh2o/blakeembrey/drtyh2o/jmlopez-rod/drtyh2o/unional;This PR contains all of the necessary package update, rule changes, and testcase updates. I am not sure why the Travis CI check is failing. It is passing when I run the tests locally.  Probably waiting on https://github.com/buzinas/tslint-eslint-rules/pull/138. @blakeembrey Let me know if you need me to do anything else with this PR. [v3.0.0](https://www.npmjs.com/package/tslint-eslint-rules) has been released on npm. Let me know if you guys encounter any issues. @blakeembrey PR #14 has been updated to include [tslint-eslint-rules@3.0.0](https://www.npmjs.com/package/tslint-eslint-rules) @mdurling you beat me to it. 🌷 
23;blakeembrey/tslint-config-standard;6;2016-09-30T16:48:17Z;2016-09-30T17:37:22Z;2016-09-30T17:37:22Z;ty10r/tslint-config-standard;blakeembrey/tslint-config-standard;ty10r;1;blakeembrey;"Thanks. Seems this rule has existed for a while, and I think there's been a few more patches recently. I'll need to review 😄 
"
25;blakeembrey/tslint-config-standard;4;2016-09-26T01:02:49Z;2016-09-26T16:44:06Z;2016-09-26T16:44:06Z;oojacoboo/tslint-config-standard;blakeembrey/tslint-config-standard;oojacoboo;1;blakeembrey;"Looks like I based this on an earlier typo.

![image](https://cloud.githubusercontent.com/assets/1088987/18843409/a9f84ae8-83cd-11e6-93ce-efbd9d6cc41e.png)
"
27;blakeembrey/tslint-config-standard;1;2016-05-21T17:39:25Z;2016-05-21T17:49:46Z;2016-05-21T17:49:46Z;;blakeembrey/tslint-config-standard;schickling;1;blakeembrey;"Ah, thanks 👍 Forgot I was using another name initially 😄 
"
