No;mainline_repo;pr_no;created_at;closed_at;merged_at;repo_origin_ml;repo_destin;pr_owner;no_commenters;pr_commenters;pr_comments
2;brunch/react-brunch;11;2015-04-03T21:10:53Z;2015-04-03T23:22:52Z;2015-04-03T23:22:51Z;banyan/react-coffee-brunch;brunch/react-brunch;banyan;1;mattmccray;"It's unfortunate that `babel-core` has be to be installed whether it's being used or not... Which is a rather obnoxious 12M worth of space.

But I'll merge it anyway, cause I really prefer babel over react-tools for the extra ES6 features. :smile: 

Thanks for the PR.
"
4;brunch/react-brunch;7;2015-03-12T18:41:58Z;2015-03-12T18:44:20Z;2015-03-12T18:44:20Z;;brunch/react-brunch;SBRK;1;mattmccray;"Thanks. A good stopgap until react-tools can be updated for React 0.13
"
