No;mainline_repo;pr_no;created_at;closed_at;merged_at;repo_origin_ml;repo_destin;pr_owner;no_commenters;pr_commenters;pr_comments
5;dial-once/node-cache-manager-redis;72;2017-07-13T07:43:05Z;2017-07-26T15:50:35Z;2017-07-26T15:50:35Z;jeff-kilbride/node-cache-manager-redis;dial-once/node-cache-manager-redis;jeff-kilbride;6;ky23/jeff-kilbride/mrister/jeff-kilbride/jeff-kilbride/mrister;"@jeff-kilbride Thanks Jeff for your awesome work, we are really glad that you did those changes. We will do a proper code review and merge this asap!.

We hope you're doing well too. It's late here, so I'm calling it a night. Can you guys please put together a simple list of whatever changes you want me to make and I'll take a look at it tomorrow, my time. Thanks! @jeff-kilbride thanks, I think it's all that was commented, so just a few nips :-) Latest changes:
- Use Array.isArray()
- Add options to `keys()` method for `scanCount`
- Add tests for new options
- Add `beforeEach` to tests to reset cache each time
- Update README

Let me know if I missed anything. One more tweak to use the `handleResponse` method and make sure pool connections are released if an error occurs during the SCAN iterations. @jeff-kilbride awesome work, We can merge this."
6;dial-once/node-cache-manager-redis;69;2016-12-24T08:03:40Z;2016-12-29T10:19:10Z;2016-12-29T10:19:10Z;;dial-once/node-cache-manager-redis;lukechilds;1;mrister;additionally for review @Spring3 @jkernech 
7;dial-once/node-cache-manager-redis;67;2016-12-22T21:00:36Z;2016-12-23T15:22:57Z;2016-12-23T15:22:57Z;sjlu/node-cache-manager-redis;dial-once/node-cache-manager-redis;sjlu;2;jkernech/sjlu;Thanks for the contribution @sjlu ! I also updated the test that was failing in CircleCI - funny enough the previous test was passing for the wrong reasons.
14;dial-once/node-cache-manager-redis;55;2016-11-07T21:31:36Z;2016-11-15T09:00:46Z;2016-11-15T09:00:46Z;jeff-kilbride/node-cache-manager-redis;dial-once/node-cache-manager-redis;jeff-kilbride;3;PuKoren/jeff-kilbride/jeff-kilbride;"Can you rebase your branch with latest from develop? To ensure it still builds with latest changes
 Merged latest `develop`. Should be good.
 Updated to `0.3.1`.
"
15;dial-once/node-cache-manager-redis;51;2016-09-21T09:26:39Z;2016-11-07T11:10:27Z;2016-11-07T11:10:27Z;dial-once/node-cache-manager-redis;dial-once/node-cache-manager-redis;PuKoren;2;holm/PuKoren;"Any chance to get this merged?
 @holm yeah let's go 😄 

Released in 0.2.5
"
17;dial-once/node-cache-manager-redis;48;2016-09-07T23:11:59Z;2016-09-08T08:45:37Z;2016-09-08T08:45:37Z;jeff-kilbride/node-cache-manager-redis;dial-once/node-cache-manager-redis;jeff-kilbride;3;PuKoren/mrister/jkernech;"I didn't know about the `JSON.parse('""undefined""')` thing :octocat: 

LGTM
 Me neither,  LGTM
 Indeed, good to know ! Thanks @jeff-kilbride 

LGTM
"
18;dial-once/node-cache-manager-redis;46;2016-09-05T22:17:51Z;2016-09-06T09:39:42Z;2016-09-06T09:39:42Z;dial-once/node-cache-manager-redis;dial-once/node-cache-manager-redis;PuKoren;6;mrister/PuKoren/mrister/mrister/PuKoren/jkernech;"LGTM! let's kick that jasmine out!
 I wonder how jasmine specs can run without this piece of code: https://github.com/dial-once/node-cache-manager-redis/pull/46/files#diff-168726dbe96b3ce427e7fedce31bb0bcR191. Test concerned is `set > should not store an invalid value`

I'm realy curious about it
 @PuKoren I have no clue and it's far to late to be thinking straight :-)
 @PuKoren maybe because of jasmine's .notToBe https://github.com/adobe/brackets/issues/5479
 @mrister good catch
 LGTM
"
19;dial-once/node-cache-manager-redis;45;2016-09-05T20:56:58Z;2016-09-06T09:47:15Z;2016-09-06T09:47:15Z;dial-once/node-cache-manager-redis;dial-once/node-cache-manager-redis;PuKoren;20;mrister/PuKoren/mrister/PuKoren/mrister/PuKoren/mrister/PuKoren/mrister/PuKoren/mrister/PuKoren/mrister/PuKoren/PuKoren/mrister/mrister/PuKoren/mrister/jkernech;"this seems to be failing tests on circle ci
 Yes, because npm takes non-0 exit codes as errors and reports them. I'm currently trying to understand what the hell:

``` sh
npm run coverage #fails
node_modules/.bin/istanbul cover node_modules/.bin/jasmine #suceed (npm run coverage command)
npm run coverage --silent #suceed
```

I have the same error locally. Related to https://github.com/npm/npm/issues/6124
 Hm coverage worked for me before, or at least I thought it was working because it was showing results and not sure if it can do that if tests are not running.
 Yes it was working on Circle too. Still trying to dig into the issue.

**Update**: when I remove my change it works. I guess one test is failing but reports after the end of the execution, or something like that
 I'm looking at it also
 Updated it, on redis undefined string is better stored as `""undefined""` than `""""`. I don't know why it failed and no error message was printed, but updated commit seems to have it working.
 @PuKoren I'm not sure this still helps the test pass. I think `Warning: Redis server does not require a password, but a password was supplied.` is blocking it.
 @mrister not sure, this warn is also present on develop and now CircleCI seems to be happy, tests fails on your comp?
 I don't think they get runt at all. It say is is over in 0.078 secs which is far to fast.
 @mrister indeed, switched develop to mocha to try it and some tests are failing
 hm I did a console.log (on your pr) on the last test and it prints it out so it may run them after all. What errors did you get ?
 @mrister I get this:

``` sh
 1) set should not store an invalid value:

      AssertionError: null != null
      + expected - actual


      at test/lib/redis-store-spec.js:110:16
      at Command.callback (index.js:9:3673)
      at normal_reply (node_modules/redis/index.js:714:21)
      at RedisClient.return_reply (node_modules/redis/index.js:816:9)
      at JavascriptRedisParser.Parser.returnReply (node_modules/redis/index.js:188:18)
      at JavascriptRedisParser.execute (node_modules/redis-parser/lib/parser.js:415:12)
      at Socket.<anonymous> (node_modules/redis/index.js:267:27)
      at readableAddChunk (_stream_readable.js:172:18)
      at Socket.Readable.push (_stream_readable.js:130:10)
      at TCP.onread (net.js:542:20)
```

You can reproduce on refactor/use-mocha branch: https://github.com/dial-once/node-cache-manager-redis/tree/refactor/use-mocha
 @PuKoren  maybe an adjustment in test code is needed
 @mrister I don't know about this one, it is supposed to return an error with message: `value cannot be undefined` but I don't even find that string in the `index.js`

I don't know how this can pass on jasmine
 @mrister added piece of code to implement specs on #46 
 @PuKoren looks like the execution time is the same 79ms so it seems jasmine was running them
 @PuKoren Wanna close this in favour of moving to mocha?
 @mrister both PR are not related as this fixes a warning on redis 3.x (storing undefined value)
but our discussion here was more related to mocha/jasmine so it is confusing
 Ah right.. Then LGTM!
 LGTM
"
20;dial-once/node-cache-manager-redis;44;2016-09-05T20:15:08Z;2016-11-10T09:40:39Z;2016-11-10T09:40:39Z;jeff-kilbride/node-cache-manager-redis;dial-once/node-cache-manager-redis;jeff-kilbride;25;jeff-kilbride/PuKoren/jeff-kilbride/mrister/jeff-kilbride/PuKoren/jeff-kilbride/PuKoren/mrister/mrister/jeff-kilbride/mrister/jeff-kilbride/mrister/PuKoren/mrister/jeff-kilbride/PuKoren/jkernech/mrister/jeff-kilbride/PuKoren/mrister/jeff-kilbride/jeff-kilbride;"I'm a little confused by the `codacy/pr` checks. It's complaining about things like `strings must be in double-quotes`. Are you moving in that direction? Should I change my code to pass the `codacy` checks?
 @jeff-kilbride don't worry about codacy, it even have different policies that ours (and it is yelling because of issues you didn't even added). We will remove it in near future in favor of sonar
 I have merged the latest changes and added a few fixes. I still need to add gzip specific tests and something for the Readme. However, if you set `gzip: true` in the options for the current tests in this branch, all tests are now passing. 

I will try to get this done in the next few days, but I have some other pressing things I need to work on.
 @jeff-kilbride Thank you very much for your contributions, anytime is good as long as you can find it to finish this feature.
 Sorry for the delay! I have added gzip specific tests and updated the Readme file. 

I wrapped all the existing tests in a new `describe` statement and put the gzip tests in their own `describe` to keep them separate. So, the `redis-store-spec.js` file shows a lot of changes, but they are nearly all whitespace. I copied all the existing `get/set` tests into `redis-store-zlib-spec.js` and added a few new ones. Two of my new tests grab the string length of the compressed values and print out the compression percentage to the console. I thought this output was interesting, but it can easily be removed if you prefer not to have it.

Also, while editing the Readme file, I noticed a possible error. In your examples, you are passing a `ttl` option:

``` js
var ttl = 5;

redisCache.set('foo', 'bar', ttl, function(err) {
...
```

The `ttl` being passed is a `Number`, but the `set` method is expecting an `Object`. I believe this should be:

``` js
var ttl = { ttl: 5 };

redisCache.set('foo', 'bar', ttl, function(err) {
...
```

or

``` js
var ttl = 5;

redisCache.set('foo', 'bar', { ttl: ttl }, function(err) {
...
```

If this is correct, I can make these changes to the Readme and push another commit. Let me know.
 Thanks for your contribution @jeff-kilbride !

About the error in the readme, you can do it on a separate PR if you want to, this one will be focused on your gzip feature

Thanks for the refactoring of tests and for the feature! We will review it asap to plan a publication
 This latest commit refactors the duplicate code in the `set` method, as discussed above.
 Anyone have some time to refactor compression options [as discussed here](https://github.com/dial-once/node-cache-manager-redis/pull/44#pullrequestreview-1109890)?

If not, then it LGTM for next feature release
 @PuKoren As I suggested the refactor, maybe I should do it :-) I will. Just hope there is no big hurry on this.
 compression pipelining.. interesting :)
 I will continue to help whenever I can. Maybe it would be a good idea to start a new issue for the refactor.

@mrister  I would enjoy hearing your ideas on how this should be implemented.
 @jeff-kilbride Yes perhaps another issue. Well, my initial Idea was to have a list of codecs (compressors and decomposers) in which you can optionally add or remove a codec as a dependency. The gzip one will serve as a reference implementation of that. (So a separate module that will get loaded when needed by this libs user)
After that community can create other that we can ship with this module or just have their own. The list would allow for pipelining if so required.
 @mrister For pipelining, you mean being able to call multiple compression algorithms for the same value?
 @jeff-kilbride Yes basically the output of one would be input for the other algorithm. I am not sure if this is a real feature request or @PuKoren just joking :-) Either way it can be done.
 @mrister was not joking but maybe it is a bit early, because:
- it may be totally useless (CPU cost/speed/compression ratio ridiculous)
- it can be added later quite easily without breaking change (convert compression property to an array)

I think that if you have some time to do the generic compression stuff, you should not worry about pipelining as it may take too long for what it's worth
 OK then, still I think We need to do this before the release (Separate PR and issue) to not introduce breaking changes.
 Hi All,

I have merged the latest changes to `develop` into this branch and updated some of my tests to get them working again.

Is there any update to the progress on adding additional compression implementations? It should be fairly easy to refactor this branch to avoid breaking changes in the future. The `args.gzip` variable could be renamed to `args.compression` (or something similar, if you have another idea). It could still accept either a `boolean` or `object`. A value of `true` could default to the `gzip` implementation. An `object` could have a `type` property with the name of the compression implementation -- `gzip` or any future additions -- as well as implementation specific parameters to be passed to the underlying compression layer (the same way `gzip` parameters are currently being passed).

These changes would be cosmetic, for now, because `gzip` would remain the only compression algorithm currently supported. However, it would then be possible to add additional compression implementations without breaking the interface in future releases. It would require a bigger rewrite to handle pluggable compression modules, but that could be handled by anyone desiring to use something other than `gzip`.

If this sounds like the correct approach, I can make these cosmetic changes and commit them in this PR.
 I am for the cosmetic change

What about you guys @dial-once/developers ?
 I'm for it too 👍 
 yup go for it @jeff-kilbride 👍 
 I have changed the `opts.gzip` parameter to `opts.compress` with the following default values:

``` js
{
  type: 'gzip',
  params: {
    level: zlib.Z_BEST_SPEED
  }
}
```

The idea is that, in the future as pluggable modules are added, the `type` property will be the name of the module / implementation and the (optional) `params` property will contain any module specific values to be passed to the underlying compression algorithm. Obviously, right now, the `type` property is ignored, since only `gzip` is supported. However, the code can now be refactored to support pluggable modules without having to change the interface.

Let me know what you guys think.
 Great work @jeff-kilbride, its very good to have implemented it with options/type. We can do anything in the future with this implementation 👍 
 All good @jeff-kilbride nice work! minor code style changes.
 @mrister  Requested code style changes fixed.
 @mrister  Done.
"
21;dial-once/node-cache-manager-redis;43;2016-09-05T10:15:17Z;2016-09-05T16:08:01Z;2016-09-05T16:08:01Z;dial-once/node-cache-manager-redis;dial-once/node-cache-manager-redis;mrister;2;PuKoren/jkernech;"LGTM 👍 
 LGTM
"
22;dial-once/node-cache-manager-redis;42;2016-09-05T09:06:58Z;2016-09-05T09:11:56Z;2016-09-05T09:11:56Z;dial-once/node-cache-manager-redis;dial-once/node-cache-manager-redis;mrister;2;PuKoren/jkernech;"👍 
 LGTM
"
25;dial-once/node-cache-manager-redis;34;2016-08-03T03:41:34Z;2016-08-03T07:54:13Z;2016-08-03T07:54:13Z;angelxmoreno/node-cache-manager-redis;dial-once/node-cache-manager-redis;angelxmoreno;3;PuKoren/mrister/jkernech;"LGTM
 LGTM
 LGTM
"
26;dial-once/node-cache-manager-redis;33;2016-07-30T14:49:59Z;2016-08-01T12:31:26Z;2016-08-01T12:31:26Z;dial-once/node-cache-manager-redis;dial-once/node-cache-manager-redis;mrister;3;PuKoren/jkernech/mrister;"LGTM
 Aside from Codacy comment regarding the cyclomatic complexity, LGTM
 @PuKoren @jkernech Refactored to reduce cyclomatic complexity.
"
28;dial-once/node-cache-manager-redis;29;2016-07-22T10:44:33Z;2016-07-27T08:23:55Z;2016-07-27T08:23:55Z;dial-once/node-cache-manager-redis;dial-once/node-cache-manager-redis;mrister;7;PuKoren/mrister/PuKoren/mrister/mrister/PuKoren/jkernech;"I think this would break the compat with the https://github.com/BryanDonovan/node-cache-manager#specifying-what-to-cache and may lead to unexpected behavior

Default behavior seems to be ignoring undefined values, but can be overriden to store them anyway (if user make async code and want to store undefined as a valid value)

Also, in Redis node, it seems that undefined is considered as a valid value, but is transformed to a string: https://github.com/NodeRedis/node_redis#sending-commands

Since you can't `JSON.parse(undefined)`, this will indeed trigger an error (unlike `JSON.parse(null)`, valid).

`undefined` seems a correct value to be stored to me, if user wants to store it, he will have no way to do it with this change. Maybe we could check if it is 'undefined' before parsing as redis stores it this way? I know this is an overhead, but node version of redis chose to do it this way :/

What do you think about it?
 @PuKoren  I had the same problem and thought about it a lot before issuing the PR. The one thing that led me here was the spec. The offending test was `'should not store an invalid value'`.

So per spec undefined was not saved, only change here is to actually get an error in .set callback (so the user does not need to assume he stored a value until seeing it later when calling get which in case of undefined returned a null.)

I see the point you make, and i like it even more then this solution, but in theory applying that would mean the need to change this test (spec), and this is a change in lib behaviour and ,again in theory,  per semver would require a new version release.

So not sure what to do here exactly... New version might seem the safest route to go without breaking anyone that even might be using this lib with an older redis version.

Or maybe we can override the spec only when isCachableValue(undefined) === true thus keeping compatibility with node-cache-manager
 @mrister Not sure about the best way to go, overriding the spec looks good to me
 @PuKoren  ok, let's go with the override then.
 @PuKoren  Implemented the override thing, so undefined should be set if allowed by isCacheableValue function.
 LGTM
 LGTM
"
35;dial-once/node-cache-manager-redis;17;2015-11-15T22:53:20Z;2015-11-15T23:16:02Z;2015-11-15T23:16:02Z;;dial-once/node-cache-manager-redis;cludden;1;jkernech;"@cludden Indeed, the exposition of the raw `pool` object should not cause any problems.
Your PR fixes #16 ! Thanks for your reactivity, it's awesome :)
"
40;dial-once/node-cache-manager-redis;10;2015-11-11T17:13:20Z;2015-11-12T13:32:47Z;2015-11-12T13:32:47Z;;dial-once/node-cache-manager-redis;mariosvlad;1;jkernech;"Thanks @mariostesla. I'll check this out soon !
"
43;dial-once/node-cache-manager-redis;1;2015-05-29T23:59:11Z;2015-05-30T00:12:40Z;2015-05-30T00:12:40Z;;dial-once/node-cache-manager-redis;amit777;1;jkernech;"Thanks for your contribution @amit777  !
"
