No;mainline_repo;pr_no;created_at;closed_at;merged_at;repo_origin_ml;repo_destin;pr_owner;no_commenters;pr_commenters;pr_comments
3;ehynds/grunt-image-embed;35;2014-08-21T23:05:45Z;2014-12-19T17:18:57Z;2014-12-19T17:18:57Z;shubik/grunt-image-embed;ehynds/grunt-image-embed;shubik;1;shubik;"Eric, hi, it would be great if you could approve my pull request. Look here: https://github.com/ehynds/grunt-image-embed/issues/33#issuecomment-66451774 -- people have same issue.
"
9;ehynds/grunt-image-embed;10;2013-01-10T21:26:38Z;2013-06-12T20:03:38Z;2013-06-12T20:03:38Z;eskimoblood/grunt-image-embed;ehynds/grunt-image-embed;eskimoblood;5;ehynds/raimohanska/raimohanska/raimohanska/jreading;"Hey, can you add tests for this?
 I guess I run into the same issue. Any progress here? The version 0.1.3 worked correctly, but 0.3.0 fails, because it seems to be looking for the image files in a location relative to ""grunt-image-embed/tasks/lib"" instead of the actual css file.
 Nope, I was wrong. Applying @eskimoblood's patch on top of 0.3.0 does not seem to solve my problem.
 My problem, after all, was in my own grunt config. Sorry for spamming, and thanks for the great plugin!
 This worked for me. :+1: 
"
12;ehynds/grunt-image-embed;7;2013-01-01T00:46:39Z;2013-01-10T12:17:28Z;2013-01-10T12:17:28Z;;ehynds/grunt-image-embed;pieterv;1;eskimoblood;":+1: 
"
16;ehynds/grunt-image-embed;1;2012-09-28T16:55:12Z;2012-10-03T11:58:06Z;2012-10-03T11:58:05Z;dancingplatypus/grunt-image-embed-1;ehynds/grunt-image-embed;dancingplatypus;3;ehynds/dancingplatypus/dancingplatypus;"Hey, I'm testing this out but I get an error encoding a stylesheet with a line that looks like:

`background-image: url('../images/test.png'); background-image: url('../images/test.png');`

<WARN> /Users/ehynds/Dropbox/Projects/grunt-image-embed/tasks../images/test.png); background-image: url(../images/test.png does not exist Use --force to continue. </WARN>

The same declaration works fine on a line by itself. Can you advise?
 I will take a look at this tomorrow.  lint is complaining about some things
I've done, so I'll make that work, as well as getting it working in your
test framework, including your specific issue.

Thanks for being patient with me.  I'm learning a lot about grunt and unit
testing through this exercise.

On Sat, Sep 29, 2012 at 8:57 AM, Eric Hynds notifications@github.comwrote:

> Hey, I'm testing this out but I get an error encoding a stylesheet with a
> line that looks like:
> 
> background-image: url('../images/test.png'); background-image:
> url('../images/test.png');
> 
> /Users/ehynds/Dropbox/Projects/grunt-image-embed/tasks../images/test.png);
> background-image: url(../images/test.png does not exist Use --force to
> continue.
> 
> The same declaration works fine on a line by itself. Can you advise?
> 
> —
> Reply to this email directly or view it on GitHubhttps://github.com/ehynds/grunt-image-embed/pull/1#issuecomment-9003744.
 I've pushed a new version to my fork.  It now passes lint, and I broke out
and added several tests.  I saw that you had a large css with lots of
different tests within, and then I saw your todo comment, so I started
breaking out discrete tests.  It can always use more.

Anyway, if you look inside ""test_css_encoder.js"" at line 55, you'll see
I've added a test addressing your specific issue.  Perhaps it was my fixes
to make the code lint compliant, but this test passes just fine.  I used
the ""../"" approach, as well as single quotes, to mimic what you gave me as
closely as I could.

On another issue... ""http://www.placehold.it"" is problematic.  However they
dynamically generate their images, it is slightly different now and then.
 I included a file, ""sanity_check.html"" with results across several minutes
of testing.  They are almost identical, but different enough to throw off
the test.  Which sucks.

Please check it out and tell me if there is anything missing, or if you are
still having issues.

Thanks!
Michael Hays

On Sun, Sep 30, 2012 at 1:10 AM, DancingPlatypus
dancingplatypus@gmail.comwrote:

> I will take a look at this tomorrow.  lint is complaining about some
> things I've done, so I'll make that work, as well as getting it working in
> your test framework, including your specific issue.
> 
> Thanks for being patient with me.  I'm learning a lot about grunt and unit
> testing through this exercise.
> 
> On Sat, Sep 29, 2012 at 8:57 AM, Eric Hynds notifications@github.comwrote:
> 
> > Hey, I'm testing this out but I get an error encoding a stylesheet with a
> > line that looks like:
> > 
> > background-image: url('../images/test.png'); background-image:
> > url('../images/test.png');
> > 
> > /Users/ehynds/Dropbox/Projects/grunt-image-embed/tasks../images/test.png);
> > background-image: url(../images/test.png does not exist Use --force to
> > continue.
> > 
> > The same declaration works fine on a line by itself. Can you advise?
> > 
> > —
> > Reply to this email directly or view it on GitHubhttps://github.com/ehynds/grunt-image-embed/pull/1#issuecomment-9003744.
"
