No;mainline_repo;pr_no;created_at;closed_at;merged_at;repo_origin_ml;repo_destin;pr_owner;no_commenters;pr_commenters;pr_comments
18;etienne-martin/device-detector-js;80;2020-01-28T21:50:48Z;2020-01-29T18:39:42Z;2020-01-29T18:39:41Z;etienne-martin/device-detector-js;etienne-martin/device-detector-js;etienne-martin;7;whimsicaldreamer/etienne-martin/etienne-martin/etienne-martin/whimsicaldreamer/etienne-martin/whimsicaldreamer;"Alright I ran tests locally, and only 4 tests fail now rather than 8 before. Significant Improvement!! 👍 
The issue is with the Ordissimo brand which makes the tests fail. > How many tests failing now?

You can see how many tests are failing in circleci by clicking on ""Details"" 

![image](https://user-images.githubusercontent.com/9700213/73385766-b9a23180-429b-11ea-8fa1-2192937d79ba.png)
  Good job and thanks for your contribution 🙏 I will release a new version on npm That's great!! Btw readme needs an update to reference that this library is at par with the original library version. You're right! I will make the change right away Alrighty then! We are set for a new release!! 🎉"
28;etienne-martin/device-detector-js;68;2020-01-09T05:40:02Z;2020-01-10T15:30:33Z;2020-01-10T15:30:33Z;whimsicaldreamer/device-detector-js;etienne-martin/device-detector-js;whimsicaldreamer;4;etienne-martin/whimsicaldreamer/etienne-martin/whimsicaldreamer;"Ready to merge! 

You might want to add your info to the contributor section of the [package.json](https://github.com/etienne-martin/device-detector-js/blob/0fe281df53cd9464193bd4262c257841cba36a53/package.json#L26) and the Authors section of the [README](https://github.com/etienne-martin/device-detector-js/blob/0fe281df53cd9464193bd4262c257841cba36a53/README.md#authors)?  @etienne-martin, I would love to do that but I am currently away from my pc. I will update it tomorrow. Alright, when you're ready @etienne-martin Ready.."
29;etienne-martin/device-detector-js;65;2019-12-10T05:52:33Z;2019-12-10T05:54:17Z;2019-12-10T05:54:17Z;etienne-martin/device-detector-js;etienne-martin/device-detector-js;etienne-martin;1;coveralls;"## Pull Request Test Coverage Report for [Build 196](https://coveralls.io/builds/27519452)

* **0** of **0**   changed or added relevant lines in **0** files are covered.
* No unchanged relevant lines lost coverage.
* Overall coverage remained the same at **98.111%**

---



|  Totals | [![Coverage Status](https://coveralls.io/builds/27519452/badge)](https://coveralls.io/builds/27519452) |
| :-- | --: |
| Change from base [Build 186](https://coveralls.io/builds/27519390): |  0.0% |
| Covered Lines: | 498 |
| Relevant Lines: | 498 |

---
##### 💛  - [Coveralls](https://coveralls.io)
"
31;etienne-martin/device-detector-js;63;2019-12-10T05:25:26Z;2019-12-10T05:27:42Z;2019-12-10T05:27:42Z;etienne-martin/device-detector-js;etienne-martin/device-detector-js;etienne-martin;1;coveralls;"## Pull Request Test Coverage Report for [Build 172](https://coveralls.io/builds/27519193)

* **0** of **0**   changed or added relevant lines in **0** files are covered.
* No unchanged relevant lines lost coverage.
* Overall coverage remained the same at **98.111%**

---



|  Totals | [![Coverage Status](https://coveralls.io/builds/27519193/badge)](https://coveralls.io/builds/27519193) |
| :-- | --: |
| Change from base [Build 163](https://coveralls.io/builds/27519092): |  0.0% |
| Covered Lines: | 498 |
| Relevant Lines: | 498 |

---
##### 💛  - [Coveralls](https://coveralls.io)
"
32;etienne-martin/device-detector-js;62;2019-12-10T05:17:20Z;2019-12-10T05:18:21Z;2019-12-10T05:18:21Z;etienne-martin/device-detector-js;etienne-martin/device-detector-js;etienne-martin;1;coveralls;"## Pull Request Test Coverage Report for [Build 160](https://coveralls.io/builds/27519077)

* **11** of **11**   **(100.0%)**  changed or added relevant lines in **6** files are covered.
* No unchanged relevant lines lost coverage.
* Overall coverage increased (+**0.03%**) to **98.111%**

---



|  Totals | [![Coverage Status](https://coveralls.io/builds/27519077/badge)](https://coveralls.io/builds/27519077) |
| :-- | --: |
| Change from base [Build 149](https://coveralls.io/builds/27105963): |  0.03% |
| Covered Lines: | 498 |
| Relevant Lines: | 498 |

---
##### 💛  - [Coveralls](https://coveralls.io)
"
34;etienne-martin/device-detector-js;59;2019-11-20T06:31:22Z;2019-11-20T06:32:45Z;2019-11-20T06:32:45Z;etienne-martin/device-detector-js;etienne-martin/device-detector-js;etienne-martin;1;coveralls;"## Pull Request Test Coverage Report for [Build 146](https://coveralls.io/builds/27105942)

* **0** of **0**   changed or added relevant lines in **0** files are covered.
* No unchanged relevant lines lost coverage.
* Overall coverage remained the same at **98.077%**

---



|  Totals | [![Coverage Status](https://coveralls.io/builds/27105942/badge)](https://coveralls.io/builds/27105942) |
| :-- | --: |
| Change from base [Build 143](https://coveralls.io/builds/27105845): |  0.0% |
| Covered Lines: | 493 |
| Relevant Lines: | 493 |

---
##### 💛  - [Coveralls](https://coveralls.io)
"
35;etienne-martin/device-detector-js;58;2019-11-20T06:24:28Z;2019-11-20T06:25:38Z;2019-11-20T06:25:38Z;etienne-martin/device-detector-js;etienne-martin/device-detector-js;etienne-martin;1;coveralls;"## Pull Request Test Coverage Report for [Build 139](https://coveralls.io/builds/27105823)

* **0** of **0**   changed or added relevant lines in **0** files are covered.
* No unchanged relevant lines lost coverage.
* Overall coverage remained the same at **98.077%**

---



|  Totals | [![Coverage Status](https://coveralls.io/builds/27105823/badge)](https://coveralls.io/builds/27105823) |
| :-- | --: |
| Change from base [Build 135](https://coveralls.io/builds/27105378): |  0.0% |
| Covered Lines: | 493 |
| Relevant Lines: | 493 |

---
##### 💛  - [Coveralls](https://coveralls.io)
"
36;etienne-martin/device-detector-js;57;2019-11-20T05:48:38Z;2019-11-20T06:02:08Z;2019-11-20T06:02:07Z;etienne-martin/device-detector-js;etienne-martin/device-detector-js;etienne-martin;1;coveralls;"## Pull Request Test Coverage Report for [Build 132](https://coveralls.io/builds/27105360)

* **4** of **4**   **(100.0%)**  changed or added relevant lines in **1** file are covered.
* No unchanged relevant lines lost coverage.
* Overall coverage increased (+**0.005%**) to **98.077%**

---



|  Totals | [![Coverage Status](https://coveralls.io/builds/27105360/badge)](https://coveralls.io/builds/27105360) |
| :-- | --: |
| Change from base [Build 123](https://coveralls.io/builds/27105052): |  0.005% |
| Covered Lines: | 493 |
| Relevant Lines: | 493 |

---
##### 💛  - [Coveralls](https://coveralls.io)
"
37;etienne-martin/device-detector-js;56;2019-11-20T05:44:56Z;2019-11-20T05:46:26Z;2019-11-20T05:46:26Z;etienne-martin/device-detector-js;etienne-martin/device-detector-js;etienne-martin;1;coveralls;"## Pull Request Test Coverage Report for [Build 119](https://coveralls.io/builds/27105030)

* **0** of **0**   changed or added relevant lines in **0** files are covered.
* No unchanged relevant lines lost coverage.
* Overall coverage remained the same at **98.072%**

---



|  Totals | [![Coverage Status](https://coveralls.io/builds/27105030/badge)](https://coveralls.io/builds/27105030) |
| :-- | --: |
| Change from base [Build 113](https://coveralls.io/builds/27104826): |  0.0% |
| Covered Lines: | 491 |
| Relevant Lines: | 491 |

---
##### 💛  - [Coveralls](https://coveralls.io)
"
39;etienne-martin/device-detector-js;54;2019-11-20T04:28:10Z;2019-11-20T05:05:03Z;2019-11-20T05:05:03Z;etienne-martin/device-detector-js;etienne-martin/device-detector-js;etienne-martin;1;coveralls;"## Pull Request Test Coverage Report for [Build 99](https://coveralls.io/builds/27103293)

* **4** of **4**   **(100.0%)**  changed or added relevant lines in **3** files are covered.
* No unchanged relevant lines lost coverage.
* Overall coverage decreased (**-0.03%**) to **98.072%**

---



|  Totals | [![Coverage Status](https://coveralls.io/builds/27103293/badge)](https://coveralls.io/builds/27103293) |
| :-- | --: |
| Change from base [Build 96](https://coveralls.io/builds/27103284): |  -0.03% |
| Covered Lines: | 491 |
| Relevant Lines: | 491 |

---
##### 💛  - [Coveralls](https://coveralls.io)
"
40;etienne-martin/device-detector-js;53;2019-11-20T03:59:52Z;2019-11-20T04:25:42Z;2019-11-20T04:25:42Z;etienne-martin/device-detector-js;etienne-martin/device-detector-js;etienne-martin;1;coveralls;"## Pull Request Test Coverage Report for [Build 93](https://coveralls.io/builds/27102604)

* **0** of **0**   changed or added relevant lines in **0** files are covered.
* No unchanged relevant lines lost coverage.
* Overall coverage increased (+**1.01%**) to **98.106%**

---



|  Totals | [![Coverage Status](https://coveralls.io/builds/27102604/badge)](https://coveralls.io/builds/27102604) |
| :-- | --: |
| Change from base [Build 88](https://coveralls.io/builds/27101984): |  1.01% |
| Covered Lines: | 500 |
| Relevant Lines: | 500 |

---
##### 💛  - [Coveralls](https://coveralls.io)
"
41;etienne-martin/device-detector-js;52;2019-11-20T03:32:24Z;2019-11-20T03:33:14Z;2019-11-20T03:33:14Z;etienne-martin/device-detector-js;etienne-martin/device-detector-js;etienne-martin;1;coveralls;"## Pull Request Test Coverage Report for [Build 85](https://coveralls.io/builds/27101978)

* **0** of **0**   changed or added relevant lines in **0** files are covered.
* No unchanged relevant lines lost coverage.
* Overall coverage remained the same at **97.092%**

---



|  Totals | [![Coverage Status](https://coveralls.io/builds/27101978/badge)](https://coveralls.io/builds/27101978) |
| :-- | --: |
| Change from base [Build 82](https://coveralls.io/builds/27101922): |  0.0% |
| Covered Lines: | 526 |
| Relevant Lines: | 526 |

---
##### 💛  - [Coveralls](https://coveralls.io)
"
42;etienne-martin/device-detector-js;51;2019-11-20T03:22:55Z;2019-11-20T03:25:32Z;2019-11-20T03:25:32Z;etienne-martin/device-detector-js;etienne-martin/device-detector-js;etienne-martin;1;coveralls;"## Pull Request Test Coverage Report for [Build 79](https://coveralls.io/builds/27101890)

* **0** of **0**   changed or added relevant lines in **0** files are covered.
* No unchanged relevant lines lost coverage.
* Overall coverage remained the same at **97.092%**

---



|  Totals | [![Coverage Status](https://coveralls.io/builds/27101890/badge)](https://coveralls.io/builds/27101890) |
| :-- | --: |
| Change from base [Build 76](https://coveralls.io/builds/27101441): |  0.0% |
| Covered Lines: | 526 |
| Relevant Lines: | 526 |

---
##### 💛  - [Coveralls](https://coveralls.io)
"
43;etienne-martin/device-detector-js;49;2019-08-29T13:31:25Z;2019-08-30T13:28:25Z;2019-08-30T13:28:25Z;etienne-martin/device-detector-js;etienne-martin/device-detector-js;dependabot[bot];1;coveralls;"## Pull Request Test Coverage Report for [Build 72](https://coveralls.io/builds/25421589)

* **0** of **0**   changed or added relevant lines in **0** files are covered.
* No unchanged relevant lines lost coverage.
* Overall coverage remained the same at **97.092%**

---



|  Totals | [![Coverage Status](https://coveralls.io/builds/25421589/badge)](https://coveralls.io/builds/25421589) |
| :-- | --: |
| Change from base [Build 71](https://coveralls.io/builds/25421559): |  0.0% |
| Covered Lines: | 526 |
| Relevant Lines: | 526 |

---
##### 💛  - [Coveralls](https://coveralls.io)
"
44;etienne-martin/device-detector-js;48;2019-08-28T06:24:19Z;2019-08-29T13:30:10Z;2019-08-29T13:30:09Z;etienne-martin/device-detector-js;etienne-martin/device-detector-js;dependabot[bot];1;coveralls;"## Pull Request Test Coverage Report for [Build 70](https://coveralls.io/builds/25388748)

* **0** of **0**   changed or added relevant lines in **0** files are covered.
* No unchanged relevant lines lost coverage.
* Overall coverage remained the same at **97.092%**

---



|  Totals | [![Coverage Status](https://coveralls.io/builds/25388748/badge)](https://coveralls.io/builds/25388748) |
| :-- | --: |
| Change from base [Build 69](https://coveralls.io/builds/24561742): |  0.0% |
| Covered Lines: | 526 |
| Relevant Lines: | 526 |

---
##### 💛  - [Coveralls](https://coveralls.io)
"
46;etienne-martin/device-detector-js;44;2019-07-12T17:53:26Z;2019-07-12T17:56:28Z;2019-07-12T17:56:28Z;etienne-martin/device-detector-js;etienne-martin/device-detector-js;dependabot[bot];1;coveralls;"## Pull Request Test Coverage Report for [Build 67](https://coveralls.io/builds/24536806)

* **0** of **0**   changed or added relevant lines in **0** files are covered.
* No unchanged relevant lines lost coverage.
* Overall coverage remained the same at **97.092%**

---



|  Totals | [![Coverage Status](https://coveralls.io/builds/24536806/badge)](https://coveralls.io/builds/24536806) |
| :-- | --: |
| Change from base [Build 66](https://coveralls.io/builds/24535898): |  0.0% |
| Covered Lines: | 526 |
| Relevant Lines: | 526 |

---
##### 💛  - [Coveralls](https://coveralls.io)
"
47;etienne-martin/device-detector-js;43;2019-07-11T21:41:19Z;2019-07-12T17:12:04Z;2019-07-12T17:12:03Z;etienne-martin/device-detector-js;etienne-martin/device-detector-js;dependabot[bot];1;coveralls;"## Pull Request Test Coverage Report for [Build 65](https://coveralls.io/builds/24515314)

* **0** of **0**   changed or added relevant lines in **0** files are covered.
* No unchanged relevant lines lost coverage.
* Overall coverage remained the same at **97.092%**

---



|  Totals | [![Coverage Status](https://coveralls.io/builds/24515314/badge)](https://coveralls.io/builds/24515314) |
| :-- | --: |
| Change from base [Build 64](https://coveralls.io/builds/24484913): |  0.0% |
| Covered Lines: | 526 |
| Relevant Lines: | 526 |

---
##### 💛  - [Coveralls](https://coveralls.io)
"
48;etienne-martin/device-detector-js;42;2019-07-01T00:24:21Z;2019-07-10T13:11:05Z;2019-07-10T13:11:05Z;MarkEhr/device-detector-js;etienne-martin/device-detector-js;MarkEhr;3;aromero86/etienne-martin/MarkEhr;Hi guys, any news about this? Thank you :) Hi there, thanks for the PR, can you rebuild the project and run the tests to make sure everything's green? Done! Built and tests passed
49;etienne-martin/device-detector-js;40;2019-06-06T01:06:17Z;2019-07-10T19:35:27Z;2019-07-10T19:35:27Z;etienne-martin/device-detector-js;etienne-martin/device-detector-js;dependabot[bot];1;coveralls;"## Pull Request Test Coverage Report for [Build 63](https://coveralls.io/builds/24484879)

* **0** of **0**   changed or added relevant lines in **0** files are covered.
* No unchanged relevant lines lost coverage.
* Overall coverage remained the same at **97.092%**

---



|  Totals | [![Coverage Status](https://coveralls.io/builds/24484879/badge)](https://coveralls.io/builds/24484879) |
| :-- | --: |
| Change from base [Build 62](https://coveralls.io/builds/24484875): |  0.0% |
| Covered Lines: | 526 |
| Relevant Lines: | 526 |

---
##### 💛  - [Coveralls](https://coveralls.io)
"
50;etienne-martin/device-detector-js;39;2019-06-05T11:07:01Z;2019-07-10T19:33:10Z;2019-07-10T19:33:10Z;etienne-martin/device-detector-js;etienne-martin/device-detector-js;dependabot[bot];1;coveralls;"## Pull Request Test Coverage Report for [Build 60](https://coveralls.io/builds/24484826)

* **0** of **0**   changed or added relevant lines in **0** files are covered.
* No unchanged relevant lines lost coverage.
* Overall coverage remained the same at **97.092%**

---



|  Totals | [![Coverage Status](https://coveralls.io/builds/24484826/badge)](https://coveralls.io/builds/24484826) |
| :-- | --: |
| Change from base [Build 59](https://coveralls.io/builds/24484820): |  0.0% |
| Covered Lines: | 526 |
| Relevant Lines: | 526 |

---
##### 💛  - [Coveralls](https://coveralls.io)
"
51;etienne-martin/device-detector-js;38;2019-05-31T00:43:38Z;2019-07-10T19:30:26Z;2019-07-10T19:30:26Z;etienne-martin/device-detector-js;etienne-martin/device-detector-js;dependabot[bot];1;coveralls;"## Pull Request Test Coverage Report for [Build 57](https://coveralls.io/builds/24476554)

* **0** of **0**   changed or added relevant lines in **0** files are covered.
* No unchanged relevant lines lost coverage.
* Overall coverage remained the same at **97.092%**

---



|  Totals | [![Coverage Status](https://coveralls.io/builds/24476554/badge)](https://coveralls.io/builds/24476554) |
| :-- | --: |
| Change from base [Build 55](https://coveralls.io/builds/24476528): |  0.0% |
| Covered Lines: | 526 |
| Relevant Lines: | 526 |

---
##### 💛  - [Coveralls](https://coveralls.io)
"
