No;mainline_repo;pr_no;created_at;closed_at;merged_at;repo_origin_ml;repo_destin;pr_owner;no_commenters;pr_commenters;pr_comments
1;federicobond/solidity-parser-antlr;91;2019-10-15T14:49:27Z;2019-10-15T15:10:52Z;2019-10-15T15:10:52Z;aoli-al/solidity-parser-antlr;federicobond/solidity-parser-antlr;aoli-al;1;federicobond;Thank you!
4;federicobond/solidity-parser-antlr;77;2019-06-21T00:27:22Z;2019-08-03T00:08:59Z;2019-08-03T00:08:59Z;federicobond/solidity-parser-antlr;federicobond/solidity-parser-antlr;federicobond;6;Janther/federicobond/Janther/Janther/federicobond/yxliang01;"similar to #67, modifiers can be declared without parentheses or with parentheses and no arguments.
Could you return `null` when there are no parentheses, parentheses without arguments `[]`?
 Sure. Note that this change moves the parser further away from an AST towards a concrete syntax tree, which is convenient for some use cases, but may get us into trouble later. Users that are not interested in the particulars of how a modifier was defined now have to handle an additional case.

I may reconsider this decision in the future. You are right. I freaked out because of that particular test not passing.

I don't see any problem with prettier-solidity enforcing the removal of parentheses from the code in this case.

I'm creating a list of valid use cases where prettier-solidity should change the code other than adding and removing whitespace here and there. This looks like one of those cases but will have to talk it first. I just started a discussion in [prettier-plugin-solidity](https://github.com/prettier-solidity/prettier-plugin-solidity/issues/165) to see what other people think about this subject. Thank you! Note that I am not altogether against supporting use cases that require a CST, and I definitely want to keep supporting prettier-solidity, but I do want to consider how these changes fit together on the whole instead of going around addressing things on an ad-hoc basis with the end result being pulled between users that want to get a clean abstract view and users who want to know more about the code as written. Maybe making this library output both CST and AST would be a good idea? As @federicobond suggested, sometimes we want AST and sometimes CST, but we shouldn't have something in between I guess."
5;federicobond/solidity-parser-antlr;75;2019-06-19T01:59:22Z;2019-06-20T20:48:31Z;2019-06-20T20:48:31Z;andremedeiros/solidity-parser-antlr;federicobond/solidity-parser-antlr;andremedeiros;3;federicobond/andremedeiros/federicobond;Sorry to raise this so late, but I am considering just dropping the ParameterList node and having all parameters be VariableDeclaration nodes, what do you think? You'd want to drop the `Parameter` node too, as it's used in the same sort of context as `VariableDeclaration`. I can see that working. It might just [break `prettier-plugin-solidity`](https://github.com/prettier-solidity/prettier-plugin-solidity/blob/master/src/nodes/ParameterList.js) tho, and possibly others, so it's a tough one. Yes, let's merge this as is and consider the other change later.
7;federicobond/solidity-parser-antlr;72;2019-06-17T21:40:29Z;2019-06-17T23:44:43Z;2019-06-17T23:44:43Z;andremedeiros/solidity-parser-antlr;federicobond/solidity-parser-antlr;andremedeiros;4;federicobond/andremedeiros/federicobond/andremedeiros;"Now that I see it, `ImportDeclaration` does not describe an existing AST node type, it's an artifact of the ANTLR grammar. It should be removed completely from the types, as it's not used anywhere. I figured but wasn't 100% sure so I looked at the grammar and inferred what was going on there.

I'll update the PR by removing the type. Should we go and merge the rest anyway? Sure, the rest looks fine. There, force pushed, and updated the commit message. Should be ready to go."
11;federicobond/solidity-parser-antlr;59;2019-04-18T20:04:05Z;2019-04-29T21:00:03Z;2019-04-29T21:00:03Z;aoli-al/solidity-parser-antlr;federicobond/solidity-parser-antlr;aoli-al;1;federicobond;Hi @Leeleo3x, can you rebase your changes on top of latest master?
12;federicobond/solidity-parser-antlr;58;2019-04-09T22:12:44Z;2019-04-10T23:34:43Z;2019-04-10T23:34:43Z;aoli-al/solidity-parser-antlr;federicobond/solidity-parser-antlr;aoli-al;2;aoli-al/federicobond;"One question is if 
https://github.com/federicobond/solidity-parser-antlr/blob/master/src/ASTBuilder.js#L359
should be  `name: this.visit(ctx.identifier())`
which is consistent with the language definition 
https://github.com/solidityj/solidity-antlr4/blob/master/Solidity.g4#L112

This will change the `name` in `VariableDeclaration` from `string` to `Identifier`.
 Thanks! Left a few comments to address before merging "
13;federicobond/solidity-parser-antlr;56;2019-04-03T22:21:14Z;2019-04-03T23:42:36Z;2019-04-03T23:42:36Z;aoli-al/solidity-parser-antlr;federicobond/solidity-parser-antlr;aoli-al;1;federicobond;Thanks!
18;federicobond/solidity-parser-antlr;27;2018-06-14T00:32:21Z;2018-06-14T07:11:13Z;2018-06-14T07:11:13Z;alcuadrado/solidity-parser-antlr;federicobond/solidity-parser-antlr;alcuadrado;2;federicobond/alcuadrado;"Thanks @alcuadrado! Please remove the .only in the test before I can merge. Ouch 😅

Done!"
19;federicobond/solidity-parser-antlr;26;2018-06-13T13:36:41Z;2018-06-14T01:39:14Z;2018-06-14T01:39:14Z;CoinageCrypto/solidity-parser-antlr;federicobond/solidity-parser-antlr;thekevinbrown;4;federicobond/federicobond/thekevinbrown/thekevinbrown;"Thanks for looking into this, @blargity!

I’m pretty sure we can avoid putting the whole build output into the repo. Can we gitignore the directory and run Babel in a prepublish script or similar? Not sure what’s the best-practice here. Can you try something like this?

http://jamesknelson.com/writing-npm-packages-with-es6-using-the-babel-6-cli/ Yup, sure can, I'll do that now. Done! There are lots of different preferences on how to manage this around the community, but I really like that solution better than having the compiled files in the repo.

"
23;federicobond/solidity-parser-antlr;12;2017-11-18T05:44:34Z;2017-11-18T23:03:02Z;2017-11-18T23:03:02Z;duaraghav8/solidity-parser-antlr;federicobond/solidity-parser-antlr;duaraghav8;1;federicobond;Thanks @duaraghav8!
