No;mainline_repo;pr_no;created_at;closed_at;merged_at;repo_origin_ml;repo_destin;pr_owner;no_commenters;pr_commenters;pr_comments
1;FirebaseExtended/firebase-queue;111;2017-02-22T18:12:46Z;2017-02-22T19:04:24Z;2017-02-22T19:04:24Z;FirebaseExtended/firebase-queue;FirebaseExtended/firebase-queue;jwngr;2;coveralls/coveralls;"
[![Coverage Status](https://coveralls.io/builds/10279236/badge)](https://coveralls.io/builds/10279236)

Coverage remained the same at 100.0% when pulling **63c010c4f30eca273e6aac156cb38a77194acf23 on jw-add-version-numbers-to-json-files** into **fbaad3d9a8e699df484c0e533bbfc4d789730561 on master**.
 
[![Coverage Status](https://coveralls.io/builds/10279236/badge)](https://coveralls.io/builds/10279236)

Coverage remained the same at 100.0% when pulling **63c010c4f30eca273e6aac156cb38a77194acf23 on jw-add-version-numbers-to-json-files** into **fbaad3d9a8e699df484c0e533bbfc4d789730561 on master**.
"
3;FirebaseExtended/firebase-queue;100;2017-01-05T16:34:05Z;2017-01-05T16:35:44Z;2017-01-05T16:35:44Z;FirebaseExtended/firebase-queue;FirebaseExtended/firebase-queue;cbraynor;3;googlebot/googlebot/coveralls;"So there's good news and bad news.

:thumbsup: The good news is that everyone that needs to sign a CLA (the pull request submitter and all commit authors) have done so.  Everything is all good there.

:confused: The bad news is that it appears that one or more commits were authored by someone other than the pull request submitter.  We need to confirm that they're okay with their commits being contributed to this project.  Please have them confirm that here in the pull request.

*Note to project maintainer: This is a terminal state, meaning the `cla/google` commit status will not change from this state. It's up to you to confirm consent of the commit author(s) and merge this pull request when appropriate.*

<!-- need_author_consent --> So there's good news and bad news.

:thumbsup: The good news is that everyone that needs to sign a CLA (the pull request submitter and all commit authors) have done so.  Everything is all good there.

:confused: The bad news is that it appears that one or more commits were authored by someone other than the pull request submitter.  We need to confirm that they're okay with their commits being contributed to this project.  Please have them confirm that here in the pull request.

*Note to project maintainer: This is a terminal state, meaning the `cla/google` commit status will not change from this state. It's up to you to confirm consent of the commit author(s) and merge this pull request when appropriate.*

<!-- need_author_consent --> 
[![Coverage Status](https://coveralls.io/builds/9537537/badge)](https://coveralls.io/builds/9537537)

Coverage remained the same at 100.0% when pulling **5041deeb607bed5b36bda191cea053d33100b7c9 on Caerbannog-patch-1** into **7df13b6a48cbaa636b14724d297badad6334acdc on master**.
"
5;FirebaseExtended/firebase-queue;97;2016-12-20T01:33:06Z;2016-12-20T01:34:15Z;2016-12-20T01:34:15Z;FirebaseExtended/firebase-queue;FirebaseExtended/firebase-queue;cbraynor;1;m-tse;LGTM
6;FirebaseExtended/firebase-queue;96;2016-12-20T00:57:32Z;2016-12-20T01:30:26Z;2016-12-20T01:30:26Z;FirebaseExtended/firebase-queue;FirebaseExtended/firebase-queue;cbraynor;5;coveralls/coveralls/coveralls/coveralls/coveralls;"
[![Coverage Status](https://coveralls.io/builds/9352009/badge)](https://coveralls.io/builds/9352009)

Coverage decreased (-0.2%) to 99.804% when pulling **eb9ff4b26120a80ced197213cf82b2c4dac0712c on cr-timeout** into **83fba00feef9f0dcadb288040163025832c1337e on master**.
 
[![Coverage Status](https://coveralls.io/builds/9352009/badge)](https://coveralls.io/builds/9352009)

Coverage decreased (-0.2%) to 99.804% when pulling **eb9ff4b26120a80ced197213cf82b2c4dac0712c on cr-timeout** into **83fba00feef9f0dcadb288040163025832c1337e on master**.
 
[![Coverage Status](https://coveralls.io/builds/9352009/badge)](https://coveralls.io/builds/9352009)

Coverage decreased (-0.2%) to 99.804% when pulling **eb9ff4b26120a80ced197213cf82b2c4dac0712c on cr-timeout** into **83fba00feef9f0dcadb288040163025832c1337e on master**.
 
[![Coverage Status](https://coveralls.io/builds/9352275/badge)](https://coveralls.io/builds/9352275)

Coverage remained the same at 100.0% when pulling **d07e2136b3017ea19fe9d974e6eaa10922ec152e on cr-timeout** into **83fba00feef9f0dcadb288040163025832c1337e on master**.
 
[![Coverage Status](https://coveralls.io/builds/9352304/badge)](https://coveralls.io/builds/9352304)

Coverage remained the same at 100.0% when pulling **fa084a29e0b7e1b1bfc58a3df13f5717fccf3887 on cr-timeout** into **83fba00feef9f0dcadb288040163025832c1337e on master**.
"
7;FirebaseExtended/firebase-queue;94;2016-11-23T21:28:12Z;2016-11-24T00:03:53Z;2016-11-24T00:03:53Z;FirebaseExtended/firebase-queue;FirebaseExtended/firebase-queue;cbraynor;2;coveralls/coveralls;"
[![Coverage Status](https://coveralls.io/builds/8974329/badge)](https://coveralls.io/builds/8974329)

Coverage increased (+0.2%) to 100.0% when pulling **cd1b546f3f094eeadc6a5a8190bd52f3a520d822 on cr1-6-0** into **16217dcfe5cb9b8a9a7ad22c4696e7cef7204bca on master**.
 
[![Coverage Status](https://coveralls.io/builds/8976084/badge)](https://coveralls.io/builds/8976084)

Coverage remained the same at 99.803% when pulling **91230fac2eed6a162dec735e36b68e7368c7ee5c on cr1-6-0** into **16217dcfe5cb9b8a9a7ad22c4696e7cef7204bca on master**.
"
8;FirebaseExtended/firebase-queue;93;2016-11-23T07:33:25Z;2016-11-23T20:10:16Z;2016-11-23T20:10:16Z;FirebaseExtended/firebase-queue;FirebaseExtended/firebase-queue;cbraynor;5;coveralls/coveralls/cbraynor/coveralls/coveralls;"
[![Coverage Status](https://coveralls.io/builds/8960522/badge)](https://coveralls.io/builds/8960522)

Coverage decreased (-0.0004%) to 99.803% when pulling **fd3078c7fbb739c48f09ee865849f1f0b6df88b7 on firebase-admin** into **06646e07276db2ee64a52fa4231d395c8e8f2a4c on master**.
 
[![Coverage Status](https://coveralls.io/builds/8960522/badge)](https://coveralls.io/builds/8960522)

Coverage decreased (-0.0004%) to 99.803% when pulling **fd3078c7fbb739c48f09ee865849f1f0b6df88b7 on firebase-admin** into **06646e07276db2ee64a52fa4231d395c8e8f2a4c on master**.
 Application default credentials are mentioned in the blog post linked. These docs are mainly for the initial development of a queue where you're unlikely to have such credentials installed. 
[![Coverage Status](https://coveralls.io/builds/8971582/badge)](https://coveralls.io/builds/8971582)

Coverage decreased (-0.0004%) to 99.803% when pulling **4eafd552d25ec631b2f67a3823be9e37d56d5bd9 on firebase-admin** into **06646e07276db2ee64a52fa4231d395c8e8f2a4c on master**.
 
[![Coverage Status](https://coveralls.io/builds/8972621/badge)](https://coveralls.io/builds/8972621)

Coverage decreased (-0.0004%) to 99.803% when pulling **6cfdf59102d58d7750551c56df35f32cfbfbc59c on firebase-admin** into **06646e07276db2ee64a52fa4231d395c8e8f2a4c on master**.
"
9;FirebaseExtended/firebase-queue;92;2016-11-23T04:23:30Z;2016-11-23T04:29:13Z;2016-11-23T04:29:13Z;FirebaseExtended/firebase-queue;FirebaseExtended/firebase-queue;cbraynor;4;googlebot/googlebot/cbraynor/coveralls;"We found a Contributor License Agreement for you (the sender of this pull request) and all commit authors, but as best as we can tell these commits were authored by someone else.  If that's the case,  please add them to this pull request and have them confirm that they're okay with these commits being contributed to Google.  If we're mistaken and you did author these commits, just reply here to confirm.

<!-- need_author_consent --> We found a Contributor License Agreement for you (the sender of this pull request) and all commit authors, but as best as we can tell these commits were authored by someone else.  If that's the case,  please add them to this pull request and have them confirm that they're okay with these commits being contributed to Google.  If we're mistaken and you did author these commits, just reply here to confirm.

<!-- need_author_consent --> Confirm @googlebot  
[![Coverage Status](https://coveralls.io/builds/8959333/badge)](https://coveralls.io/builds/8959333)

Coverage increased (+0.2%) to 100.0% when pulling **5d2954e32d4cee630fbb90cdb5ebb84392e75932 on uuid** into **b3bbc73498da323aad8d4d35b62b25ed0e1fbf0d on master**.
"
11;FirebaseExtended/firebase-queue;88;2016-11-04T23:21:00Z;2016-11-14T21:13:17Z;2016-11-14T21:13:17Z;FirebaseExtended/firebase-queue;FirebaseExtended/firebase-queue;cbraynor;1;coveralls;"[![Coverage Status](https://coveralls.io/builds/8677006/badge)](https://coveralls.io/builds/8677006)

Coverage decreased (-0.2%) to 99.804% when pulling **460cc200f33a19b6b4fa4ad611037f66aec3c5d8 on cr-process** into **f7c853e6033362e1af4c448a2e38f63533b3ecc8 on master**.
"
12;FirebaseExtended/firebase-queue;78;2016-08-30T18:40:00Z;2016-08-30T18:42:26Z;2016-08-30T18:42:26Z;FirebaseExtended/firebase-queue;FirebaseExtended/firebase-queue;cbraynor;3;googlebot/googlebot/coveralls;"We found a Contributor License Agreement for you (the sender of this pull request) and all commit authors, but as best as we can tell these commits were authored by someone else.  If that's the case,  please add them to this pull request and have them confirm that they're okay with these commits being contributed to Google.  If we're mistaken and you did author these commits, just reply here to confirm.

<!-- need_author_consent -->
 We found a Contributor License Agreement for you (the sender of this pull request) and all commit authors, but as best as we can tell these commits were authored by someone else.  If that's the case,  please add them to this pull request and have them confirm that they're okay with these commits being contributed to Google.  If we're mistaken and you did author these commits, just reply here to confirm.

<!-- need_author_consent -->
 [![Coverage Status](https://coveralls.io/builds/7674754/badge)](https://coveralls.io/builds/7674754)

Coverage decreased (-0.2%) to 99.804% when pulling **94e6625d44b0eb498cf9748e26f80912f9161575 on cr-typo** into **21ac46f2e49267b77cbb14382b474f068c30e582 on master**.
"
13;FirebaseExtended/firebase-queue;77;2016-08-25T21:31:54Z;2016-08-30T19:11:49Z;2016-08-30T19:11:49Z;christianalfoni/firebase-queue;FirebaseExtended/firebase-queue;christianalfoni;7;googlebot/googlebot/cbraynor/christianalfoni/googlebot/googlebot/cbraynor;"Thanks for your pull request.  It looks like this may be your first contribution to a Google open source project. Before we can look at your pull request, you'll need to sign a Contributor License Agreement (CLA).

:memo: **Please visit https://cla.developers.google.com/ to sign.**

Once you've signed, please reply here (e.g. `I signed it!`) and we'll verify.  Thanks.

---
- If you've already signed a CLA, it's possible we don't have your GitHub username or you're using a different email address.  Check [your existing CLA data](https://cla.developers.google.com/clas) and verify that your [email is set on your git commits](https://help.github.com/articles/setting-your-email-in-git/).
- If you signed the CLA as a corporation, please let us know the company's name.

<!-- need_sender_cla -->
 Thanks for your pull request.  It looks like this may be your first contribution to a Google open source project. Before we can look at your pull request, you'll need to sign a Contributor License Agreement (CLA).

:memo: **Please visit https://cla.developers.google.com/ to sign.**

Once you've signed, please reply here (e.g. `I signed it!`) and we'll verify.  Thanks.

---
- If you've already signed a CLA, it's possible we don't have your GitHub username or you're using a different email address.  Check [your existing CLA data](https://cla.developers.google.com/clas) and verify that your [email is set on your git commits](https://help.github.com/articles/setting-your-email-in-git/).
- If you signed the CLA as a corporation, please let us know the company's name.

<!-- need_sender_cla -->
 Hi @christianalfoni, thanks for the pull request. I unfortunately have to insist on the CLA being signed before I can accept even a PR to the docs. 
 Ah for sure... signed it now :)
 CLAs look good, thanks!

<!-- ok -->
 CLAs look good, thanks!

<!-- ok -->
 Awesome, thanks for the contribution
"
15;FirebaseExtended/firebase-queue;72;2016-07-21T06:46:20Z;2016-07-23T00:27:22Z;2016-07-23T00:27:22Z;FirebaseExtended/firebase-queue;FirebaseExtended/firebase-queue;cbraynor;5;googlebot/googlebot/coveralls/cbraynor/coveralls;"We found a Contributor License Agreement for you (the sender of this pull request) and all commit authors, but as best as we can tell these commits were authored by someone else.  If that's the case,  please add them to this pull request and have them confirm that they're okay with these commits being contributed to Google.  If we're mistaken and you did author these commits, just reply here to confirm.

<!-- need_author_consent -->
 We found a Contributor License Agreement for you (the sender of this pull request) and all commit authors, but as best as we can tell these commits were authored by someone else.  If that's the case,  please add them to this pull request and have them confirm that they're okay with these commits being contributed to Google.  If we're mistaken and you did author these commits, just reply here to confirm.

<!-- need_author_consent -->
 [![Coverage Status](https://coveralls.io/builds/7098727/badge)](https://coveralls.io/builds/7098727)

Coverage remained the same at 100.0% when pulling **4aab297ccdebf5cc241eee94eda08b9acfa61961 on cr-add-workers** into **f9915c91e8572fdb47c3ae8aa7bc67c170b26047 on master**.
 Update: still working on documentation for the new methods
 [![Coverage Status](https://coveralls.io/builds/7128594/badge)](https://coveralls.io/builds/7128594)

Coverage remained the same at 100.0% when pulling **839b62cc4cfaa1fa34840a5dfae14c7f55fe0455 on cr-add-workers** into **f9915c91e8572fdb47c3ae8aa7bc67c170b26047 on master**.
"
17;FirebaseExtended/firebase-queue;69;2016-05-27T23:45:37Z;2016-05-27T23:48:09Z;2016-05-27T23:48:09Z;FirebaseExtended/firebase-queue;FirebaseExtended/firebase-queue;cbraynor;1;coveralls;"[![Coverage Status](https://coveralls.io/builds/6369876/badge)](https://coveralls.io/builds/6369876)

Coverage remained the same at 100.0% when pulling **424b25d1e0e0ac596191f5fff3863fbde6bce7a5 on cr-dead-link** into **f5e3c38d3fe4062cd56ee8cb2e8774e6025452e5 on master**.
"
18;FirebaseExtended/firebase-queue;68;2016-05-26T22:10:17Z;2016-05-27T23:42:43Z;2016-05-27T23:42:43Z;FirebaseExtended/firebase-queue;FirebaseExtended/firebase-queue;jwngr;3;coveralls/coveralls/cbraynor;"[![Coverage Status](https://coveralls.io/builds/6352884/badge)](https://coveralls.io/builds/6352884)

Coverage remained the same at 100.0% when pulling **6119c34bab8728be5e101ae609cecec561037020 on jw-repo-cleanup** into **13a2e57f781a5902aeca978d98dd647d4fea4f10 on master**.
 [![Coverage Status](https://coveralls.io/builds/6352966/badge)](https://coveralls.io/builds/6352966)

Coverage decreased (-0.2%) to 99.793% when pulling **41bc5577113bf6bc1b7cdfae6683eeee3fcd7f7a on jw-repo-cleanup** into **13a2e57f781a5902aeca978d98dd647d4fea4f10 on master**.
 LGTM
"
19;FirebaseExtended/firebase-queue;66;2016-05-21T18:39:12Z;2016-05-22T16:28:27Z;2016-05-22T16:28:27Z;FirebaseExtended/firebase-queue;FirebaseExtended/firebase-queue;cbraynor;2;amouly/mbleigh;"When this PR is going to be reviewed? We can't use the new Firebase without this update.

Thanks for your effort.
 LGTM

On Sun, May 22, 2016, 12:27 AM Adrián Mouly notifications@github.com
wrote:

> When this PR is going to be reviewed? We can't use the new Firebase
> without this update.
> 
> Thanks for your effort.
> 
> —
> You are receiving this because you were assigned.
> Reply to this email directly or view it on GitHub
> https://github.com/firebase/firebase-queue/pull/66#issuecomment-220818544
"
21;FirebaseExtended/firebase-queue;58;2016-04-17T23:58:51Z;2016-04-18T17:46:10Z;2016-04-18T17:46:10Z;FirebaseExtended/firebase-queue;FirebaseExtended/firebase-queue;cbraynor;1;mbleigh;"LGTM
"
22;FirebaseExtended/firebase-queue;57;2016-04-14T02:25:14Z;2016-04-16T04:21:31Z;2016-04-16T04:21:31Z;FirebaseExtended/firebase-queue;FirebaseExtended/firebase-queue;cbraynor;1;mbleigh;"One comment typo nit, otherwise LGTM. Feel free to merge after fixing comment.
"
23;FirebaseExtended/firebase-queue;55;2016-03-28T22:13:46Z;2016-03-28T22:34:43Z;2016-03-28T22:34:43Z;FirebaseExtended/firebase-queue;FirebaseExtended/firebase-queue;cbraynor;1;mbleigh;"LGTM!

![Right On](http://cloud.lovindublin.com/images/uploads/2015/09/right-on.gif)
"
24;FirebaseExtended/firebase-queue;54;2016-03-23T00:42:18Z;2016-03-23T21:23:38Z;2016-03-23T21:23:38Z;FirebaseExtended/firebase-queue;FirebaseExtended/firebase-queue;cbraynor;1;mbleigh;"LGTM.

![Let the Shipping Begin](http://1.bp.blogspot.com/-kMXRvwsfZ38/Uv2TWlSvKDI/AAAAAAAAAic/Cq7meUZcglo/s1600/ShiptIt_LetitBegin.gif)
"
25;FirebaseExtended/firebase-queue;53;2016-03-21T22:26:35Z;2016-03-21T22:28:44Z;2016-03-21T22:28:44Z;FirebaseExtended/firebase-queue;FirebaseExtended/firebase-queue;cbraynor;2;googlebot/cbraynor;"We found a Contributor License Agreement for you (the sender of this pull request) and all commit authors, but as best as we can tell these commits were authored by someone else.  If that's the case,  please add them to this pull request and have them confirm that they're okay with these commits being contributed to Google.  If we're mistaken and you did author these commits, just reply here to confirm.

<!-- need_author_consent -->
 @googlebot confirm
"
26;FirebaseExtended/firebase-queue;52;2016-03-21T19:43:23Z;2016-03-21T21:44:06Z;2016-03-21T21:44:06Z;;FirebaseExtended/firebase-queue;pdesgarets;1;cbraynor;"I like this. Initially I was worried anything like this would encourage the worker to modify the task directly, which, if not guarded by a transaction checking ownership, could cause some weird race-condition edge-cases. However, putting it behind the sanitize flag makes it available without making it the default or the responsibility of the publisher to add.
"
27;FirebaseExtended/firebase-queue;51;2016-03-20T03:02:05Z;2016-03-23T18:35:47Z;2016-03-23T18:35:47Z;FirebaseExtended/firebase-queue;FirebaseExtended/firebase-queue;cbraynor;1;mbleigh;"I don't see anything clearly off here and checks are passing. Code is pretty dense so I'm relying on your domain understanding and the fact that much of this change is just shuttling code up and down the file.

That being said, LGTM :tada:
"
28;FirebaseExtended/firebase-queue;49;2016-03-07T07:20:42Z;2016-03-08T00:03:57Z;2016-03-08T00:03:56Z;unfold/firebase-queue;FirebaseExtended/firebase-queue;simenbrekken;4;googlebot/simenbrekken/googlebot/cbraynor;"Thanks for your pull request.  It looks like this may be your first contribution to a Google open source project. Before we can look at your pull request, you'll need to sign a Contributor License Agreement (CLA).

:memo: **Please visit https://cla.developers.google.com/ to sign.**

Once you've signed, please reply here (e.g. `I signed it!`) and we'll verify.  Thanks.

---
- If you've already signed a CLA, it's possible we don't have your GitHub username or you're using a different email address.  Check [your existing CLA data](https://cla.developers.google.com/clas) and verify that your [email is set on your git commits](https://help.github.com/articles/setting-your-email-in-git/).
- If you signed the CLA as a corporation, please let us know the company's name.

<!-- need_sender_cla -->
 I've signed the CLA both as an individual and for my company Unfold
 CLAs look good, thanks!

<!-- ok -->
 Thank you for this
"
30;FirebaseExtended/firebase-queue;37;2015-11-25T02:25:47Z;2016-01-12T22:03:31Z;2016-01-12T22:03:31Z;tylermcginnis/firebase-queue;FirebaseExtended/firebase-queue;tylermcginnis;1;cbraynor;"Thanks for the fix
"
32;FirebaseExtended/firebase-queue;26;2015-06-18T22:50:08Z;2015-06-19T17:13:22Z;2015-06-19T17:13:22Z;FirebaseExtended/firebase-queue;FirebaseExtended/firebase-queue;cbraynor;1;m-tse;"LGTM
"
33;FirebaseExtended/firebase-queue;24;2015-06-15T18:41:39Z;2015-06-16T22:05:56Z;2015-06-16T22:05:56Z;FirebaseExtended/firebase-queue;FirebaseExtended/firebase-queue;cbraynor;4;googlebot/dreadjr/cbraynor/m-tse;"We found a Contributor License Agreement for you (the sender of this pull request) and all commit authors, but as best as we can tell these commits were authored by someone else.  If that's the case,  please add them to this pull request and have them confirm that they're okay with these commits being contributed to Google.  If we're mistaken and you did author these commits, just reply here to confirm.

<!-- need_author_consent -->
 this looks great.
 @googlebot confirm
 LGTM
"
35;FirebaseExtended/firebase-queue;18;2015-06-05T23:42:43Z;2015-06-05T23:51:13Z;2015-06-05T23:51:13Z;ginovva320/firebase-queue;FirebaseExtended/firebase-queue;ginovva320;3;googlebot/coveralls/ginovva320;"Thanks for your pull request.  It looks like this may be your first contribution to a Google open source project, in which case you'll need to sign a Contributor License Agreement (CLA).

:memo: **Please visit https://cla.developers.google.com/ to sign.**

Once you've signed, please reply here (e.g. `I signed it!`) and we'll verify.  Thanks.

---
- If you've already signed a CLA, it's possible we don't have your GitHub username or you're using a different email address.  Check [your existing CLA data](https://cla.developers.google.com/clas) and verify that your [email is set on your git commits](https://help.github.com/articles/setting-your-email-in-git/).
- If you signed the CLA as a corporation, please let us know the company's name.

<!-- need_sender_cla -->
 [![Coverage Status](https://coveralls.io/builds/2743386/badge)](https://coveralls.io/builds/2743386)

Coverage remained the same at 100.0% when pulling **04bfb26fa5be2c14f63ac37b0b73fd5c88cb4004 on ginovva320:patch-1** into **b11116fdcf6e37b30343a4927492be274e8c6051 on firebase:master**.
 I signed it!
"
37;FirebaseExtended/firebase-queue;14;2015-05-18T02:31:39Z;2015-05-27T00:40:19Z;2015-05-27T00:40:19Z;FirebaseExtended/firebase-queue;FirebaseExtended/firebase-queue;cbraynor;3;coveralls/coveralls/m-tse;"[![Coverage Status](https://coveralls.io/builds/2604272/badge)](https://coveralls.io/builds/2604272)

Coverage remained the same at 100.0% when pulling **fe6bc60c36092d1883dfe426cb2779fd22232557 on 1-1-0** into **7c3225c6216907a93220e4132f27cfbd0e246090 on master**.
 [![Coverage Status](https://coveralls.io/builds/2633020/badge)](https://coveralls.io/builds/2633020)

Coverage remained the same at 100.0% when pulling **1a96bf43b4cf3858615228ae8176e91958206bb4 on 1-1-0** into **7c3225c6216907a93220e4132f27cfbd0e246090 on master**.
 looks good, nice work Chris.
"
39;FirebaseExtended/firebase-queue;10;2015-05-14T01:12:40Z;2015-05-14T01:18:12Z;2015-05-14T01:18:12Z;FirebaseExtended/firebase-queue;FirebaseExtended/firebase-queue;jwngr;2;coveralls/coveralls;"[![Coverage Status](https://coveralls.io/builds/2559648/badge)](https://coveralls.io/builds/2559648)

Changes Unknown when pulling **e63e053c0c7fb64b58c35cf94d9ba88a26d62e1e on jw-catapult** into *\* on master**.
 [![Coverage Status](https://coveralls.io/builds/2559668/badge)](https://coveralls.io/builds/2559668)

Changes Unknown when pulling **57b6f7f84be837d3c322a8c3de25ed44818fb61d on jw-catapult** into *\* on master**.
"
40;FirebaseExtended/firebase-queue;9;2015-05-12T22:12:04Z;2015-05-13T20:27:05Z;2015-05-13T20:27:05Z;FirebaseExtended/firebase-queue;FirebaseExtended/firebase-queue;asciimike;4;asciimike/cbraynor/cbraynor/asciimike;"Ok, back to you to review the example, everything else should be fixed (no more extraneous jobs!)
 Ok, last few things
 Ok, I think we're there now. Unless you have anything to add, reassign it to me and I'll merge it
 Yep, we're good, :ship: it!
"
42;FirebaseExtended/firebase-queue;7;2015-05-11T18:41:28Z;2015-05-11T22:08:58Z;2015-05-11T22:08:58Z;FirebaseExtended/firebase-queue;FirebaseExtended/firebase-queue;asciimike;2;cbraynor/cbraynor;"Ok, back to you
 LGTM
"
43;FirebaseExtended/firebase-queue;6;2015-05-02T00:32:22Z;2015-05-13T21:33:46Z;2015-05-13T21:33:46Z;FirebaseExtended/firebase-queue;FirebaseExtended/firebase-queue;cbraynor;5;m-tse/cbraynor/cbraynor/cbraynor/m-tse;"Okay, the parts that I'm going to look at, look fine.  I'm going to begin running this new code against firebase-backups on my local machine, and then move to staging.
 @mattse I've fixed the edge-case I'd mentioned I was running into, this should be ready for your testing
 Agreed, I've made the changes but I was also taking the opportunity to update the README on the processing function parameters
 I think I addressed all your concerns
 LGTM
"
44;FirebaseExtended/firebase-queue;4;2015-02-19T21:50:31Z;2015-03-27T17:16:23Z;2015-03-27T17:16:23Z;FirebaseExtended/firebase-queue;FirebaseExtended/firebase-queue;m-tse;4;m-tse/cbraynor/m-tse/cbraynor;"bump @drtriumph 
 This looks awesome - made one comment about the consistency of naming
 @drtriumph back to you.
 LGTM
"
45;FirebaseExtended/firebase-queue;3;2015-02-10T21:18:36Z;2015-02-11T18:22:42Z;2015-02-11T18:22:42Z;FirebaseExtended/firebase-queue;FirebaseExtended/firebase-queue;m-tse;2;cbraynor/cbraynor;"@mattse I added a safeguard against false claims of completion if a job has already been deleted before we resolve or reject a job
 Switched the negation on the variable, back to you
"
46;FirebaseExtended/firebase-queue;2;2015-02-06T04:10:41Z;2015-02-10T00:37:28Z;2015-02-10T00:37:28Z;FirebaseExtended/firebase-queue;FirebaseExtended/firebase-queue;cbraynor;4;m-tse/cbraynor/cbraynor/m-tse;"@drtriumph I think the race condition is still there for when no job is defined, but it seems fixed for when there is a job defined.  

To repro:
- Create a queue, don't pass in any options hash so it uses defaults.  Have the worker call resolve({'hello':'world'}) instantly as its work function.
- Place 3(bug manifests with 3+ items) items onto the queue subtree without any `_state` variable so they should get picked up once the queue worker turns on
- turn on a queue worker.  The worker will quickly pick up all 3 items, complete 2 of them, and 1 of them will time out, and revert back to a queue item without a `_state` variable, yet the queue worker will not attempt to pick this job up even though it is ready

I'm looking into why it's still broken.  Let me know if you can't repro it.
 @mattse I can't seem to reproduce the error. I did do some linting and some minor variable refactoring that included a name change for the `processTimeout` function that had to become `resetItem` because it wasn't just used in timeouts anymore - with a corresponding log change. I also fixed a small issue where it wasn't reporting the completion of a job that was removed when it finished
 Oh, and I removed the need / check for an authenticated reference - it was a legacy from when I used the UID of the access token to specify the job ID
 I was about to bring up ""removal of required authenticated reference,"" but you already did it :)  Just another ""reduce friction, get running ASAP"" point.  

LGTM, merging
"
47;FirebaseExtended/firebase-queue;1;2015-02-03T01:52:38Z;2015-02-04T23:48:53Z;2015-02-04T23:48:53Z;FirebaseExtended/firebase-queue;FirebaseExtended/firebase-queue;m-tse;12;cbraynor/m-tse/cbraynor/cbraynor/m-tse/cbraynor/m-tse/cbraynor/m-tse/cbraynor/m-tse/cbraynor;"A few comments, back to you @mattse 
 @drtriumph proposal:

Instead of having a flag of queue history or no queue history, how about
- have a queue subtree of only unstarted and in progress jobs
- have a queue-completed sub tree for successfully completed jobs that call `resolve()`
- have a queue-error sub tree for errored failed jobs that called `reject()`
 I still like the idea of some kind of 'remove on completion' flag on the job spec, or even special-casing a `resolve(null)` in the callback code (which is slowly becoming my favorite).

I think once we start moving jobs between subtrees in transactions we start adding a lot of read/write overhead into the system - that editing a single `_state` value wouldn't incur. The transactions would also have to be at the root of the queue to ensure they are successfully moved instead of on a single item, locking up more of the Firebase.

Chaining jobs also becomes much simpler with a single queue (which is a particular requirement for my needs) - I'm not even sure how we'd set up the job specification to achieve this with multiple queues, and we'd quickly end up with many subtrees with relatively small numbers of chained jobs (2n + 1).

I also like the simplicity of just pushing a new element onto the `/queue` location as the interface to add a new item - you don't have to worry about the particulars of the queue implementation and can even have all incoming items without any `_state` variable picked up by the first job
 For now, if you assign it back to me I'll merge this PR
 @drtriumph I've implemented our discussed changes
 I had a fair number of coding style and a few algorithmic comments. Happy to explain in more detail if needed
 @drtriumph back to you
 Alright, we're close! Back to you
 @drtriumph back to you
 Ok, two tiny comments, back to you @mattse 
 @drtriumph okay looks like this is good for a merge?  Let's reconvene and discuss next steps.
 Ok, LGTM
"
