No;mainline_repo;pr_no;created_at;closed_at;merged_at;repo_origin_ml;repo_destin;pr_owner;no_commenters;pr_commenters;pr_comments
2;ForbesLindesay/run-browser;20;2015-07-13T01:33:22Z;2015-08-11T15:32:53Z;2015-08-11T15:32:53Z;;ForbesLindesay/run-browser;zenflow;1;zenflow;"@ForbesLindesay _ping_

Great module btw! If you would like some help maintaining it, it would be my honor. Otherwise, if this module is no longer supported, I may publish my own version of it.

Other dependencies could be updated aswell.
"
4;ForbesLindesay/run-browser;13;2015-01-14T15:58:05Z;2015-01-17T03:52:29Z;2015-01-17T03:52:29Z;shinnn/run-browser;ForbesLindesay/run-browser;shinnn;1;Raynos;"lgtm.
"
5;ForbesLindesay/run-browser;12;2015-01-06T00:46:40Z;2015-01-13T03:11:51Z;2015-01-13T03:11:51Z;andrewdeandrade/run-browser;ForbesLindesay/run-browser;andrewdeandrade;3;andrewdeandrade/Raynos/andrewdeandrade;"@raynos @ForbesLindesay now that this PR is clean and compact, can we get it merged and a new version released?
 lgtm shipit
 @ForbesLindesay can we merge this and publish a new version?
"
9;ForbesLindesay/run-browser;8;2015-01-02T19:23:02Z;2015-01-03T03:10:38Z;2015-01-03T03:10:38Z;andrewdeandrade/run-browser;ForbesLindesay/run-browser;andrewdeandrade;2;ForbesLindesay/Raynos;"I thought that we made that an option originally because phantom was too noisy?  If it's not too noisy we could make it visible by default though.  If @raynos agrees with you I'm happy for this to be merged as I don't really have time to check it out myself.
 lgtm :)
"
12;ForbesLindesay/run-browser;4;2014-11-19T02:01:35Z;2014-11-20T21:50:07Z;2014-11-20T21:50:07Z;andrewdeandrade/run-browser;ForbesLindesay/run-browser;andrewdeandrade;8;Raynos/andrewdeandrade/Raynos/andrewdeandrade/Raynos/andrewdeandrade/Raynos/andrewdeandrade;"lgtm!

cc @ForbesLindesay 
 @Raynos  having the main process start the web-server was the first approach I took. I backpedaled on that approach because I would have to move tap-finished to the browser side. On the other hand, there already is an override-log.js file that writes content to the screen. I see no reason why we shouldn't move the tap-finished logic to the browser by making console.log a event emitter that pipes into a stream that is then split sending output to tap-finished and to the override log.

I think this may also allow us to add the istanbul text report writer and have it write to HTML in the browser. Your thoughts?
 @malandrew :+1:
 @Raynos This now works in all browsers..... Could use some cleanup. Would be cool to add watchify support, which will print test results everytime and only print coverage diffs (which files changed coverage percentage and how much..
 @malandrew watchify is out of scope for this module.
 How could watchify be used to send code to this module? I feel like it should only execute browserify if it doesn't get browserified code already.
 lgtm. #shipit
 @Raynos can you merge it in and version bump as appropriate (should be at least a minor version bump)
"
14;ForbesLindesay/run-browser;1;2014-03-24T08:12:17Z;2014-04-08T12:09:28Z;2014-04-08T12:09:28Z;Raynos/run-browser;ForbesLindesay/run-browser;Raynos;6;Raynos/ForbesLindesay/Raynos/Raynos/Matt-Esch/ForbesLindesay;"bump. Is there anything I can do to improve this?
 Thanks, this seems like a good idea.  I have two concerns before this can be merged.
1. The functionality needs to be exposed through a JavaScript API that the CLI calls, not directly built in as part of the CLI.  I suggest we move the phantomjs code to a `/lib` folder, and add a public API method along the lines of `runPhantom('http://localhost:3000', callback(err, results))` where results is an object of the form `{stdout: string, stderr: string, passed: boolean}`.
2. At the moment, this module is in no way specific to tape, or even tap.  We at least would need to actually parse the TAP output to determine success or failure, and perhaps it would be even better if we could support non-tap browser tests in some way.  In any case, looking for comments that tape outputs isn't going to be good enough.
 Cool, I'll move it to lib and add a tap parser :)

I'm not sure how we can determine success or failure without TAP though, would love to hear some thoughts.
 @ForbesLindesay I moved the phantom code to lib.

The phantom script is now not tape specific.

However the `runPhantom` function returns a process object and calls your callback if it detects the phantom script has finished outputting TAP. 

It cannot call your cb on a normal node style exit since phantom never exits.
 With this version on windows I get an error in browserify looking for `jsonify`
 seems good.

@Matt-Esch I suspect that's just a failed installation, and if not I'm sure it will be fixed in browserify very soon.
"
