No;mainline_repo;pr_no;created_at;closed_at;merged_at;repo_origin_ml;repo_destin;pr_owner;no_commenters;pr_commenters;pr_comments
3;gabidavila/react-usa-map;38;2020-03-27T01:45:50Z;2020-07-07T15:47:36Z;2020-07-07T15:47:35Z;lachlanjc/react-usa-map;gabidavila/react-usa-map;lachlanjc;2;goldblatt/jamesrwaugh;"Can we merge this! We should merge this!
@gabidavila "
11;gabidavila/react-usa-map;25;2018-05-10T19:42:18Z;2019-07-09T01:54:42Z;2019-07-09T01:54:42Z;sachinlamba/react-usa-map;gabidavila/react-usa-map;sachinlamba;4;gabidavila/kwent/ymihir/gabidavila;"Sorry for the delay on this, I will test this week and merge and release the new package version Hi @gabidavila. Thanks for this amazing library. Is there any ETA to release this feature ?

Regards Hello @gabidavila , any update on this? you have created a very nice feature but i am requesting you to add few more details to it which will look awesome.  Working on it now!"
12;gabidavila/react-usa-map;22;2017-10-08T11:31:00Z;2017-10-08T16:51:50Z;2017-10-08T16:51:50Z;emman27/react-usa-map;gabidavila/react-usa-map;emman27;1;gabidavila;Yup, you did!
17;gabidavila/react-usa-map;17;2017-10-04T12:57:12Z;2017-10-05T02:14:24Z;2017-10-05T02:14:23Z;emman27/react-usa-map;gabidavila/react-usa-map;emman27;4;gabidavila/emman27/gabidavila/emman27;"Problem is `prepublish` doesn't move the `.json` file to the `dist` folder. That is the main issue actually... Ah sorry that was quite silly of me. I've made the necessary fixes. Some package missing on `package.json`? 

```
ReferenceError: Unknown plugin ""inline-json-import"" specified in ""/home/travis/build/gabidavila/react-usa-map/.babelrc"" at 0, attempted to resolve relative to ""/home/travis/build/gabidavila/react-usa-map""
``` My bad. Missed making a commit ><"
20;gabidavila/react-usa-map;11;2017-10-03T20:30:49Z;2017-10-07T23:03:56Z;2017-10-07T23:03:56Z;AlithAnar/react-usa-map;gabidavila/react-usa-map;AlithAnar;5;gabidavila/willmendesneto/AlithAnar/AlithAnar/gabidavila;"That is really close to what I meant in #1, I am gonna try to add some tests for before merging it to master. @willmendesneto Thanks for the tests you did earlier in #2, do you think you could help with this? That is ok if you don't have the time.  @AlithAnar to add some tests for that case you need to

- Add a new `clickHandler` object with a method at the [`customize` test object](https://github.com/gabidavila/react-usa-map/blob/master/src/__tests__/usa-map-dimensions.js#L21..L24);
-Change the current scenario to check when it doesn't have a customised `clickHandler`. 
It will be change the description of [this test](https://github.com/gabidavila/react-usa-map/blob/master/src/__tests__/usa-map-dimensions.js#L46..L51);
- After that, create a new test using your new object with a method customized.

EX:

```js
const customisedClickHandleMock = jest.fn();
...
componentProps = {
      width: 959,
      height: 593,
      defaultFill: ""#D3D3D3"",
      title: ""Blank US states map"",
      customize: {
        ""AK"": {
          fill: ""dummy-fill""
        }
        ""HI"": {
          fill: ""another-dummy-fill"",
          clickHandler: customisedClickHandleMock
        }
      },
      onClick: onClickMock
    };
    element = shallow(<USAMap {...componentProps} />);
...
 it(""should calls customise method is customise property has click handler"", () => {
    const statesLength = element.find(`USAState[fill=""${componentProps.customize.HI.fill}""]`);
    state.simulate(""click"");
   expect(customisedClickHandleMock.mock.calls[0]).toEqual([undefined]); // or the received data
  });
``` Ok, I'll handle this after my work Test for this case is added. I wrote also a comment about simulating click on Parent - Children case. Gonna look at it soon 👍 "
25;gabidavila/react-usa-map;6;2017-10-03T17:11:22Z;2017-10-03T17:18:08Z;2017-10-03T17:18:08Z;bossbossk20/react-usa-map;gabidavila/react-usa-map;bossbossk20;1;bossbossk20;#4 
