No;mainline_repo;pr_no;created_at;closed_at;merged_at;repo_origin_ml;repo_destin;pr_owner;no_commenters;pr_commenters;pr_comments
6;iamchrismiller/grunt-casper;43;2014-05-26T09:25:11Z;2014-05-29T05:07:56Z;2014-05-29T05:07:56Z;sashless/grunt-casper-fixtures;iamchrismiller/grunt-casper;sashless;1;iamchrismiller;"I will look into this tonight. Thank you.
"
17;iamchrismiller/grunt-casper;3;2013-02-01T00:05:36Z;2013-02-01T23:52:10Z;2013-02-01T23:52:10Z;;iamchrismiller/grunt-casper;jsoverson;1;jsoverson;"Also added gruntplugin keyword so this task can be discoverable on gruntjs.com next time it is published to npm.
"
