No;mainline_repo;pr_no;created_at;closed_at;merged_at;repo_origin_ml;repo_destin;pr_owner;no_commenters;pr_commenters;pr_comments
4;JillElaine/jquery-idleTimeout;10;2014-11-05T04:18:42Z;2014-11-05T23:32:23Z;2014-11-05T23:32:23Z;svenbit/jquery-idleTimeout;JillElaine/jquery-idleTimeout;svenbit;1;JillElaine;"Ah, yet another good one, svenbit. Your solution to removing the 'x' close button is much better than my kludge. Thank you.
"
5;JillElaine/jquery-idleTimeout;9;2014-08-25T08:13:46Z;2014-09-01T15:37:32Z;2014-09-01T15:37:32Z;svenbit/jquery-idleTimeout;JillElaine/jquery-idleTimeout;svenbit;1;JillElaine;"Good catch. Thank you.
"
