No;mainline_repo;pr_no;created_at;closed_at;merged_at;repo_origin_ml;repo_destin;pr_owner;no_commenters;pr_commenters;pr_comments
0;koa-modules/i18n;10;2015-11-20T11:27:56Z;2015-11-20T14:47:24Z;2015-11-20T14:47:24Z;kpbp/i18n;koa-modules/i18n;kpbp;1;fundon;"Nice! Sometime it's very useful.
"
1;koa-modules/i18n;9;2015-11-20T10:35:45Z;2015-11-20T11:03:32Z;2015-11-20T11:03:32Z;kpbp/i18n;koa-modules/i18n;kpbp;1;fundon;"Thanks
"
4;koa-modules/i18n;4;2015-01-06T06:32:44Z;2015-01-12T05:31:38Z;2015-01-12T05:31:38Z;RobinQu/koa-i18n;koa-modules/i18n;RobinQu;1;fundon;"Thanks
"
