No;mainline_repo;pr_no;created_at;closed_at;merged_at;repo_origin_ml;repo_destin;pr_owner;no_commenters;pr_commenters;pr_comments
0;mafintosh/protocol-buffers;77;2018-07-23T16:07:25Z;2018-09-18T14:09:06Z;2018-09-18T14:09:06Z;cwalther/protocol-buffers;mafintosh/protocol-buffers;cwalther;2;mafintosh/cwalther;Cool stuff! Added a minor comment :) Changed the function name to `protobuf.toJS()`. I left the file name because its exported function was already named `compile()` before.
2;mafintosh/protocol-buffers;75;2018-02-15T14:40:37Z;2018-02-15T15:58:00Z;2018-02-15T15:58:00Z;soyuka/protocol-buffers;mafintosh/protocol-buffers;soyuka;2;soyuka/mafintosh;"I've made a small test on the output, should I add it?

```shell
node bin.js test/test.proto -o test/output.js
```

```javascript
var test = require('./test/output')

var buf = test.Defaults.encode({foo1: test.FOO.A, foos: [test.FOO.B]})

console.log(buf)

var dec = test.Defaults.decode(buf)

console.log(dec)
``` @soyuka let me add a way to test the compiled protobuf against all our current tests instead :)"
9;mafintosh/protocol-buffers;42;2015-06-01T08:07:29Z;2015-06-01T08:31:10Z;2015-06-01T08:31:10Z;;mafintosh/protocol-buffers;DavidBruant;3;mafintosh/DavidBruant/mafintosh;"brfs should only be necessary when running the tests in the browser which is why its a devDependency. are you experiencing something else?
 I was trying to run it in the browser (not for test, but really to use protobuf on the client side)
https://github.com/DavidBruant/protobuf-client/blob/master/client.js
protobuf yields amazing promises for the web (to reduce the amount of transfered data between client and server). Thanks for having done it (and that it works in the browser assuming brfs is a dependency)!

When running browserify on my code, I got an error like `brfs cannot be found in <path>/node_modules/protocol-buffer`.
 Yea it seems you are right. browserify seems to need brfs since we define a transform (even though it is never being run).
"
14;mafintosh/protocol-buffers;31;2015-02-05T19:11:42Z;2015-02-21T21:56:50Z;2015-02-21T21:56:50Z;brendan-ward/protocol-buffers;mafintosh/protocol-buffers;brendan-ward;3;mafintosh/brendan-ward/mafintosh;"Looks good!
One question. Is it in the spec that the highest tag number should win if multiple are found? (I couldn't find the actual spec for `oneof`)
I agree that performance doesn't really matter that much here.
 From the [docs](https://developers.google.com/protocol-buffers/docs/proto#oneof), I used this statement as a guide: ""If the parser encounters multiple members of the same oneof on the wire, only the last member seen is used in the parsed message.""

My understanding was the that highest tag number is the last in the buffer.  The comment I made about tag number is more relevant to the test case I created for this; the implementation doesn't assume tag order; it simply discards any but the last value found in the buffer based on the order of fields you were already using to extract from the buffer.
 :+1: 
"
17;mafintosh/protocol-buffers;14;2014-10-26T21:06:39Z;2014-11-07T15:40:47Z;2014-11-07T15:40:47Z;mapbox/protocol-buffers;mafintosh/protocol-buffers;yhahn;1;mafintosh;"Hi @yhahn,
Thanks for the patch. I gonna try to look through this tomorrow (my brain is too jetlagged to understand anything right now). 
"
20;mafintosh/protocol-buffers;5;2014-07-31T05:38:12Z;2014-07-31T06:36:20Z;2014-07-31T06:36:20Z;guybrush/protocol-buffers;mafintosh/protocol-buffers;guybrush;2;guybrush/guybrush;"also feel free to ignore this PR and fix it however you think its best
 ok figured it out, it has to be float32
"
