No;mainline_repo;pr_no;created_at;closed_at;merged_at;repo_origin_ml;repo_destin;pr_owner;no_commenters;pr_commenters;pr_comments
5;mikeric/rivets;668;2016-08-13T10:13:19Z;2016-08-17T16:53:50Z;2016-08-17T16:53:50Z;jccazeaux/rivets;mikeric/rivets;jccazeaux;1;jccazeaux;"@Leeds-eBooks I used the `doc.sh` script. Pretty convenient 👍 
"
15;mikeric/rivets;655;2016-08-08T12:18:57Z;2016-08-09T12:46:12Z;2016-08-09T12:46:12Z;mikeric/rivets;mikeric/rivets;benadamstyles;4;benadamstyles/jccazeaux/benadamstyles/benadamstyles;"@jccazeaux & @blikblum I'd appreciate your comments on this PR before I merge. All tests pass, including the one I added for #649.
 :+1: 
Thanks !
 Actually I think I've introduced a new bug with this change. Working on this now.
 Turns out the bug was already there in `0.9.1`. If you have multiple two-way formatters, when you change the value in the view, the formatters are applied twice – once via `publish()`, and then the change in `publish()` triggers the `read()` functions so the formatters are applied again and the value shown in the model has the formatters applied twice. [Here is a fiddle](https://jsfiddle.net/LeedsEbooks/uy309vyk/1/) demonstrating this bug. Just try replacing the contents of the input with a single character. @jccazeaux This is a bug, right?

EDIT: False alarm. The reason this seems like a bug is that I am using a stupid formatter that no one would ever use IRL. Going to rewrite the test to be more sensible.
"
18;mikeric/rivets;651;2016-08-06T10:16:58Z;2016-08-07T17:45:17Z;2016-08-07T17:45:17Z;jccazeaux/rivets;mikeric/rivets;jccazeaux;2;blikblum/jccazeaux;"I would change the test name to be more informative.

Something like: 
observes array changes after another array binding is unbound

BTW: is not a problem with your PR but from rivets at all. Setting the element tree programatically makes harder to see the big picture in test
 Done. For element tree i added a comment with HTML DOM. Makes it easier to see. 
"
19;mikeric/rivets;648;2016-08-03T18:13:25Z;2016-08-09T10:05:52Z;2016-08-09T10:05:52Z;jccazeaux/rivets;mikeric/rivets;jccazeaux;3;benadamstyles/benadamstyles/jccazeaux;"I'm going to merge this as the current example is simply wrong. We can revisit this if people find the new example confusing.
 Oh, should this be merged into `gh-pages`?
 It's already on the PR #653 
Doc in `master` and `gh-pages` will be sync when this PR is merged.
"
22;mikeric/rivets;627;2016-06-01T08:46:10Z;2016-08-08T13:48:14Z;2016-08-08T13:48:14Z;agmonks/rivets;mikeric/rivets;agmonks;3;agmonks/benadamstyles/agmonks;"Done (I hope). Sorry using a development environment where we use tabs rather than spacing and  using lazy tools!
 Brilliant, thank you! Also, I might be wrong, but I don't think we're committing dist files unless we're pushing a release. Can you remove the `dist/rivets.bundled.js` file in [this commit](https://github.com/mikeric/rivets/pull/627/commits/fbda5ade8de0fddea367ed659580c958a10d179f)?
 done
"
27;mikeric/rivets;619;2016-05-15T12:04:23Z;2016-08-10T13:59:30Z;2016-08-10T13:59:30Z;jccazeaux/rivets;mikeric/rivets;jccazeaux;1;benadamstyles;"I've merged the sightglass PR, just need to work out how to publish a new release...
"
34;mikeric/rivets;582;2016-02-09T20:35:49Z;2016-02-10T21:28:53Z;2016-02-10T21:28:53Z;jccazeaux/rivets;mikeric/rivets;jccazeaux;1;benadamstyles;"Thanks, this looks great to me. I would probably simplify the config to `executeFunctions`.
"
40;mikeric/rivets;576;2016-02-07T13:32:42Z;2016-08-09T14:03:35Z;2016-08-09T14:03:35Z;jccazeaux/rivets;mikeric/rivets;jccazeaux;2;benadamstyles/jccazeaux;"@jccazeaux Just double checking as it has been several months since you made this PR – am I still ok to merge this?
 It's on `ES6` so no problem to merge
"
44;mikeric/rivets;564;2016-02-03T21:13:08Z;2016-02-04T13:28:32Z;2016-02-04T13:28:32Z;jccazeaux/rivets;mikeric/rivets;jccazeaux;1;benadamstyles;"Thanks for these!
"
45;mikeric/rivets;563;2016-02-02T18:56:50Z;2016-08-09T14:03:36Z;2016-08-09T14:03:36Z;jccazeaux/rivets;mikeric/rivets;jccazeaux;2;blikblum/jccazeaux;"You can use `Array.prototype.slice.call(this.el.attributes).forEach(attribute => ...)`
or
`Array.prototype.forEach.call(this.el.attributes, attribute => ...)`
 Yes i'm a bit old school on loops ;)
But as `for()` loops are faster than `forEach` i think it's not that bad.
"
48;mikeric/rivets;552;2016-01-28T21:57:39Z;2016-02-01T00:02:40Z;2016-02-01T00:02:40Z;jccazeaux/rivets;mikeric/rivets;jccazeaux;8;stalniy/jccazeaux/stalniy/blikblum/benadamstyles/blikblum/benadamstyles/jccazeaux;"I believe it'd better to add attribute option or even custom binder. Something like this

``` html
<div rv-each-todo=""todos"" rv-track-by=""todoIndex""></div>
```

This binder just gets index value and aliases it with another name
 Written like this, `rv-track-by` becomes a binder. One will believe it will be treated like any other binder. But it's not really a classic binder as it's used to configure an an alias name. We cannot use it as a binder because in the binder we would receive the value of `todoIndex` wich will probably be `undefined`

For this to work, the Binder `rv-each-` would have to read the html value of `rv-track-by` and not the parsed value (ar you see a better way?).

Finally, is it really necessary to offer customization of index alias? If so, we could handle it with a configuration, like:

```
rivets.configure({
 // Alias for index in rv-each binder
  iterationAlias: function(modelName) {
    return ""%"" + modelName + ""%"";
    // or return ""modelName"" + Index;
  }
});
```

Too much customization could lead to less simplicity.
 I created a fiddle with possible examples how to implement this without touching rivets source:
http://jsfiddle.net/znv28cmj/6/
 I suggest the `rv-each-index:todo=""todos""` syntax
 @blikblim can you explain your idea more, I don't understand how it would work.
 `rv-each-[indexName]:[itemName]=""[path]""`

The index value would be assigned to indexName instead of hardcoded to index. The previous syntax still valid. Although i think is not a really good syntax
 The colon might be a problem anyway http://stackoverflow.com/a/16021232/3098651
 I don't think we need to add more syntax on the binders for index generation. It would concern only the `rv-each`.
Using `itemName`in the index name is enough and easy to use (and document).
"
50;mikeric/rivets;549;2016-01-26T18:47:37Z;2016-01-28T11:27:48Z;2016-01-28T11:27:48Z;jccazeaux/rivets;mikeric/rivets;jccazeaux;6;blikblum/benadamstyles/jccazeaux/blikblum/jccazeaux/jccazeaux;"Can you add some tests?
 Yep tests would be good before I merge this, thanks
 Yep i'll do that. I made this update some time ago and kept it on my github because i thought Rivets was dead. I'm happy to see it come to life again.
And we need tests on components, i don't see any in the specs.
 You can use https://github.com/stalniy/rivets/blob/extended-template/spec/rivets/component_binding.js as a base

You can skip 'allows not to pass ""template"" method' and 'renders returned DOM fragment as component template' since not implemented now

Updated: in the future we can implement those
 Great @blikblum thanks
 @Leeds-eBooks I just added some tests. It includes tests from @blikblum and a test for primitive attributes.
"
53;mikeric/rivets;546;2016-01-24T16:52:11Z;2016-01-26T20:45:34Z;2016-01-26T20:45:34Z;blikblum/tinybind;mikeric/rivets;blikblum;3;blikblum/benadamstyles/blikblum;"After some investigation, i found that the two remaining detached DOM nodes in TodoMVC example does not increase over the time and is removed as soon as the view get's out of scope. It is a implementation detail from each binder and does no harm. 
 Merging this is beyond my understanding of coffeescript, hopefully someone else can come in on this.
 OK. An strategy is to look at the diff between compiled code before and after, but i'll understand if you still not feels confident in merging.
"
59;mikeric/rivets;522;2015-09-28T09:17:13Z;2015-10-01T21:22:10Z;2015-10-01T21:22:10Z;nopnop/rivets;mikeric/rivets;nopnop;4;benadamstyles/benadamstyles/nopnop/benadamstyles;"Thanks for this, I will review this tonight if at all possible and merge in.
 Hey, sorry for the delay. This is probably _really_ pedantic, but I would probably declare `let lastToken` where it is first assigned [here](https://github.com/mikeric/rivets/pull/522/files#diff-28ef96ceac0325df61d7561fd2b08520R63), rather than at the top of the `parseTemplate` scope? Or did I miss something?
 Maybe you right! When I did this, I checked first the current master build first, [here](https://github.com/mikeric/rivets/blob/master/dist/rivets.js#L196) and `lastToken` was scoped outside the `while` block. But there is no need to do this thanks to `let`: I'll amend my PR
 Ah yes, good old coffeescript transpiling... Thanks! I'll merge once you've committed this.
"
64;mikeric/rivets;487;2015-05-17T11:58:36Z;2016-01-26T11:32:44Z;2016-01-26T11:32:44Z;jccazeaux/rivets;mikeric/rivets;jccazeaux;1;stalniy;"@mikeric looks like valuable feature. Do you plan to merge it
"
67;mikeric/rivets;464;2015-03-24T20:49:56Z;2015-03-24T23:19:33Z;2015-03-24T23:19:33Z;xori/rivets;mikeric/rivets;xori;2;xori/mikeric;"I'm assuming that the expected output of `rivets.init('my-comp', el)` should clean out existing child elements of `el` rather than appending them.
 > I'm assuming that the expected output of `rivets.init('my-comp', el)` should clean out existing child elements of `el` rather than appending them.

Yep, that's correct. Thanks for filing and fixing this bug. Merging this in.
"
70;mikeric/rivets;443;2015-01-28T22:38:00Z;2015-01-29T02:03:43Z;2015-01-29T02:03:43Z;;mikeric/rivets;russplaysguitar;1;mikeric;"@russplaysguitar Thanks!
"
71;mikeric/rivets;442;2015-01-23T20:45:36Z;2015-02-09T23:51:08Z;2015-02-09T23:51:08Z;ZAYEC77/rivets;mikeric/rivets;ZAYEC77;4;benadamstyles/ZAYEC77/benadamstyles/mikeric;"I'm not sure this fixes the issue, I think it's more deep-rooted. Without fully understanding the issue, this feels like a hack. I tried this out on the js dist file and it just led to other errors.
 @Leeds-eBooks, what errors do you got?
 @ZAYEC77 As I said I didn't use your branch, I just checked for the existence of `map` in the `unobserve` method and I did it in the compiled javascript, not the coffeescript source, so you should take my comment with a pinch of salt, but `map` is referenced in the other methods of the `.` adapter too and so I was getting errors from these other references.
 @ZAYEC77, @Leeds-eBooks Thanks for pointing these out. This pull-request partially fixes the problem. Merging this in along with some other changes I've made related to the issue that should hopefully resolve this.
"
75;mikeric/rivets;421;2014-11-13T04:26:21Z;2014-11-14T07:47:37Z;2014-11-14T07:47:37Z;mikeric/rivets;mikeric/rivets;mikeric;2;jhnns/tcz;"Awesome! That looks like a decent heap timeline to me :+1: 
 Fantastic!

I can confirm that the leaks I reported are resolved with this patch:

https://github.com/mikeric/rivets/issues/369
![image](https://cloud.githubusercontent.com/assets/160008/5030655/ba1e292e-6b51-11e4-8a29-86e6633e2075.png)

https://github.com/mikeric/rivets/issues/392 (with the manual `unbind` as suggested):

![image](https://cloud.githubusercontent.com/assets/160008/5030664/cdc01da2-6b51-11e4-9bdf-bf3966872ad2.png)

Thanks! :+1: 
"
76;mikeric/rivets;415;2014-11-03T20:57:16Z;2014-11-06T03:34:44Z;2014-11-06T03:34:44Z;der-On/rivets;mikeric/rivets;der-On;1;mikeric;"Looks good, merging.
"
77;mikeric/rivets;414;2014-11-03T13:26:40Z;2014-11-06T23:37:08Z;2014-11-06T23:37:08Z;der-On/rivets;mikeric/rivets;der-On;3;mikeric/der-On/vvo;"This change could be simplified greatly by chaining CoffeeScript's existential operator.

``` coffeescript
(b.binder?.priority > 0) - (a.binder?.priority or 0)
```
 I'm not a coffee script user, sorry. I've tried to find something in the coffee docs. I'll change it.
 great @mikeric Can we have this merged and published as patch? Thanks
"
79;mikeric/rivets;406;2014-10-24T18:59:49Z;2014-10-24T22:00:51Z;2014-10-24T22:00:51Z;der-On/rivets;mikeric/rivets;der-On;1;mikeric;":+1: Thanks for the feature / pull request.
"
81;mikeric/rivets;400;2014-10-09T06:17:15Z;2014-10-11T03:36:47Z;2014-10-11T03:36:47Z;mikeric/rivets;mikeric/rivets;mikeric;3;jhnns/mikeric/jhnns;"Nice :+1:. Are formatter arguments observed?
 @jhnns Yep, formatter arguments are observed the same way other keypaths are :)
 Cool! Didn't know that (or forgot it :grinning:)
"
82;mikeric/rivets;398;2014-10-06T18:54:05Z;2014-10-07T05:20:07Z;2014-10-07T05:20:07Z;;mikeric/rivets;orneryd;1;mikeric;"Makes sense. Thanks for the pull request.
"
84;mikeric/rivets;391;2014-09-30T14:25:15Z;2014-10-12T17:56:19Z;2014-10-12T17:56:19Z;;mikeric/rivets;vvo;5;vvo/mikeric/vvo/vvo/vvo;"@mikeric any input on this?
 > Right now I feel the tests are too deeply linked to the code, we should only test which API rivets wants to expose to the public, not private things like `binder.binding.view....`

@vvo I agree, the test suite needs to be rethought a bit. I exposed the internals through `rivets._` so that things could be tested in isolation as unit tests, but now I'm realizing that may have been the wrong approach? Would you consider smoke tests / integration tests like this to be more valuable?

This pull request looks good, but you committed the compiled javascript in `./dist/`. Could you include only the changes you made in `./src/`?
 We need to have functionnal test first because that's what the users will see.

But you can still have unit tests for implementations details.

https://github.com/yyx990803/vue/tree/master/test

 Maybe get some inspiration from vuejs test suite.

Yes I can commit only the changes in src, but I needed the dst for my project.
 done @mikeric 
 @mikeric rebased
"
85;mikeric/rivets;390;2014-09-30T13:41:05Z;2014-10-09T04:54:26Z;2014-10-09T04:54:26Z;;mikeric/rivets;vvo;5;jhnns/mikeric/vvo/jhnns/mikeric;":+1: for `npm test` - every module on npm should run its test suite with this command.
 @vvo, @jhnns Not sure what the benefit is here. Is there any advantage to running `gulp spec` through an npm script instead of just running `gulp spec`. If there is, why specifically only for running tests and not for running `gulp build` as `npm build` for example?
 @mikeric `npm test` is a command that every module should have, you can decide not to have one of course.

For example the default test command in travis-ci is `npm test` for a node.js module.

The benefit I see is that as a contributor I may not have gulp installed globally. `npm test` written the way I wrote it will use the local gulp command line installed when you used npm install. (./node_modules/bin/gulp).

So the second benefit is that you as a maintainer can master the gulp binary version you are using and not rely on the global one.

So that this behavior does not exists:

``` shell
cd rivets
npm install
npm test
err command not found, open browser, open readme, see gulp
npm install gulp -g
# pray that your gulpfile is compatible with the latest gulp
gulp spec
```

> If there is, why specifically only for running tests and not for running gulp build as npm build for example?

There is too, if you ask me, a benefit of having an `npm run build` command. For the same reason that the `npm test` command, by providing `npm run build`, you do not rely on any user dependencies global modules.

https://www.npmjs.org/doc/misc/npm-scripts.html
https://oncletom.io/2014/self-contained-node-scripts/
 > The benefit I see is that as a contributor I may not have gulp installed globally. npm test written the way I wrote it will use the local gulp command line installed when you used npm install. (./node_modules/bin/gulp).

@vvo @mikeric This feature of npm is not well known but imho a real useful one.
 > The benefit I see is that as a contributor I may not have gulp installed globally. npm test written the way I wrote it will use the local gulp command line installed when you used npm install. (./node_modules/bin/gulp).

@vvo Ah, awesome. Sorry, I wasn't sure what you meant in the original PR description, but that definitely sounds ideal. Will do the same with `gulp build` as `npm run build`. :+1:
"
86;mikeric/rivets;383;2014-09-24T21:41:38Z;2014-10-11T04:39:40Z;2014-10-11T04:39:40Z;artemsvirskyi/rivets;mikeric/rivets;artemsvirskyi;1;mikeric;"@SakerONE Works good, thanks for the pull request. Related to #215.
"
87;mikeric/rivets;380;2014-09-19T15:34:09Z;2014-10-08T06:38:21Z;2014-10-08T06:38:21Z;AWinterman/rivets;mikeric/rivets;AWinterman;1;mikeric;"@AWinterman Nice, this works really well. Thanks for the pull request :+1: 
"
88;mikeric/rivets;378;2014-09-18T13:38:15Z;2014-10-09T04:40:46Z;2014-10-09T04:40:46Z;atsar/rivets;mikeric/rivets;atsar;1;mikeric;"@atsar Looks good, thanks for the pull request.
"
91;mikeric/rivets;360;2014-08-30T08:42:42Z;2014-08-30T19:13:41Z;2014-08-30T19:13:41Z;FND/rivets;mikeric/rivets;FND;1;mikeric;"@FND Thanks for spotting these.

> sorry to have these trickle in like this - let me know if you'd prefer me to wait a few days to bundle further minor fixes (if any) in a single PR

No worries. Either way is fine by me :)
"
93;mikeric/rivets;358;2014-08-29T19:49:00Z;2014-08-30T03:17:00Z;2014-08-30T03:17:00Z;FND/rivets;mikeric/rivets;FND;1;mikeric;"@FND Thanks for spotting these.
"
96;mikeric/rivets;345;2014-08-13T22:14:38Z;2014-08-17T19:50:00Z;2014-08-17T19:50:00Z;tcz/rivets;mikeric/rivets;tcz;3;kesar/mikeric/tcz;"looks good to me! good improvement
 @tcz Thanks for identifying this issue and opening a pull request.

First off, the tests are excellent, but the implementation / solution introduces a major memory leak and potential performance issues due to rebinding on the same element over and over without ever unbinding the previous ones (basically every binding in that view will have it's routine function called n times where n is the number of times the `if` condition has changes from falsey to thruthy).

Working on a fix (we still want to unbind that nested view, but we also want to keep it around so we can rebind it later if the condition is thruthy again).
 Great  thanks! I kinda thought that's the reason the unbinding being there
but didn't have the chance to test it out and hunt memory leaks.

If you're working on a fix that's great, please let me know if I can help
On Aug 17, 2014 2:37 PM, ""Michael Richards"" notifications@github.com
wrote:

> @tcz https://github.com/tcz Thanks for identifying this issue and
> opening a pull request.
> 
> For off, the tests are excellent, but the implementation / solution
> introduces a major memory leak and potential performance issues due to
> rebinding on the same element over and over without ever unbinding the
> previous ones. Basically every binding in in that view will have it's
> routine functions called n times, where n is the number of times the if
> value has changes from falsey to thruthy.
> 
> Working on a fix (we still want to unbind that nested view, but we also
> want to keep it around so we can rebind it later if the condition is
> thruthy again).
> 
> —
> Reply to this email directly or view it on GitHub
> https://github.com/mikeric/rivets/pull/345#issuecomment-52432286.
"
97;mikeric/rivets;339;2014-08-01T02:15:27Z;2014-08-19T03:41:01Z;2014-08-19T03:41:01Z;mikeric/rivets;mikeric/rivets;mikeric;8;jhnns/mikeric/jhnns/jhnns/mikeric/jhnns/tcz/mikeric;"Is adding support for primitive values an option for you? A possible implementation could look like

``` javascript
function parseArgument(arg) {
    if (/^'.*'$/.test(arg)) {
        // it's a string
        return arg.slice(1, -1);
    } else if (arg === ""true"") {
        return true;
    } else if (arg === ""false"") {
        return false;
    } else if (arg === ""null"") {
        return null;
    } else if (isNan(Number(arg)) === false) {
        // it's a number
        return Number(arg);
    } else {
        // it's a keypath
        // look up on scope
    }
}
```

I've added this ""feature"" to my formatters a couple of times because I found it to be useful.
 @jhnns It definitely is. I've been thinking about this after opening this pull request. I guess the only concern is when you have a key on your scope object that would match one of those types before hitting the else block.

For true/false/null it's not _that_ much of an issue because you can just prefix the keypath with an interface and it will pick it up. For example, if your scope contains `{true: 1, false: 0}`, and you want to reference the value of the `'true'` key as a formatter argument:

``` html
[target] | [formatter] .true
```

The problem here is that you are now ignoring the `rivets.config.rootInterface` even though that is still what we want to use here. Not a huge issue I guess.

For number values it's a bit more of an issue, though. If your root adapter is `.` and you would like to access the `20` key on an object, then the following will actually be parsed as a number and not a keypath (it will get parsed as `0.2`):

``` html
[target] | [formatter] .20
```

It would then require you to define a new adapter which merely references your root adapter just for the purpose of using a different key to get around this type parsing. For example:

``` javascript
rivets.adapters['!'] = rivets.adapters['.']
```

and then:

``` html
[target] | [formatter] !20
```

I realize these are all pretty rare edge-case, they're just to point out a few inconsistencies that may cause confusion. I would think it's probably a fair trade-off though.
 I guess that's a fair trade-off. Using these property names was invalid in ES3 and thus is still discouraged in IDEs. However, we could disable numbers starting with a dot to allow the dot notation...
 Plus: Property names starting with a digit are still invalid in ES5. And nobody would write a view that requires bracket notation to access properties :grinning: 
 @jhnns All good points. I went ahead and added support for all primitives except for composite data types (arrays and object literals). So `String`, `Number`, `Boolean`, `Null` and `Undefined` :)
 Awesome! :+1:
 Is this supposed to work already if I check out this branch?
 @tcz Yes, it will work if you check out this branch and do a build. I'm just waiting to merge this in along with some other changes as they will go towards the 0.7 release.
"
99;mikeric/rivets;323;2014-06-15T20:33:08Z;2014-08-02T00:32:29Z;2014-08-02T00:32:29Z;jhnns/rivets;mikeric/rivets;jhnns;1;mikeric;"@jhnns Works good. Thanks for the fix.
"
102;mikeric/rivets;310;2014-05-21T12:26:36Z;2014-08-02T00:46:57Z;2014-08-02T00:46:57Z;hqm42/rivets;mikeric/rivets;hqm42;1;mikeric;"@hqm42 Looks good. Thanks for fixing this :+1: 
"
104;mikeric/rivets;307;2014-05-16T19:58:14Z;2014-08-02T00:48:33Z;2014-08-02T00:48:33Z;davidcl64/rivets;mikeric/rivets;davidcl64;1;mikeric;"@davidcl64 Thanks for fixing this. Merging this in :+1: 
"
105;mikeric/rivets;306;2014-05-15T00:02:49Z;2014-08-02T00:53:29Z;2014-08-02T00:53:29Z;davidcl64/rivets;mikeric/rivets;davidcl64;2;davidcl64/mikeric;"Updated to fix merge conflicts resulting from changes to tests.
 This works. Thanks for the fix (and for including tests :P). Merging this in.
"
108;mikeric/rivets;294;2014-04-09T14:14:48Z;2014-05-17T22:48:20Z;2014-05-17T22:48:20Z;;mikeric/rivets;alexeyraspopov;4;alexeyraspopov/alexeyraspopov/alexeyraspopov/mikeric;"And sorry about commited files in dist, I forgot about this rule.
 up!
 up!
 @alexeyraspopov Thanks for the pull request, merging this in :)
"
109;mikeric/rivets;289;2014-03-23T22:57:22Z;2014-03-23T23:47:57Z;2014-03-23T23:47:57Z;;mikeric/rivets;GianlucaGuarini;1;mikeric;"@GianlucaGuarini Ah, thanks for spotting that!
"
110;mikeric/rivets;281;2014-02-26T19:21:44Z;2014-02-26T23:43:58Z;2014-02-26T23:43:58Z;;mikeric/rivets;alexeyraspopov;1;mikeric;"@alexeyraspopov Ah, I've been running the build task without watching lately so didn't even notice this. Thanks.
"
112;mikeric/rivets;279;2014-02-25T14:28:54Z;2014-03-16T01:30:50Z;2014-03-16T01:30:50Z;nickjs/rivets;mikeric/rivets;nickjs;3;jtblin/jhnns/mikeric;":+1: 
 It has been brought up before indeed, but I don't know an elegant solution for it, so: :+1: 
 @nickjs Hey, thanks for the pull request. You haven't misread anything actually. I've just been hesitant to add anything to the scope that the user hasn't explicitly set the key for. It's an extremely rare case, but if the parent view's scope has an `index` property that you'd like to use in an iterated view, it will now be overridden on that view's scope.

There isn't really another solution with the way view scopes work in rivets right now, and it's obviously a fair tradeoff, so merging this in for **0.6.7** :)

By the way, you guys are doing amazing work with Batman.js. Among a few other frameworks, the way templating is done in Batman.js was certainly a main source of inspiration when starting this lib.
"
114;mikeric/rivets;269;2014-02-05T21:03:49Z;2014-02-23T06:17:30Z;2014-02-23T06:17:30Z;;mikeric/rivets;alexeyraspopov;1;mikeric;"@alexeyraspopov Thanks for adding this. Merging :)
"
115;mikeric/rivets;266;2014-01-28T21:23:50Z;2014-05-10T21:31:14Z;2014-05-10T21:31:14Z;zmbush/rivets;mikeric/rivets;zmbush;3;amireh/zmbush/GianlucaGuarini;"This fixes part of the problem for me with subscriptions not being deactivated on unbinding, but the observer doesn't behave as expected after successive calls to `view.bind()` as demonstrated in [this fiddle](http://jsfiddle.net/eNnLb/).

The numbers of subscriptions should be 1:1 with unsubscriptions, at least that's how I expect it to be. I've looked through the changes in your PR and in the observer source but couldn't really nail it down.

Here's also a [spec](https://github.com/amireh/rivets/blob/fix-observer-unobserve/spec/rivets/observer.js#L26) that reproduces the issue embedded in rivets (my fork of your fork).
 @amireh That's not really what this issue is attempting to solve. I'm just trying to make it so that the on events are unbound properly when the view is unbound. Rebinding a view seems like an odd way to handle things, why not just copy the original dom, and reinitialize the view with that?
 I had the same issue https://github.com/mikeric/rivets/issues/288 this patch solves the problem. Please @mikeric merge it into the master
"
116;mikeric/rivets;265;2014-01-28T11:28:42Z;2014-08-02T01:05:07Z;2014-08-02T01:05:07Z;;mikeric/rivets;pvolok;1;mikeric;"@pvolok Good solution to the problem. Merging this in.
"
119;mikeric/rivets;251;2013-12-21T16:31:57Z;2013-12-22T20:16:44Z;2013-12-22T20:16:44Z;;mikeric/rivets;MiguelCastillo;3;MiguelCastillo/mikeric/mikeric;"I got this from jekyll and I have no idea what this means...  Any suggestions here?

---- Error:
The page build failed with the following error:

CNAME already taken: rivetsjs.com

For information on troubleshooting Jekyll see:

  https://help.github.com/articles/using-jekyll-with-pages#troubleshooting

If you have any questions please contact us at https://github.com/contact.
 > I got this from jekyll and I have no idea what this means... Any suggestions here?

@MiguelCastillo Ah, I should probably remove the `gh-pages` branch from here then (t's not using jekyll anymore). It's actually running on Harp on Heroku right now.
 This change looks reasonable to me. Merging this in.
"
123;mikeric/rivets;235;2013-11-22T17:12:45Z;2013-11-26T06:51:16Z;2013-11-26T06:51:16Z;EloB/rivets;mikeric/rivets;EloB;1;mikeric;"@EloB Awesome, this looks good. It does require jQuery to be loaded before Rivets.js now, which isn't a problem I don't think and is probably expected anyway. I will test this soon.
"
125;mikeric/rivets;224;2013-11-03T17:45:13Z;2013-11-17T06:41:47Z;2013-11-17T06:41:47Z;davidmcclure/rivets;mikeric/rivets;davidmcclure;1;jhnns;":+1: 

Interesting that there are still libraries out there which extend prototypes ^^
"
131;mikeric/rivets;209;2013-09-22T22:00:17Z;2013-10-17T02:56:46Z;2013-10-17T02:56:46Z;mikeric/rivets;mikeric/rivets;mikeric;3;jhnns/rapidrapids/jhnns;"Cool!
 Thanks @mikeric, can you look to include support for IE8? I.e. #190 / #192 
 Polyfills should be included by the app, not the library imho. 
"
140;mikeric/rivets;182;2013-06-23T08:51:54Z;2013-06-25T04:52:33Z;2013-06-25T04:52:33Z;mikeric/rivets;mikeric/rivets;mikeric;4;contra/mikeric/contra/mikeric;"+100 - This solves the most frustrating problem. Right now our templates look like this

``` html
<p data-text=""pass.days | number | append day pass""></p>
```

Just curious though - why mustache style?
 > +100 - This solves the most frustrating problem. Right now our templates look like this

Yea, that's what we've been doing as well. Actually more often we've had to do this, which I find even worse.

``` html
<p>some text <span data-text=""model.prop""></span> some more text.</p>
```

> Just curious though - why mustache style?

Mostly because using `<% ... %>` would invalidate the HTML, and regular parenthesis are more common to be used in the actual text. It's also been a pretty popular convention to use `{{ ... }}` lately, so why not?

Was there a syntax you would prefer to use for text content templating? It would probably only be an extra line to have the delimiters configurable.

``` javascript
rivets.config.templateDelimiters = [""{{"", ""}}""]
```
 Configurable delimiters would be awesome. I prefer #{} to {{}} since that is what a lot of compile-to-js langs use these days for string interpolation (coffee-script being the main one). Wouldn't using the mustache style mess up mustache because it would try to compile them?
 > Wouldn't using the mustache style mess up mustache because it would try to compile them?

Hmm, do you mean that the template is being parsed as a string through mustache _before_ being parsed as HTML by Rivets.js? In that case, yes I suppose it would cause some issues if you're not escaping them.
"
150;mikeric/rivets;160;2013-05-09T18:01:14Z;2013-05-16T02:51:55Z;2013-05-16T02:51:55Z;cjblomqvist/rivets;mikeric/rivets;cjblomqvist;4;cjblomqvist/cjblomqvist/contra/mikeric;"An alternative is to have it possible to set this up through some kind of settings variable, but I have a hard time seeing how this will work at the moment.
 Oh, and please excuse my inability to create a slicker solution for copying the object using CoffeeScript, not very used to it :)
 @cjblomqvist The way you copy it looks good to me - list comprehensions ftw
 @cjblomqvist Looks good, thanks for spotting the issue. Merging this in.
"
151;mikeric/rivets;156;2013-05-02T17:37:49Z;2013-05-03T21:13:02Z;2013-05-03T21:13:02Z;pcorcoran/rivets;mikeric/rivets;pcorcoran;1;mikeric;"@pcorcoran Thanks for spotting that.
"
158;mikeric/rivets;143;2013-04-05T16:54:34Z;2013-04-06T17:58:22Z;2013-04-06T17:58:22Z;kayhadrin/rivets;mikeric/rivets;kayhadrin;1;mikeric;"@kayhadrin This looks good. I made a similar change to the value binder's routine in dfa1d26, as the node's value is always a string. It definitely makes more sense to convert both sides for comparison.

Thanks for spotting that issue in the tests, I will test this out soon when I get a minute.
"
159;mikeric/rivets;142;2013-04-04T22:24:15Z;2013-04-06T17:40:27Z;2013-04-06T17:40:27Z;;mikeric/rivets;pluma;1;mikeric;"@pluma No worries, I should have tested with a loader before building 0.4.6. Thanks for the fix.
"
160;mikeric/rivets;141;2013-04-03T22:50:26Z;2013-04-04T00:04:25Z;2013-04-04T00:04:25Z;;mikeric/rivets;pluma;2;mikeric/pluma;"@pluma This looks good. Although a concern was raised in #116 about globals. I think the general idea is that it would be better to always create a global, even if AMD is used. My understanding is that this is useful if you have scripts that are loaded by an AMD loader, but still want access to globals.

Would adding opt-in pollution resolve the issue in a way that doesn't _always_ create a global? It's just there if you want it.

```
require(""rivets"").global()
```
 I think the concern is invalid because I think this is an edge case of non-standard usage and a well-behaved AMD module should only pollute the global namespace when it is unavoidable.

However, as @jrburke seems to prefer the define-and-pollute approach and there is a UMD example for it, I will change my pull request accordingly.
"
165;mikeric/rivets;134;2013-03-14T14:45:49Z;2013-04-20T23:09:48Z;2013-04-20T23:09:48Z;;mikeric/rivets;zowens;9;contra/zowens/zowens/contra/zowens/contra/zowens/mikeric/mikeric;"+1 - all config should also this way
 Agreed
 @mikeric What's the holdup on this pull request? This is a pretty minor change, with serious real world uses (I currently need this for a work project!)
 @zowens - Man... If only there was some kind of a distributed version control system where you could have your own ""fork"" of a project
 That for that... Ass

Zack Owens

On Apr 19, 2013, at 4:59 PM, Eric Schoffstall notifications@github.com wrote:

> @zowens - Man... If only there was some kind of a distributed version control system where you could have your own ""fork"" of a project
> 
> —
> Reply to this email directly or view it on GitHub.
 @zowens - Just being an asshole. I think this commit should go a little further than just the formatters. I've recommended in the past that all config can either be local or global with local taking preference. 
 You could have just gone with that. Probably. 
 @zowens Pretty much what @Contra said. I definitely see the use-case for passing in formatters, but I think having the local options mirror all the options available on `Rivets` would make this ideal, as it would address #81 as well.

Implementation and API could be simpler as well. We could probably loose the `bindingOptions` key.

``` coffeescript
formatter = if @model[id] instanceof Function
  @model[id]
else
  @options.formatters?[id] ? Rivets.formaters[id]
```

And then when binding the view, for example.

``` coffeescript
rivets.bind el, {item: item},
  config:
    preloadData: false
  formatters:
    plusOne: (value) ->
      value + 1
```
 Ok, merging this in for a new 0.4.x release. I'm working on adding full segregated configuration support but I'd like to move everything onto the `Rivets.config` object (binders and formatters as well) to make the API a bit more consistent. I'll release those changes in **0.5.0** because of backwards incompatibility.
"
166;mikeric/rivets;130;2013-03-08T15:54:08Z;2013-03-29T01:06:11Z;2013-03-29T01:06:11Z;jjclark1982/rivets;mikeric/rivets;jjclark1982;3;ajb/mikeric/mikeric;"+1000000000 :thumbsup: 
 One issue with this fix is that is doesn't work when a formatter is applied to the input that publishes a non-string value. This can be fixed by converting both sides to a string for the comparison — that way, we'd be comparing it to the actual value that would eventually get set on the input.

To see what I mean, try changing the input that has the `negate` formatter applied. Notice that the cursor will jump to the end even though it's value hasn't changed. http://jsfiddle.net/mikeric/UzURH/

Note that the input in that example _needs_ to be an integer value, otherwise you'll get a `NaN` :(
 Ok, so I addressed this a couple of ways (#138 and #139). Both methods work in Webkit and IE 6+. I'm leaning towards #138 right now only to keep the codebase a bit cleaner, and just living with the fact that people using two-way formatters that _don't_ serialize and de-serialize predictably are definitely going to get mixed results on this front.

Let me know your thoughts before I merge #138 in.
"
170;mikeric/rivets;114;2013-01-05T08:03:00Z;2014-01-22T20:13:51Z;2014-01-22T20:13:51Z;AndersDJohnson/rivets;mikeric/rivets;AndersDJohnson;3;terrancesnyder/AndersDJohnson/terrancesnyder;"Why not a custom binder?

``` jacascript
rivets.binders['toggle-class-*'] = function(el, value) {
        if (value) {
            $(el).toggleClass(this.args[0], true);
        } else {
            $(el).toggleClass(this.args[0], false);
        }
    };
```

<div data-toggle-class-red=""model.red"" data-toggle-class-square=""model.square""/>
 @terrancesnyder I'm not sure your example does the same thing. It gets the class name from the wildcard in the element attribute, not from the model value, which only controls whether that class is applied by coercing the value to a boolean. Isn't that what the built-in ""data-class-*"" binder does anyway?

My addition allows the class names to come from the model values, e.g. directly transferring a string value on the model to a class on the element.

For multiple classes like this, it is necessary to support multiple bindings since support for repeated HTML element attributes are not part of the DOM standard, don't work with jQuery, etc. The alternative would be to use dummy wildcards and have another ""data-class-value-*"" attribute for each class you want to bind, but that would be confusing and verbose.
 @adjohnson916 understood given that you could have many different classes applied, and see your point. +1
"
172;mikeric/rivets;111;2012-12-30T20:24:04Z;2013-01-12T04:18:16Z;2013-01-12T04:18:16Z;;mikeric/rivets;terrancesnyder;1;mikeric;"Looks good, thanks for the fix @terrancesnyder.
"
173;mikeric/rivets;107;2012-12-13T21:58:16Z;2012-12-18T01:04:29Z;2012-12-18T01:04:29Z;obmarg/rivets;mikeric/rivets;obmarg;1;mikeric;"Good catch @obmarg and thanks for the fix!
"
175;mikeric/rivets;101;2012-11-20T06:53:59Z;2012-11-20T18:13:53Z;2012-11-20T18:13:53Z;jonasi/rivets;mikeric/rivets;jonasi;1;mikeric;"Looks good, thanks for the fix @jonasi.
"
178;mikeric/rivets;90;2012-11-12T18:10:26Z;2012-11-15T01:44:35Z;2012-11-15T01:44:35Z;miketzian/rivets;mikeric/rivets;miketzian;1;mikeric;"This is awesome! Works as advertised.
"
186;mikeric/rivets;72;2012-09-28T21:46:33Z;2012-10-06T20:05:13Z;2012-10-06T20:05:13Z;jlsync/rivets;mikeric/rivets;jlsync;3;jlsync/Hugoch/mikeric;"yup, confirmed, also fixes rivets on windows mobile 7.5.
 Also fixes the same problem on IE 9.0.9.
 Looks good to me, merging this in.
"
189;mikeric/rivets;51;2012-08-11T15:35:24Z;2012-08-14T23:36:55Z;2012-08-14T23:36:55Z;ansman/rivets;mikeric/rivets;ansman;1;contra;"+1 - this happens a lot and is hard to notice unless you look at the JS output. Hurts performance and file size
"
192;mikeric/rivets;46;2012-08-06T16:55:08Z;2012-08-06T23:30:31Z;2012-08-06T23:30:31Z;;mikeric/rivets;feelepxyz;1;mikeric;"Looks good (tested on IE8 and FF3.6). Merging this in.
"
196;mikeric/rivets;39;2012-07-30T00:44:16Z;2012-07-31T00:20:09Z;2012-07-31T00:20:09Z;mikeric/rivets;mikeric/rivets;mikeric;4;paulj/mikeric/paulj/mikeric;"What does the `>` symbol imply in the above constructs?
 It delimits the actual model function (what sets the value for the binding) from it's dependant attributes (what will trigger that function to re-compute). Maybe `>` is not the best symbol to use here?

_Note: that syntax was an example for the upcoming computed-property feature, which is not implemented in this pull-request (but they are somewhat related)._
 Ah, I see.

I'd been wondering whether another way to do this would be to create an explicit `ViewModel` class (as inspired by Knockout). This would be able to treated like any other model (perhaps with a zero-conf adapter that understands how to subscribe), and on it you could define computed properties that will themselves trigger a change whenever specified properties are changed (essentially, it would act like an event proxy for a series of properties). This would have the advantage of allowing presentation properties to be separated from the actual storage properties.

That being said, your construct is a lot simpler, and the uses for it wouldn't be removed by a view model anyway.
 Definitely, I've thought about using Rivets.js in that way because I do like that pattern a lot more. Not necessarily having an explicit `ViewModel` in Rivets.js, but maybe having it come bundled with a very simple event-driven object (and a default adapter for it) that can be used for things like view models (to house view state and behaviour) or even as a starting point for writing your own data models, etc. Basically just employing a convention-over-configuration approach where you'd have a working environment out-of-the-box that you can replace entirely, use in conjunction with something else, or use as-is in an MVVM type fashion.

I think it should still be up to the user to implement the view model like you've described, just as long as there is enough flexibility in Rivets.js to support all of these patterns well.
"
197;mikeric/rivets;38;2012-07-25T03:56:04Z;2012-07-30T22:40:37Z;2012-07-30T22:40:37Z;paulj/rivets;mikeric/rivets;paulj;3;mikeric/paulj/mikeric;"I like the idea a lot, and it does add a lot of functionality with very little code, but I feel that it's kind of an awkward way to define computed properties.

Defining formatters on the model would be useful instead of a simple formatter for the same reasons a computed property would be — if they require additional knowledge of the model instance, such as dependent attributes and other functions defined on the model. Implementing them in the same way as formatters makes things feel a bit shoehorned, in my opinion.

For example, if your computed property depends on two different attributes, _start_ and _end_, the value being passed in from the binding (an imposed API for formatters) has little value at this point because you won't know what attribute the value is for, not to mention you'd already have access to those properties on the model anyway (this is easily fixed by just not sending the value through when it's a model-defined formatter, but sometimes it may actually be desirable if the function can be used arbitrarily with any value).

```
eventDuration: (value, measurement) =>
  start = moment @get('start')
  end = moment @get('end')
  start.diff end, measurement
```

The other main issue is that there is no way currently to declare multiple attributes to subscribe to, since formatters are just single-value piping functions — you could only really have that function re-compute when one of _start_ or _end_ changes instead of when either changes.

```
<span data-text=""event.start | eventDuration days""></span>
```

Maybe comma-separated keypaths could be a solution? or maybe you have some suggestions?

```
<span data-text=""event.start, end | eventDuration days""></span>
```
 I actually cheated slightly here in my adapter, and added support for subscribing to just the object itself (ie, an empty keypath). That way, I can do things like `<span data-text=""event | eventDuration days""></span>`, and be subscribed to changes on multiple keys.
 Merging this in as-is. I can see how it could be useful to have model-specific formatters. Also if the model formatters take precedence over the global ones, then they can act as an override too.
"
199;mikeric/rivets;35;2012-07-24T06:19:49Z;2012-07-25T00:40:52Z;2012-07-25T00:40:52Z;paulj/rivets;mikeric/rivets;paulj;1;mikeric;"Looks good. I've generally avoided this by binding the parent-most views before rendering/inserting any nested ones, and then just bind the nested views after the fact. But I can see how that wouldn't be ideal in a lot of cases.
"
208;mikeric/rivets;25;2012-07-11T19:27:52Z;2012-07-12T23:51:34Z;2012-07-12T23:51:34Z;;mikeric/rivets;contra;5;mikeric/contra/mikeric/contra/mikeric;"This doesn't seem to work for me. When the `Rivets.Binding::bind` function is called for an event binding, it's also attempting to do a standard `adapter.subscribe` on the model, and since `@model` is undefined at that point, there's an ""Uncaught TypeError: Cannot call method 'on' of undefined "". Any insight into how you were testing this?

Also, in `data-event-click=""functionName""`, where would that function be defined? Is it just on window? Because a lot of the time these functions would be performing some sort of operation on a model and would need to know a bit more about the ""view"" in general. For example, I would probably have these functions defined on a BackBone.View instance, or on a view model that knows what model(s) to change, remove, update, etc. Maybe if you could pass that object in to `rivets.bind` so it knows where to call the functions.

```
rivets.bind el, {item: item}, viewModel
```

Then when you have a `data-event-click=""remove""` it will call `viewModel.remove()`. Maybe there are better ways to go about this, it definitely requires some more thought though.
 The function would be defined in the object passed to bind. I'm using a vanilla Object.watch adapter I wrote to watch the object for changes.

Code (including Object.watch shim)

``` javascript
if (!Object.prototype.watch) {
    Object.prototype.watch = function (prop, handler) {
        var oldval = this[prop], newval = oldval,
        getter = function () {
            return newval;
        },
        setter = function (val) {
            oldval = newval;
            return newval = handler.call(this, prop, oldval, val);
        };
        if (delete this[prop]) { // can't watch constants
            if (Object.defineProperty) // ECMAScript 5
                Object.defineProperty(this, prop, {
                    get: getter,
                    set: setter
                });
            else if (Object.prototype.__defineGetter__ && Object.prototype.__defineSetter__) { // legacy
                Object.prototype.__defineGetter__.call(this, prop, getter);
                Object.prototype.__defineSetter__.call(this, prop, setter);
            }
        }
    };
}

if (!Object.prototype.unwatch) {
    Object.prototype.unwatch = function (prop) {
        var val = this[prop];
        delete this[prop]; // remove accessors
        this[prop] = val;
    };
}

var nestObj = function(obj, keypath) {
    var ref = keypath.split('.');
    var last = ref.pop();
    for (var i = 0; i < ref.length; i++) {
      var k = ref[i];
      obj = obj[k];
    }
    return {result: obj, prop: last};
};
rivets.configure({
    adapter: {
      subscribe: function(obj, keypath, callback) {
        var res = nestObj(obj, keypath);
        res.result.watch(res.prop, function(prop, oldval, newval){
          callback(newval);
          return newval;
        });
      },
      read: function(obj, keypath) {
        var res = nestObj(obj, keypath);
        return res.result[res.prop];
      },
      publish: function(obj, keypath, value) {
        var res = nestObj(obj, keypath);
        res.result[res.prop] = value;
      }
    }
});
```

This is the object I'm passing in

``` javascript
{
      test: {
          svc: function (e) { console.log(e); }
      }
};
```

and setting data-event-keyup=""test.svc"" will call that function. I don't use backbone so I'm not familiar with how their stuff works but this would definitely have to be reworked to be adapter-agnostic. An easy solution might be to bind the context of the function to the object/view
 Okay, I like this way more than how I originally thought. Also I think your solution to keeping this adapter-agnostic is probably the best bet — just assume/impose that the function is defined directly on the object and don't rely on the adapter at all. This has the side effect that if you change the function after it has already been binded, the function that has been bound will remain the same. I don't see it as such a major issue, since the function can just be re-binded in the event that it does need to change.
 The functionality is already there to unbind the current function from the element and bind the new one if the function value is changed
 Yes, but that's using the `adapter.subscribe` interface, which works well for the type of object you're binding to, and it also works well for Spine models because all functions and attributes are defined on that object directly, so you can set functions in the same way you set other attributes. However, in Backbone, attributes aren't stored on the root object, but the functions typically will be. I wouldn't want to impose that functions need to be set as attributes for this feature to work with Backbone models.

There should probably be an alternative syntax for being able to access anything defined directly on the object and just bypass the `adapter.subscribe` altogether (for things like functions and constants that you just want to be set once). In this example (Backbone), the first way will work like you've implemented it. The second way will just attach the event to `item.destroy` and be done with it.
- `data-event-click=""item.destroy""` — this will use item.get(""destroy"") and keep it in sync
- `data-event-click=""item:destroy""` — this will use item.destroy

Adding this syntax will also make it easier to implement something like #14. In this example, when the attribute `attr` is changed, the text of that span is set to the output of calling `obj.fn()`.

```
<span data-text=""obj.attr > obj:fn""></span>
```
"
213;mikeric/rivets;15;2012-07-07T21:05:10Z;2012-07-07T23:46:03Z;2012-07-07T23:46:03Z;ansman/rivets;mikeric/rivets;ansman;1;mikeric;"Thanks @ansman, this was definitely a much needed addition. I'll be updating the adapter example in the README to include the `unsubscribe` function.
"
214;mikeric/rivets;13;2012-07-07T17:25:04Z;2012-07-11T02:13:36Z;2012-07-11T02:13:36Z;nicholasareed/rivets;mikeric/rivets;nicholasareed;2;ansman/mikeric;"Another issue is that Rivets doesn't accept jQuery elements, I think the correct version should be `document.getElementById('auction')`.
 Added jQuery object support in 4d2f8966.
"
217;mikeric/rivets;7;2012-07-05T23:23:48Z;2012-07-06T00:46:28Z;2012-07-06T00:46:28Z;;mikeric/rivets;pgib;1;mikeric;"Thanks for finding/fixing these. One of the definite downsides to not using jQuery is dealing with all these cross-browser differences.
"
