No;mainline_repo;pr_no;created_at;closed_at;merged_at;repo_origin_ml;repo_destin;pr_owner;no_commenters;pr_commenters;pr_comments
2;onechiporenko/ember-models-table;434;2020-11-12T03:01:42Z;2020-11-12T10:41:32Z;2020-11-12T10:41:32Z;ef4/ember-models-table;onechiporenko/ember-models-table;ef4;1;onechiporenko;Hi, @ef4. Thanks for PR!
5;onechiporenko/ember-models-table;428;2020-09-11T12:20:05Z;2020-09-11T16:38:01Z;2020-09-11T16:38:01Z;onechiporenko/ember-models-table;onechiporenko/ember-models-table;onechiporenko;1;coveralls;"
[![Coverage Status](https://coveralls.io/builds/33396570/badge)](https://coveralls.io/builds/33396570)

Coverage decreased (-1.4%) to 93.016% when pulling **2b387932780ae6041493ad0679c295292347f7f5 on remove-helpers** into **b9e295b14f0175196e15589508a723bfacbda0b4 on master**.
"
6;onechiporenko/ember-models-table;427;2020-09-07T09:30:50Z;2020-09-07T11:38:27Z;2020-09-07T11:38:26Z;onechiporenko/ember-models-table;onechiporenko/ember-models-table;onechiporenko;1;coveralls;"
[![Coverage Status](https://coveralls.io/builds/33278400/badge)](https://coveralls.io/builds/33278400)

Coverage increased (+0.003%) to 94.434% when pulling **f26d16903942fe051a15788b76b83a66412f2a3b on 3.21** into **15319dedd58ddfe6f05372ebaada5d2819b9b318 on master**.
"
7;onechiporenko/ember-models-table;425;2020-08-06T14:02:00Z;2020-08-10T11:02:51Z;2020-08-10T11:02:51Z;onechiporenko/ember-models-table;onechiporenko/ember-models-table;onechiporenko;1;coveralls;"
[![Coverage Status](https://coveralls.io/builds/32584525/badge)](https://coveralls.io/builds/32584525)

Coverage remained the same at 94.431% when pulling **c14ee08de64057cb773f9bdc6392b76e3289d158 on 3.20** into **9bb7871e16766eed563bab6af440512c114dcdd2 on master**.
"
9;onechiporenko/ember-models-table;422;2020-06-30T15:42:11Z;2020-07-02T00:10:40Z;2020-07-02T00:10:40Z;onechiporenko/ember-models-table;onechiporenko/ember-models-table;onechiporenko;1;coveralls;"
[![Coverage Status](https://coveralls.io/builds/31806253/badge)](https://coveralls.io/builds/31806253)

Coverage increased (+0.05%) to 94.431% when pulling **c9e801ba37534fc326b51a74a0b3c528209c9883 on 3.19** into **9326969cefd8cd11f81243db9ffb4b17186e34f1 on master**.
"
10;onechiporenko/ember-models-table;420;2020-05-13T23:31:02Z;2020-05-14T22:46:46Z;2020-05-14T22:46:46Z;onechiporenko/ember-models-table;onechiporenko/ember-models-table;onechiporenko;1;coveralls;"
[![Coverage Status](https://coveralls.io/builds/30800575/badge)](https://coveralls.io/builds/30800575)

Coverage decreased (-0.06%) to 94.377% when pulling **1a9a6ade03815d0455c778bf183165beb96b3815 on 3.18** into **2e936a67810be0164de252c29752ec54883e46be on master**.
"
11;onechiporenko/ember-models-table;419;2020-05-04T11:47:41Z;2020-05-05T11:46:26Z;2020-05-05T11:46:25Z;onechiporenko/ember-models-table;onechiporenko/ember-models-table;onechiporenko;1;coveralls;"
[![Coverage Status](https://coveralls.io/builds/30538056/badge)](https://coveralls.io/builds/30538056)

Coverage increased (+0.02%) to 94.438% when pulling **f8eeb57573dc7ef58c0b493192eb1868e6e0812d on toggle-all-indeterminate-state** into **4202f41ac9a523b2ff126ec1701ab027563484ac on master**.
"
12;onechiporenko/ember-models-table;418;2020-04-28T13:26:01Z;2020-04-28T15:19:03Z;2020-04-28T15:19:03Z;onechiporenko/ember-models-table;onechiporenko/ember-models-table;onechiporenko;1;coveralls;"
[![Coverage Status](https://coveralls.io/builds/30402244/badge)](https://coveralls.io/builds/30402244)

Coverage remained the same at 94.421% when pulling **6e6f766dabbc286beaeec97731b3381420a828b0 on bs-3** into **f4c8baa6efcab3c0a0d6079c477221f6d6185dde on master**.
"
14;onechiporenko/ember-models-table;415;2020-04-09T14:58:16Z;2020-04-26T13:22:35Z;2020-04-26T13:22:35Z;onechiporenko/ember-models-table;onechiporenko/ember-models-table;onechiporenko;1;coveralls;"
[![Coverage Status](https://coveralls.io/builds/30323647/badge)](https://coveralls.io/builds/30323647)

Coverage increased (+0.06%) to 94.421% when pulling **997dcdab7760dbdb3e0b5fe8fb83bb9e0f7eb321 on 3.17** into **91d25ad1d74a3535bf81ed83c66154b0ca84c800 on master**.
"
15;onechiporenko/ember-models-table;413;2020-03-03T10:50:01Z;2020-03-03T11:32:35Z;2020-03-03T11:32:35Z;onechiporenko/ember-models-table;onechiporenko/ember-models-table;onechiporenko;1;coveralls;"
[![Coverage Status](https://coveralls.io/builds/29096353/badge)](https://coveralls.io/builds/29096353)

Coverage increased (+3.8%) to 94.365% when pulling **6832eeb2a1a2de3d9b69415ea285e8f65a2e1b97 on remove-semantic** into **c9563b5658ef7d451ac94ae07f957841f5175eb0 on master**.
"
17;onechiporenko/ember-models-table;411;2020-02-25T14:29:48Z;2020-03-03T09:32:50Z;2020-03-03T09:32:50Z;onechiporenko/ember-models-table;onechiporenko/ember-models-table;onechiporenko;1;coveralls;"
[![Coverage Status](https://coveralls.io/builds/28995406/badge)](https://coveralls.io/builds/28995406)

Coverage increased (+7.5%) to 90.575% when pulling **d4ef6c8e30b7273ca0848db25bb81a0f350d212f on merge-coverage** into **777720012cffdb8478415cb7920d605fc90d7d3f on master**.
"
22;onechiporenko/ember-models-table;406;2020-02-13T21:29:21Z;2020-02-19T11:12:42Z;2020-02-19T11:12:42Z;broldak/ember-models-table;onechiporenko/ember-models-table;broldak;3;onechiporenko/broldak/broldak;"Hi, @broldak. Thanks for PR!
I'm ready to merge it. Could you please provide another one for master (v.3)? @onechiporenko Will do! @onechiporenko https://github.com/onechiporenko/ember-models-table/pull/409 Ported to master."
29;onechiporenko/ember-models-table;397;2020-01-03T03:52:22Z;2020-01-03T11:08:10Z;2020-01-03T11:08:10Z;2hu12/ember-models-table;onechiporenko/ember-models-table;2hu12;1;onechiporenko;Thanks, @2hu12 !
65;onechiporenko/ember-models-table;335;2018-09-18T09:21:31Z;2018-09-18T11:33:30Z;2018-09-18T11:33:30Z;ERDIL/ember-models-table;onechiporenko/ember-models-table;sly7-7;1;onechiporenko;Thanks, @sly7-7 !
66;onechiporenko/ember-models-table;334;2018-09-17T16:44:41Z;2018-09-18T11:30:25Z;2018-09-18T11:30:25Z;runspired/ember-models-table;onechiporenko/ember-models-table;runspired;1;onechiporenko;Hi, @runspired. Thanks for PR!
69;onechiporenko/ember-models-table;310;2018-04-13T14:42:48Z;2018-06-18T14:14:56Z;2018-06-18T14:14:56Z;DarrenDrumm/ember-models-table;onechiporenko/ember-models-table;DarrenDrumm;1;onechiporenko;Hi, @DarrenDrumm. Thanks for your PR!
70;onechiporenko/ember-models-table;308;2018-03-26T12:14:04Z;2018-03-27T15:35:54Z;2018-03-27T15:35:54Z;ERDIL/ember-models-table;onechiporenko/ember-models-table;sly7-7;2;onechiporenko/sly7-7;"Hi, @sly7-7. Thanks for PR.
Could you please add a definition for `sortFunction` in the `utils/column` (below `filterFunction`) with a description? @onechiporenko  Also I wonder if the tests are correct, the behavior seems kind of weird for me, could double check please ?"
72;onechiporenko/ember-models-table;301;2018-02-27T10:49:48Z;2018-03-01T21:53:04Z;2018-03-01T21:53:04Z;ERDIL/ember-models-table;onechiporenko/ember-models-table;sly7-7;2;onechiporenko/sly7-7;"@sly7-7, thanks for PR!
Could you please remove extra-formatting from `models-table.js` and leave only added changes. Also as for me it's better to yield whole `publicAPI` and not only`recordsCount`.
Also there is no need to add custom `assign`, because we use Ember 2.8+. @onechiporenko Should be good now. Let me now for assign, if I just could use Object.assign or let the ember's polyfill as is."
73;onechiporenko/ember-models-table;299;2018-02-15T13:50:36Z;2018-02-16T10:38:15Z;2018-02-16T10:38:15Z;kjarri/ember-models-table;onechiporenko/ember-models-table;kjarri;1;onechiporenko;@kjarri, thanks for PR! I have only one question. Other LGTM.
76;onechiporenko/ember-models-table;287;2017-12-15T13:54:40Z;2017-12-18T22:44:21Z;2017-12-18T22:44:21Z;bgantzler/ember-models-table;onechiporenko/ember-models-table;bgantzler;2;onechiporenko/bgantzler;@bgantzler, thanks for PR! It looks realy good! I left a few comments. Some of them require changes and some are discussable. I have made the requested changes and re-pushed the request. Not sure how to mark on the request that this was completed
77;onechiporenko/ember-models-table;280;2017-12-05T21:52:12Z;2017-12-06T21:48:00Z;2017-12-06T21:48:00Z;bgantzler/ember-models-table;onechiporenko/ember-models-table;bgantzler;2;bgantzler/cah-briangantzler;"Ok so now this time the 2 tests instead of 3 failed and on a different ember try. The code however is the same between the two runs (rebased on master but since master passed....)
So if you require a complete pass to merge, I do not understand what the problem is that needs fixed. :( Removed and pushed

From: onechiporenko <notifications@github.com>
Reply-To: onechiporenko/ember-models-table <reply@reply.github.com>
Date: Wednesday, December 6, 2017 at 11:30 AM
To: onechiporenko/ember-models-table <ember-models-table@noreply.github.com>
Cc: Subscribed <subscribed@noreply.github.com>
Subject: Re: [onechiporenko/ember-models-table] inline edit (#280)

  [ External Email ]

@onechiporenko commented on this pull request.

________________________________

In tests/integration/components/models-table-test.js<https://github.com/onechiporenko/ember-models-table/pull/280#discussion_r155287579>:

> +  const columns = generateColumns(['index', 'firstName', 'lastName']);

+  columns[0].editable = false; // Index is not editable

+  columns[1].componentForEdit = ""stub-comp-edit""; // Index is not editable

+

+  this.setProperties({

+    data: generateContent(5, 1),

+    columns

+  });

+

+  this.render(hbs`

+    {{#models-table data=data columns=columns as |c|}}

+      {{#c.table as |table|}}

+        {{#table.body as |body|}}

+          {{#each body.visibleContent as |record index|}}

+            {{#body.row record=record index=index as |row|}}

+            {{log row}}

Yes, pls remove it.

—
You are receiving this because you are subscribed to this thread.
Reply to this email directly, view it on GitHub<https://github.com/onechiporenko/ember-models-table/pull/280#discussion_r155287579>, or mute the thread<https://github.com/notifications/unsubscribe-auth/ABdVxuI3C79Pwb_cCQXV8b4K_VYk6eJcks5s9sD-gaJpZM4Q3BWa>.
_________________________________________________

This message is for the designated recipient only and may contain privileged, proprietary
or otherwise private information. If you have received it in error, please notify the sender
immediately and delete the original. Any other use of the email by you is prohibited.

Dansk - Deutsch - Espanol - Francais - Italiano - Japanese - Nederlands - Norsk - Portuguese - Chinese
Svenska: http://www.cardinalhealth.com/en/support/terms-and-conditions-english.html
"
80;onechiporenko/ember-models-table;277;2017-12-01T19:44:30Z;2017-12-15T14:17:32Z;2017-12-15T14:17:32Z;kylegosen/ember-models-table;onechiporenko/ember-models-table;kylegosen;10;cah-briangantzler/bgantzler/onechiporenko/kylegosen/cah-briangantzler/onechiporenko/kylegosen/cah-briangantzler/onechiporenko/bgantzler;"Yes, will definitely will be able to expand this and solve a couple other issues listed here.  I would like you to look at an approve this one as well. Once done can issue another request to add a few more, and that should fix the issues of requests to reset and alter the selected items.

If you are unfamiliar with this its similar to how [ember-power-select](https://github.com/cibernox/ember-power-select) does it. Hi, @gosenkyl. Sorry for such delay with a response. Could you please provide a demo with a described problem (https://ember-twiddle.com)? Normally table-content should be updated when `data` is changed. @onechiporenko The table/data is being updated but the filters are not being reapplied etc.

Here is an example, https://ember-twiddle.com/36bd156cfa64a0ba7057e0745d0c0bff

I have the table filtered by color = red. I change the color to green and even though the rows data changes to green, it should no longer be displayed as I am filtered on red. As an added note, we did implement this with it monitoring all the fields and responding accordingly. This however performed poorly on a large set. Since we know we  changed a record and would like it to re-filter, just calling the exposed API was a much better choice. @gosenkyl, @cah-briangantzler, I spend some time googling and found interesting issue in the ember-repo - https://github.com/emberjs/ember.js/issues/10661.
Well, I can't accept a solution with usage component's internal stuff from the outside, however for now I don't know how to keep `filteredContent` updated....
Now for your project you can extend or reopen a `models-table` Component and use your solution, but it has to be a way to ""fix"" this. One of the best and most popular add-on developers has exposed a few internal methods for this exact reason.

http://ember-power-select.com/docs/api-reference
(see: ""Public API's methods and actions"")

As mentioned above, I created the filteredContent computed property dynamically based on the columns properties in the didReceiveAttrs and while it worked as expected (refiltered on change of data), it was way too expensive to do that way. With hundreds or thousands of rows, the initial load went from a half of a second to 15 seconds due to computing on every single cell's data.

There comes a point where trying to be too smart and watch for so many moving parts to change becomes too expensive and inefficient. The developer knows when data changed internal to the table, it seems logical to allow a ""force refilter"". It doesn't give the developer access to ""too much of the internals"", refiltering the table on demand does very minimal. I would definitely have a problem with exposing other particular functions/fields but this isn't one of them.

This is also necessary for @bgantzler to add built in, in-line table editing as the same problem will occur. I guess I should have been more clear.  We did change filtered content to be invalidated on all the correct fields and it performed really poorly on large sets. We un-did that code and went with this approach. This puts the control in the users hands. If the value changes and you do NOT want the table to refilter, dont call this method. Why? Perhaps the user changed something accidentally, an auto filter would have filtered it out and they would have to search to find the record to search. Maybe you want to not filter, leave the record there to change it. If you want it to auto filter, call the exposed method after the record changes. Point is its the user call now.

Sorting should kinda work the same way, some people want it to sort immediately, some dont so the record stays on the screen in the same place and not jarring to the user to disappear. This should be the users call not a mandated thing.

I havent got much time but was working on updating processedColumns to a real computed property   using definedProperty, when its down you'll see what I mean. This approach is ok for because the columns array will have few records. This approach is poor performing for the data (filteredContent), and takes the choice out of the developers hands on when the data is refiltered.

As for your concern, what is exposed is will be public APIs and not much different than functions being yielded. This is the approach that will also solve the questions about access to selected items. For that for example, I would NOT expose the selectedItems array, its a copy half the time and in the future you may choose to internally store it a different way. What would be exposed is a selectedItems.clear, selectedItemc.remove, selectedItems.add, selectedItems.fetch. In this way you are not exposing internals but instead exposing a publicApi that will interact with the internals.

As Kyle mentions, take a look at ember-power-select, this approach is patterned of his component, and we will try to make it as close to his as possible.

Sorry for the long text :) Trying to explain a lot. Well.. Thanks for clarifications! Ok, I'll merge this PR. Fix merge-conflicts, pls. The conflicts have been fixed"
82;onechiporenko/ember-models-table;274;2017-11-06T15:12:21Z;2017-11-06T20:59:50Z;2017-11-06T20:59:50Z;bgantzler/ember-models-table;onechiporenko/ember-models-table;bgantzler;1;onechiporenko;"Thanks, @bgantzler!
FYI, docs are generated from the code comments (yuidoc is used)"
91;onechiporenko/ember-models-table;242;2017-09-05T10:08:14Z;2017-09-05T12:53:11Z;2017-09-05T12:53:11Z;mydea/ember-models-table;onechiporenko/ember-models-table;mydea;1;mydea;See #239 
94;onechiporenko/ember-models-table;230;2017-07-04T13:54:07Z;2017-07-10T16:11:15Z;2017-07-10T16:11:15Z;mydea/ember-models-table;onechiporenko/ember-models-table;mydea;1;onechiporenko;Hi, @mydea. Thanks for PR!
97;onechiporenko/ember-models-table;210;2017-05-04T15:53:16Z;2017-05-05T10:28:57Z;2017-05-05T10:28:57Z;mydea/ember-models-table;onechiporenko/ember-models-table;mydea;2;onechiporenko/mydea;Hi, @mydea! Thasks for PR. Could you pls add a test that checks filter is not shown if predefined filter options are empty? I added a test for that case! :)
107;onechiporenko/ember-models-table;191;2017-03-16T12:24:31Z;2017-03-24T10:58:44Z;2017-03-24T10:58:44Z;;onechiporenko/ember-models-table;BennyAlex;2;onechiporenko/BennyAlex;@BennyAlex, could you add a description for `selectRowOnClick` to the index.hbs (in the dummy-app)? @onechiporenko just saw it now. There we go
111;onechiporenko/ember-models-table;185;2017-03-06T10:25:05Z;2017-03-06T14:42:35Z;2017-03-06T14:42:35Z;;onechiporenko/ember-models-table;BennyAlex;1;onechiporenko;Hi, @BennyAlex. Thanks
116;onechiporenko/ember-models-table;158;2016-12-21T19:33:56Z;2016-12-21T21:15:44Z;2016-12-21T21:15:44Z;ruzz311/ember-models-table;onechiporenko/ember-models-table;ruzz311;2;onechiporenko/ruzz311;"@ruzz311, as for me, `Serializer` should handle BE-responses with models data and check if `meta` exists I'm fairly new to how ember does things but I requested this change to help with various component integration testing.  I've extended the server-pagination component and we have a more complex version that fails on render tests with out us being overly explicit.

Maybe there's a better way since the only time this is a problem for me is in tests; a common DS mock suite perhaps?   Regardless, I do believe handling unexpected inputs in a graceful way with low of effort might make this component stronger."
118;onechiporenko/ember-models-table;153;2016-12-12T22:59:08Z;2016-12-13T09:45:38Z;2016-12-13T09:45:38Z;ruzz311/ember-models-table;onechiporenko/ember-models-table;ruzz311;1;ruzz311;Well, I didn't notice how many helper functions are used in _setupColumns so it's more like ~110-120 lines to access the original column definition within the templates (not cell templates, but the row, header, etc)
123;onechiporenko/ember-models-table;103;2016-06-27T11:56:48Z;2016-06-29T07:34:11Z;2016-06-29T07:34:11Z;listepo/ember-models-table;onechiporenko/ember-models-table;listepo;1;listepo;"ping
"
127;onechiporenko/ember-models-table;97;2016-06-21T21:14:17Z;2016-06-22T13:08:38Z;2016-06-22T13:08:38Z;listepo/ember-models-table;onechiporenko/ember-models-table;listepo;2;onechiporenko/listepo;"Hi, @listepo. Could you add descriptions for new properties to the https://github.com/onechiporenko/ember-models-table/blob/master/tests/dummy/app/templates/index.hbs? Thanks
 @onechiporenko sure
"
129;onechiporenko/ember-models-table;93;2016-06-01T08:54:00Z;2016-06-02T08:25:58Z;2016-06-02T08:25:58Z;;onechiporenko/ember-models-table;Walther;2;onechiporenko/Walther;"Hi, @Walther. Thanks for PR!
Could you also add default value (even empty string) to the https://github.com/onechiporenko/ember-models-table/blob/master/addon/components/models-table.js#L57 ? 
 Added in d7f87fd
"
137;onechiporenko/ember-models-table;55;2016-01-15T07:07:56Z;2016-01-18T10:24:27Z;2016-01-18T10:24:27Z;;onechiporenko/ember-models-table;1int;1;jackmatt2;"I need this also, is it possible to merge?
"
