No;mainline_repo;pr_no;created_at;closed_at;merged_at;repo_origin_ml;repo_destin;pr_owner;no_commenters;pr_commenters;pr_comments
2;roccomuso/node-ads;27;2019-03-08T22:55:48Z;2019-03-12T19:17:52Z;2019-03-12T19:17:52Z;;roccomuso/node-ads;dkleber89;1;dkleber89;By the Way -> Why is this commented? ->   // ads.tcpClient.setKeepAlive(true)
3;roccomuso/node-ads;23;2018-09-25T10:03:13Z;2018-09-25T13:48:00Z;2018-09-25T13:48:00Z;Suizi11/node-ads;roccomuso/node-ads;Suizi11;1;PLCHome;"I had no problem reading the symbols. But that does not mean that everything is correct.

The solution is good. But I would be interested to know where the difference is coming from.
Was initialPos les than pos or higher? 
Can you post the buffer? `console.log(result);` on line 571
I would like to take a closer look. So I can rule, we read the Buffer, we make no mistake. 

This post is definitely OK.

Can you also test the reading of the types?"
5;roccomuso/node-ads;21;2018-09-13T20:31:54Z;2018-09-13T21:16:27Z;2018-09-13T21:16:27Z;PLCHome/node-ads-api;roccomuso/node-ads;PLCHome;1;roccomuso;thanks!
6;roccomuso/node-ads;20;2018-09-12T22:06:46Z;2018-09-12T22:27:14Z;2018-09-12T22:27:14Z;PLCHome/node-ads-api;roccomuso/node-ads;PLCHome;1;roccomuso;"Ok, thanks!
I don't have a plc to test this changes with. Neither I saw an easy way to simulate it with docker.

I'm merging this."
13;roccomuso/node-ads;11;2018-07-26T22:43:11Z;2018-07-30T16:41:44Z;2018-07-30T16:41:44Z;;roccomuso/node-ads;PLCHome;2;roccomuso/PLCHome;Let's resolve conflicts and we can merge :+1:  now it should work, please look over it again
16;roccomuso/node-ads;5;2018-05-22T09:36:16Z;2018-06-26T13:40:50Z;2018-06-26T13:40:50Z;sanderd17/node-ads;roccomuso/node-ads;sanderd17;4;roccomuso/sanderd17/roccomuso/sanderd17;"is this well tested? are we sure this fix doesn't introduces other issues? Depends on your definition of ""Well tested"". AFAICS, there are no unit tests, so I can only speak from what I noticed.

It didn't break reading and writing (as I use that too), and it fixed notifications. That's all I tested and IMO the most important functionality. Ok

Indeed, It would be good to have also unit test. I can give you access as mantainer if willing to.
Unfortunately I don't have any device neither enough knowledge of the bechoff products and ads to write complete unit tests.
 Well, we normally use OPC-UA to communicate with Beckhoff PLCs, but for this project, I needed ADS.

I don't know if I'll be using it a lot after this project, so I don't think I'll be a good maintainer as well.

To test it, you'll probably have to mock the incoming TCP stream, and use it to answer to requests and send notifications. "
