No;mainline_repo;pr_no;created_at;closed_at;merged_at;repo_origin_ml;repo_destin;pr_owner;no_commenters;pr_commenters;pr_comments
5;skynet2/ngx-google-places-autocomplete;51;2019-12-21T16:01:01Z;2020-11-03T14:09:00Z;2020-11-03T14:09:00Z;manniniandrea/ngx-google-places-autocomplete;skynet2/ngx-google-places-autocomplete;manniniandrea;1;manniniandrea;I forgot to paste the field name into the commit message, its 'origin'.. should I create a new PR?
10;skynet2/ngx-google-places-autocomplete;14;2018-08-02T21:53:39Z;2018-12-11T19:28:54Z;2018-12-11T19:28:54Z;ignaciolarranaga/ignacio-ngx-google-places-autocomplete;skynet2/ngx-google-places-autocomplete;ignaciolarranaga;1;richie50;@skynet2 can you review this merge the pull request @ignaciolarranaga 
