No;mainline_repo;pr_no;created_at;closed_at;merged_at;repo_origin_ml;repo_destin;pr_owner;no_commenters;pr_commenters;pr_comments
2;spite/THREE.MeshLine;102;2020-06-01T16:45:39Z;2020-09-13T21:56:59Z;2020-09-13T21:56:59Z;ryanking1809/threejs-meshline;spite/THREE.MeshLine;ryanking1809;8;Jeremboo/lancelet/ryanking1809/dskeithbuck/lancelet/trusktr/ryanking1809/ryanking1809;"Amazing man! Give me some time to take a look of it too! Some demos don't cover some features AFAICT, this also contains the changes from PR #73, right? Seems to need a rebase though. > AFAICT, this also contains the changes from PR #73, right? Seems to need a rebase though.

Oh yes, that's right. That will break some things, however, I do believe @axion014 modifications here are more correct than the existing implementation.

Can fix up the readme in the future as well :) Any updates on this? Hoping to use @ryanking1809's changes but would rather pull from this repo. Thanks! I'd really like to see things consolidated too. I've switched to @ryanking1809's version for the time being, but I hope there will be a central place for future development. It's really up to the maintainers of this repository to decide though (if / when they have time).

Hopefully the missing examples / test cases that are mentioned above can be enumerated so that those of us who are cheering from the sidelines can help provide them later. @Jeremboo Can you please make the demos that show the features that you said aren't currently shown, so we can verify them? That would be extremely great. Thanks @Jeremboo , should be able to review over the weekend! All good, let's call it done! Thanks @Jeremboo !"
4;spite/THREE.MeshLine;96;2020-02-04T19:21:34Z;2020-05-28T02:16:52Z;2020-05-28T02:16:52Z;andreasplesch/THREE.MeshLine;spite/THREE.MeshLine;andreasplesch;2;lmagedanz/fahadm;"Hi @spite, any chance that this could be merged? @spite if you're not active can you please appoint another contributor/owner so that people who depend on this can keep it up to date? ( both this change the `.at() is now required` fix 
I would be up for that."
8;spite/THREE.MeshLine;77;2019-03-15T09:36:40Z;2020-05-28T02:42:00Z;2020-05-28T02:42:00Z;Tankerxyz/THREE.MeshLine;spite/THREE.MeshLine;Tankerxyz;1;OlivierKamers;@spite Any update on this? We're getting the same warning. Thanks!
9;spite/THREE.MeshLine;73;2019-01-28T12:08:45Z;2020-09-13T21:57:00Z;2020-09-13T21:57:00Z;;spite/THREE.MeshLine;axion014;4;spite/axion014/trusktr/axion014;"Hi! Thanks for the PR. I tested it and the graph.html example doesn't work as expected. Is there anything I'm missing? The Graph demo were coded for current bugged MeshLine.
I didn't see why sizeAttenuation should be disabled here as line width is meant to be constant regardless of camera zooming, so I turned it to `false`(this syntax should definitely be reversed). Hello! Can you explain what this does? Can you explain before/after? Shader math is complicated and I mostly forgot what this does, but it basically fixes #26, making `lineWidth` behavior consistent between both type of cameras."
12;spite/THREE.MeshLine;59;2018-04-20T09:23:03Z;2019-01-28T20:43:49Z;2019-01-28T20:43:49Z;kappys1/THREE.MeshLine;spite/THREE.MeshLine;kappys1;3;kappys1/gvdlangenberg/zachzeyuwang;Last Push (merge) for remove conflicts about the last update  @spitea any idea if this will be merged some day? @spite Hey would this be merged someday?
14;spite/THREE.MeshLine;50;2017-09-24T17:05:31Z;2018-05-02T22:26:42Z;2018-05-02T22:26:42Z;Jeremboo/THREE.MeshLine;spite/THREE.MeshLine;Jeremboo;6;Jeremboo/danyim/Jeremboo/danyim/Jared-Sprague/Jeremboo;"I added another parameter: `dashratio`.

With this parameter, you can manage the ratio between the dash and the space.
This is only useful when the dasharray is set.

Near to `0` -> the dash is longer than the space.
Near to `1` -> the space is longer than the dash.
By default, it is set to `0.5`.

 I would love to have this feature be a part of this library. Can we get this reviewed and merged?

Thank you for contributing to the development of this! I made some examples on codepen during the codevember period: 

- <a href=""https://codepen.io/Jeremboo/pen/aVdxPw"" target=""_blank"">Random dashed lines</a>
- <a href=""https://codepen.io/Jeremboo/pen/BmxOyB"" target=""_blank"">Animated lines</a>

`dasharray` and `dashoffset` permit to have good animation approach. @spite @Jared-Sprague Could we merge this in? @Jeremboo @danyim I don't have write access to this repo.  I would recommend tweeting at [thespite](https://twitter.com/thespite) I sent a private message yesterday :) Thank a lot !"
18;spite/THREE.MeshLine;25;2016-10-06T02:04:19Z;2016-10-06T13:03:43Z;2016-10-06T13:03:43Z;Jared-Sprague/THREE.MeshLine;spite/THREE.MeshLine;Jared-Sprague;3;spite/mwcz/Jared-Sprague;"Nice work! 

I've reviewed the PR and i have a few changes and fixes for both the advance() and the boids demo. Do you mind if i merge our PR and then change it on the master branch?
 Sounds good to me!  @Jared-Sprague?  By the way, thank you @spite for making this!
 Sounds good thanks!
"
19;spite/THREE.MeshLine;24;2016-09-27T13:48:49Z;2016-09-27T21:16:29Z;2016-09-27T21:16:29Z;Jared-Sprague/THREE.MeshLine;spite/THREE.MeshLine;Jared-Sprague;1;Jared-Sprague;"@spite 
"
20;spite/THREE.MeshLine;18;2016-06-11T07:02:54Z;2016-08-09T19:43:14Z;2016-08-09T19:43:14Z;wizgrav/THREE.MeshLine;spite/THREE.MeshLine;wizgrav;1;PWhiddy;"This looks good!
"
