No;mainline_repo;pr_no;created_at;closed_at;merged_at;repo_origin_ml;repo_destin;pr_owner;no_commenters;pr_commenters;pr_comments
7;tadasr/react-native-iot-wifi;10;2019-03-19T20:24:23Z;2019-05-17T06:45:17Z;2019-05-17T06:45:16Z;edpaget/react-native-iot-wifi;tadasr/react-native-iot-wifi;edpaget;9;tadasr/edpaget/edpaget/tadasr/saurabytes/saurabytes/saurabytes/edpaget/saurabytes;"@edpaget, this is a great propose for this lib. I faced issues on some android version and couldn't fix it.
The main purpose of this lib was to use wifi network no matter what (I'm using it to configure IOT device).
I suggest use it by default, or add variable to `connect(... Bool forceUseNetwork, ...)`  function.
I think it is good practice to have identical API for both, iOS and Android. In this case iOS will ignore variable.
But maybe you have other reasons to have it as separate function. If so, I think we still should add dummy functions on iOS.
 That makes sense to me. I'll update it to do that. I think we'd probably still to have a function for unbinding in Android (and a corresponding dummy function in iOS), unless you think there's a better place that can be handled? Changed to make bind and unbind boolean arguments that get passed to the remove and connect methods, and also updated the ios files to accept dummy arguments. 

I also created wrapper javascript functions, to make sure the interface didn't change for current users (two arguments to `connect` will be interpreted as an `ssid` and `callback`), and added TypeScript type defs since I'm using that, but can definitely back either of those changes out if you'd prefer.  @edpaget that looks just great. There are two thing I think would be great to add:
1. If we are adding mid-layer in JS, let's add all functions there (`isAvaliable` and `getSSID`).
2. Can we update example with latest functionality? I tried to fix as many issues as possible with above PR but there is still one left. For some reason neither example app nor my other app are able to make `isAvailable` call. I dont need it for my app but it would be nice to see if somebody get figure out the issue and fix it before merge.
Note: I did update the code to fix the type `isAvaliable` to `isAvailable` Update: I have fixed following issues
```

- Change isAvailable to isApiAvailable
- Ignores binding crashes on SDK 23 (still haven't figure out why its crashing)
- Fixes the iOS react exports to match the index.js and fixes the crash
- Fix: detecting pre-added system config which can't be enabled or removed

```
 in this PR https://github.com/edpaget/react-native-iot-wifi/pull/2, can you review?  With the fixes merged above I think the PR is is much better shape and supports following
- Optional Force binding to a Wifi on both iOS and Android platforms
- Android: Better error handling
- Android: Detection for a system added config which cant be reused, removed or updated
- Android: Reliable polling for requested network connection for callbacks
It does do a lot of other cleanup and re-use of code

I have tested this on multiple API levels and iOS version 12 Sorry let this task slip. I've updated the Error -> ErrorCode @tadasr I think this PR is in good shape now. Feel free to use my https://github.com/tadasr/react-native-iot-wifi/pull/10#issuecomment-485881032 for release notes. I might also suggest a major version upgrade for the isApiAvialable api change."
