No;mainline_repo;pr_no;created_at;closed_at;merged_at;repo_origin_ml;repo_destin;pr_owner;no_commenters;pr_commenters;pr_comments
105;tlvince/make-coverage-badge;2;2018-03-23T18:08:03Z;2019-03-12T10:37:23Z;2019-03-12T10:37:23Z;charlesbdudley/make-coverage-badge;tlvince/make-coverage-badge;charlesbdudley;2;charlesbdudley/shawnpetros;"@tlvince Ah, didn't understand what the ""standard"" meant in the test script. Fixed now.

Also, I added the `defaultOption` key in the command-line-args config to set this up for potential future command line options. Let me know if you'd rather remove the flag completely. hey, is this getting merged soon? I really wanted to use this and am looking for this exact functionality!"
106;tlvince/make-coverage-badge;1;2017-11-30T21:21:39Z;2017-12-01T12:06:00Z;2017-12-01T12:06:00Z;;tlvince/make-coverage-badge;benrthiele-monsanto;1;tlvince;Awesome. Thank you!
