No;mainline_repo;pr_no;created_at;closed_at;merged_at;repo_origin_ml;repo_destin;pr_owner;no_commenters;pr_commenters;pr_comments
0;vega/voyager;848;2020-06-15T16:18:50Z;2020-11-06T21:43:44Z;2020-11-06T21:43:44Z;;vega/voyager;researcherben;1;domoritz;Thank you!
6;vega/voyager;816;2018-05-21T08:17:10Z;2018-06-21T23:02:29Z;2018-06-21T23:02:28Z;vega/voyager;vega/voyager;ssharif6;3;kanitw/ssharif6/kanitw;What's the difference between this and https://github.com/vega/voyager/pull/664?   It does not include the component for the field customizer, and it is updated on current version of master + some minor differences. Wasn't sure if we wanted to do a feature branch and merge into that branch like we did for CustomEncoding, since Compass isn't supporting this yet and we still need to upgrade CQL and VL in voyager. If you want, I can just edit the existing PR #664. If Compass isn't supporting this yet, we shouldn't merge it yet.  For the other PR, if the other one is not needed, just close it and says we have this one.  
7;vega/voyager;814;2018-05-17T06:04:16Z;2018-05-18T02:37:17Z;2018-05-18T02:37:17Z;vega/voyager;vega/voyager;ssharif6;1;kanitw;Thx
10;vega/voyager;805;2018-05-11T02:17:48Z;2018-05-18T01:34:01Z;2018-05-18T01:34:01Z;vega/voyager;vega/voyager;abanh206;1;abanh206;"Before: 

![image](https://user-images.githubusercontent.com/22482184/39969833-de00f27a-5696-11e8-8ea8-2d19c12b7ca8.png)

After:

![image](https://user-images.githubusercontent.com/22482184/39969771-0898b97e-5696-11e8-940b-008c3c583692.png)
"
12;vega/voyager;801;2018-05-08T08:09:38Z;2018-05-09T03:43:11Z;2018-05-09T03:43:11Z;vega/voyager;vega/voyager;ssharif6;2;kanitw/kanitw;"Since you're fixing this anyway, can you change the font to be standard like the rest of the tool?

It's weird that these two button use serif fonts (Times?), not san serif like the rest of the UI.  Rebase? "
13;vega/voyager;800;2018-05-01T21:03:04Z;2018-05-11T23:05:53Z;2018-05-11T23:05:53Z;vega/voyager;vega/voyager;kanitw;5;kanitw/kanitw/ssharif6/kanitw/kanitw;"@ssharif6  One critical problem found:

- [x] By default `axis.title` is `undefined`, meaning we use default title.  However, if we set axis title to customize text and change our mind (wanting to use default title), it's impossible to do that anymore since removing all the text will set the title to an empty string. Also, I still see broken layout 

![image](https://user-images.githubusercontent.com/111269/39493689-a478f02c-4d48-11e8-977f-7d3ddf23945b.png)

I wanna see how it's like on your computer to check if it's just something wrong on my computer. (I'm doubtful about that though.)  @kanitw I believe I addressed this issue in the new commit!

Here is an example

![emptytextbug](https://user-images.githubusercontent.com/9298611/39494332-d9ebcffc-4d4a-11e8-9977-bbb505789bce.gif)

I also do the same for any of the text inputs including domain/range props as well >  since we are not currently supporting wildcards (ShelfWildcardChannelId)

If we don't support `ShelfWildcardChannelId`, why does this component accept shelfId at all? 
This component should then accept only `channel` so it is only used with shelfId that's a channel?

If we say we want to extend this in the future to support wildcard channel, we should still not cast '?' to be channel, as it will make  rest of the axis logic wrong.  > How do I tell Typescript that nestedProp, which is a string, is a keyof Scale?

Yeah, that would require some type guards, but definitely too much typing.  Since this casting is always correct, let's say it's ok here. 

(The casting for channel is not always correct so that's a bit more problematic.) 

Btw, testing is somehow still failing.  "
14;vega/voyager;799;2018-05-01T00:43:40Z;2018-05-11T00:03:57Z;2018-05-11T00:03:57Z;vega/voyager;vega/voyager;ssharif6;1;kanitw;I'm changing merge target here to the new feature branch.  Please drop the first commit to avoid conflicts. 
17;vega/voyager;794;2018-04-15T09:25:38Z;2018-04-17T17:25:14Z;2018-04-17T17:25:14Z;vega/voyager;vega/voyager;ssharif6;1;kanitw;"I think you mean: 

> Only allow property-editor pane to be opened when fieldDef is defined.

Only allow property-editor pane to ""remain"" opened when fieldDef is defined.
"
21;vega/voyager;789;2018-04-05T16:53:46Z;2018-05-01T21:02:05Z;2018-05-01T21:02:05Z;vega/voyager;vega/voyager;ssharif6;3;kanitw/kanitw/ssharif6;"Hmm broken layout for me 

![image](https://user-images.githubusercontent.com/111269/39279348-5396a554-48ad-11e8-8885-76bad64b210d.png)

![image](https://user-images.githubusercontent.com/111269/39279352-5a65a0ec-48ad-11e8-9f46-bad3580f0d77.png)
 - [x] Cannot click outside the popup to hide the popup (Try the function popup). 

- [x] The height for the tab is too much, even bigger than the pill/capsule for each encoding on the shelf. 

- [x] Font size, padding inconsistent with the function popup (The font size should be the same. The padding is very big.) Last commit:
* ClickOutside function implemented
* More compact & consistent UI
* Width bug fixed

![fieldcustomizerupdatedui](https://user-images.githubusercontent.com/9298611/39322644-68f13f80-493f-11e8-8772-33800d23920c.gif)
"
23;vega/voyager;778;2018-02-27T00:54:06Z;2018-03-05T00:48:50Z;2018-03-05T00:48:50Z;vega/voyager;vega/voyager;ssharif6;1;ssharif6;@kanitw Done!
24;vega/voyager;776;2018-02-26T20:22:21Z;2018-04-22T03:06:59Z;2018-04-22T03:06:59Z;vega/voyager;vega/voyager;ZeningQu;2;ZeningQu/kanitw;@kanitw I renamed the property `viewRunAfterCallback` -- it's a bit verbose, but it's consistent with the [vega view run api](https://github.com/vega/vega-view#view_run): this is the callback that gets called in `vega.view.runAfter()` perhaps just `viewRunAfter`?
29;vega/voyager;764;2018-02-03T01:19:04Z;2018-02-05T22:01:41Z;2018-02-05T22:01:41Z;vega/voyager;vega/voyager;abanh206;1;felixcodes;LGTM. cc @kanitw 
30;vega/voyager;762;2018-01-31T03:41:12Z;2018-02-18T06:09:53Z;2018-02-18T06:09:53Z;vega/voyager;vega/voyager;ZeningQu;1;ZeningQu;Oo test is failing... Let me figure this out first...
31;vega/voyager;756;2018-01-27T10:22:26Z;2018-01-29T20:38:17Z;2018-01-29T20:38:16Z;vega/voyager;vega/voyager;ssharif6;2;davidanthoff/kanitw;Great, much appreciated! Awesome.  Add a test? 
33;vega/voyager;743;2017-11-26T23:23:49Z;2018-04-17T17:21:38Z;2018-04-17T17:21:38Z;vega/voyager;vega/voyager;ssharif6;3;kanitw/kanitw/ssharif6;"Btw, if a PR fixes the whole issue, please says  fix #<issue=no>, not just issue: #<issue-no>.  (I just corrected format above for you :D) @felixcodes Can you double check, merge, and release a new version? Bump
![undo redo](https://user-images.githubusercontent.com/9298611/38842293-04c01f16-419e-11e8-8341-948a638dc8f4.gif)
"
37;vega/voyager;735;2017-10-20T05:01:35Z;2017-10-24T03:02:17Z;2017-10-24T03:02:17Z;vega/voyager;vega/voyager;ssharif6;1;kanitw;Excellent! Thanks for the PR. 
39;vega/voyager;724;2017-09-15T17:47:21Z;2017-09-15T20:10:00Z;2017-09-15T20:10:00Z;vega/voyager;vega/voyager;kanitw;1;kanitw;Fix #723
46;vega/voyager;705;2017-09-06T23:27:26Z;2017-09-07T21:35:01Z;2017-09-07T21:35:01Z;vega/voyager;vega/voyager;starry97;1;starry97;"![image](https://user-images.githubusercontent.com/19985016/30139740-8f7a8b4c-9324-11e7-976b-97cdc14383f3.png)
"
47;vega/voyager;703;2017-09-06T01:21:46Z;2017-09-06T03:21:35Z;2017-09-06T03:21:35Z;ajainarayanan/voyager;vega/voyager;ajainarayanan;1;kanitw;Thanks for your PR!
53;vega/voyager;692;2017-09-02T16:00:36Z;2017-09-05T20:26:31Z;2017-09-05T20:26:31Z;ajainarayanan/voyager;vega/voyager;ajainarayanan;5;ajainarayanan/ajainarayanan/ajainarayanan/ajainarayanan/kanitw;@kanitw As discussed in #673 I have added an optional configuration to show/hide header and footer. Let me know if I have missed anything. @kanitw Have updated the PR. @kanitw Have removed the defaults as they are provided by the config. @kanitw Thanks! Are there any tentative time line when you would cut a release We plan to cut another release sometimes this week.  
55;vega/voyager;690;2017-09-02T00:23:54Z;2017-09-08T21:29:00Z;2017-09-08T21:29:00Z;vega/voyager;vega/voyager;starry97;2;kanitw/kanitw;"- [x] The popup commands are so big.  I'd make the font style match existing items.  
- [x] Placing caret on the left while most of them are empty makes visual style weird.  Maybe we can try placing them on the right?
- [x] As mentioned earlier, one line layout would work better

**Scale**
Type         [     log         ]

- [x] I don't think we need submit button.  It unnecessary increases the number of clicks we need to do one action.  

## In a follow up PR

- [ ] We need to exclude unsupported scale type but that requires latest version of Vega-Lite.  - [ ] Click outside to disable. "
63;vega/voyager;678;2017-08-31T19:40:59Z;2017-09-01T22:28:48Z;2017-09-01T22:28:48Z;ajainarayanan/voyager;vega/voyager;ajainarayanan;5;kanitw/ajainarayanan/ajainarayanan/kanitw/ajainarayanan;"Thanks for your PR.  I have some comments.   @kanitw 
~Regarding sourcemaps, on a production environment libraries generally don't add source maps. This is to reduce the build size further down. If you feel strongly about it I can add it back.~

~Regarding electron build, since we have marked a few modules as external the build output of webpack is no longer the same for web vs electron environments. The separate config is for building voyager for electron based environment. For reference these are the targets that webpack can build to: https://webpack.js.org/configuration/target/~

Have added back sourcemaps + removed electron build. Don't know what prompted me to have a separate build config. I guess it was during the time I mixed up `npm` and `yarn` in my local. Sorry about the confusion. Can you give it a check one more time. @kanitw 

 @kanitw A nice thing to have is to limit the files during npm publish. If during `npm publish` if you can restrict only the build folder to be published it would be nicer as `npm i datavoyager` would just download the build folder instead of the entire project. > @kanitw A nice thing to have is to limit the files during npm publish. If during npm publish if you can restrict only the build folder to be published it would be nicer as npm i datavoyager would just download the build folder instead of the entire project.

Sounds good.  Feel free to submit another PR to support this behavior.  :)  @kanitw Have updated the PR. Let me know if I need to squash the commits. Thanks for the review!
"
66;vega/voyager;671;2017-08-30T19:03:06Z;2017-09-02T00:03:25Z;2017-09-02T00:03:25Z;vega/voyager;vega/voyager;felixcodes;1;felixcodes;Fix #672 as well -- this PR supports uploading TSV files via URL
69;vega/voyager;667;2017-08-28T17:32:01Z;2017-08-31T20:48:50Z;2017-08-31T20:48:50Z;vega/voyager;vega/voyager;starry97;1;starry97;"![loading](https://user-images.githubusercontent.com/19985016/29844348-d386597c-8cc3-11e7-9d08-98ecb039fcb6.gif)
"
72;vega/voyager;663;2017-08-24T21:30:54Z;2017-08-24T22:23:27Z;2017-08-24T22:23:27Z;vega/voyager;vega/voyager;kanitw;1;ZeningQu;Makes sense to me :)
74;vega/voyager;658;2017-08-23T22:05:13Z;2017-09-05T20:42:25Z;2017-09-05T20:42:25Z;vega/voyager;vega/voyager;kanitw;1;kanitw;"- `vlSpec.data.name` would give your the data source name
- Use [`view.change`](https://vega.github.io/vega/docs/api/view/#view_change) to update new data when data changes.  (Remove all old, add all new.) 

"
75;vega/voyager;656;2017-08-23T21:54:39Z;2017-08-23T23:55:44Z;2017-08-23T23:55:44Z;vega/voyager;vega/voyager;starry97;1;starry97;Not sure why the test failed on travis. It passed locally. 
80;vega/voyager;650;2017-08-22T22:29:19Z;2017-08-23T23:11:20Z;2017-08-23T23:11:20Z;vega/voyager;vega/voyager;starry97;1;starry97;"Updated UI ![image](https://user-images.githubusercontent.com/19985016/29640188-9740de84-8812-11e7-8c6b-ec82cfdf5b68.png)
"
82;vega/voyager;643;2017-08-19T00:22:15Z;2017-08-23T22:54:42Z;2017-08-23T22:54:42Z;vega/voyager;vega/voyager;ZeningQu;2;kanitw/kanitw;Btw, you might want to rebase to make test passes Thanks!
84;vega/voyager;641;2017-08-18T22:57:18Z;2017-08-21T23:45:08Z;2017-08-21T23:45:08Z;vega/voyager;vega/voyager;felixcodes;1;kanitw;LGTM, maybe rebase and merge if the test passes?
103;vega/voyager;611;2017-08-12T00:07:56Z;2017-08-13T02:30:34Z;2017-08-13T02:30:34Z;vega/voyager;vega/voyager;starry97;1;starry97;"![image](https://user-images.githubusercontent.com/19985016/29235919-9eb6ab5c-7eb8-11e7-8ddb-ec9593f5c508.png)
"
122;vega/voyager;563;2017-08-09T23:23:50Z;2017-08-10T00:05:58Z;2017-08-10T00:05:58Z;vega/voyager;vega/voyager;starry97;1;starry97;"![screencapture-localhost-9000-1502323447152](https://user-images.githubusercontent.com/19985016/29148837-cce5bcd8-7d24-11e7-8049-3fe643c80431.png)
![screencapture-localhost-9000-1502323457040](https://user-images.githubusercontent.com/19985016/29148839-ce65a384-7d24-11e7-8f70-e19f565cb2cc.png)
"
126;vega/voyager;553;2017-08-09T07:02:45Z;2017-08-11T18:04:43Z;2017-08-11T18:04:43Z;vega/voyager;vega/voyager;kanitw;1;kanitw;@felixcodes  This should be ready to go!
127;vega/voyager;551;2017-08-08T22:36:17Z;2017-08-09T04:34:19Z;2017-08-09T04:34:19Z;vega/voyager;vega/voyager;kanitw;1;kanitw;"Nice now!

![voyager_2](https://user-images.githubusercontent.com/111269/29097747-5b1d1350-7c50-11e7-97c9-84d4b0eccdbe.png)
"
135;vega/voyager;541;2017-08-07T21:22:10Z;2017-08-08T01:20:11Z;2017-08-08T01:20:11Z;vega/voyager;vega/voyager;kanitw;1;kanitw;Please only approve / comment -- don't rebase merge this branch as I have already merge it to another branch -- so we have to manually merge this. 
138;vega/voyager;538;2017-08-07T17:38:04Z;2017-08-07T18:11:22Z;2017-08-07T18:11:22Z;vega/voyager;vega/voyager;felixcodes;1;felixcodes;Passes locally. We'll merge and ignore all PRs that pass locally but fail on Travis with `A worker process has quit unexpectedly! Most likely this an initialization error.` for now.
140;vega/voyager;535;2017-08-04T21:52:01Z;2017-08-08T05:57:59Z;2017-08-08T05:57:59Z;vega/voyager;vega/voyager;starry97;1;kanitw;"- Looks like test is now failing  
- Can we also hide Fields and Wildcard Fields header?"
141;vega/voyager;529;2017-08-04T00:19:29Z;2017-08-04T20:16:18Z;2017-08-04T20:16:18Z;vega/voyager;vega/voyager;starry97;3;kanitw/starry97/kanitw;"screenshot? :)  ![drop](https://user-images.githubusercontent.com/19985016/28980413-8da88d96-7902-11e7-9683-291e514920df.gif)
 Can we say ""Cannot drop a wildcard field here"" and ""Cannot drop a count field here"" so it's clearer?"
145;vega/voyager;524;2017-08-03T22:06:58Z;2017-08-07T18:42:17Z;2017-08-07T18:42:17Z;vega/voyager;vega/voyager;felixcodes;2;kanitw/kanitw;- [x] Please remove all of `fn: undefined` (use find & replace)  (I'm using merge workflow here so we don't have to rebase.)
148;vega/voyager;519;2017-08-02T23:19:52Z;2017-08-03T21:50:23Z;2017-08-03T21:50:23Z;vega/voyager;vega/voyager;starry97;1;starry97;@kanitw Is it necessary to write another function that inject filters to spec? 
150;vega/voyager;516;2017-08-02T18:19:15Z;2017-08-02T20:55:17Z;2017-08-02T20:55:17Z;vega/voyager;vega/voyager;starry97;1;kanitw;Thanks :) 
151;vega/voyager;515;2017-08-01T23:51:15Z;2017-08-02T21:16:12Z;2017-08-02T21:16:12Z;vega/voyager;vega/voyager;starry97;2;kanitw/starry97;Is this because the popup is preventing the drop?   @kanitw It shows an error cannot read 'popupIsOpened' of null when I tried to swap, which prevents the drop. It was caused because a function did not check whether the state exists, and I felt like having optional state is confusing, so I changed it. 
154;vega/voyager;512;2017-08-01T00:23:41Z;2017-08-01T15:44:01Z;2017-08-01T15:44:01Z;vega/voyager;vega/voyager;starry97;1;kanitw;lol -- so subtle!
155;vega/voyager;511;2017-07-31T23:02:59Z;2017-08-01T15:43:29Z;2017-08-01T15:43:28Z;vega/voyager;vega/voyager;starry97;3;starry97/felixcodes/kanitw;"@kanitw Yes, this fixes #505 @kanitw @starry97 
Just an FYI: we'll have to decouple this a step further later as the preview is added to the undo-redo stack. @felixcodes Good catch.  Maybe add a TODO item to the decouple issue?"
156;vega/voyager;509;2017-07-31T22:21:14Z;2017-08-01T00:03:28Z;2017-08-01T00:03:28Z;vega/voyager;vega/voyager;felixcodes;1;kanitw;Is this fixing #510, if so please close the issue accordingly.
158;vega/voyager;506;2017-07-31T21:02:39Z;2017-08-02T21:28:53Z;2017-08-02T21:28:53Z;vega/voyager;vega/voyager;felixcodes;2;felixcodes/kanitw;"Bookmark Modal now looks like this when empty.

![image](https://user-images.githubusercontent.com/17525561/28798972-5c5e4398-75fb-11e7-8b6f-e69cf358ddd1.png)
 The code looks good -- somehow I have trouble compiling this branch.

@starry97 -- can you help checkout and try `yarn start` on this branch? "
160;vega/voyager;502;2017-07-28T23:20:08Z;2017-07-28T23:42:41Z;2017-07-28T23:42:41Z;vega/voyager;vega/voyager;felixcodes;1;kanitw;No need.  Thanks for asking :) 
162;vega/voyager;499;2017-07-28T21:43:05Z;2017-07-28T22:56:54Z;2017-07-28T22:56:53Z;vega/voyager;vega/voyager;starry97;1;kanitw;Neat! 
163;vega/voyager;497;2017-07-28T20:41:33Z;2017-07-31T18:55:00Z;2017-07-31T18:55:00Z;vega/voyager;vega/voyager;starry97;2;kanitw/starry97;"I think its too wide -- better use the old number from angular. But yeah 4
is too narrow
On Fri, Jul 28, 2017 at 5:30 PM Cynthia(Lingyue) Zhang <
notifications@github.com> wrote:

> *@starry97* commented on this pull request.
> ------------------------------
>
> In src/components/plot/plot.scss
> <https://github.com/vega/voyager/pull/497#discussion_r130208522>:
>
> >    cursor: pointer;
> -  margin-left: 4px;
> +  margin-left: 20px;
>
> I found myself accidentally click on the icon next to it, so I made the
> margin larger.
>
> Screenshot:
> [image: image]
> <https://user-images.githubusercontent.com/19985016/28740508-69f8aec8-73ba-11e7-9d91-3cbcee919fc9.png>
>
> —
> You are receiving this because you were mentioned.
>
>
> Reply to this email directly, view it on GitHub
> <https://github.com/vega/voyager/pull/497#discussion_r130208522>, or mute
> the thread
> <https://github.com/notifications/unsubscribe-auth/AAGypWNF1QcLJtiI9XcJDU5Gw6VXdPEeks5sSn04gaJpZM4OnDzX>
> .
>
 ![screen shot 2017-07-31 at 10 45 30 am](https://user-images.githubusercontent.com/19985016/28790369-a824bb36-75dd-11e7-965a-f404bdb76c28.png)
"
164;vega/voyager;495;2017-07-28T19:03:12Z;2017-07-28T21:16:34Z;2017-07-28T21:16:34Z;vega/voyager;vega/voyager;starry97;2;kanitw/kanitw;Last thing -- scroll may not appear when we drop name on Y for the specified view.  @starry97  I'm gonna merge this first and you can deal with the last item separately (#498)
170;vega/voyager;485;2017-07-27T19:05:29Z;2017-07-27T20:33:19Z;2017-07-27T20:33:19Z;vega/voyager;vega/voyager;tafsiri;3;tafsiri/tafsiri/kanitw;Seems to be working today. Ping @kanitw  closes #487  Ok.  I hope it continues to work. :) 
176;vega/voyager;472;2017-07-26T21:15:04Z;2017-07-31T19:32:06Z;2017-07-31T19:32:06Z;vega/voyager;vega/voyager;starry97;2;starry97/kanitw;@kanitw test is not failing locally. Let's merge when test passes :) 
177;vega/voyager;471;2017-07-26T20:52:55Z;2017-07-27T05:48:59Z;2017-07-27T05:48:59Z;vega/voyager;vega/voyager;kanitw;1;kanitw;I'm making this depends on https://github.com/vega/voyager/pull/476.  
179;vega/voyager;468;2017-07-26T18:22:49Z;2017-07-26T19:02:38Z;2017-07-26T19:02:38Z;vega/voyager;vega/voyager;starry97;1;tafsiri;Thanks @starry97 @kanitw 
180;vega/voyager;462;2017-07-26T00:44:13Z;2017-07-26T18:10:20Z;2017-07-26T18:10:20Z;vega/voyager;vega/voyager;kanitw;4;vlandham/kanitw/vlandham/kanitw;"ah. but you are getting error: 

> Warning: setState(...): Can only update a mounted or mounting component. This usually means you called setState() on an unmounted component. This is a no-op. Please check the code for the Connect(BookmarkBase) component. @vlandham  somehow it's not trigger the same problem anymore great! Since it is passing, I will merge it first then, but could you help test https://github.com/vega/voyager/issues/466 and if this does not work we should revise our approach.  "
189;vega/voyager;441;2017-07-20T21:42:50Z;2017-07-21T05:01:19Z;2017-07-21T05:01:19Z;vega/voyager;vega/voyager;tafsiri;1;kanitw;Thanks!
190;vega/voyager;439;2017-07-20T20:49:25Z;2017-07-21T16:13:45Z;2017-07-21T16:13:45Z;vega/voyager;vega/voyager;tafsiri;1;tafsiri;@kanitw made changes according to your suggestions.
192;vega/voyager;436;2017-07-20T15:45:20Z;2017-07-20T18:11:56Z;2017-07-20T18:11:56Z;vega/voyager;vega/voyager;vlandham;1;kanitw;Thanks!
194;vega/voyager;434;2017-07-19T20:25:00Z;2017-07-19T22:12:11Z;2017-07-19T22:12:11Z;vega/voyager;vega/voyager;starry97;1;starry97;"![screen shot 2017-07-19 at 12 01 25 pm](https://user-images.githubusercontent.com/19985016/28390722-188b8b5e-6c90-11e7-9020-4d9d4ea08031.png)
"
198;vega/voyager;425;2017-07-17T21:59:32Z;2017-07-21T02:46:35Z;2017-07-21T02:46:34Z;vega/voyager;vega/voyager;starry97;1;kanitw;"This is awesome progress!

Two high-level comments:

1. Let's rebase and make sure the `FieldWrapper` class is more general and works with the type changer, which is recently merged.  The trick is to pass FunctionPicker as [children](https://facebook.github.io/react/docs/composition-vs-inheritance.html) of `FieldWrapper` instead of including `<FunctionPicker> in the component definition. 

2. I wonder if all of these functionality should just be a part of `<Field/>`
If you disagree and think it should be separate, maybe it should be named `FieldWithPopup`?  
"
199;vega/voyager;424;2017-07-14T23:51:45Z;2017-07-17T08:07:51Z;2017-07-17T08:07:51Z;vega/voyager;vega/voyager;starry97;1;kanitw;Nice!
201;vega/voyager;422;2017-07-11T00:24:58Z;2017-07-24T21:31:12Z;2017-07-24T21:31:12Z;vega/voyager;vega/voyager;starry97;5;starry97/starry97/kanitw/starry97/kanitw;"![screen shot 2017-07-10 at 6 12 27 pm](https://user-images.githubusercontent.com/19985016/28046846-60f668ba-659b-11e7-9443-40cf3ad7e4d8.png)
User can click on min/max to edit. This is a pretty bad design now, since it doesn't have any edit affordance.  updated UI 
![screen shot 2017-07-13 at 1 31 59 pm](https://user-images.githubusercontent.com/19985016/28186430-f4f7f61a-67cf-11e7-91d1-547a330bb7a9.png)
 Another question -- if we already have filter for field A in the filter list, if we drag field a to the filter one more time -- what would happen?  I guess we should only allow a field to appear only once.  
(However, later once we support timeUnit, we might want to allow same temporal fields with different timeUnits.) > if we already have filter for field A in the filter list, if we drag field a to the filter one more time -- what would happen? I guess we should only allow a field to appear only once.
(However, later once we support timeUnit, we might want to allow same temporal fields with different timeUnits.)

@kanitw it will log an error in the console, and the second filter will not be added. > @kanitw it will log an error in the console, and the second filter will not be added.

Hmm, this will confuse end-user since they do not know what happen. 




"
203;vega/voyager;419;2017-07-07T15:01:19Z;2017-07-18T20:17:42Z;2017-07-18T20:17:42Z;vega/voyager;vega/voyager;starry97;3;starry97/kanitw/kanitw;"![screen shot 2017-07-07 at 8 01 32 am](https://user-images.githubusercontent.com/19985016/27963646-862df6ba-62ea-11e7-93ea-cf7e433e9745.png)
![screen shot 2017-07-07 at 8 01 59 am](https://user-images.githubusercontent.com/19985016/27963677-9abb7e40-62ea-11e7-89ca-e7b4221d8bc0.png)
 @starry97 test is still failing @starry97 I'm gonna merge this but please add clear all button in a follow up PR (I added a TODO list to #373).  :) "
206;vega/voyager;416;2017-06-30T19:10:15Z;2017-06-30T19:12:13Z;2017-06-30T19:12:13Z;vega/voyager;vega/voyager;starry97;2;starry97/kanitw;"![screen shot 2017-06-30 at 12 10 36 pm](https://user-images.githubusercontent.com/19985016/27750567-36384230-5d8d-11e7-9f39-322b814f947d.png)
 Looks nicer ;) "
207;vega/voyager;415;2017-06-29T23:19:02Z;2017-07-18T18:17:04Z;2017-07-18T18:17:04Z;vega/voyager;vega/voyager;starry97;1;kanitw;test failing
211;vega/voyager;410;2017-06-27T19:59:22Z;2017-06-28T16:03:08Z;2017-06-28T16:03:08Z;vega/voyager;vega/voyager;starry97;1;kanitw;Thanks!  This works for now. In the near future, we should replace this with some nicer icons.  
216;vega/voyager;404;2017-06-23T18:00:14Z;2017-06-26T23:31:17Z;2017-06-26T23:31:17Z;vega/voyager;vega/voyager;kanitw;5;felixcodes/kanitw/kanitw/felixcodes/kanitw;"cc: @starry97 
I still need to add tests and check but this should be OK. @starry97 @felixcodes  Please coordinate among yourselves who wanna finish this :)  @felixcodes  I think the diff is pretty messy -- maybe you should rebase. 

Again, never run merge unless you have good reason why you wanna run merge.   Action / reducer for #368  LGTM.  Let's merge squash when the test passes :) "
218;vega/voyager;400;2017-06-22T20:59:14Z;2017-06-22T21:04:18Z;2017-06-22T21:04:18Z;vega/voyager;vega/voyager;kanitw;1;tafsiri;lgtm +1
223;vega/voyager;393;2017-06-19T21:42:49Z;2017-06-20T23:48:48Z;2017-06-20T23:48:48Z;vega/voyager;vega/voyager;starry97;1;kanitw;@starry97 -- FYI, I further converted any => {} for you.  I'll merge since this looks good otherwise. :) 
224;vega/voyager;390;2017-06-16T19:42:59Z;2017-06-19T22:12:20Z;2017-06-19T22:12:19Z;vega/voyager;vega/voyager;tafsiri;8;tafsiri/kanitw/kanitw/tafsiri/kanitw/tafsiri/tafsiri/tafsiri;"Also it looks like it has some older commits as i started this branch off of my last PR'ed branch. Since those commits have been squashed they still appear here, but the diff is correct. > Also it looks like it has some older commits as i started this branch off of my last PR'ed branch. Since those commits have been squashed they still appear here, but the diff is correct.

Maybe rebase?  > As an aside @kanitw, i've added default values to each of the reducers, turns out that redux expects this to be the case. initialState in createStore is actually meant for the use case of restoring for persistence. There is a comment about this from the redux author here

Thanks! I don't think rebase would work as those commits are not actually in master (due to squash)? Anyway I merged already to catch up. The commits will be squashed out anyway on merge though. > I don't think rebase would work as those commits are not actually in master (due to squash)? Anyway I merged already to catch up. The commits will be squashed out anyway on merge though.


Oh the trick is to use interactive rebase (`git rebase -i master`) and then drop all the commits that are already squashed to master and keep only the new commits.  :)  closes #347  @kanitw @vlandham this is now ready for review. Removing the WIP (work in progress label).

I did see that while the tests pass travis, the main build seems to fail. 

```
64.81s$ npm run build
> datavoyager@2.0.0-alpha.3 build /home/travis/build/vega/voyager
> node scripts/build.js
Creating an optimized production build...
ts-loader: Using typescript@2.3.4 and /home/travis/build/vega/voyager/tsconfig.json
Failed to compile.
(12,27): error TS2307: Cannot find module '../build/src/models/index'.
npm ERR! Linux 4.8.12-040812-generic
npm ERR! argv ""/home/travis/.nvm/versions/node/v4.8.3/bin/node"" ""/home/travis/.nvm/versions/node/v4.8.3/bin/npm"" ""run"" ""build""
npm ERR! node v4.8.3
npm ERR! npm  v2.15.11
npm ERR! code ELIFECYCLE
npm ERR! datavoyager@2.0.0-alpha.3 build: `node scripts/build.js`
npm ERR! Exit status 1
npm ERR! 
npm ERR! Failed at the datavoyager@2.0.0-alpha.3 build script 'node scripts/build.js'.
npm ERR! This is most likely a problem with the datavoyager package,
npm ERR! not with npm itself.
npm ERR! Tell the author that this fails on your system:
npm ERR!     node scripts/build.js
npm ERR! You can get information on how to open an issue for this project with:
npm ERR!     npm bugs datavoyager
npm ERR! Or if that isn't available, you can get their info via:
npm ERR! 
npm ERR!     npm owner ls datavoyager
npm ERR! There is likely additional logging output above.
npm ERR! Please include the following file with any support request:
npm ERR!     /home/travis/build/vega/voyager/npm-debug.log
```

do you have any ideas what could cause this? tests and build run correctly on my local machine. never mind my error message. build passed this time. guess it was the lint bugs."
226;vega/voyager;386;2017-06-16T17:14:39Z;2017-06-16T17:27:37Z;2017-06-16T17:27:37Z;vega/voyager;vega/voyager;vlandham;1;kanitw;Looks good.  Could you please add related instruction to https://github.com/vega/voyager/pull/387
227;vega/voyager;383;2017-06-15T17:35:52Z;2017-06-15T21:29:01Z;2017-06-15T21:29:00Z;vega/voyager;vega/voyager;vlandham;1;kanitw;Thanks!
229;vega/voyager;378;2017-06-12T19:51:23Z;2017-06-16T15:39:32Z;2017-06-16T15:39:32Z;vega/voyager;vega/voyager;tafsiri;11;tafsiri/tafsiri/kanitw/tafsiri/kanitw/tafsiri/kanitw/tafsiri/tafsiri/tafsiri/tafsiri;"@kanitw i'm making the requested changes, but let me know if you saw any actions in USER_ACTIONS that should be grouped with an existing action (but still remain in the history). As mentioned before currently the exclude actions takes care of it all at the moment, but maybe the grouping mechanism is still useful down the road? FYI when this lands. you will need to update your dependencies. cc @vlandham  Thanks for the fixes.  This LGTM -- except one last question, I still do not understand why is DATASET_INLINE_RECEIVE treated differently from DATASET_URL_RECEIVE.   Ah, because the UI never triggers DATASET_INLINE_RECEIVE. This is the method triggered by update data if inline data is passed in, but from what i can tell, that can't happen from the UI (ui only uses urlData). 

So when embedding voyager one can trigger this action, however i don't know if you would then want the user to be able to undo that? What do you think? > Ah, because the UI never triggers DATASET_INLINE_RECEIVE. This is the method triggered by update data if inline data is passed in, but from what i can tell, that can't happen from the UI (ui only uses urlData).

This might not be true in the near future.  Once we re-add an ability to load inline data in the data selector popup (#366), inline data may be triggered from the UI.  @kanitw then i would say we can remove it from the list at that time :) Actually now I wonder why are DATASET_URL_REQUEST/RECEIVE in the grouped list at all -- since when we change dataset, we clear the history anyway, so users can't really undo dataset url requests/ receive.
 @kanitw, its in the list because it shouldn't be grouped with some other action that is in the list. Given the effect of the action creator we could probably remove it, but its kind of a side effect. I don't think it matters too much either way, but i like the clarity of it being here. 

I'm not sure if it would make it harder to test in isolation. I could go either way on this one (though DATASET_URL_REQUEST does not clear the history so we should leave that in). @kanitw updated. You convinced me on some of the action placement, so i moved some around. I put a comment block for some of the grouped actions.  Also closes #262  added test to check actions are assigned to groups specifying how they interact with the history"
230;vega/voyager;365;2017-06-09T22:51:04Z;2017-06-10T01:29:33Z;2017-06-10T01:29:33Z;;vega/voyager;jazzido;1;kanitw;Thanks!
231;vega/voyager;364;2017-06-09T21:51:55Z;2017-06-12T04:31:13Z;2017-06-12T04:31:13Z;vega/voyager;vega/voyager;vlandham;1;kanitw;FYI, test is still failing
232;vega/voyager;361;2017-06-08T18:48:28Z;2017-06-08T22:57:53Z;2017-06-08T22:57:53Z;vega/voyager;vega/voyager;vlandham;1;kanitw;"I'm fine with this as a temporary workaround.

Meanwhile, I wonder we don't have the same problem in this repo where we import things from both Vega-Lite and CompassQL and some part of CompassQL in turn use Vega-Lite types.  "
233;vega/voyager;360;2017-06-08T18:37:03Z;2017-06-09T20:34:34Z;2017-06-09T20:34:34Z;vega/voyager;vega/voyager;tafsiri;6;tafsiri/tafsiri/kanitw/tafsiri/kanitw/tafsiri;"closes #354  looks like the tests ran and passed.

ping @kanitw 
 The change in `.travis.yml` looks good to me, but omehow one of the test still fails.  Thats interesting... one of the runs passes and the other fails but they both run the same tests. Maybe it just needs to be re-run? Maybe -- I just rebased and force push -- let's see how this goes :) worked this time! "
234;vega/voyager;359;2017-06-08T16:55:56Z;2017-06-08T22:28:12Z;2017-06-08T22:28:11Z;vega/voyager;vega/voyager;vlandham;3;vlandham/kanitw/kanitw;"it wouldnt' be required to remove the lib from the repo - when it is moved inside `build` - we _could_ check in the entire build directory. this would allow us to use the github link as a dependency and would delay our need to get voyager on npm. but it would clutter the repo a bit. 

preferences @kanitw ?
 > @kanitw i am not sure how to go about testing these scripts. do you have any suggestions?

My terrible answer is we currently don't have test script for testing the deploy script.  We just run it and if it works, it works. :p  

> it wouldnt' be required to remove the lib from the repo - when it is moved inside build - we could check in the entire build directory. this would allow us to use the github link as a dependency and would delay our need to get voyager on npm. but it would clutter the repo a bit.

For Vega-Lite and CompassQL, we do not push `build/` to github so let's do the same. 

I think eventually we will need to rely on npm release as the main mechanism anyway, so let's just do it. (Not checking `build/` in also help us avoid inconsistencies between the actual code and `build/` folder (as we might often forget to push `build/`).   I'll merge this and try to publish.  I'll also add you as an owner. "
236;vega/voyager;355;2017-06-07T19:43:02Z;2017-06-07T21:38:26Z;2017-06-07T21:38:26Z;vega/voyager;vega/voyager;tafsiri;1;tafsiri;I've also added a commit that closes #277 again. The problem was the ordering of the clearing. We were clearing the history before loading the new dataset, which left some unnecessary things in the history. This now clears it after the new dataset is loaded.
237;vega/voyager;348;2017-06-05T21:13:26Z;2017-06-06T21:40:40Z;2017-06-06T21:40:40Z;vega/voyager;vega/voyager;tafsiri;3;tafsiri/kanitw/tafsiri;"ping @kanitw  @tafsiri  Thanks for the ping. 

> I also would recommend that we refactor datasetLoad and datasetUrlLoad into one datasetLoad function that can either take a URL or InlineData and do the right thing.

I agree.   Do you want to do that here? (Or feel free to merge and create an issue to do it later.) 


 @kanitw I'd prefer to do it separately, I looked at it briefly when implementing this and it may involve a change or two in some other places."
239;vega/voyager;344;2017-06-02T16:47:06Z;2017-06-08T01:07:20Z;2017-06-08T01:07:20Z;vega/voyager;vega/voyager;vlandham;5;vlandham/kanitw/tafsiri/vlandham/vlandham;"Right now, attempting to add `.d.ts` files to the compilation using `--declarations` fails in a number of places in the voyager project. Fixing this will be non-trivial. 

This latest commit provides a way to create `.d.ts` files for only a subset of the codebase. This can be rationalized as really only a portion of the codebase should ever be imported into a separate project. For now, this just builds type files for the `src/models` directory. I'm not sure if there are more directories to add to this.

Other things to consider:

* should the output of this compilation go into `dist/` (which we are using in this project already) or `build/` (which is what is used in compassql). 
* is there a cleaner way to add declarations for just a subset of files - without an additional tsconfig file? > should the output of this compilation go into dist/ (which we are using in this project already) or build/ (which is what is used in compassql).

Yeah I think right now we have `dist/`, `lib/` and maybe `build/` which are all slightly different?

- `dist/` -- output folder for compiled standalone voyager
- `lib/` -- output folder for compiled voyager component lib
- `build/` -- we don't have this yet, but this could be compiled folder that other project like voyager-server can import?  

I don't really have a strong opinion, but it seems like all these different things serve different purposes so maybe we shouldn't merge them?

@tafsiri  @kanitw is there a difference between `dist` and `build` as you have it? Could build be used by something like voyager-server and be the stand-alone deployable app?

cc @vlandham  currently there is no `build/` - but we could update the build scripts to probably accommodate this. i can investigate what effect the `outDir` has on the creation of the files currently going into `dist` and look to see if a run-time flag could be used to change the complication output dir.  ok @kanitw - this now outputs compiled files to the `build` dir."
240;vega/voyager;342;2017-06-01T19:40:53Z;2017-06-06T21:39:44Z;2017-06-06T21:39:44Z;vega/voyager;vega/voyager;tafsiri;2;tafsiri/tafsiri;Added commits to close #341  ping @kanitw 
241;vega/voyager;340;2017-05-31T19:13:45Z;2017-06-02T19:45:08Z;2017-06-02T19:45:08Z;vega/voyager;vega/voyager;tafsiri;1;tafsiri;@kanitw left some responses, let me know what you think.
242;vega/voyager;339;2017-05-30T21:16:07Z;2017-06-07T16:25:14Z;2017-06-07T16:25:14Z;vega/voyager;vega/voyager;vlandham;12;vlandham/vlandham/vlandham/vlandham/kanitw/vlandham/vlandham/vlandham/kanitw/vlandham/kanitw/vlandham;"hmmm. the build process seems to be having problems installing yarn

```
Updating nvm
nvm.install
2.52s$ nvm install 6
Downloading and installing node v6.10.3...
Downloading https://nodejs.org/dist/v6.10.3/node-v6.10.3-linux-x64.tar.xz...
######################################################################## 100.0%
Computing checksum with sha256sum
Checksums matched!
Now using node v6.10.3 (npm v3.10.10)
Installing yarn
30.08s$ curl -o- -L https://yarnpkg.com/install.sh | bash

bash: line 1: syntax error near unexpected token `newline'
bash: line 1: `<!DOCTYPE html>'
The command ""curl -o- -L https://yarnpkg.com/install.sh | bash"" failed and exited with 2 during .
``` getting a bad gateway error from https://yarnpkg.com/install.sh Looks like yarn fixed it self. 

@kanitw  - do you know if there is a way to rerun travis - or do i need to push an update to this branch? fixed @kanitw ! Thanks.  Last comment, I'm wondering if we should add tests for `extractPlotObjects`, `convertToPlotObjectsGroup`? thanks for keeping me honest @kanitw ! Found an unnecessary input parameter to `extractPlotObjects` from the tests.  now includes `buildSchema` in the api - so we can run that on the server as well. This tweak moves @types to dev dependencies - so they don't negatively impact `voyager-server` when it pulls in this repo.  LGTM.  One last comment -- I wonder if it is difficult to add tests for `fetchCompassQLRecommend` and `fetchCompassQLBuildSchema`. 

I guess it will require some mock server?  If it doesn't take too long (say ~1hr), maybe it's worth adding a test for it?  If it's gonna way longer than that, let's merge this then.   this latest push has a few tests for these two functions.  LGTM.  It looks like there is a conflict with something I have just merged.  Do you wanna rebase to the latest vy2 branch?  After that we can merge :)  ok ! i believe the conflicts have been resolved!"
243;vega/voyager;336;2017-05-24T20:55:49Z;2017-05-31T19:36:33Z;2017-05-31T19:36:33Z;vega/voyager;vega/voyager;tafsiri;1;tafsiri;note some of the tests are WIP. i just skip them using jests api
244;vega/voyager;335;2017-05-24T20:23:13Z;2017-05-24T22:37:57Z;2017-05-24T22:37:57Z;vega/voyager;vega/voyager;vlandham;5;vlandham/vlandham/kanitw/vlandham/kanitw;closes #334  i believe these checks will pass when https://github.com/vega/compassql/pull/378 is in and a new version of compassql without the additional types is out.  I've just released 0.12.1  -- Do u wanna update package.json and yarn.lock? updated! Neat.  thanks!
245;vega/voyager;331;2017-05-19T20:11:22Z;2017-05-22T15:26:00Z;2017-05-22T15:26:00Z;vega/voyager;vega/voyager;tafsiri;3;tafsiri/tafsiri/tafsiri;also, while it looks like there are a lot of commits, that is because i had branched off of my prev branch before it was merged. This would all be squashed down for merging imo. and the github button now says that... how convenient @kanitw. PR has been updates. I had left a comment about DATASET_INLINE_RECEIVE and DATASET_URL_RECEIVE for your later consideration.
246;vega/voyager;328;2017-05-18T21:21:13Z;2017-05-19T19:13:59Z;2017-05-19T19:13:59Z;vega/voyager;vega/voyager;vlandham;2;vlandham/vlandham;looks like i messed up the rebase - sorry for the additional commits.  @kanitw i believe this is ready for re-review. 
247;vega/voyager;322;2017-05-17T19:00:05Z;2017-05-18T15:43:14Z;2017-05-18T15:43:14Z;vega/voyager;vega/voyager;tafsiri;4;tafsiri/tafsiri/vlandham/tafsiri;ping @vlandham  essentially i'd like to get this code into 318-embed-wrapper and then review that as a whole looks good to me.  Thanks for the review @kanitw I'm going to merge this into my other branch and try clean it all up for final review.
248;vega/voyager;320;2017-05-16T22:51:09Z;2017-05-18T18:07:33Z;2017-05-18T18:07:33Z;vega/voyager;vega/voyager;vlandham;10;vlandham/vlandham/kanitw/vlandham/tafsiri/vlandham/tafsiri/kanitw/vlandham/vlandham;"thoughts @tafsiri  well, the additional packages might not be compatible with the travis system anyways:

> error react-dev-utils@1.0.0-alpha.e280254d: The engine ""node"" is incompatible with this module. I don't like copying *all* scripts from create-react-app as it's adding so many new dependencies and make the build way harder to maintain especially create-react-app is created for JS-based application, not TS-based.  For example, I don't think we really need to add `babel` as we use typescript compiler.

Maybe better just to copy the parts we need?  I agree we should just copy what we need. I'll revise with removal of the babel stuff - I was just trying to see if it would work without a lot of modification. 

Jim

> On May 16, 2017, at 4:56 PM, Kanit Wongsuphasawat <notifications@github.com> wrote:
> 
> I don't like copying all scripts from create-react-app as it's adding so many new dependencies and make the build way harder to maintain especially create-react-app is created for JS-based application, not TS-based. For example, I don't think we really need to add babel as we use typescript compiler.
> 
> Maybe better just to copy the parts we need?
> 
> —
> You are receiving this because you authored the thread.
> Reply to this email directly, view it on GitHub, or mute the thread.
> 
 @vlandham sounds good (copying over what we need). I'm thinking the necessary bits could be added to the existing webpack config. What are the main things you see need to be done for the prod build. As I see it: 

1: is setting some variables in the code so that the code can take an appropriate path when needed (e.g. setting up the logger or not). I wonder if using something like the [DefinePlugin](https://webpack.js.org/plugins/define-plugin/) or [EnvironmentPlugin](https://webpack.js.org/plugins/environment-plugin/) before the ts-loader kicks in would work?

2: is doing minification and stuff. I wonder if this can be done on the bundle created by tsc by something like uglify or closure compiler. 

Are there other things you were thinking of? I would say we want:

for dev build:

* enable hot reloading for js and scss changes
* have only one command to run to start watch and serve processes
* if possible - display compile time errors in html 
* setup env. variables.

For production build:

* minification / uglification
* hashing build files - to prevent caching issues. 
* some mechanism to bring in static files (like the example data files) into the build
* something that can easily be extended for deploys
* setup env. variables.
  @kanitw relating to Jim's point about hot code reloading, is #250 out of date. I also have been using webpack-dev-server through yarn start and its been working well. Maybe contributing.md needs an update? @tafsiri  I haven't got a chance to test in the past few weeks yet-- it's weird that somehow it suddenly works, but if so, feel free to update #250.   This now provides a working production build of voyager. The dev build has been reverted to use webpack-dev-server. 

The production build minifies all the code and also copies over the voyager-datasets data into the `dist` directory. 

One issue I haven't quite figured out is how to use the `HtmlWebpackPlugin` for both builds. It works well for production build - injecting the generated css / js files into the html template. But doesn't work for the dev build.

For now, there is a separate `index.ejs` used for the template file of the production build.  closes #321 "
249;vega/voyager;319;2017-05-16T21:25:38Z;2017-05-19T19:06:09Z;2017-05-19T19:06:09Z;vega/voyager;vega/voyager;tafsiri;7;tafsiri/tafsiri/tafsiri/tafsiri/tafsiri/tafsiri/tafsiri;"This branch will be ready for review once #322 is merged into it. 

I'm removing the WIP tag as it demonstrates getting data into the app programmatically. It pretty much #313 but i'd like to split that issue out into more granular ones that would enhance this functionality. I also think this will pass CI once #322 merges into this branch. This is good to go for review. I started down the path of adding a test for this, but running into some issues with jest and the various webpack loaders, so that may be a while coming. If this is good to merge i can follow up later on that. Note that this uses a few `any` types in places. Ok, I've added more type information into the app component, as well as some general cleanup.

However there are some things that I don't think are fixable/typable in the file. I'll leave some comments inline. Ready for re-review @kanitw, I've probably gone as far as I can with the type info for props. cc @vlandham "
250;vega/voyager;317;2017-05-16T17:21:20Z;2017-05-16T18:26:00Z;2017-05-16T18:26:00Z;vega/voyager;vega/voyager;vlandham;2;kanitw/vlandham;"> I didn't see a production or deploy script for the tool yet 

Yeah, I haven't setup production config at all.  Sorry - previous build issues were because I brought in `@types/node` - but node's `setTimeout` has a different signature than client JS. 

In light of this - and because we don't need all node types, I've just created a `process` type in the store. we can move this out of store if this is needed elsewhere. "
251;vega/voyager;312;2017-05-07T20:50:42Z;2017-05-16T18:23:15Z;2017-05-16T18:23:15Z;saulshanabrook/voyager;vega/voyager;saulshanabrook;1;kanitw;@saulshanabrook This looks good.  Thanks!
252;vega/voyager;310;2017-04-07T22:40:56Z;2017-08-07T18:03:22Z;2017-08-07T18:03:22Z;vega/voyager;vega/voyager;kanitw;1;kanitw;"Now our `<Field>` can correct display function name.  

![voyager_2](https://user-images.githubusercontent.com/111269/28728906-49929666-737f-11e7-9342-c2d3a0ba9f9f.png)
"
296;vega/voyager;225;2015-11-06T01:04:55Z;2015-11-11T19:32:31Z;2015-11-11T19:32:31Z;vega/voyager;vega/voyager;kanitw;1;yhoonkim;"I merged https://github.com/vega/compass/pull/125
But I've not make release and merged it yet.
"
299;vega/voyager;222;2015-10-23T19:24:00Z;2015-10-23T19:58:37Z;2015-10-23T19:58:37Z;vega/voyager;vega/voyager;domoritz;1;kanitw;"Ideally welcome should be different from about but I think this is better than nothing for now.  
"
301;vega/voyager;220;2015-10-21T04:36:13Z;2015-10-22T02:15:49Z;2015-10-22T02:15:49Z;vega/voyager;vega/voyager;domoritz;2;kanitw/domoritz;"Now ready for review with working scrollbar — please see commit logs for detail 
 LGTM except for the sandboxing comment. 
"
302;vega/voyager;217;2015-10-18T23:05:15Z;2015-10-20T23:47:00Z;2015-10-20T23:47:00Z;vega/voyager;vega/voyager;kanitw;1;kanitw;"FYI, latest screenshot:

![data_voyager](https://cloud.githubusercontent.com/assets/111269/10590882/0c8a8aaa-7668-11e5-8ef7-b57840301dee.png)
"
305;vega/voyager;212;2015-10-16T21:13:57Z;2015-10-18T07:21:45Z;2015-10-18T07:21:45Z;vega/voyager;vega/voyager;kadamwhite;3;kadamwhite/kadamwhite/domoritz;"![image](https://cloud.githubusercontent.com/assets/442115/10553542/9ef8efb2-7429-11e5-9846-33c2f729d164.png)
 @kanitw @domoritz ready for review: this closes vega/vega-lite-ui#113
 Moved css over as done in https://github.com/vega/vega-lite-ui/pull/119
"
306;vega/voyager;209;2015-10-16T03:06:34Z;2015-10-16T04:38:21Z;2015-10-16T04:38:21Z;vega/voyager;vega/voyager;kadamwhite;1;kanitw;"Just check and looks like this is a great temp solution.  Thanks for fixing this!
"
307;vega/voyager;208;2015-10-16T02:02:05Z;2015-10-16T03:15:29Z;2015-10-16T03:15:29Z;vega/voyager;vega/voyager;kadamwhite;2;kanitw/kadamwhite;"LGTM.   Thanks for changing this!  :) 

Minor: I like the smaller dot better than bullet, but no strong preference.  Feel free to pick one and merge.  
 @kanitw Great! I switched to the dot (I liked it slightly more as well) and fixed the debug button, which I'd broken by accident in my first commit.

This should probably be made into another issue, but cc @vlandham in case this falls under the purview of #199 : the ""About"" button @vlandham added has no function, and does not appear to ever have had any. What's the plan there?
"
309;vega/voyager;201;2015-10-15T20:52:34Z;2015-10-15T21:44:27Z;2015-10-15T21:44:27Z;vega/voyager;vega/voyager;kanitw;2;vlandham/kanitw;"`idl-logo` is different in voyager cause it was moved around
h2 is different in voyager because i took off the all caps in the css.
 Cool, I think the h2 and idl-logo can be resolved when we migrate polestar’s style.  
Feel free to merge this to `jim/update-ui` and then merge `jim/update-ui` to master  :) 
"
310;vega/voyager;199;2015-10-15T16:17:25Z;2015-10-16T18:26:15Z;2015-10-16T18:26:15Z;vega/voyager;vega/voyager;kadamwhite;6;vlandham/kadamwhite/kadamwhite/kadamwhite/domoritz/kadamwhite;"updated with a first pass at a welcome modal for voyager. still need the tutorial portion figured out. thoughts?

<img width=""1279"" alt=""screen shot 2015-10-15 at 12 25 54 pm"" src=""https://cloud.githubusercontent.com/assets/9369/10525205/33620ef6-7338-11e5-995c-726163d2ab3a.png"">
 The button layout broke on medium-size windows, so I have increased
the available horizontal space below a certain screen size.

![image](https://cloud.githubusercontent.com/assets/442115/10526305/052a1590-7358-11e5-83a0-2e6a1515318c.png)

![image](https://cloud.githubusercontent.com/assets/442115/10526320/14ecd378-7358-11e5-8487-8f6346c3e751.png)

![image](https://cloud.githubusercontent.com/assets/442115/10526452/ed8eb85e-7358-11e5-901c-7f8471f9ac39.png)
 Taking this over to rebase
 `welcomeModal` and `voyagerWelcomeModal` have been combined: I am now considering this complete
 Right now there is no way to reopen the welcome dialog once it's been closed. Should the welcome dialog be the same as the about dialog? 
 @domoritz That could be done—`Modals.open('welcome-modal')` will re-open the modal, so it could be re-opened to do double-duty. However, I don't think it would be inappropriate to leave this as a dedicated first-run UI and to therefore make a second About modal, elsewhere in the app; that way the purposes of the two could be customized further.

Either way I think this is in a place where, if you're comfortable with them, both this and #vega/vega-lite-ui#111 could be merged and we could iterate from there!
"
312;vega/voyager;196;2015-10-14T22:43:04Z;2015-10-14T22:53:55Z;2015-10-14T22:53:55Z;vega/voyager;vega/voyager;kadamwhite;1;kanitw;"Nice fix!  
"
313;vega/voyager;195;2015-10-14T16:54:01Z;2015-10-15T21:57:16Z;2015-10-15T21:57:16Z;vega/voyager;vega/voyager;vlandham;21;vlandham/vlandham/jheer/vlandham/vlandham/kanitw/vlandham/vlandham/domoritz/vlandham/kanitw/vlandham/jheer/kanitw/vlandham/kanitw/vlandham/kanitw/kanitw/kanitw/vlandham;"ok. here is a revision with the different colors as suggested in the mockups. Thoughts?

<img width=""1279"" alt=""screen shot 2015-10-14 at 1 22 14 pm"" src=""https://cloud.githubusercontent.com/assets/9369/10496785/34ad17a4-7277-11e5-8cf5-e8a61590ce60.png"">
 ping @domoritz & @kanitw 
 Looks good to me! Perhaps we should update the standard link colors (e.g.,
at the top of the page) to match the more purple base tone?

On Wed, Oct 14, 2015 at 1:27 PM, Jim Vallandingham <notifications@github.com

> wrote:
> 
> ok. here is a revision with the different colors as suggested in the
> mockups. Thoughts?
> 
> [image: screen shot 2015-10-14 at 1 22 14 pm]
> https://cloud.githubusercontent.com/assets/9369/10496785/34ad17a4-7277-11e5-8cf5-e8a61590ce60.png
> 
> —
> Reply to this email directly or view it on GitHub
> https://github.com/vega/voyager/pull/195#issuecomment-148185551.
 good point @jheer - the mockups have them matching. I will update.
 updated with matching link colors

<img width=""1279"" alt=""screen shot 2015-10-14 at 1 36 18 pm"" src=""https://cloud.githubusercontent.com/assets/9369/10497085/e386ce18-7278-11e5-86ed-7bcedb341ed7.png"">
 @vlandham  looks like some of the things you moved are copied to polestar as well.  I think we should only move things that are specific to Voyager.  

The latest stuff looks cool. Here are some nits:

![pasted_image_10_14_15__3_23_pm](https://cloud.githubusercontent.com/assets/111269/10499769/b5429fdc-7287-11e5-8df1-f16e4ca5ba9f.png)

![pasted_image_10_14_15__3_25_pm](https://cloud.githubusercontent.com/assets/111269/10499828/0d9bf516-7288-11e5-875d-af923ca995a6.png)

Maybe the height of the top bar can be made by adjusting the logo like this?
![slice 1](https://cloud.githubusercontent.com/assets/111269/10499896/9b8a2f28-7288-11e5-92b7-cffc2b92d166.png)
 @kanitw i'm with you on everything but the different color backgrounds for the different sections. With grey - we have another 'background' color which is confusing. With white - the section headings bleed into the generated charts. I can try these again and provide some screenshots for what it might look like. 
 And i'm not crazy about smashing the cool new logo! A little space on top isn't too bad right? Lets the user breath a bit.
 I'm with @kanitw on the logo question. We want the top bar to be as small as possible. Especially when we embed voyager/polestar we want every pixel. 
 i don't disagree that every pixel is important - but sometimes the space around content is just as important right? having too small of a navigation bar reduces the distinction and hierarchy of the bar and thus the rest of the site.  I will work on reducing the size, but do think there is room for a bit of space in the tool.
 I agree that too small navigation bar can be bad too, but I still feel that it is currently too big especially that our tool is more like an app more than a website.  

Note that I do not like the size of the IDL logo in the old header bar -- it was too big, but haven't got a chance to fix it.  So feel free to reduce its size too.  

Another question -- Do you plan to implement color change on polestar too?  
 Ok. no problem. Now the header is 49px tall.

<img width=""1279"" alt=""screen shot 2015-10-14 at 7 37 10 pm"" src=""https://cloud.githubusercontent.com/assets/9369/10503464/12d6da28-72ab-11e5-8c59-0e05bf2f7377.png"">

If we feel this is the way to go with voyager - i wouldn't be opposed to moving he same stylings to polestar. It would, perhaps, be beneficial to determine if these two tools will be integrated first - which could change the priority of the task. 
 We may want to integrate Polestar functionality into Voyager, but in any
case will want to keep Polestar as a stand alone project!

On Wednesday, October 14, 2015, Jim Vallandingham notifications@github.com
wrote:

> Ok. no problem. Now the header is 49px tall.
> 
> [image: screen shot 2015-10-14 at 7 37 10 pm]
> https://cloud.githubusercontent.com/assets/9369/10503464/12d6da28-72ab-11e5-8c59-0e05bf2f7377.png
> 
> If we feel this is the way to go with voyager - i wouldn't be opposed to
> moving he same stylings to polestar. It would, perhaps, be beneficial to
> determine if these two tools will be integrated first - which could change
> the priority of the task.
> 
> —
> Reply to this email directly or view it on GitHub
> https://github.com/vega/voyager/pull/195#issuecomment-148263044.
 @vlandham  Thanks for the header change.  I like it more this way.    

I have a few more questions:

1) What happens now when users hover over a field pill?
We used to show yellow highlight on field pill hover like this:

![pasted_image_10_14_15__8_01_pm](https://cloud.githubusercontent.com/assets/111269/10503849/e716b436-72ae-11e5-82bb-48692de01d25.png)

I want to make sure that the style for this behavior is updated properly ;)

2) Do we really need one line to always display ""Load your data...""?

3) Do you have the sketch file for the logo?  (Or it is just in the mock file that you send me?)
I want to fiddle with the logo sizing a bit.  
 1) right now the same yellow is applied to the hovered pills - as expected. we could definitely tweak the color - but i kept that out of this PR for now.

<img width=""1279"" alt=""screen shot 2015-10-14 at 8 10 52 pm"" src=""https://cloud.githubusercontent.com/assets/9369/10503920/befba488-72af-11e5-9c0e-7bc3a38fa221.png"">

2) the feeling is that this tool is only really useful to folks outside of the user study if they can load and explore their own data. The most direct way to allow people to understand this is by providing a visual cue. I think a small link like this is fairly un-obtrusive and provides a direct link to the load data module - which is what people will want to get to once they understand what the tool can do.

3) the logo was also made in sketch. I'll send you an updated file with it isolated. 
 Thanks for your reply :) 

1) The color actually still looks okay, so I don't mind having it as is.  Although it could be further tweaked, I agree that it should be in a separate PR. 

2) 

> the feeling is that this tool is only really useful to folks outside of the user study if they can load and explore their own data. The most direct way to allow people to understand this is by providing a visual cue. 

Given your reasoning,

2.1) should the link be in the [welcome screen](https://cloud.githubusercontent.com/assets/9369/10326930/2674d162-6c6f-11e5-8cc0-c63b133b7cbf.png) or be in some form of pointer tooltip (like the [Shepherd](http://github.hubspot.com/shepherd/))?

2.2) Or if you think that it should still be here?  Should the link disappear after it is loaded first time?
Again our future Voyager extension might require some space on the left pane.

3) Awesome Thanks!

4) New Idea: I start thinking that we might be able to fit all the links on the bottom-left corner in one line like this:  

```
About  Debug  Report Bug
```
 For 2) - I definitely want to get it into the in-app tutorial - so that it highlights that loading custom data is a possibility. I think that if vertical scrolling is enabled for the left panel, perhaps space will be less of an issue in the future? Else, then yes - perhaps more complex measures could be used to remove it after an initial use. though then it would be difficult for said users to find again!
 2)  Vertical scroll is always the backup plan, but we should avoid them if possible as interaction with scrolling could be annoying in general.   

I think the issue that you mentioned can be resolved like this: 

```
Data:  <Dataset_name> \[Load\]
```

So the load button is not obscured, while doesn't take too much space.  

Also, your point about ""this tool is only really useful to folks outside of the user study if they can load and explore their own data"" is very good.  In fact, the data shouldn't be a select button and the list of examples dataset should be just another ""Example dataset"" tab in the data load modal.

That said, my suggested solution here requires a lot of changes, so it should be in a separate PR so I'm okay regarding 2) for this PR.  

3) I think I'll send a PR fiddling a bit with header and we can merge this.  :)
 @vlandham  FYI, here is an example screen that bugs me regarding visual hierarchy for the right pane.  
That said, given we have limited time, let’s merge this so you can focus on welcome screen stuff.  

![data_voyager](https://cloud.githubusercontent.com/assets/111269/10528529/a4b6d358-734b-11e5-90bb-e90600dc2f34.png)
 After all, these changes are already a huge improvement from the existing UIs!  Thank so much :)
 i hear you about the hierarchy. I would suggest that they at least move forward with distinguishing the two types of visualizations presented, and perhaps more importantly help provide some context to what the user is looking at when they get started with the tool. 

Thanks again for all the discussion and thoughtfulness in working through all this.
"
314;vega/voyager;194;2015-10-05T23:17:53Z;2015-10-06T02:14:02Z;2015-10-06T02:14:02Z;vega/voyager;vega/voyager;kadamwhite;1;kadamwhite;"These are URLs I was using to test the URL load functionality—thanks @domoritz for the links:
- https://dl.dropboxusercontent.com/u/12770094/test.csv
- https://dl.dropboxusercontent.com/u/12770094/TechCrunchcontinentalUSA.csv
"
315;vega/voyager;192;2015-10-01T22:20:44Z;2015-10-05T21:14:57Z;2015-10-05T21:14:57Z;vega/voyager;vega/voyager;kadamwhite;4;kanitw/domoritz/kadamwhite/domoritz;"LGTM  -- feel free to merge when vega/vega-lite-ui#89 is done or ask us to take another look if you have significant pattern change.
 Will you redo this for polestar as well?
 @domoritz yes, once I'm done with the changes to voyager -- it'll reduce pr churn to wait until one complete example is done. 
 Great.
"
317;vega/voyager;186;2015-09-24T18:17:39Z;2015-09-24T18:43:59Z;2015-09-24T18:43:59Z;vega/voyager;vega/voyager;kadamwhite;1;kadamwhite;"@domoritz @kanitw this and vega/polestar#327 are ready for review
"
322;vega/voyager;181;2015-09-06T16:08:12Z;2015-09-09T04:49:34Z;2015-09-09T04:49:34Z;andrewfhart/voyager;vega/voyager;andrewfhart;1;domoritz;"Thank you!
"
333;vega/voyager;158;2015-06-02T04:43:15Z;2015-06-05T03:01:53Z;2015-06-05T03:01:53Z;vega/voyager;vega/voyager;kanitw;5;domoritz/kanitw/domoritz/domoritz/domoritz;"Doesn't work. 

![screen shot 2015-06-04 at 19 20 37](https://cloud.githubusercontent.com/assets/589034/7998292/d67baae6-0aee-11e5-8dfe-eec80600eb26.png)
 In what sense?

—
Kanit ""Ham"" Wongsuphasawat
http://kanitw.yellowpigz.com/ 

Painfully tapped iPhone keyboard--only for you.  Sorry for brevity and typos.

On Thu, Jun 4, 2015 at 7:21 PM, Dominik Moritz notifications@github.com
wrote:

> Doesn't work. 
> 
> ## ![screen shot 2015-06-04 at 19 20 37](https://cloud.githubusercontent.com/assets/589034/7998292/d67baae6-0aee-11e5-8dfe-eec80600eb26.png)
> 
> Reply to this email directly or view it on GitHub:
> https://github.com/uwdata/voyager/pull/158#issuecomment-109134274
 In the sense that it doesn't use the time function in the generated charts. 
 Oh wait, I haven't updated compass. 
 My bad, sorry. 
"
335;vega/voyager;155;2015-05-26T22:16:57Z;2015-06-05T02:15:43Z;2015-06-05T02:15:43Z;vega/voyager;vega/voyager;kanitw;5;kanitw/domoritz/kanitw/domoritz/kanitw;"@domoritz — FYI, this issue and #157 are now passing! 
 Yeah, sorry. I started fixing things but the app still didn't work for me (could not find cp.gen). Does everything work for you?
 Have you tried (a) `bower unlink` and reinstall, or (b) pull the latest compass and build) ?
 Yes. Also, I get the feeling that the order of link is important. 

Still getting errors. 

![screen shot 2015-05-28 at 10 21 44](https://cloud.githubusercontent.com/assets/589034/7855625/72109d30-0523-11e5-90d7-44f59e777842.png)
 It should be working now.  
Most of the problems are from versioning.

Compass 0.5.4 release was originally broken with missing `compass.js`.  I have just updated the tag.  
Please try

```
git pull 
bower uninstall viscompass
bower clean cache
bower install # to install latest version of datalib and viscompass 
```

Then it should work now. 
"
342;vega/voyager;129;2015-03-16T04:53:04Z;2015-06-12T22:34:05Z;2015-06-12T22:34:05Z;vega/voyager;vega/voyager;domoritz;1;domoritz;"@kanitw should we get this in?
"
355;vega/voyager;99;2015-03-07T01:12:07Z;2015-03-08T22:13:18Z;2015-03-08T22:13:18Z;vega/voyager;vega/voyager;kanitw;1;kanitw;"I don’t know what should be a good header for it though.  

need to distinguish that it’s different from **functions** 
![data_voyager](https://cloud.githubusercontent.com/assets/111269/6539230/10cb2184-c424-11e4-9071-f84fc9e75ed8.png)
"
356;vega/voyager;97;2015-03-06T19:05:37Z;2015-03-06T21:47:42Z;2015-03-06T21:47:42Z;vega/voyager;vega/voyager;kanitw;4;kanitw/domoritz/kanitw/domoritz;"![data_voyager](https://cloud.githubusercontent.com/assets/111269/6536525/1d74e0f8-c403-11e4-84d6-7908cc2618ad.png)
 Are the constraints visible when the popup is closed?
 Yes.  

In fact I make  Q fields  ""*(field name) "" by default to distinguish between raw and \* 
 I was wondering what all those stars are. Awesome!
"
358;vega/voyager;91;2015-03-02T06:09:48Z;2015-03-02T22:09:55Z;2015-03-02T22:09:55Z;vega/voyager;vega/voyager;domoritz;2;kanitw/domoritz;"Just storing the `Fields.fields` should let already let us reproduce objects that `Visrec` package produces. 

We might want to track `Visrec.numClustersGenerated` so that we generate similar amount of clusters in the case that the ""more"" is clicked.  (just added #92)
 Updated pr. 
"
363;vega/voyager;77;2015-02-26T04:28:02Z;2015-02-26T04:30:44Z;2015-02-26T04:30:44Z;vega/voyager;vega/voyager;kanitw;1;domoritz;"The useUrl thing seems odd. Let's ask tomorrow. 
"
364;vega/voyager;67;2015-02-19T20:17:24Z;2015-02-26T06:29:45Z;2015-02-26T06:29:45Z;vega/voyager;vega/voyager;kanitw;5;domoritz/kanitw/domoritz/kanitw/domoritz;"I was wondering whether this is a real solution or just a hack? 
 I think a lot of web application use this in production... 
However, I am happy to change if you have better ideas.   

I was thinking about other alternatives but I haven't figured out a really better one. 
 It just seems to indicate an issue in the data flow. I'll add a `Hack` comment. 
 Actually an alternative is to update a counter in whenever field changes and call Visrec.update.projections() asynchronously.  

but write changes to objects in Visrec only if the counter remains the same (no additional clicks occurred)

However, the asynchronous call has to be timed correctly too.  
 Well, I think we should not have a watch and run the update when a user clicks on a filed checkbox, the remove all fields or on initialization. 
"
365;vega/voyager;66;2015-02-19T07:50:09Z;2015-02-19T17:01:42Z;2015-02-19T17:01:42Z;vega/voyager;vega/voyager;kanitw;1;kanitw;"![facetedviz](https://cloud.githubusercontent.com/assets/111269/6263256/2e141b2c-b7c9-11e4-9f86-295cf3a3277d.png)
"
367;vega/voyager;63;2015-02-17T05:51:04Z;2015-02-18T02:36:28Z;2015-02-18T02:36:28Z;vega/voyager;vega/voyager;kanitw;1;kanitw;"Now ready to be merged. 
"
368;vega/voyager;62;2015-02-16T02:53:44Z;2015-02-19T07:48:50Z;2015-02-19T07:48:50Z;vega/voyager;vega/voyager;domoritz;2;kanitw/domoritz;"can’t merge. 
 Merged master. 
"
375;vega/voyager;29;2015-02-07T17:03:15Z;2015-02-09T20:28:18Z;2015-02-09T20:28:18Z;vega/voyager;vega/voyager;kanitw;2;domoritz/kanitw;"Can't merge
 now mergable 
"
377;vega/voyager;27;2015-02-07T07:08:38Z;2015-02-08T05:46:37Z;2015-02-08T05:46:37Z;vega/voyager;vega/voyager;kanitw;2;domoritz/kanitw;"Cannot merge
 it’s now mergable
"
382;vega/voyager;9;2015-02-03T19:18:40Z;2015-02-04T04:32:04Z;2015-02-04T04:32:04Z;vega/voyager;vega/voyager;kanitw;1;domoritz;"Do you want to use the same form for shelfviz? Then you should add the option. 
"
