No;mainline_repo;pr_no;created_at;closed_at;merged_at;repo_origin_ml;repo_destin;pr_owner;no_commenters;pr_commenters;pr_comments
8;vorillaz/devicons;53;2014-10-21T14:42:57Z;2014-10-21T18:48:39Z;2014-10-21T18:48:39Z;olecrivain/devicons;vorillaz/devicons;olecrivain;1;adam-lynch;"So does [main-bower-files](https://github.com/ck86/main-bower-files).
"
