No;mainline_repo;pr_no;created_at;closed_at;merged_at;repo_origin_ml;repo_destin;pr_owner;no_commenters;pr_commenters;pr_comments
6;yarax/swagger-to-graphql;150;2019-09-09T22:24:25Z;2019-09-10T07:15:38Z;2019-09-10T07:15:38Z;marturi/swagger-to-graphql;yarax/swagger-to-graphql;marturi;1;yarax;Thanks!
7;yarax/swagger-to-graphql;146;2019-08-21T16:52:37Z;2019-09-10T20:40:00Z;2019-09-10T20:40:00Z;yarax/swagger-to-graphql;yarax/swagger-to-graphql;0xR;1;yarax;Hi, very nice idea, that definitely makes sense. The only thing I would add is a default handler, so if user don't have any specific cases, he can use everything just out of the box with any request library. That one can be for example https://github.com/github/fetch for browser compatibility
10;yarax/swagger-to-graphql;140;2019-08-09T22:13:44Z;2019-08-10T06:52:25Z;2019-08-10T06:52:25Z;artomal/swagger-to-graphql;yarax/swagger-to-graphql;artomal;1;yarax;Great note, thanks!
15;yarax/swagger-to-graphql;131;2019-05-19T14:01:44Z;2019-05-20T06:37:02Z;2019-05-20T06:37:02Z;yarax/swagger-to-graphql;yarax/swagger-to-graphql;0xR;2;0xR/yarax;Could you do a review @yarax  Really many changes, but LGTM and tests seem to be fine
32;yarax/swagger-to-graphql;110;2019-05-08T15:11:12Z;2019-05-11T09:41:46Z;2019-05-11T09:41:46Z;kamilchm/swagger-to-graphql;yarax/swagger-to-graphql;kamilchm;1;0xR;"OpenAPI does not have a nullable field, therefore the safe assumption is that the elements in an array are nullable.

OTOH, in most cases nonnullable is a safe assumption."
34;yarax/swagger-to-graphql;108;2019-04-26T14:01:27Z;2019-04-27T10:27:32Z;2019-04-27T10:27:32Z;kamilchm/swagger-to-graphql;yarax/swagger-to-graphql;kamilchm;1;0xR;Looks good, although this might be a breaking change. I'll think about how to release this, for now I'll merge it.
35;yarax/swagger-to-graphql;107;2019-04-23T14:44:44Z;2019-04-23T19:54:51Z;2019-04-23T19:54:51Z;colinyoung/swagger-to-graphql;yarax/swagger-to-graphql;colinyoung;2;colinyoung/yarax;@yarax - on a separate note, I saw you're looking for maintainers in the Readme. I'd be happy to help if you need that. Hi @colinyoung! Thanks for your PR. Regarding contribution, please feel free to take any open issue. There is also a lot of work on transferring to OpenAPI 3
36;yarax/swagger-to-graphql;106;2019-03-07T10:25:42Z;2019-04-27T10:26:27Z;2019-04-27T10:26:27Z;nitzangoldfeder/swagger-to-graphql;yarax/swagger-to-graphql;nitzangoldfeder;2;maorhayoun/mixed;"+1
 +1"
40;yarax/swagger-to-graphql;93;2018-08-22T01:14:08Z;2018-11-21T21:58:14Z;2018-11-21T21:58:14Z;;yarax/swagger-to-graphql;wtgtybhertgeghgtwtg;1;yarax;Thanks!
42;yarax/swagger-to-graphql;89;2018-07-27T23:34:28Z;2018-11-21T21:59:24Z;2018-11-21T21:59:24Z;ateamlunchbox/swagger-to-graphql;yarax/swagger-to-graphql;ateamlunchbox;3;4F2E4A2E/ateamlunchbox/yarax;@ateamlunchbox IMO yarn is another concern and should not be handled in this PR. @yarax: I updated my PR to exclude yarn.lock and fixed the name in package.json.  Sorry for the errors in my earlier version. Thanks!
43;yarax/swagger-to-graphql;88;2018-07-19T15:05:40Z;2018-12-19T13:37:02Z;2018-12-19T13:37:02Z;thejibz/swagger-to-graphql;yarax/swagger-to-graphql;thejibz;3;yarax/thejibz/yarax;"Hi! The link that you provided as an example is not valid and not official Open API reference. Could you please fix it? Hi !
I dont understand your request !?

Let's forget about the ""official"" or not, the point is: **it's a valid schema !**

- Proof of validity: Please test the schema against [this online validator](https://apidevtools.org/swagger-parser/online/). The validator use the official librabries to do its work.

Cheers. All that I want is a pointer to the specification https://swagger.io/docs/specification/describing-parameters/ saying that it's a valid case, but now I see that it's so"
44;yarax/swagger-to-graphql;85;2018-06-30T12:37:13Z;2018-06-30T13:54:09Z;2018-06-30T13:54:09Z;yarax/swagger-to-graphql;yarax/swagger-to-graphql;0xR;3;yarax/0xR/yarax;"Nice, thanks. What's the goal of replacing prepublish? prepublish is deprecated and building should happen in the new `prepare` script:
https://github.com/npm/npm/issues/10074

NPM was complaining about it I see, good to know!"
47;yarax/swagger-to-graphql;81;2018-06-15T17:05:47Z;2018-06-15T20:08:01Z;2018-06-15T20:08:01Z;TimSusa/swagger-to-graphql;yarax/swagger-to-graphql;TimSusa;1;yarax;Thanks!
50;yarax/swagger-to-graphql;76;2018-05-21T10:35:08Z;2018-05-28T21:03:01Z;2018-05-28T21:03:01Z;0xR/swagger-to-graphql;yarax/swagger-to-graphql;0xR;1;0xR;@yarax I noticed that you didn't have time to a look at my PR's yet. I understand finding time for open source can be difficult. Would you be open to giving me contribution rights to this repository and [node-request-by-swagger](https://github.com/yarax/node-request-by-swagger) so I can merge my PR's? NPM publish rights would also be great. That way I can bring this project back to live. 
53;yarax/swagger-to-graphql;71;2018-05-10T22:58:27Z;2018-05-11T07:46:04Z;2018-05-11T07:46:04Z;puneetar/swagger-to-graphql;yarax/swagger-to-graphql;puneetar;1;yarax;Great, thanks, this change should have been there a long time ago
54;yarax/swagger-to-graphql;69;2018-05-01T18:38:26Z;2018-05-11T07:54:48Z;2018-05-11T07:54:48Z;saumitrab/swagger-to-graphql;yarax/swagger-to-graphql;saumitrab;1;saumitrab;@yarax Any suggestions? The tool didn't work for a valid swagger schema that used a $ref in parameters. So I used the ref resolver while parsing the parameters. I have updated petstore.yaml to represent the use-case. 
56;yarax/swagger-to-graphql;54;2018-02-16T06:28:49Z;2018-02-19T12:16:49Z;2018-02-19T12:16:49Z;ofersadgat/swagger-to-graphql;yarax/swagger-to-graphql;ofersadgat;16;4F2E4A2E/4F2E4A2E/yarax/4F2E4A2E/4F2E4A2E/4F2E4A2E/ofersadgat/4F2E4A2E/ofersadgat/ofersadgat/4F2E4A2E/gustaflindqvist/4F2E4A2E/ofersadgat/4F2E4A2E/yarax;"I was working in the exact same thing,
Would be nice if json-schema-ref-parser dereferece has an option to keep the ref information as a kind of meta object. The graphql files are much more readable this way, good job!
 @ofersadgat you forgot to add chai as a dev depency:
```patch
--- package.json	(revision 9d74899e3016a62d06111f4bc25e7533549e4365)
+++ package.json	(date 1518769369456)
@@ -25,6 +25,7 @@
     ""babel-plugin-transform-runtime"": ""^6.23.0"",
     ""babel-preset-es2015"": ""^6.24.1"",
     ""babel-preset-stage-0"": ""^6.24.1"",
+    ""chai"": ""^4.1.2"",
     ""eslint"": ""^3.19.0"",
     ""eslint-config-airbnb-es5"": ""^1.1.0"",
     ""eslint-plugin-react"": ""^6.5.0"",
``` Hi @ofersadgat 
Thanks for PR!
Sounds reasonable, I'll have a look in the weekend 
@4F2E4A2E also thanks for help @ofersadgat there is maybe an issue you wanna fix for PATCH | POST | PUT  requests which also share the same type with GET:

GET | findPetsByStatus has a response of Pet (""$ref"": ""#/definitions/Pet"")
```graphql
findPetsByStatus(status: [String]): [Pet]
```

but only a input type of Pet were generated: 
```graphql
input Pet {
  id: String
  category: Category
  name: String
  photoUrls: [String]
  tags: [Tag]

  """"""pet status in the store""""""
  status: String
}
``` This could be added to the test at the end:
```patch
===================================================================
--- test/index.js	(date 1518769433000)
+++ test/index.js	(date 1518784682212)
@@ -12,9 +12,11 @@
           .then((schema) => {
             const graphqlfile = directory + (file.replace('.json', '.graphql'));
             const graphschema = graphql.printSchema(schema);
-            const expected = fs.readFileSync(graphqlfile, ""utf8"");
+            const expected = fs.readFileSync(graphqlfile, 'utf8');
 
             expect(graphschema).to.equal(expected);
+            graphql.graphql(schema, '{ findPetsByStatus(status: ""3"") } ')
+                  .then(f => console.log(JSON.stringify(f)));
           });
       });
     }
```

The query may vary of course. 
**Here is test output with the changes above:**
```json
{""errors"":[{""message"":""Cannot query field \""findPetsByStatus\"" on type \""Query\""."",""locations"":[{""line"":1,""column"":3}]}]}
{""errors"":[{""message"":""The type of viewer.findPetsByStatus must be Output Type but got: [Pet].""},{""message"":""The type of viewer.findPetsByTags must be Output Type but got: [Pet].""},{""message"":""The type of viewer.getPetById must be Output Type but got: Pet.""},{""message"":""The type of viewer.getUserByName must be Output Type but got: User.""},{""message"":""The type of Mutation.placeOrder(body:) must be Input Type but got: Order.""}]}

``` Aaand this is how the circular.json could look like:
```patch
===================================================================
--- test/fixtures/circular.json	(date 1518769433000)
+++ test/fixtures/circular.json	(date 1518785428828)
@@ -34,6 +34,35 @@
                     }
                 }
             }
+        },
+        ""/swagger-graphql/patch/circular"": {
+            ""patch"": {
+                ""description"": ""A retrieves a circular structure"",
+                ""parameters"": [
+                    {
+                        ""in"": ""body"",
+                        ""name"": ""body"",
+                        ""required"": false,
+                        ""schema"": {
+                            ""$ref"": ""#/definitions/Circular""
+                        }
+                    }
+                ],
+                ""produces"": [
+                    ""application/json""
+                ],
+                ""responses"": {
+                    ""200"": {
+                        ""description"": null,
+                        ""schema"": {
+                            ""type"": ""array"",
+                            ""items"": {
+                                ""$ref"": ""#/definitions/Circular""
+                            }
+                        }
+                    }
+                }
+            }
         }
     },
     ""definitions"": {
```

This process could be done [easier](https://help.github.com/articles/allowing-changes-to-a-pull-request-branch-created-from-a-fork/) :) @4F2E4A2E I've fixed the chai inclusion. I didnt realize that you couldnt reuse the types so I've changed it to duplicate the definition one being an input (and ending with the name 'Input') and the other being normal. If you have another idea for the naming (or how to improve that) im all ears.

I also think you're confused about how the test framework works. The test framework takes a pair of files: circular.json and circular.graphql and basically makes sure that given the swagger definition in circular.json we get the expected graphql output in circular.graphql. You shouldnt update the code in the test/index.js. If you want to update what the result of the test should be you go to circular.graphql and change it there. >  I didnt realize that you couldnt reuse the types so I've changed it to duplicate the definition one being an input (and ending with the name 'Input') and the other being normal. If you have another idea for the naming (or how to improve that) im all ears.

I recommend _not_ to modify the object names and rather resolve it without the input string appendix, as far as I know this is totally fine by graphql-schema, **since it's being unique by the type itself**:  `type Circular` and `input Circular`.

> I also think you're confused about how the test framework works. The test framework takes a pair of files: circular.json and circular.graphql and basically makes sure that given the swagger definition in circular.json we get the expected graphql output in circular.graphql.

No I am not confused, just made a proposal which is not in your intent for this test. My intention was to qualify and improve the meaning of the test by testing those definitions if they really do work with a graphql instance. We can do that in another test no problem at all. Obviously the graphql query must be implemented into a test.

And since we are at it, I think the code might still have some bug, I discovered that with my confused test 🗡 :)

```graphql
findPetsByStatus(status: [String]): [PetInput]
```
`
{""errors"":[{""message"":""The type of viewer.findPetsByStatus must be Output Type but got: [PetInput].""},{""message"":""The type of viewer.findPetsByTags must be Output Type but got: [PetInput].""},{""message"":""The type of viewer.getPetById must be Output Type but got: PetInput.""},{""message"":""The type of viewer.getUserByName must be Output Type but got: UserInput.""}]}`

Anyhow, you are welcome 👍 
 @4F2E4A2E Thanks for the catch! The test has been corrected to include the correct result.

Yeah, if you'd like you can create a separate test to test that the queries work. As for the naming, I dont think thats legal. Multiple threads seem to support that statement. For example: https://github.com/apollographql/graphql-tools/issues/179 P.S. I've also added compatibility for the server field. This makes passing swagger entirely self contained in specifying how to request the resources. Great work @ofersadgat, first tests are looking good. Starting further tests now... Great work both @ofersadgat and @4F2E4A2E! Good discussion and solving the problem. 👍🏻👏🏻 @Naming: i like the explicit side of it, though afaik , this is a valid graphql schema:
```
type Circular {
  name: String
  reference: Circular
}

input Circular {
  name: String
  reference: Circular
}
```

All operations on a complex schema are running just fine. @yarax from my end it's a go 👍  @4F2E4A2E I tried inputting the schema with the type and input having the same name to graphql and I get an exception:

```
Error: Schema must contain unique named types but contains multiple types named ""Pet"".
      at invariant (node_modules\graphql\jsutils\invariant.js:19:11)
      at typeMapReducer (node_modules\graphql\type\schema.js:197:58)
      at Array.reduce (native)
      at node_modules\graphql\type\schema.js:221:36
      at Array.forEach (native)
      at typeMapReducer (node_modules\graphql\type\schema.js:214:27)
      at Array.reduce (native)
      at new GraphQLSchema (node_modules\graphql\type\schema.js:111:34)
      at schemaFromEndpoints (lib\index.js:75:10)
      at _callee2$ (lib\index.js:145:22)
      at tryCatch (node_modules\regenerator-runtime\runtime.js:62:40)
      at GeneratorFunctionPrototype.invoke [as _invoke] (node_modules\regenerator-runtime\runtime.js:296:22)
      at GeneratorFunctionPrototype.prototype.(anonymous function) [as next] (node_modules\regenerator-runtime\runtime.js:114:21)
      at step (node_modules\babel-runtime\helpers\asyncToGenerator.js:17:30)
      at node_modules\babel-runtime\helpers\asyncToGenerator.js:28:13
```

So, I dont think that is allowed. @ofersadgat you're right, it is not possible. Thanks guys, I looked through the code, looks fine. I'll merge it soon and publish as a new version"
57;yarax/swagger-to-graphql;52;2018-02-08T05:30:30Z;2018-02-08T12:24:29Z;2018-02-08T12:24:29Z;;yarax/swagger-to-graphql;sartaj;1;yarax;Thanks a lot!
61;yarax/swagger-to-graphql;43;2018-01-11T14:23:08Z;2018-01-11T15:44:59Z;2018-01-11T15:44:59Z;;yarax/swagger-to-graphql;4F2E4A2E;1;4F2E4A2E;@yarax please take a look
64;yarax/swagger-to-graphql;29;2017-07-03T14:32:09Z;2017-08-11T12:18:18Z;2017-08-11T12:18:18Z;marla-singer/swagger-to-graphql;yarax/swagger-to-graphql;marla-singer;1;yarax;Hi! Thanks for the great PR! Unfortunately didn't see the notification about it, so didn't respond earlier.
65;yarax/swagger-to-graphql;24;2017-05-31T21:15:25Z;2017-06-24T11:23:20Z;2017-06-24T11:23:20Z;sibelius/swagger-to-graphql;yarax/swagger-to-graphql;sibelius;5;yarax/sibelius/yarax/sibelius/yarax;"Hey!
Thank you very much for a great job! Sorry for response delay
After building the fork I got the error:

```
/home/roman/sandbox/swagger-to-graphql/lib/index.js:111
  var _ref2 = _asyncToGenerator(regeneratorRuntime.mark(function _callee2(swaggerPath) {
                                ^

ReferenceError: regeneratorRuntime is not defined
    at /home/roman/sandbox/swagger-to-graphql/lib/index.js:111:33
```

 we need to use babel-polyfill to make async await works

`import 'babel-polyfill';` Also sadly that backward compatibility for src/index is broken now (it exported default object) but seems like it must to be done feel free to improve this branch in another branch or in this one as well Created https://github.com/yarax/swagger-to-graphql/tree/release-1.1 branch based on your fork which will also require last issues"
66;yarax/swagger-to-graphql;21;2017-05-31T19:50:58Z;2017-06-14T14:47:20Z;2017-06-14T14:47:19Z;sibelius/swagger-to-graphql;yarax/swagger-to-graphql;sibelius;1;yarax;Nice job! Thanks
68;yarax/swagger-to-graphql;13;2017-04-11T13:48:17Z;2017-05-10T10:13:39Z;2017-05-10T10:13:39Z;0xR/swagger-to-graphql;yarax/swagger-to-graphql;0xR;1;yarax;Thanks!
