No,mainline_repo,pr_no,created_at,merged_at,repo_origin_ml,repo_destin,pr_owner,no_commenters,pr_commenters,pr_comments
4,paulcwatts/ember-cli-rollbar,38,2018-05-29T20:31:56Z,2018-05-30T13:26:06Z,bf4/ember-cli-rollbar,paulcwatts/ember-cli-rollbar,bf4,3,paulcwatts/bf4/bf4,"This doesn't *quite* do what we might expect -- it will look for a `console.configure` method, which probably won't exist, and certainly wouldn't take the same arguments. I think what you want is this:

```js
configure: wrapConsole('log')
```
 @paulcwatts Sure. I'm obviously not very proficient at this level of JavaScript :) And I didn't read the function carefully enough :) And forgot to test out npm link :) Force pushed"
