No,mainline_repo,pr_no,created_at,merged_at,repo_origin_ml,repo_destin,pr_owner,no_commenters,pr_commenters,pr_comments
8,C-Lodder/grunt-postcss,31,2020-09-19T05:58:19Z,2020-09-25T04:29:41Z,C-Lodder/grunt-postcss,C-Lodder/grunt-postcss,C-Lodder,7,C-Lodder/nDmitry/C-Lodder/XhmikosR/XhmikosR/XhmikosR/C-Lodder,"@ai @XhmikosR Trying to add support for PostCSS 8.x here, but seem to be having issues with the source maps on Windows.
The tests run fine on Ubuntu as you can see from: https://github.com/C-Lodder/grunt-postcss/pull/31/checks?check_run_id=1137192879 however not locally.

### Received:
```
'{""version"":3,""sources"":[""../../test/fixtures/a.css""],""names"":[],""mappings"":""AAAA,EACI,UACJ"",""file"":""..\\\\mapAnnotation Path.css"",""sourcesContent"":[""a {\\n    color: #fff;\\n}\\n""]}'
                                                                                                      ^^^
```

### Expected:
```
'{""version"":3,""sources"":[""../../test/fixtures/a.css""],""names"":[ ],""mappings"":""AAAA,EACI,UACJ"",""file"":""../mapAnnotationPath.css"",""sourcesContent"":[""a {\\n    color: #fff;\\n}\\n""]}'
```

Do you have any idea what this could be?


 I don't think dropping support for all node versions except the current is the right move.
It should be in sync with PostCSS: https://github.com/postcss/postcss/blob/master/package.json#L6 @nDmitry oops my bad. Updated the PR.

Still need to figure out why it's failing on Windows About the Windows issue, if you modify the sourcemaps here, make sure you don't use the generic path functions; instead use the `path.posix` variants. Since I'm on Windows, I'll have a look today. Sourcemaps can be tricky because the paths should always be Unix ones (not sure what the specs say, but this works everywhere AFAICT from all these years). This turns out to be tricky.

We should move with postcss 8.x and make a new issue about the Windows issue so that we try to fix it later.

EDIT:

```
Running ""postcss:mapAnnotationPath"" (postcss) task
>> File tmp/mapAnnotationPath.css created. 23 B → 68 B
>>>> result.map.toString(): {""version"":3,""sources"":[""../../test/fixtures/a.css""],""names"":[],""mappings"":""AAAA,EACI,UACJ"",""file"":""..\\mapAnnotationPath.css"",""sourcesContent"":[""a {\n    color: #fff;\n}\n""]}

>>>> result.map.toString().replace(/\/g,'/'): {""version"":3,""sources"":[""../../test/fixtures/a.css""],""names"":[],""mappings"":""AAAA,EACI,UACJ"",""file"":""..//mapAnnotationPath.css"",""sourcesContent"":[""a {/n    color: #fff;/n}/n""]}
>> File tmp/mapAnnotationPath.css.map created (source map).
1 processed stylesheet created. 23 B → 68 B
>> 1 sourcemap created.
```

The `file` property is still broken.

EDIT2:

```
Running ""postcss:mapAnnotationPath"" (postcss) task
>>> to: tmp/mapAnnotationPath.css
>>> path.dirname(to): tmp
>>> getSourcemapPath(to): tmp\maps\mapAnnotationPath.css.map
>>> path.relative(path.dirname(to), getSourcemapPath(to)).replace(/\/g, '/'): maps/mapAnnotationPath.css.map
>> File tmp/mapAnnotationPath.css created. 23 B → 68 B
>>>> result.map.toString(): {""version"":3,""sources"":[""../../test/fixtures/a.css""],""names"":[],""mappings"":""AAAA,EACI,UACJ"",""file"":""..\\mapAnnotationPath.css"",""sourcesContent"":[""a {\n    color: #fff;\n}\n""]}

>>>> result.map.toString().replace(/\/g,'/'): {""version"":3,""sources"":[""../../test/fixtures/a.css""],""names"":[],""mappings"":""AAAA,EACI,UACJ"",""file"":""..//mapAnnotationPath.css"",""sourcesContent"":[""a {/n    color: #fff;/n}/n""]}
>> File tmp/mapAnnotationPath.css.map created (source map).
1 processed stylesheet created. 23 B → 68 B
>> 1 sourcemap created.
``` I've managed to find a fix in the postcss core. Will submit a PR and see what the author has to say

EDIT: didn't pass their tests"
10,C-Lodder/grunt-postcss,29,2020-09-16T15:01:39Z,2020-09-19T04:20:59Z,C-Lodder/grunt-postcss,C-Lodder/grunt-postcss,dependabot-preview[bot],1,C-Lodder,@dependabot rebase
17,C-Lodder/grunt-postcss,18,2020-06-02T08:58:13Z,2020-06-02T09:19:01Z,jorrit/grunt-postcss,C-Lodder/grunt-postcss,jorrit,1,C-Lodder,"Thanks @jorrit 
Will release an update now"
20,C-Lodder/grunt-postcss,15,2019-11-08T12:18:32Z,2019-11-08T12:44:34Z,,C-Lodder/grunt-postcss,XhmikosR,6,XhmikosR/C-Lodder/XhmikosR/XhmikosR/XhmikosR/XhmikosR,@C-Lodder it seems you have both Travis CI org and com added to the repo. This PR switches to the com instance. I suggest you remove the org instance from the repo and just keep the app. @XhmikosR I've merged your other PR. Can you fetch and push to retrigger the build with the updated config please Done. Just FYI you could also do it. Still seeing 2 hooks We can just use GitHub Actions CI and remove everything Travis related Anyway just merge this and I'll make a GH Actions PR.
24,C-Lodder/grunt-postcss,6,2018-12-05T06:10:36Z,2018-12-05T11:33:06Z,VitaliyR/grunt-postcss,C-Lodder/grunt-postcss,VitaliyR,1,C-Lodder,Thank you @VitaliyR 
25,C-Lodder/grunt-postcss,5,2018-11-23T13:14:56Z,2018-11-23T13:33:41Z,jorrit/grunt-postcss,C-Lodder/grunt-postcss,jorrit,1,C-Lodder,Thank you @jorrit 
