No,mainline_repo,pr_no,created_at,merged_at,repo_origin_ml,repo_destin,pr_owner,no_commenters,pr_commenters,pr_comments
1,IBM-Cloud/cf-nodejs-client,49,2018-12-26T08:33:17Z,2019-01-18T16:07:34Z,adrukh/cf-nodejs-client,IBM-Cloud/cf-nodejs-client,adrukh,4,adrukh/adrukh/adrukh/adrukh,"Travis tests seem to only enforce linting on PRs, I wonder how can the functional correctness be validated. Could not run `npm run test:local` locally, assume it depends on a CF setup I do not have? 👋 @srl295 how do you suggest to proceed? 👋 @srl295 :) 👋 @srl295 :))"
2,IBM-Cloud/cf-nodejs-client,42,2016-12-11T01:39:20Z,2016-12-21T03:08:55Z,jabrena/cf-nodejs-client,IBM-Cloud/cf-nodejs-client,jabrena,1,jabrena,Tested with a Bluemix Account.
3,IBM-Cloud/cf-nodejs-client,39,2016-09-09T19:11:50Z,2016-10-07T13:13:07Z,nsand/cf-nodejs-client,IBM-Cloud/cf-nodejs-client,nsand,4,nsand/jsloyer/nsand/nsand,"Hi, @jsloyer. I was wondering if this is a feature that y'all would like?
 @nsand I really don't want to change the signature of that function, would you be willing to another function instead?
 Totally understandable. I can definitely do that.
 @jsloyer Reverted the changes to the existing function and added a new `uploadFromStream` function.
"
19,IBM-Cloud/cf-nodejs-client,18,2016-05-12T16:55:11Z,2016-05-31T13:50:38Z,IBM-Cloud/cf-nodejs-client,IBM-Cloud/cf-nodejs-client,cphrmky,1,cphrmky,"The need for this still crops intermittently for me, not sure where it's coming from in the bluemix-code-extension code base, but it's happening.  Since I've seen no complaints about this I'm going to merge it. 
"
