No;mainline;variant;mainline_maintainer-details;variant_maintainers-details
1;micropython/micropython;adafruit/micropython;Damien George&damien@micropython.org&dpgeorge#15/Damien George&damien@micropython.org&pfalcon#3;Scott Shawcroft&scott@tannewt.org&tannewt#149/Jeff Epler&jepler@gmail.com&dhalbert#108/Kevin Townsend&kevin.townsend@linaro.org&microbuilder#10/Roy Hooper&rhooper@toybox.ca&kattni#7/Jeff Epler&jepler@gmail.com&ladyada#2
2;prism/Prism-Bukkit;AddstarMC/Prism-Bukkit;Narimm&benjicharlton@gmail.com&Narimm#11/addstar&addstar@addstar.com.au&addstar#2;Narimm&benjicharlton@gmail.com&Narimm#62/addstar&addstar@addstar.com.au&addstar#4/alchemistmatt&matthew.monroe@pnnl.gov&alchemistmatt#2
3;xmrig/xmrig;Bendr0id/xmrigCC;XMRig&support@xmrig.com&xmrig#77;Ben Gräf&ben@graef.in&Bendr0id#69
4;arduino/Arduino;energia/Energia;Federico Fissore&federico@fissore.org&ffissore#7;Robert Wessels&robertinant@yahoo.com&robertinant#105
5;mavlink/mavlink;ArduPilot/mavlink;Daniel Williams&equipoise@gmail.com&LorenzMeier#40/Andrew Tridgell&andrew@tridgell.net&tridge#9/DonLakeFlyer&don@thegagnes.com&DonLakeFlyer#1/Vladimir Ermakov&vooon341@gmail.com&vooon#1/Bryant Mairs&bryant@mai.rs&Susurrus#1;Andrew Tridgell&andrew@tridgell.net&tridge#82/Peter Barker&pbarker@barker.dropbear.id.au&peterbarker#28/Josep Bello Curto&bellocontacto@gmail.com&rmackay9#8
6;kyuupichan/electrumx;spesmilo/electrumx;SomberNight&somber.night@protonmail.com&kyuupichan#102;SomberNight&somber.night@protonmail.com&SomberNight#22/Justin Turner Arthur&justinarthur@gmail.com&JustinTArthur#10
7;monero-project/monero;aeonix/aeon-rebase;Dusan Klinec&dusan.klinec@gmail.com&luigi1111#1;aeonix&aeon.coin@gmail.com&aeonix#127
8;laravel/valet;cpriego/valet-ubuntu;Adam Wathan&adam.wathan@gmail.com&adamwathan#67/Philo Hermans&me@philohermans.com&taylorotwell#18/Marcy Acevedo&marcy@tighten.co&mattstauffer#2;Joaquín Marcher&joaquin@marcher.com.uy&jmarcher#33
9;riobard/go-shadowsocks2;shadowsocks/go-shadowsocks2;Shelikhoo&xiaokangwang@outlook.com&riobard#2;Shelikhoo&xiaokangwang@outlook.com&riobard#41/lucus lee&lixin9311@gmail.com&lixin9311#3
10;onebone/EconomyS;poggit-orphanage/EconomyS;onebone&jyc00410@gmail.com&onebone#12/nnnlog&sorisem4106@naver.com&nnnlog#1;SOFe&sofe2038@gmail.com&SOF3#5
11;2factorauth/twofactorauth;acceptbitcoincash/acceptbitcoincash;Sulka Haro&sulka@sulka.net&jamcat22#28/Arun Pattni&arun.pattni01@gmail.com&Carlgo11#20/Stephen Groat&stephen.groat@datadoghq.com&stephengroat#8/Johannes&brycx@protonmail.com&brycx#2;quest&quest@mac.com&zquestz#9/Josh McIntyre&josh@jmcintyre.net&joshmcintyre#3
12;asLody/VirtualApp;rk700/VirtualHook;Lody&imlody@163.com&asLody#38;
13;dempfi/ayu;teabyii/vscode-ayu;;Boom Lee&teabyii@gmail.com&teabyii#13/customcommander&hello@spinjs.com&pahen#8
14;khancyr/ardupilot_gazebo;SwiftGust/ardupilot_gazebo;Andy Piper&github@andypiper.com&khancyr#4;John Ericksen&johncarl81@gmail.com&SwiftGust#4
15;dempfi/ayu;jsenjoy/vscode-ayu;;Boom Lee&teabyii@gmail.com&teabyii#13/customcommander&hello@spinjs.com&pahen#8
16;Wonderfall/docker-nextcloud;benyanke/docker-nextcloud;Wonderfall&wonderfall@targaryen.house&Wonderfall#20;Ben Yanke&ben@benyanke.com&benyanke#8
17;PromyLOPh/pianobar;thedmd/pianobar-windows;Roel Janssen&roel@gnu.org&PromyLOPh#15;thedmd&michcic@gmail.com&thedmd#1
18;opentoonz/opentoonz;blackwarthog/opentoonz;shun-iwasawa&shun.iwasawa@ghibli.jp&shun-iwasawa#53/Campbell Barton&ideasman42@gmail.com&ideasman42#2/Shinya Kitaoka&skitaoka@gmail.com&skitaoka#1;
