No;mainline;variant;mainline_developer;variant_developer
1;micropython/micropython;adafruit/micropython;damien@micropython.org#279/jim.mussared@gmail.com#15/moiandme@gmail.com#3;hosted@weblate.org#96/hierophect@gmail.com#15/halbert@halwitz.org#12
2;prism/Prism-Bukkit;AddstarMC/Prism-Bukkit;benjicharlton@gmail.com#243/joey@ahines.net#9/mikroskeem@mikroskeem.eu#3;benjicharlton@gmail.com#246/joey@ahines.net#9/mikroskeem@mikroskeem.eu#3
3;xmrig/xmrig;Bendr0id/xmrigCC;support@xmrig.com#189/sergey.v.chernykh@gmail.com#39/r.mitsuklavitt@gmail.com#3;ben@graef.in#141/ben@gra3f.de#54
4;arduino/Arduino;energia/Energia;c.maglie@bug.st#129/c.maglie@arduino.cc#66/m.facchin@arduino.cc#39;robertinant@yahoo.com#120/d-russo@ti.com#57/s-schauer1@ti.com#48
5;mavlink/mavlink;ArduPilot/mavlink;lorenz@px4.io#54/amilcar.lucas@iav.de#12/julian@oes.ch#6;andrew@tridgell.net#228/pb-gh@barker.dropbear.id.au#72
6;kyuupichan/electrumx;spesmilo/electrumx;kyuupichan@gmail.com#252;somber.night@protonmail.com#99/justinarthur@gmail.com#51/kyuupichan@gmail.com#30
7;monero-project/monero;aeonix/aeon-rebase;luigi1111w@gmail.com#138/snipa@jagtech.io#36/mjxmr@protonmail.com#15;stoffu@protonmail.ch#231/ivoryguru@pm.me#3
8;laravel/valet;cpriego/valet-ubuntu;matt@tighten.co#57/code@drbyte.dev#45/beau@dflydev.com#15;joaquin@marcher.com.uy#96/carlos.enrique.priego@gmail.com#69/bryan@hjugroup.io#12
9;riobard/go-shadowsocks2;shadowsocks/go-shadowsocks2;me@riobard.com#270/305009791@qq.com#6;me@riobard.com#100/lixin9311@gmail.com#44/mritd@linux.com#24
10;onebone/EconomyS;poggit-orphanage/EconomyS;jyc00410@gmail.com#356/sorisem4106@naver.com#12/shlee1503@naver.com#8;jdcraftmcpe@gmail.com#188/jyc00410@gmail.com#8/potatoshare88@gmail.com#8
11;2factorauth/twofactorauth;acceptbitcoincash/acceptbitcoincash;j@joshldavis.com#9;derago@gmail.com#96/quest@mac.com#9/pierre.alletru@gmail.com#9
12;asLody/VirtualApp;rk700/VirtualHook;;imlody@foxmail.com#132/keyongyu@ifunbow.com#30/lrk700@gmail.com#21
13;dempfi/ayu;teabyii/vscode-ayu;dempfi@yahoo.com#192/mail@dempfi.com#48/acc@dempfi.com#12;patrik.henningsson@gmail.com#114/dempfi@yahoo.com#45/teabyii@gmail.com#24
14;khancyr/ardupilot_gazebo;SwiftGust/ardupilot_gazebo;pierre.kancir@azurdrones.com#220/khancyr@gmail.com#88;snipertype@hotmail.com#55/raj.shrestha778@gmail.com#55/johncarl81@gmail.com#11
15;dempfi/ayu;jsenjoy/vscode-ayu;dempfi@yahoo.com#192/mail@dempfi.com#48/acc@dempfi.com#12;patrik.henningsson@gmail.com#114/dempfi@yahoo.com#45/teabyii@gmail.com#24
16;Wonderfall/docker-nextcloud;benyanke/docker-nextcloud;wonderfall@targaryen.house#84/gunter.miegel@rgsqd.de#12/git@yeoldegrove.de#8;ben@benyanke.com#310/byanke@pcnametag.com#5
17;PromyLOPh/pianobar;thedmd/pianobar-windows;lars@6xq.net#264/computersforpeace@gmail.com#3/matthewm@boedicker.org#3;michcic@gmail.com#282
18;opentoonz/opentoonz;blackwarthog/opentoonz;shun.iwasawa@ghibli.jp#177/rozhuk.im@gmail.com#3;shun.iwasawa@ghibli.jp#84/otakuto893@gmail.com#27/dancel@ptd.net#24
19;aspnet/EntityFramework6;ErikEJ/EntityFramework6PowerTools;dn-bot@microsoft.com#33/wigodbe@microsoft.com#6/halter73@gmail.com#3;ejlskov@hotmail.com#104/lajones@microsoft.com#68/Philip.Lee@hexcel.com#32
20;alcohol/iso4217;Payum/iso4217;rob.bast@gmail.com#224/damien@damien.id#44/edvinas@pnd.io#4;stephen@quizlet.com#36/kotlyar.maksim@gmail.com#18
21;zfsonlinux/zfs;Rudd-O/zfs;behlendorf1@llnl.gov#93;behlendorf1@llnl.gov#45/rudd-o@rudd-o.com#6
22;Red5/red5-server;ant-media/Ant-Media-Server;mondain@gmail.com#204;ahmetmermerkaya@gmail.com#201/selimemretoy@gmail.com#15/burak@antmedia.io#9
23;hildjj/node-cbor;dignifiedquire/borc;joe-github@cursive.net#252/joe+github@cursive.net#48;dignifiedquire@gmail.com#114/hugomrdias@gmail.com#36/tobias.wich@ecsec.de#18
24;airbnb/react-native-maps;fqborges/react-native-maps;hello@blick-labs.com#60/dan.tamas@gmail.com#15/luancurti@gmail.com#6;hello@blick-labs.com#123/dan.tamas@gmail.com#72/fqborges@gmail.com#27
25;Red5/red5-server;ant-media/red5-plus-server;mondain@gmail.com#204;ahmetmermerkaya@gmail.com#201/selimemretoy@gmail.com#15/burak@antmedia.io#9
26;ErickTamayo/laravel-scout-elastic;thomasjsn/laravel-scout-elastic;ericktamayo@gmail.com#19;thomas@uctrl.net#168
27;openscenegraph/OpenSceneGraph;scrawl/osg;robert@openscenegraph.com#117/glex.spb@gmail.com#15/scttgs0@gmail.com#9;alexdobrohotov@yandex.ru#150/robert@openscenegraph.com#108/ralf.habacker@freenet.de#27
28;JACoders/OpenJK;JKGDevs/JediKnightGalaxies;alex@acslo.com#54/xycaleth@gmail.com#33/mrrazish@gmail.com#27;darthfutuza@hotmail.com#255
29;xCss/Valine;panjunwen/Valine;yy.liu@foxmail.com#231/mail@xone.me#51;junwen-pan@qq.com#203/i@panjunwen.com#119/yinaoxiong@gmail.com#7
30;melink14/rikaikun;birtles/rikaichamp;melink14@gmail.com#114;birtles@gmail.com#120
31;aseprite/aseprite;aseprite-gpl/aseprite;david@igarastudio.com#279/tehgeek@gmail.com#12/gaspar@igarastudio.com#6;rverschelde@gmail.com#110/perry@perryhugh.com#60/cosarara97@gmail.com#30
32;MongoEngine/mongoengine;closeio/mongoengine;bastien.gerard@cluepoints.com#105/bast.gerard@gmail.com#60/felix.schultheiss@smashdocs.net#18;wojcikstefan@gmail.com#135/tom@eggdrop.ch#96/ross.lawley@gmail.com#15
33;pduchesne/ckanext-geoview;ckan/ckanext-geoview;pduchesne@gmail.com#171/amercadero@gmail.com#66/rykovd@gmail.com#24;pduchesne@gmail.com#123/amercadero@gmail.com#105/sergey.motornyuk@linkdigital.com.au#15
34;shawncplus/phpcomplete.vim;php-vim/phpcd.vim;complex857@gmail.com#170/david.szabo@betvictor.com#30/marceldev89@gmail.com#10;i@lvht.net#243/git@lvht.net#27/ihaitao@qq.com#21
35;keichi/binary-parser;Ericbla/binary-parser;keichi.t@me.com#141/fabianwiles@live.com#18/melphis.work@gmail.com#12;keichi.t@me.com#102/ericbla@gmail.com#24/jack@jackwearden.co.uk#21
36;kubernetes-incubator/descheduler;openshift/descheduler;sean.malloy@kohls.com#42/mdame@redhat.com#42/jchaloup@redhat.com#12;mdame@redhat.com#54/sean.malloy@kohls.com#24/jchaloup@redhat.com#15
37;Microsoft/vscode-eslint;standard/vscode-standardjs;dirkb@microsoft.com#240;contact@divlo.fr#120/feross@feross.org#12/toddbluhm@gmail.com#6
38;apache/cordova-ios;forcedotcom/cordova-ios;ellis.bryan@gmail.com#21/darryl@ayogo.com#15/niklasmerz@apache.org#15;ellis.bryan@gmail.com#45/darryl@ayogo.com#15/darryl@dpogue.ca#6
39;bitcoinj/bitcoinj;bitsquare/bitcoinj;andreas.schildbach@bloq.com#231/andreas@schildbach.de#66/sean@msgilligan.com#3;oscar.guindzberg@gmail.com#183/andreas.schildbach@bloq.com#117
40;xsc/rewrite-clj;rundis/rewrite-cljs;yannick.scherer@stylefruits.de#129/yannick.scherer@gmail.com#63/jason.m.felice@gmail.com#57;mrundberget@hotmail.com#153/lee@dlread.com#36/no-email@gmail.com#18
41;hustcat/sriov-cni;Intel-Corp/sriov-cni;eyniy@qq.com#198/kuralamudhan.ramakrishnan@intel.com#44/pskamruk@mirantis.com#22;abdul.halim@intel.com#160/zshi@redhat.com#68/martin.kennelly@intel.com#28
42;hustcat/sriov-cni;intel/sriov-cni;eyniy@qq.com#198/kuralamudhan.ramakrishnan@intel.com#44/pskamruk@mirantis.com#22;abdul.halim@intel.com#160/zshi@redhat.com#68/martin.kennelly@intel.com#28
43;cebix/macemu;kanjitalk755/macemu;rickyzhang@gmail.com#112/maxi6594@gmail.com#40/mdshrq7@gmail.com#40;rakslice@gmail.com#114/kanjitalk755@yahoo.co.jp#105/spolsley@icloud.com#24
44;cetra3/onlyoffice-alfresco;ONLYOFFICE/onlyoffice-alfresco;zhi.wang@parashift.com.au#188/peter@parashift.com.au#140/cetra3@hotmail.com#12;gensurkin@yandex.ru#198/ns@epithelix.com#9/sergey.linnik@onlyoffice.com#9
45;strasdat/Sophus;stonier/sophus;strasdat@gmail.com#198/hauke.strasdat@oculus.com#9;d.stonier@gmail.com#129
46;dart-lang/markdown;tomyeh/markd;kevmoo@google.com#39/sam.rawlins@gmail.com#21/srawlins@google.com#9;tomyeh@potix.com#99/kevmoo@google.com#39/sam.rawlins@gmail.com#18
47;segmentio/analytics.js;astronomerio/analytics.js;lrubin@segment.com#55/stevenmiller888@me.com#22/william.grosset@segment.com#11;13chlewis@gmail.com#42/thisisamurray@gmail.com#39/greg.brunk@gmail.com#39
48;commitizen/cz-conventional-changelog;atlassian/cz-lerna-changelog;jim.for.cy@gmail.com#42/jimthedev@gmail.com#21/iainreid382@gmail.com#14;lbatchelor@atlassian.com#120/jonelson@atlassian.com#36/cyberdash@gmail.com#24
49;nandarustam/fcm-push;jlcvp/fcm-node;ans4175@gmail.com#30/nandar.rustam@gmail.com#30/misugijunz@gmail.com#10;joao.viana.pereira@accenture.com#40/mps.sofia@gmail.com#32/jlcvp@cin.ufpe.br#32
50;karlitos/Applications-overview-tooltip-NG;RaphaelRochet/applications-overview-tooltip;karel.macha@westernacher.com#200/karlitos@bumbrlicek.fritz.box#100;raphael@rri.fr#280/raphael@localhost.localdomain#7/fnogueira@protonmail.com#7
51;lxde/qtermwidget;Swordfish90/qmltermwidget;yan12125@gmail.com#102/agaida@siduction.org#81/luis.artur.pereira@gmail.com#12;agaida@siduction.org#162/yan12125@gmail.com#33/flscogna@gmail.com#21
52;nandarustam/fcm-push;Saber-Tecnologias/fcm-node;ans4175@gmail.com#30/nandar.rustam@gmail.com#30/misugijunz@gmail.com#10;joao.viana.pereira@accenture.com#40/mps.sofia@gmail.com#32/jlcvp@cin.ufpe.br#32
53;tinuva/firewalld-formula;saltstack-formulas/firewalld-formula;iqbalmy@hotmail.com#56/javier@netmanagers.com.ar#36/aboe@spectre.wraith.lan#36;iqbalmy@hotmail.com#186/semantic-release-bot@martynus.net#30/aboe@spectre.wraith.lan#15
54;infinispan/infinispan;pruivo/infinispan;remerson@redhat.com#75/katiaaresti@gmail.com#54/william.a.burns@gmail.com#33;tristan.tarrant@gmail.com#63/william.a.burns@gmail.com#60/remerson@redhat.com#33
55;openshift/django-ex;bcgov/eDivorce;lbalhar@redhat.com#36/takninnovationresearch@gmail.com#24/cdaley@redhat.com#16;michaelo@openroad.ca#201/ariannedee@gmail.com#36/min@oxd.com#15
1;hunterloftis/jackrabbit;pagerinc/jackrabbit;matthew.mar10@gmail.com#126/jaertgee@its.jnj.com#21/hieu@mapvine.com#7;
2;maxbube/mydumper;pingcap/mydumper;maxbube@gmail.com#100/max.bubenick@percona.com#40/jean-louis@dupond.be#10;tocker@gmail.com#54/maxbube@gmail.com#33/kennytm@gmail.com#30
3;rampantpixels/rpmalloc;CoherentLabs/rpmalloc;mjansson@gmail.com#105/mattias@rampantpixels.com#15/devnexen@gmail.com#3;dimitar@coherent-labs.com#240/pavel.d@coherent-labs.com#60
4;scottfrederick/spring-music;cloudfoundry-samples/spring-music;scottyfred@gmail.com#280/rladdad@gopivotal.com#10/asaikali@gmail.com#10;scottyfred@gmail.com#280/rladdad@gopivotal.com#10/asaikali@gmail.com#10
5;piroor/treestyletab;oinkin/treestyletab;piro.outsider.reflex@gmail.com#258/sven@sammyshp.de#3;mrmineshafter17@gmail.com#42
6;robbiehanson/XMPPFramework;QuickBlox/XMPPFramework;chrisballinger@gmail.com#108/tobi@voiceup.chat#30/karim@karhm.com#27;this.andrey@gmail.com#235/vitaliy.gorbachov@quickblox.com#50/berkold90@gmail.com#35
7;Technofy/cloudwatch_exporter;percona/rds_exporter;jonathan.smith@qlik.com#102/anthony.teisseire@technofy.io#68;alexey.palazhchenko@percona.com#128/arvenil@klecza.pl#32/alexey.palazhchenko@gmail.com#32
8;Eonasdan/bootstrap-datetimepicker;pingcheng/bootstrap4-datetimepicker;me@eonasdan.com#253;ping.che@hotmail.com#88/pro.ankurk1@gmail.com#66/candrew@tulane.edu#22
9;pierr3/ModeS;ogruetzmann/ModeS;o.gruetzmann@gmail.com#230;o.gruetzmann@gmail.com#276
10;DrTon/FlightPlot;PX4/FlightPlot;anton.babushkin@me.com#266;beat-kueng@gmx.net#108/lorenz@px4.io#60/daniel@agar.ca#48
11;sabas/suosm;OSMBrasil/zapto;francians@gmail.com#80/sabas88@gmail.com#25;daniel.oconnor@gmail.com#54/duduaddad@gmail.com#45/ian.dees@gmail.com#15
12;sebastianbergmann/diff;PHP-CS-Fixer/diff;sb@sebastian-bergmann.de#264/sebastian@phpunit.de#36;possumfromspace@gmail.com#84/dariusz.ruminski@gmail.com#28
13;esbenp/prettier-vscode;numso/prettier-standard-vscode;nathan@ntotten.com#183/ntotten@salesforce.com#9/brandon.cheng@protonmail.com#6;dosmun@gmail.com#216
14;kubernetes-incubator/cluster-capacity;openshift/cluster-capacity;jchaloup@redhat.com#87/avagarwa@redhat.com#27/jaboyd@redhat.com#15;jchaloup@redhat.com#108/avesh.ncsu@gmail.com#6/nikitaraghunath@gmail.com#3
15;apcshields/autocomplete-bibtex;tpoisot/autocomplete-citeproc;jon.chambers3001@gmail.com#228/jonathan.chambers@unige.ch#15/apcshields@gmail.com#3;timothee.poisot@umontreal.ca#184/tim@poisotlab.io#148
16;qmk/qmk_firmware;joric/qmk_firmware;;skullydazed@drpepper.org#3
17;anupam1525/AcrylicPaint;valerio-bozzolan/AcrylicPaint;SkytkRSfan3895@gmail.com#66/valerio.bozzolan@gmail.com#27/gnu@itisavogadro.it#27;SkytkRSfan3895@gmail.com#66/valerio.bozzolan@gmail.com#48/gnu@itisavogadro.it#27
18;mgravell/protobuf-net;AqlaSolutions/AqlaSerializer;marc.gravell@gmail.com#213;marc.gravell@gmail.com#153/wvlad.dev@gmail.com#84/erick.caisse@gsoft.com#9
19;foosel/OctoPrint;beeverycreative/BEEweb;gina@octoprint.org#213/chief@hackerhappyhour.com#15/orel@dagoma.fr#12;silviamgr.sissi@gmail.com#288/tgala@beeverycreative.com#6/jvilela@beeverycreative.com#6
20;ARM-software/arm-trusted-firmware;apritzel/arm-trusted-firmware;review@review.trustedfirmware.org#111/pali@kernel.org#69/samuel@sholland.org#24;review@review.trustedfirmware.org#117/muhammad.hadi.asyrafi.abdul.halim@intel.com#45/manish.pandey2@arm.com#33
21;jens-maus/carddav2fb;andig/carddav2fb;mail@jens-maus.de#60;cpuidle@gmx.de#189/knuffy@anasco.de#3
22;laravel-notification-channels/new-channels;Alymosul/laravel-exponent-push-notifications;;alymosul@gmail.com#48/patrick@patrickkivits.nl#42/bot@styleci.io#30
23;SmartThingsCommunity/SmartThingsPublic;alyc100/SmartThingsPublic;steven.green@smartthings.com#15/p.kacprowicz@partner.samsung.com#3/jiakai@thirdreality.ai#3;alyc100@hotmail.com#228/martin@longhome.co.uk#9
24;kylemanna/docker-bitcoind;dashpay/docker-dashd;olegabrosimovnsk@gmail.com#70/kyle@kylemanna.com#56/kyle.manna@ouster.io#42;nathan.marley@gmail.com#63/holger.schinzel@gmx.de#54/leon.white@dash.org#36
25;Iture/RFLinkGateway;dmartinpro/RFLinkGateway;leet@leenx.org#117/marcin.kaptur@gmail.com#45/kapturm@dl-kapturm-mac.grupa.onet#18;dmartin.pro@gmail.com#42/githubkristian@snabela.nl#14
26;mmozuras/pronto-eslint;doits/pronto-eslint_npm;mindaugas.mozuras@gmail.com#200/ashish@kulkarni.dev#40/pedromatosdecarvalho@gmail.com#10;markus.doits@stellenticket.de#240/jerome.dalbert@gmail.com#5/joseph@rentify.com#5
27;arduino/ArduinoCore-samd;femtoio/ArduinoCore-atsamd21e18a;g.cioffi@arduino.cc#159/m.facchin@arduino.cc#27/cto@lxrobotics.com#24;webmaster@alexventure.com#177/c.maglie@arduino.cc#30/m.facchin@arduino.cc#12
28;sharelatex/sharelatex;dwrensha/sharelatex;mserranom@gmail.com#60/jakob.ackermann@overleaf.com#21/christopher.hoskin@overleaf.com#6;dwrenshaw@gmail.com#108/james@sharelatex.com#96/henry.oswald@sharelatex.com#78
29;matt-lowe/ProfanityFE;rcuhljr/ProfanityFE;sarvatt@ubuntu.com#120/sanderscharlie@gmail.com#48/lucianposton@pm.me#24;rcuhl@sep.com#105/sarvatt@ubuntu.com#77/sanderscharlie@gmail.com#7
30;lemurheavy/coveralls-ruby;tagliala/coveralls-ruby-reborn;n@mer.io#160/sferik@gmail.com#44/tagliala.dev@gmail.com#36;tagliala.dev@gmail.com#237/alex@tanda.co#3
31;jenkinsci/backend-update-center2;ikedam/backend-update-center2;Alexander.Nikitin@smartbear.com#3/mlove@parasoft.com#3/bage@linutronix.de#3;devld@ikedam.jp#144/ogondza@redhat.com#81/simon.kaufmann@itemis.de#27
32;eusonlito/laravel-Meta;Torann/laravel-meta-tags;lito@eordes.com#224/alexandre.joffroy@gmail.com#14/konstantin.komelin@gmail.com#7;torann@gmail.com#60/dieter.holvoet@gmail.com#30/robincharummoottil@gmail.com#15
33;youtube/youtube-ios-player-helper;hmhv/YoutubePlayer-in-WKWebView;ericvargas@google.com#45;hongmhoon@gmail.com#49/admin@hmhv.info#49/matt.robbins@audiogum.com#14
34;Empact/roxml;trailblazer/representable;ben.woosley@gmail.com#196/joe@lostapathy.com#44/megle42@gmail.com#24;apotonick@gmail.com#177/abinoam@gmail.com#33/alex@alexbcoles.com#30
35;elazarl/goproxy;stripe/goproxy;elazarl@gmail.com#170/harry.marr@gmail.com#35/aaron@insp3ct.re#10;cds@stripe.com#148/andrew@stripe.com#16/dev@chimeracaoder.net#8
36;OxCom/symfony3-rollbar-bundle;rollbar/rollbar-php-symfony3-bundle;gm.oxcom@gmail.com#147/andrii@crytek.de#69/k.smolkowski@gamekit.com#6;artur.moczulski@gmail.com#220/yevgeniy.dyachenko@flixbus.com#28/j.vanhengel@dation.nl#8
37;Empact/roxml;apotonick/representable;ben.woosley@gmail.com#196/joe@lostapathy.com#44/megle42@gmail.com#24;apotonick@gmail.com#177/abinoam@gmail.com#33/alex@alexbcoles.com#30
38;keyboardio/Model01-Firmware;andrewgdotcom/Model01-Firmware;algernon@keyboard.io#76/jesse@keyboard.io#48/florian.fleissner@inpartik.de#16;andrew.gallagher@siren.io#144/algernon@keyboard.io#36/florian.fleissner@inpartik.de#12
39;dustin/java-memcached-client;amazonwebservices/aws-elasticache-cluster-client-memcached-for-java;michael.nitschinger@couchbase.com#273/michael@nitschinger.at#12/matt@couchbase.com#9;michael.nitschinger@couchbase.com#186/suryanb@amazon.com#39/xinzhzou@amazon.com#21
40;adafruit/Adafruit_ADS1X15;soligen2010/Adafruit_ADS1X15;caternuson@gmail.com#75/tony@tonydicola.com#30/zaporozhets.taras@gmail.com#15;soligen2010@gmail.com#114/sdamiano@stroudcenter.org#19
41;paulirish/dotfiles;simonowendesign/dotfiles;paul.irish@gmail.com#201/commits@paul.irish#78;s1000wen@gmail.com#264
42;ahmedbodi/vertcoin;vertcoin-project/vertcoin-core;fanquake@gmail.com#105/gertjaap@gertjaap.nl#54/laanwj@protonmail.com#36;fanquake@gmail.com#105/gertjaap@gertjaap.nl#54/laanwj@protonmail.com#36
43;kermitt2/grobid;allenai/grobid;patrice.lopez@science-miner.com#234/Foppiano.Luca@nims.go.jp#12/robert.lewis@catalyticds.com#12;patrice.lopez@science-miner.com#138/luca@foppiano.org#93/rodneyk@allenai.org#9
44;kerryb/vim-config;alkesh/vim-config;kerryjbuckley@gmail.com#364;alkesh.vaghmaria@wearefriday.com#93/kerryjbuckley@gmail.com#87/alkesh.vaghmaria@smartpension.co.uk#54
45;spark-jobserver/spark-jobserver;SnappyDataInc/spark-jobserver;bsikander@apache.org#126/arriveder4i@gmail.com#69/behroz.sikander@sap.com#30;velvia@gmail.com#93/swale@snappydata.io#42/ashetkar@snappydata.io#27
46;confcodeofconduct/confcodeofconduct.com;SamirTalwar/communitycodeofconduct.com;remy@remysharp.com#51/hi@mattischneider.fr#21/jan@apache.org#15;samir@noodlesandwich.com#57/javier.fdez@gmail.com#18/gh@mattischneider.fr#15
47;romanz/trezor-agent;trustcrypto/onlykey-agent;roman.zeyde@gmail.com#144/me@romanzey.de#63/ja@matejcik.cz#21;t@T-2.local#112/thomas.sileo@gmail.com#21
48;snape/RVO2;sybrenstuvel/Python-RVO2;snape@me.com#308;sybren@stuvel.eu#180/snape@me.com#60
49;kerryb/vim-config;AdamWhittingham/vim-config;kerryjbuckley@gmail.com#364;adam.whittingham@gmail.com#243/ad@cronofy.com#57
50;zone117x/node-multi-hashing;UNOMP/node-multi-hashing;hackyminer@gmail.com#195/zone117x@gmail.com#48/me@ryanhein.com#9;caberhagen@gmail.com#105/steven@sigwo.com#105/sigwo@me.com#70
51;RememberTheAir/GroupButler;barreeeiroo/BarrePolice;yangm97@gmail.com#288;
52;Edzelf/Esp-radio;baldram/ESP_VS1053_Library;;george.talusan@gmail.com#10
53;jech/babeld;althea-mesh/babeld;jch@irif.fr#294/antonin.decimo@gmail.com#3/vincent@systemli.org#3;drozdziak1@gmail.com#115/jch@pps.univ-paris-diderot.fr#80/jkilpatr@redhat.com#40
54;golang/tour;atotto/go-tour-jp;alb.donizetti@gmail.com#68/adg@golang.org#52/bradfitz@golang.org#40;alb.donizetti@gmail.com#48/bradfitz@golang.org#30/andybons@golang.org#27
55;drupal-composer/drupal-project;ramsalt/drupal-project;florian@webflo.org#90/florian.weber@ueberbit.de#45/weitzman@tejasa.com#15;esolitos@gmail.com#162/stephan@ramsalt.com#9
56;Automattic/batcache;humanmade/batcache;vnsavage@gmail.com#84/weston@xwp.co#14/hsvdragt@dcthomson.co.uk#14;joehoyle@gmail.com#52/vnsavage@gmail.com#48/bronson@sennza.com.au#48
57;mafintosh/protocol-buffers;ipfs/protons;mathiasbuus@gmail.com#290;dignifiedquire@gmail.com#90/alex@achingbrain.net#84/mathiasbuus@gmail.com#48
58;dropwizard/metrics;HubSpot/metrics;jochen@schalanda.name#69;jhaber@hubspot.com#172/jschlather@hubspot.com#16/eszabowexler@hubspot.com#12
59;perwendel/spark;jaguililla/sabina;per.i.wendel@gmail.com#156/joaoalexandre@bb.com.br#12/davidaase@hotmail.com#12;juanjoaguililla@gmail.com#294
60;bshuster-repo/logrus-logstash-hook;cheshir/logrustash;ripcurld.github@gmail.com#75;klemen.bratec@gmail.com#72/cheshir@programist.ru#36/cheshirysh@gmail.com#36
61;novacoin-project/novacoin;JohnDolittle/blackcoin-old;balthazar@yandex.ru#84/laser9un@gmail.com#75/ya.nowa@yandex.ru#57;pavel@vasin.nl#219/git@vasin.nl#72/krzysztof.jurewicz@gmail.com#3
62;firebase/firebase-queue;kaliberjs/firebase-queue;;eecolor@qirx.org#224/ewestra@kaliber.net#20
63;iago1460/django-radio;RadioCorax/radioco;iago.veloso@thisisglobal.com#300;stefan@neuland.io#275/stefan.walluhn@aboutsource.net#40
64;NicoHood/HID;keyboardio/KeyboardioHID;blahlicus@gmail.com#70/git@nicohood.de#30/hansmbakker+github@gmail.com#20;algernon@keyboard.io#99/gedankenexperimenter@gmail.com#39/jesse@keyboard.io#36
65;yihui/hugo-xmin;goodroot/hugo-classic;xie@yihui.name#300;root@goodroot.ca#120/zianchi@outlook.com#50/lumbroso@cs.princeton.edu#20
66;mafintosh/protocol-buffers;dignifiedquire/protons;mathiasbuus@gmail.com#290;dignifiedquire@gmail.com#90/alex@achingbrain.net#84/mathiasbuus@gmail.com#48
67;hubot-scripts/hubot-pager-me;github/hubot-pager-me;stephen.yeargin@gmail.com#48/bob@zoller.us#3/alex.nobert@nedap.com#3;jamie@limetree.org#108/ahayworth@gmail.com#64/mistydemeo@github.com#20
68;funcool/cats;nubank/cats;github@adam-harper.com#35/eliniel.x@gmail.com#21/caioaao@gmail.com#21;tech+nu-release-lib@nubank.com.br#90/tech@nubank.com.br#60
69;bitcoin-wallet/bitcoin-wallet;bitcoincash-wallet/bitcoincash-wallet;andreas.schildbach@bloq.com#267/andreas@schildbach.de#33;andreas.schildbach@bloq.com#176/hashengineeringsolutions@gmail.com#140
70;tdunning/open-json;openjson/openjson;;mike.fursov@gmail.com#153/solomax666@gmail.com#27/buurman.sven@gmail.com#27
71;KnpLabs/DictionaryBundle;biig-io/DictionaryBundle;plazanet.pierre@gmail.com#245/antoine.lelaisant@knplabs.com#20/nnussbaum@gmail.com#5;nek.dev@gmail.com#84/donovan.bourlard@biig.fr#36/alexis.thinardon@biig.fr#30
72;mapfish/mapfish-print;geosolutions-it/mapfish-print;stephane.brunner@camptocamp.com#39/bjoern.hoefling@camptocamp.com#18/imajimatika@gmail.com#6;maurobartolomeoli@gmail.com#260/lorenzo.natali@geo-solutions.it#30/alessio.fabiani@geo-solutions.it#20
73;hanzelpeter/dispmanx_vnc;patrikolausson/dispmanx_vnc;graysky@archlinux.us#33/hanzelpeter@gmail.com#33/mickael9@gmail.com#22;patrik.olausson@gmail.com#252/mickael9@gmail.com#24
74;raylee/tldr;pepa65/tldr-bash-client;ray@evq.io#200/spark.scul@gmail.com#10/vladislav_mikheev@epam.com#5;solusos@passchier.net#234/pepa65@passchier.net#54/anandsudhir86@yahoo.co.uk#6
75;don/cordova-plugin-ble-central;fxe-gear/cordova-plugin-ble-central;dcoleman@chariotsolutions.com#105/doug@doug-brunner.com#24/don.coleman@gmail.com#24;dcoleman@chariotsolutions.com#87/don.coleman@gmail.com#24/doug@doug-brunner.com#15
76;go-check/check;pingcap/check;gustavo@niemeyer.net#168/yo@elopio.net#72;zimu_xia@126.com#90/siddontang@gmail.com#54/coocood@gmail.com#36
77;gfidente/pelican-svbhack;pR0Ps/pelican-subtle;gfidente@redhat.com#80/vmiklos@vmiklos.hu#48/gfidente@gmail.com#32;pR0Ps.CM@gmail.com#192/carey@cmetcalfe.ca#78/justin.montgomery@inavero.com#15
78;afitz/golua;aarzilli/golua;afitz@gatech.edu#300;alessandro.arzilli@gmail.com#292/ddzuk@litp.local#16/gabe.cziprusz@lonelyplanet.com#8
79;vklochan/python-logstash;eht16/python-logstash-async;anwesha@das.community#50/alex.zarnitsa@kmilearning.com#50;enrico.troeger@uvena.de#270/loganasherjones@gmail.com#3
80;therubymug/hitch;A-Helberg/pair-up;rogelio@therubymug.com#270;helberg.andre@gmail.com#204
81;jstasiak/python-zeroconf;frawau/aiozeroconf;jakub@stasiak.at#195;homerunisgood@hotmail.com#138/francois@wautier.eu#102/jonathan.martin@marss.com#18
82;Optiboot/optiboot;davidsainty/xbeeboot;westfw@gmail.com#204/spencekonde@gmail.com#18/majek@w7i.pl#15;david.sainty@gmail.com#266/watsonbkw@gmail.com#21
83;OSGeo/gdal;ddohler/gdal-js;even.rouault@spatialys.com#81/quantum.analyst@gmail.com#33/idan@miara.com#18;dohler@gmail.com#136/ddohler@azavea.com#128/akaminsky@azavea.com#16
84;shestera/django-multisite;ecometrica/django-multisite;nick.guenther@ecometrica.com#78/becky.smith@ecometrica.com#48/rebkwok@gmail.com#45;nick.guenther@ecometrica.com#78/becky.smith@ecometrica.com#48/rebkwok@gmail.com#45
85;mitsuhiko/rstblog;brantyoung/blogdown;armin.ronacher@active-4.com#300;t_glaessle@gmx.de#264/yang@yangyubo.com#33/mike.grozak@gmail.com#11
86;ChrisMarinos/FSharpKoans;cynic/FSharpKoans;dsyme@microsoft.com#28/chris@chrismarinos.com#16/clshannon@protonmail.com#16;y.motara@ru.ac.za#168/cinyc.s@gmail.com#108/Y.Motara@ru.ac.za#24
87;mateogianolio/openblog;casualjavascript/blog;gianoliomateo@gmail.com#225;gianoliomateo@gmail.com#256
88;dogenzaka/go-iap;evalphobia/go-iap;tsuji_jumpei@cyberagent.co.jp#48/junpei.tsuji.ams@gmail.com#21/matija.lesar@gmail.com#15;evalphobia@gmail.com#192
89;jrh13/hol-light;brain-research/hol-light;jrh013@gmail.com#228/polu.stanislas@gmail.com#24/solovyev.alexey@gmail.com#12;markus.norman.rabe@gmail.com#70/stewbasic@google.com#60/smloos@google.com#60
90;mitsuhiko/rstblog;blogdown/blogdown;armin.ronacher@active-4.com#300;t_glaessle@gmx.de#264/yang@yangyubo.com#33/mike.grozak@gmail.com#11
91;ZencashOfficial/zencash-swing-wallet-ui;bitcoinz-pod/bitcoinz-wallet;cronic@zensystem.io#138/zenportodev@protonmail.com#57/mac@zensystem.io#9;hungryhodlr@scryptmail.com#168/ivan@vaklinov.com#70/ebnavb3j5f3uor@gmail.com#14
92;micropython/micropython;adafruit/circuitpython;damien@micropython.org#279/jim.mussared@gmail.com#15/moiandme@gmail.com#3;hosted@weblate.org#96/hierophect@gmail.com#15/halbert@halwitz.org#12
93;bitrise-docker/android;AckeeDevOps/jenkins-android-docker-slave;viktorbenei@bitrise.io#27/gabor.takacs@bitrise.io#24/viktor.benei@gmail.com#3;sandra.tatarevicova@ackee.cz#21/stepan.vrany@ackee.cz#14/david.bilik@ackee.cz#7
94;mgumz/alock;Arkq/alock;;arkadiusz.bokowy@gmail.com#306
95;google/skia;aseprite/skia;skia-commit-bot@chromium.org#231/johnstiles@google.com#15/reed@google.com#9;skia-commit-bot@chromium.org#258/kjlubick@google.com#21/davidcapello@gmail.com#15
96;freedesktop/libfprint;3v1n0/libfprint;mail@3v1n0.net#189/bberg@redhat.com#60/benjamin@sipsolutions.net#30;mail@3v1n0.net#111/benjamin@sipsolutions.net#108/bberg@redhat.com#45
97;silsha/fnordcredit;entropia/fnordcredit;me@uwap.name#174/support@greenkeeper.io#27/moshensky.c1371@yandex.ru#3;git@twiddau.de#140/twi@twiddau.de#40/moritz1@gmx.com#36
98;weavejester/cljfmt;greglook/cljfmt;jreeves@weavejester.com#114/lee@dlread.com#15/Lukasz.Kozuchowski@gmail.com#9;greg@mvxcvi.com#276
99;sommer/veins;floxyz/veins-lte;sommer@cms-labs.org#252/mail@christoph-sommer.de#48;hagenauer@ccs-labs.org#273
100;nomeata/udp-broadcast-relay;sonicsnes/udp-broadcast-relay-redux;moritzwarning@web.de#140/mail@joachim-breitner.de#28/gadams@crabu.takelap.com#28;mmorrison@pon4.net#165/alex@ajkavanagh.co.uk#45
101;datamade/probation-resources-map;ReEntryCoLab/reentry-resources-map;reginafcompton@gmail.com#168/derek.eder@gmail.com#126;pjsier@gmail.com#296/eric@e-vz.com#4
102;logstash-plugins/logstash-codec-avro;revpoint/logstash-codec-avro_schema_registry;phpellerin@gmail.com#135/jsvduarte@gmail.com#54/me@obrown.io#36;ryan.anguiano@gmail.com#126/cgiraldo@gradiant.org#63/johndye@cisco.com#27
103;AlexCatarino/pythonnet;QuantConnect/pythonnet;martin.molinero1@gmail.com#138/alexandre.catarino@gmail.com#54/filmor@gmail.com#33;martin.molinero1@gmail.com#138/alexandre.catarino@gmail.com#54/filmor@gmail.com#33
104;ryanmcdermott/clean-code-javascript;qkraudghgh/clean-code-javascript-ko;frappacchio@gmail.com#120/buraksonmez@hotmail.com.tr#15/raigo.jerva@gmail.com#6;qkraudghgh@gmail.com#66/zaqq1414@gmail.com#44/parksy8189@gmail.com#22
105;onedata/certificate-init-container;proofpoint/certificate-init-container;groundnuty@gmail.com#300;jgmyers@proofpoint.com#300/rajatjindal83@gmail.com#15
