No;mainline_repo;pr_no;created_at;closed_at;merged_at;repo_origin_ml;repo_destin;pr_owner;no_commenters;pr_commenters;pr_comments
0;jaredhanson/oauth2orize-fprm;5;2018-06-01T21:15:52Z;2018-06-14T19:07:35Z;2018-06-14T19:07:35Z;;jaredhanson/oauth2orize-fprm;mmogy;2;coveralls/radekk;"
[![Coverage Status](https://coveralls.io/builds/17280714/badge)](https://coveralls.io/builds/17280714)

Coverage remained the same at 77.193% when pulling **95e69ee19fd38e431074c86170d387124e482960 on mmogy:add-security-notice** into **0c08f979a47097e5521170bbe837b58c83b08a83 on jaredhanson:master**.
 LGTM 👍 "
1;jaredhanson/oauth2orize-fprm;4;2018-04-27T11:03:01Z;2018-05-01T20:24:36Z;2018-05-01T20:24:36Z;MarcinHoppe/oauth2orize-fprm;jaredhanson/oauth2orize-fprm;MarcinHoppe;1;coveralls;"
[![Coverage Status](https://coveralls.io/builds/16727491/badge)](https://coveralls.io/builds/16727491)

Coverage increased (+4.4%) to 79.412% when pulling **d48b4dd0e5a25ee2094725d98c35e468f027afd8 on MarcinHoppe:fix-number-encoding** into **a55bfd93f576893a158714152f09328afbdea7dc on jaredhanson:master**.
"
2;jaredhanson/oauth2orize-fprm;3;2018-04-25T20:14:07Z;2018-04-26T15:08:46Z;2018-04-26T15:08:46Z;;jaredhanson/oauth2orize-fprm;radekk;1;coveralls;"
[![Coverage Status](https://coveralls.io/builds/16699651/badge)](https://coveralls.io/builds/16699651)

Coverage increased (+1.0%) to 75.0% when pulling **bffd4b3889acfe5620a66ed85babf9ecd481e9b4 on radekk:entities-encoding** into **419bbdfd5f8b41c56b23989fafde7297fe36527b on jaredhanson:master**.
"
3;jaredhanson/oauth2orize-fprm;2;2018-01-04T16:20:05Z;2018-04-03T15:35:44Z;2018-04-03T15:35:44Z;itsjw/oauth2orize-fprm;jaredhanson/oauth2orize-fprm;itsjw;1;coveralls;"
[![Coverage Status](https://coveralls.io/builds/14901524/badge)](https://coveralls.io/builds/14901524)

Coverage remained the same at 74.0% when pulling **80ae701c10a23d6b1682080ad2deaf4b124db8d9 on knewzen:master** into **3baa92f7beff3d3489d63da5f58a883ab5e3db65 on jaredhanson:master**.
"
