No;mainline_repo;pr_no;created_at;closed_at;merged_at;repo_origin_ml;repo_destin;pr_owner;no_commenters;pr_commenters;pr_comments
1;mddub/minimed-connect-to-nightscout;15;2019-09-27T12:15:02Z;2019-09-28T19:58:22Z;2019-09-28T19:58:22Z;szymjaw/minimed-connect-to-nightscout;mddub/minimed-connect-to-nightscout;szymjaw;3;szymjaw/szymjaw/mddub;Not working with MMCONNECT_SERVER=„US” I'm sorry, but I have set the wrong login details.  now it is working.  I confirm work, also on the US server. ¯\_(ツ)_/¯
2;mddub/minimed-connect-to-nightscout;13;2019-07-24T13:47:14Z;2019-08-21T20:35:06Z;2019-08-21T20:35:06Z;szymjaw/minimed-connect-to-nightscout;mddub/minimed-connect-to-nightscout;szymjaw;1;unsoluble;What do we need to do to get this merged?
3;mddub/minimed-connect-to-nightscout;12;2019-03-20T07:57:36Z;2019-03-24T23:23:00Z;2019-03-24T23:23:00Z;PieterGit/minimed-connect-to-nightscout;mddub/minimed-connect-to-nightscout;PieterGit;2;PieterGit/mddub;"Note that this PR also does a major update of the `mocha` package. 
I only tested that this PR still passes all its tests, but didn't do any code changes for mocha.  lgtm if tests pass."
4;mddub/minimed-connect-to-nightscout;11;2018-09-26T14:50:50Z;2019-03-14T23:51:15Z;2019-03-14T23:51:15Z;szymjaw/minimed-connect-to-nightscout;mddub/minimed-connect-to-nightscout;szymjaw;4;sulkaharo/szymjaw/PieterGit/sulkaharo;"@mddub given no response from @szymjaw, can you cherry pick the EU server config bits and release an updated module, so we can create a .2 patch release of Nightscout to allow EU users with Guardians in. (cc @PieterGit ) I've changed 'guardian':  to { 'connect': {
Trends are adapted to Nightscout. When Carelink shows DOWN_TRIPLE and UP_TRIPLE - what then? @szymjaw thanks for working on this again. There are still some things that need to be picked up, see https://github.com/mddub/minimed-connect-to-nightscout/pull/11/files and make sure the tests work again. I would like to include this in Nightscout 0.11.2 release, but that means this needs to be finished quite soon, to be able to include it in the release candidate. @mddub Can you re-review now? I just added triple arrow support to Nightscout so AFAIK this should be good to go, with support for preserving the same visualization in NS as what people see on device."
8;mddub/minimed-connect-to-nightscout;7;2018-07-10T23:13:00Z;2018-07-16T02:49:11Z;2018-07-16T02:49:11Z;PieterGit/minimed-connect-to-nightscout;mddub/minimed-connect-to-nightscout;PieterGit;2;mddub/PieterGit;And thanks for calling attention to the failing test - I fixed it in #8. @mddub thanks for fixing the test. I did the changes you suggested. Can you please publish it to npm as a 1.1.1 version, and I will include it in the 0.10.3 Nightscout release.
9;mddub/minimed-connect-to-nightscout;1;2016-01-07T18:09:21Z;2016-01-07T20:33:29Z;2016-01-07T20:33:29Z;mddub/minimed-connect-to-nightscout;mddub/minimed-connect-to-nightscout;mddub;1;jasoncalabrese;"looks good, we can update https://github.com/nightscout/cgm-remote-monitor/pull/1455 to look for `pump.battery.percent`  you could also have a connect pill to show the other info if you want
"
