No;mainline_repo;pr_no;created_at;closed_at;merged_at;repo_origin_ml;repo_destin;pr_owner;no_commenters;pr_commenters;pr_comments
2;Tabcorp/restify-cors-middleware;62;2018-04-05T09:35:22Z;2018-04-14T03:36:38Z;2018-04-14T03:36:38Z;rohan-deshpande/restify-cors-middleware;Tabcorp/restify-cors-middleware;rohan-deshpande;1;goyney;@rprieto Any word on getting this merged to suppress these warnings?
3;Tabcorp/restify-cors-middleware;53;2017-11-13T03:28:30Z;2017-12-07T21:56:07Z;2017-12-07T21:56:07Z;Tabcorp/restify-cors-middleware;Tabcorp/restify-cors-middleware;rprieto;3;retrohacker/rprieto/thisandagain;"Heck yes! This is awesome :tada:

Thanks @rprieto! Quick question though, how does it know what version to push? Does `package.json` have to be incremented on every merge?

We should probably do something similar to this over at the restify repo. So here Travis looks after the publishing part (so you don't have to do it from the command-line), but it doesn't look after the versioning itself. The workflow becomes:

```bash
# after merging a PR, decide if it's worth publishing a new version
git pull origin master
npm version minor
git push && git push --tags
# now Travis will kick-in automatically, realise it's a tagged commit, and publish
```

We could also look into something like [semantic-release](https://github.com/semantic-release/semantic-release) if we want to automate even further. I use [Semantic Release](https://github.com/semantic-release/semantic-release) on some other projects which will automatically push a patch, minor, or major version release out depending on what is included in the commit(s). It's certainly a bit less clugey than relying on tags, but does cause for more noise in the publish history.

TBH: I'd be happy with anything as long as we can keep this in sync! 😄 "
4;Tabcorp/restify-cors-middleware;50;2017-10-18T21:13:30Z;2017-11-17T06:13:58Z;2017-11-17T06:13:58Z;gswalden/restify-cors-middleware;Tabcorp/restify-cors-middleware;gswalden;2;retrohacker/retrohacker;"Thanks for the contribution @gswalden!

Would you mind adding a quick test to validate the behaviour? Something as simple as checking to make sure the module doesn't explode when not passing `forEach` would suffice :heart: Thanks @gswalden! LGTM!"
8;Tabcorp/restify-cors-middleware;46;2017-09-27T00:44:26Z;2017-10-31T18:01:29Z;2017-10-31T18:01:29Z;thisandagain/restify-cors-middleware;Tabcorp/restify-cors-middleware;thisandagain;8;thisandagain/thisandagain/retrohacker/thisandagain/retrohacker/thisandagain/rprieto/retrohacker;"/cc @mcavage @retrohacker @DonutEspresso @yunong Hi folks. Unfortunately this is still broken. Can we get this merged / published? Heya, this repo is run by the folks at TabCorp, I don't believe any of the restify contributors have commit access.

Is this still maintained? @retrohacker It doesn't appear to be, which causes a bit of issue for users of Restify. Should we consider pulling this back into the Restify org? I'm happy to help maintain it. I'd be :+1: for that. Most maintainers of restify that I know don't use CORS since we primarily use it for server->server communication. Since REST itself isn't bound to the browser, CORS seemed outside the wheelhouse of the main repo. The motivation for breaking it out of the main project and having the official implementation live in the community was to give the CORS module it's own set of maintainers who actively use restify with the browser but don't contribute to core.

I'd like to see this continue living as it's own separate entity (as opposed to the other plugins we have today), but I think we can accomplish that and still have it live under the github.com/restify org.

This would allow core to invite new contributors (like yourself :heart:) into the CORS project when it has stalled. @retrohacker I think that is completely reasonable. We mostly use it for server <-> server communication as well, but in the few places where we are using it with our web clients it would be nice to have the community infrastructure in place to keep it maintained. If you'd like to start up a repo I'm happy to jump in and get my hands dirty. ❤️  Hi, sorry I haven't had any time to keep up with the issues and PRs lately. Increasing the number of contributors makes a lot of sense, even if the repo stays under https://github.com/Tabcorp/restify-cors-middleware. @retrohacker you should already have commit access, let me know if other people should have it too.

I'll also setup Travis to automatically publish a version when a tagged commit (e.g. `v1.3.4`) is pushed to master.

*edit: sorry I just realised your permissions got removed when we migrated our Github org a couple months ago ,you're now an admin again!* Thanks @rprieto! :heart:"
10;Tabcorp/restify-cors-middleware;43;2017-08-08T09:35:19Z;2017-11-17T06:12:51Z;2017-11-17T06:12:51Z;ubergesundheit/restify-cors-middleware;Tabcorp/restify-cors-middleware;ubergesundheit;3;retrohacker/ubergesundheit/retrohacker;"Hey @ubergesundheit!

Thank you for this! Would you mind adding a quick test to validate this is doing what we think it is doing? done ;) Thanks! LGTM!"
13;Tabcorp/restify-cors-middleware;40;2017-07-17T23:28:38Z;2017-10-31T18:09:17Z;2017-10-31T18:09:17Z;aahoughton/restify-cors-middleware;Tabcorp/restify-cors-middleware;aahoughton;1;aahoughton;".. may want a big red warning sign that says ""be sure to wrap your regexp in start- and end-of-line anchors"".  I'm not sure this can be done automatically in any meaningful way."
16;Tabcorp/restify-cors-middleware;33;2017-05-22T23:12:56Z;2017-05-23T03:39:59Z;2017-05-23T03:39:59Z;Tabcorp/restify-cors-middleware;Tabcorp/restify-cors-middleware;rprieto;2;rprieto/nguyenchr;"@nguyenchr added a second commit with your feedback to pre-process the matchers, to avoid creating Regexes every time. It's about 25-50% faster now:

| | Initial logic | Pre-processing regexes |
|-|-|-|
| 1000 calls | 2.1ms | 1.6ms |
| 1 million calls | 1.1s | 600ms |

We're only talking milliseconds for typical server load though... but since Node is single-threaded and this is a core HTTP server concern it might be worth it. Worth the added complexity?
 @rprieto looks good to me, it doesn't look like it's much complexity and it's all encapsulated in this module, so 👍  for me"
17;Tabcorp/restify-cors-middleware;31;2017-05-22T16:05:56Z;2017-05-22T22:28:30Z;2017-05-22T22:28:30Z;retrohacker/restify-cors-middleware;Tabcorp/restify-cors-middleware;retrohacker;2;retrohacker/rprieto;Note, I commented out the unused line from #30 instead of removing them That's great thanks! It definitely caught an interesting one at `6.2.4`!
20;Tabcorp/restify-cors-middleware;27;2017-05-09T20:27:48Z;2017-05-22T06:39:29Z;2017-05-22T06:39:29Z;retrohacker/restify-cors-middleware;Tabcorp/restify-cors-middleware;retrohacker;6;retrohacker/danielsarsi/rprieto/rprieto/nguyenchr/rprieto;"I'd like to follow up this PR with linting if that is okay with you :smile: Make it happen! Sorry, only seeing this now! This is great 💯 Thanks so much for pulling this login in, that's been on our todo-list forever.

The only comment I have before merging is why values such as `access-control-request-method` have been extracted somewhere else, as I find (subjective) that it's harder to read with that level of indirection.

After it's merged, what do you think if we replace `assert-plus` with [strummer](https://github.com/TabDigital/strummer), which we typically use in `TabDigital` projects? It would make the whole ""assert"" block a lot more legible, e.g.

```js
s.assert(options, {
  origins: s.optional(s.array(s.oneOf('string', 'regex'))),
  credentials: s.optional('bool'),
  allowHeaders: s.optional(['string']),
  preflightMaxAge: s.optional('number'),
  preflightStrategy: s.optional('object') 
})
```
 @nguyenchr what do you think? @rprieto I agree that values like `access-control-request-method` could probably be inlined
I think it's great to have `EXPOSE_HEADERS` as an array in a common file, seeing as though it is looped over in multiple places

and yes +1 to linting (my vote is for https://standardjs.com/) :+1: on `standard`. In order to get things moving, what about we merge this now and look at simplifying later?"
26;Tabcorp/restify-cors-middleware;20;2016-11-14T19:14:32Z;2016-12-20T23:06:41Z;2016-12-20T23:06:41Z;Tabcorp/restify-cors-middleware;Tabcorp/restify-cors-middleware;greenkeeperio-bot;1;ianvonholt;peerDependencies should be changed as well if this is merged. 
29;Tabcorp/restify-cors-middleware;17;2016-10-05T13:13:46Z;2016-10-05T13:17:20Z;2016-10-05T13:17:20Z;Tabcorp/restify-cors-middleware;Tabcorp/restify-cors-middleware;nguyenchr;1;rprieto;"Haha, good 🎣 
"
31;Tabcorp/restify-cors-middleware;15;2016-09-07T04:17:47Z;2016-09-07T04:27:56Z;2016-09-07T04:27:56Z;Tabcorp/restify-cors-middleware;Tabcorp/restify-cors-middleware;nguyenchr;3;srushti/srushti/nguyenchr;"Does this thing not handle `peerDependencies`?
 Looks like it does. Could we add:
[![Peer dependencies](http://img.shields.io/david/peer/TabDigital/restify-cors-middleware.svg?style=flat)](https://david-dm.org/TabDigital/restify-cors-middleware)
 @srushti added
"
33;Tabcorp/restify-cors-middleware;12;2016-06-20T06:02:03Z;2016-06-20T06:25:24Z;2016-06-20T06:25:23Z;Tabcorp/restify-cors-middleware;Tabcorp/restify-cors-middleware;hackerzhut;1;nguyenchr;"👍 
"
34;Tabcorp/restify-cors-middleware;10;2015-12-01T06:38:44Z;2015-12-01T22:48:35Z;2015-12-01T22:48:35Z;vickvu/restify-cors-middleware;Tabcorp/restify-cors-middleware;vickvu;1;nguyenchr;":+1: 
"
35;Tabcorp/restify-cors-middleware;8;2015-05-08T21:15:43Z;2017-01-27T05:27:33Z;2017-01-27T05:27:33Z;wlkrw/restify-cors-middleware;Tabcorp/restify-cors-middleware;wlkrw;1;rprieto;Hi @wlkrw and sorry for the very late merge. This looks great, thanks for your contribution!
36;Tabcorp/restify-cors-middleware;7;2015-05-07T23:53:01Z;2015-05-08T01:02:15Z;2015-05-08T01:02:15Z;mehdivk/restify-cors-middleware;Tabcorp/restify-cors-middleware;mehdivk;1;nguyenchr;"I don't think you need the `npm test` command, as travis runs that by default
but it makes it more obvious what is being run so :+1: 
"
37;Tabcorp/restify-cors-middleware;6;2015-05-06T06:36:21Z;2015-05-11T02:05:09Z;2015-05-11T02:05:09Z;mehdivk/restify-cors-middleware;Tabcorp/restify-cors-middleware;mehdivk;7;mehdivk/nguyenchr/mehdivk/rprieto/wlkrw/mehdivk/rprieto;"Current tests are green.
 @mehdivk I don't remember if there is a reason we didn't include `Restify 3.0.x` 
@rprieto can you think of any?

also can you add a `.travis.yml` so we can get the build status
 @nguyenchr `.travis.yml` came via another PR. I can see `The Travis CI build passed` in `Merge pull request` area
 Nice one :+1: I don't think there was a particular reason apart from the fact `v3` didn't exist yet.

Probably just worth testing locally, in case the CORS implementation has changed in Restify (since this module implements preflight, but relies on Restify for actual requests).
 +1 Before I noticed this pr I was going to make one for relaxing the peer dependency. I tested with restify 3.0.2 for work, it's not on Github. How 'bout them Waratahs
 @rprieto @nguyenchr @wlkrw 
I tried it with `Restify 3.0.2` and it works. Moreover last update on `cors.js` file of Restify codebase was 10 months ago and CORS feature of Restify doesn't depend on other dependencies so I think it's safe to upgrade it.

https://github.com/mcavage/node-restify/blob/master/lib/plugins/cors.js
 Awesome, thanks Mehdi! Let's merge this :ship: 
"
38;Tabcorp/restify-cors-middleware;4;2014-12-03T14:55:01Z;2014-12-03T20:19:02Z;2014-12-03T20:19:02Z;johnnyghost/restify-cors-middleware;Tabcorp/restify-cors-middleware;johnnyghost;1;rprieto;"Good catch, thanks
"
39;Tabcorp/restify-cors-middleware;3;2014-10-10T07:15:37Z;2014-10-13T21:30:00Z;2014-10-13T21:30:00Z;Tabcorp/restify-cors-middleware;Tabcorp/restify-cors-middleware;nguyenchr;1;rprieto;"Nice one! :+1: 
"
40;Tabcorp/restify-cors-middleware;2;2014-06-03T04:35:44Z;2014-06-03T06:11:59Z;2014-06-03T06:11:59Z;Tabcorp/restify-cors-middleware;Tabcorp/restify-cors-middleware;rprieto;1;anklos;"great :+1: 
"
41;Tabcorp/restify-cors-middleware;1;2014-05-20T06:50:37Z;2014-05-20T07:02:23Z;2014-05-20T07:02:23Z;joukou/restify-cors-middleware;Tabcorp/restify-cors-middleware;superstructor;1;rprieto;"Nice one, we hadn't tested yet with `2.8.0`. Happy to know it works!
"
