No,mainline_repo,pr_no,created_at,merged_at,repo_origin_ml,repo_destin,pr_owner,no_commenters,pr_commenters,pr_comments
0,Wizcorp/node-tomes,58,2017-01-20T07:47:21Z,2017-01-25T11:26:28Z,ronkorving/node-tomes,Wizcorp/node-tomes,ronkorving,3,AlmirKadric/ronkorving/AlmirKadric,"LGTM 👍 
HALLELUJAH 🙇  Please run a test in your environment and let me know if really LGTM :) tested with mage-templates repo and working file 👍 "
1,Wizcorp/node-tomes,55,2016-04-13T06:42:11Z,2016-04-13T06:48:47Z,ronkorving/node-tomes,Wizcorp/node-tomes,ronkorving,1,AlmirKadric,"LGTM
"
2,Wizcorp/node-tomes,54,2016-04-12T10:18:41Z,2016-04-13T07:04:57Z,ronkorving/node-tomes,Wizcorp/node-tomes,ronkorving,4,ronkorving/ronkorving/ronkorving/AlmirKadric,"My intuition says that if we can't fix the enumeration, what we _can_ do to circumvent the issue is to have `hasOwnProperty` return false on them. The implementation for that would be to override that method on ObjectTome and ArrayTome, and internally use Object.prototype.hasOwnProperty when we need it.
 V8 issue at https://bugs.chromium.org/p/v8/issues/detail?id=4905
 Side note:

Using the `hop` function instead of `myObj.hasOwnProperty()` is also safer, in the case of an ObjectTome receiving a `hasOwnProperty` property. Everything would start to break previously, while now the Tome internals will remain functional.
 Above comment is not a blocker
LGTM 👍 
"
3,Wizcorp/node-tomes,53,2016-04-12T04:35:51Z,2016-04-12T08:22:55Z,ronkorving/node-tomes,Wizcorp/node-tomes,ronkorving,5,ronkorving/ronkorving/ronkorving/AlmirKadric/ronkorving,"Current thoughts:

We don't properly instantiate Tomes as event emitters. We call inherits() but not the EventEmitter constructor. We can't assume that will always work I think. Adding `EventEmitter.call(this);` in our constructor only inflates our issues though. We end up with a `domains` property, which we cannot suppress because of code in Node [like this](https://github.com/nodejs/node/blob/c6656db352973d6aea24cb1a3c76adf042b25446/lib/events.js#L37). That overwrites whatever behaviors we decided `domain` should have. Very annoying.

Where we put `EventEmitter.call(this)`, at the start of our constructor or at the end doesn't change much. We end up with properties all over the place when we JSON stringify.

I first thought, lets stop this nonsense of blacklisting properties and fix things at the ObjectTome, where we could add a toJSON method to control how objects are serialized (every Tome type, except Object, already does this). But the problem I foresee with that is that we may break `Object.keys(myObjectTome)`, which I'm sure we care about a lot. If we're lucky though, valueOf could be use `valueOf` internally, but [this seems unlikely](https://developer.mozilla.org/en/docs/Web/JavaScript/Reference/Global_Objects/Object/keys). Continuing my investigation...
 I've found the edge case and smallest test case:

``` js
function Obj() {
  Object.defineProperty(this, 'foo', { configurable: true, writable: true, value: true });
}

Obj.prototype.foo = undefined;

var o = new Obj();

console.log(JSON.stringify(o));
console.log(JSON.stringify(o, null, '\t'));
```

The output will contain the `foo` property _only_ in the beautified JSON.
 I have filed a bug report to the V8 project: https://bugs.chromium.org/p/v8/issues/detail?id=4903
 LGTM 👍 
 Added one last test to prove this works for deeply nested objects too.
"
4,Wizcorp/node-tomes,52,2016-04-08T08:51:37Z,2016-04-08T09:08:45Z,ronkorving/node-tomes,Wizcorp/node-tomes,ronkorving,2,maxwan/ronkorving,"LGTM
 Thanks @maxwan. Given the tiny impact of this PR, I'm gonna go ahead and merge it now then.
"
5,Wizcorp/node-tomes,50,2016-03-31T07:22:32Z,2016-04-07T02:56:21Z,ronkorving/node-tomes,Wizcorp/node-tomes,ronkorving,4,maxwan/ronkorving/AlmirKadric/ronkorving,"LGTM
 If there are no more objections, I would like to merge this tomorrow.
 LGTM :+1: 
 Then boom, landing it.
"
9,Wizcorp/node-tomes,34,2014-05-13T09:55:53Z,2014-05-21T08:21:59Z,micky2be/node-tomes,Wizcorp/node-tomes,micky2be,1,micky2be,"Any comment? I need this fix for my project
"
10,Wizcorp/node-tomes,33,2014-01-28T08:09:47Z,2014-01-29T01:58:37Z,bjornstar/tomes,Wizcorp/node-tomes,bjornstar,1,bjornstar,"@ronkorving If you wanna have a look ;)
"
14,Wizcorp/node-tomes,25,2013-11-18T06:36:14Z,2013-11-18T07:38:12Z,bjornstar/tomes,Wizcorp/node-tomes,bjornstar,1,bjornstar,"Whenever you're ready.
"
15,Wizcorp/node-tomes,24,2013-10-24T11:19:10Z,2013-10-25T01:57:59Z,ronkorving/node-tomes,Wizcorp/node-tomes,ronkorving,1,bjornstar,"Fine by me.
"
17,Wizcorp/node-tomes,20,2013-03-22T09:46:30Z,2013-03-22T10:16:27Z,bjornstar/tomes,Wizcorp/node-tomes,bjornstar,1,ronkorving,"Works for me.
"
18,Wizcorp/node-tomes,19,2013-03-13T09:48:39Z,2013-03-13T10:07:55Z,bjornstar/tomes,Wizcorp/node-tomes,bjornstar,1,ronkorving,"Nice
"
22,Wizcorp/node-tomes,15,2013-03-07T10:59:52Z,2013-03-08T02:26:00Z,bjornstar/tomes,Wizcorp/node-tomes,bjornstar,1,bjornstar,"paging @qubyte, @ronkorving, etc.
"
24,Wizcorp/node-tomes,13,2013-02-21T04:57:41Z,2013-02-21T06:52:15Z,bjornstar/tomes,Wizcorp/node-tomes,bjornstar,1,ronkorving,"Thanks, looks good.
"
25,Wizcorp/node-tomes,12,2013-01-30T10:13:41Z,2013-01-31T01:46:00Z,bjornstar/tomes,Wizcorp/node-tomes,bjornstar,1,ronkorving,"Looks alright then :)
"
27,Wizcorp/node-tomes,10,2013-01-29T09:51:47Z,2013-01-29T10:00:01Z,bjornstar/tomes,Wizcorp/node-tomes,bjornstar,1,ronkorving,"Looks fine to me, merging!
"
28,Wizcorp/node-tomes,9,2013-01-29T02:25:49Z,2013-01-29T06:14:57Z,bjornstar/tomes,Wizcorp/node-tomes,bjornstar,1,bjornstar,"removed all traces of tDiff. added a test for isdirty. Should be good to go.
"
30,Wizcorp/node-tomes,6,2012-12-27T08:01:27Z,2013-01-17T02:27:07Z,aogilvie/node-tomes,Wizcorp/node-tomes,aogilvie,1,ronkorving,"thanks
"
31,Wizcorp/node-tomes,5,2012-12-19T10:09:36Z,2013-01-24T06:44:53Z,bjornstar/tomes,Wizcorp/node-tomes,bjornstar,5,bjornstar/bjornstar/qubyte/bjornstar/ronkorving,"@ronkorving, @qubyte: Could both of you take a look at this?
 Want to have another go at this? @qubyte @ronkorving 
 You seem to be covering much more than I can think of off the top of my head. The unit tests seem sane to me.
 All changes are in, @ronkorving @qubyte one more pass?
 Looks good to me. Merging it now.
"
32,Wizcorp/node-tomes,1,2012-12-04T11:10:32Z,2012-12-18T02:25:03Z,bjornstar/tomes,Wizcorp/node-tomes,bjornstar,2,bjornstar/ronkorving,"@ronkorving, @qubyte: Should be good, one last look?
 Looks fine to me. @qubyte any last comments before we merge this in?
"
