No,mainline_repo,pr_no,created_at,merged_at,repo_origin_ml,repo_destin,pr_owner,no_commenters,pr_commenters,pr_comments
2,roblox-ts/types,459,2020-12-31T07:25:59Z,2020-12-31T07:35:12Z,roblox-ts/types,roblox-ts/types,Validark,1,osyrisrblx,Yikes. Looks like utf8 functions haven't compiled correctly in a while! I guess they aren't that common.
105,roblox-ts/types,350,2020-08-27T06:41:13Z,2020-08-31T01:34:36Z,,roblox-ts/types,OverHash,3,OverHash/Validark/OverHash,"The os.date not returning just `string` for anything else is due to the following code being untype safe
```ts
function foo(s: string) {
  return os.date(s);
}
foo(""*t"");
```

The other docs are taken from roblox's api dump, but I'll take on your feedback and update them. I should have said return `string` for any other literal. Basically:

```
""*t"" | ""!*t"" -> Required<DateTable>
other string literals -> string
string or a union of string literals satisfying both of the above -> string | Required<DateTable>
```

Luckily, this can easily be expressed in TypeScript:
```ts
declare function date<T extends string>(
	formatString: T,
	time?: number,
): string extends T ? string | Required<DateTable> : T extends ""*t"" | ""!*t"" ? Required<DateTable> : string;

date(""*t""); // Required<DateTable>
date(""""); // string
declare const a: string;
date(a); // string | Required<DateTable>
declare const b: ""!*t"" | ""*t"";
date(b); // Required<DateTable>
declare const c: ""!*t"" | """";
date(c); // string | Required<DateTable>
declare const d: string | number;
date(d); // error
``` Once again, you are a type wizard 😛
Applied requested changes."
116,roblox-ts/types,337,2020-08-02T08:17:18Z,2020-08-04T00:14:00Z,roblox-ts/types,roblox-ts/types,Validark,1,osyrisrblx,"I'm not seeing this behavior in Roblox Studio. Do you have Lua code to demonstrate?
```Lua
local function printValues(...)
	for i, v in ipairs({ ... }) do
		print(i, typeof(v), v)
	end
end

printValues(string.find(""abc123def"", ""^abc(%d+)def$""))
-- 1 number 1
-- 2 number 9
-- 3 string 123

printValues(string.match(""abc123def"", ""^abc(%d+)def$""))
-- 1 string 123
```

EDIT:
Ah I see, you meant literally `()`
```Lua
printValues(string.match(""abc123def"", ""abc()""))
-- 1 number 4
```

https://www.lua.org/manual/5.1/manual.html#5.4.1
> As a special case, the empty capture () captures the current string position (a number). For instance, if we apply the pattern ""()aa()"" on the string ""flaaap"", there will be two captures: 3 and 5.
"
120,roblox-ts/types,333,2020-07-23T09:49:43Z,2020-07-29T19:33:49Z,Dionysusnu/types,roblox-ts/types,Dionysusnu,1,osyrisrblx,Please add documentation.
144,roblox-ts/types,307,2020-06-09T17:55:51Z,2020-06-14T23:32:18Z,roblox-ts/types,roblox-ts/types,Validark,3,osyrisrblx/Validark/Validark,"Could we do `unknown` instead of `any`? Or are there issues with that?
For the too complex cases, we can just suggest they use type assertions. If we set the value slot to be `unknown`, we will then require two type assertions for one statement. Is this what we want?
```ts
export function cloneInstance<T extends Instance>(object: T, parent: Instance, properties: PartialInstance<T>): T {
	const myNewInstance = object.Clone();

	for (const [i, v] of Object.entries(properties)) {
		myNewInstance[i as WritableInstanceProperties<T>] = v as T[WritableInstanceProperties<T>];
	}

	myNewInstance.Parent = parent;
	return myNewInstance;
}
```
The index slot could probably be `unknown` without issue. Yeah, I think it's best to encourage being explicit in cases like these. I changed the `any` types to `unknown`. "
183,roblox-ts/types,251,2020-04-01T18:27:04Z,2020-04-01T20:18:59Z,GigsD4X/types,roblox-ts/types,GigsD4X,1,osyrisrblx,Thanks!
224,roblox-ts/types,203,2019-11-24T20:12:06Z,2019-12-15T03:44:42Z,Vorlias/types,roblox-ts/types,Vorlias,1,Vorlias,"Oh and  in case you're wondering why I added an overload to the array constructor - `length` cannot be `undefined` if `value` is set (it will throw an error in Lua as this would be equivalent to `table.create(nil, value)` ). By using an overload, `new Array(undefined, ""hi"")` isn't valid."
331,roblox-ts/types,78,2019-05-28T23:28:20Z,2019-05-30T03:17:47Z,Validark/rbx-safe-types,roblox-ts/types,Validark,1,Validark,"[On this page](https://github.com/roblox-ts/rbx-types), I would also like that the link at the top be changed to `https://www.npmjs.com/package/rbx-types`. I would also like it if that description matched whatever the global description is. The one in the readme/package currently is `TypeScript typings for the Roblox platform. Partially handwritten and partially automatically generated.`

The npm page should also display the readme. For some reason, it isn't right now."
