No;mainline_repo;pr_no;created_at;closed_at;merged_at;repo_origin;repo_destin;pr_owner;no_commenters;pr_commenters;pr_comments
1;bbc/react-transcript-editor;208;2019-10-07T14:05:31Z;2019-10-10T15:18:01Z;2019-10-10T15:18:00Z;pietrop/react-transcript-editor;bbc/react-transcript-editor;pietrop;1;pietrop;"can change
- [x] one speaker at a time, 
- [x] all speakers with same label name.

 
![speaker-change-1](https://user-images.githubusercontent.com/4661975/66389072-6724c880-e9bf-11e9-955b-67dfd258e6dd.gif)


- [x] and it triggers auto save callback on speaker/s change "
2;bbc/react-transcript-editor;203;2019-10-04T12:53:57Z;2019-10-07T12:55:02Z;2019-10-07T12:55:02Z;pietrop/react-transcript-editor;bbc/react-transcript-editor;pietrop;2;pietrop/pietrop;"considered making the component check the media type of the url to determine the layout accordingly ([more info here](https://stackoverflow.com/questions/11876175/how-to-get-a-file-or-blob-from-an-object-url)) however this seemed to slow down the loading of the page/component coz it has to load the file before being able to determine if it's audio or video.

See below example of possible implementation in `TimedTextEditor`

```js
  checkIfIsAudio = () => {
    console.log('checkIfIsAudio');
    if(this.props.mediaType === 'audio'){
      this.setState({isAudio: true})
      return true;
    }
    else{
      this.setState({isAudio: false})
      return false;
    }
 
    if (this.props.mediaUrl) {
      console.log('mediaUrl',this.props.mediaUrl)
      // from https://stackoverflow.com/questions/11876175/how-to-get-a-file-or-blob-from-an-object-url
      let file = await fetch(this.props.mediaUrl);
      const blob = await file.blob();
      console.log('blob',blob);
      console.log('type',blob.type);
      if (blob.type.includes(""audio"")){
        console.log('is audio')
        this.setState({isAudio: true})
        return true;
      }
      console.log('is not audio')
      this.setState({isAudio: false})
      return false;
    }
    return false;
  };
```

Then decided it might be better to just pass `mediaType` at `TranscriptEditor` initialization as optional, with default to video. In this PR branch you can see the changes [in the storybook under `TranscriptEditor` --> `audio`](http://localhost:6006/?path=/story/transcripteditor--audio-file) - [http://localhost:6006/?path=/story/transcripteditor--audio-file](http://localhost:6006/?path=/story/transcripteditor--audio-file)

+ screenshots below of main views

## For audio only - desktop
![Screenshot 2019-10-04 at 17 43 41](https://user-images.githubusercontent.com/4661975/66224794-b07acc80-e6ce-11e9-89c0-dc2b84a6ad2c.png)

## Audio only - mobile

![Screenshot 2019-10-04 at 17 44 05](https://user-images.githubusercontent.com/4661975/66224868-e6b84c00-e6ce-11e9-8aa3-ad4e8db1c23e.png)


## Audio - iPad portrait

![Screenshot 2019-10-04 at 17 43 52](https://user-images.githubusercontent.com/4661975/66224843-d2744f00-e6ce-11e9-9375-2478295c6774.png)

## Audio - iPad landscape

![Screenshot 2019-10-04 at 17 43 57](https://user-images.githubusercontent.com/4661975/66224854-dbfdb700-e6ce-11e9-96e5-e0499f759622.png)

## Video - desktop

![Screenshot 2019-10-04 at 17 43 13](https://user-images.githubusercontent.com/4661975/66224890-f768c200-e6ce-11e9-8936-df6eb6514fce.png)

## Video - mobile

![Screenshot 2019-10-04 at 17 47 30](https://user-images.githubusercontent.com/4661975/66224916-0f404600-e6cf-11e9-9ace-c8ff5fa67b43.png)
"
3;bbc/react-transcript-editor;190;2019-08-23T11:09:16Z;2019-09-24T15:59:44Z;2019-09-24T15:59:44Z;murezzda/react-transcript-editor;bbc/react-transcript-editor;murezzda;1;murezzda;Checks fail as example output of speechmatics adapter is changed, will provide new ground truth.
6;bbc/react-transcript-editor;167;2019-07-18T09:31:55Z;2019-07-19T17:19:59Z;2019-07-19T17:19:59Z;sshniro/react-transcript-editor;bbc/react-transcript-editor;sshniro;1;sshniro;"@pietrop I have added the changes requested in the following comment.
https://github.com/bbc/react-transcript-editor/pull/167#pullrequestreview-264222584"
7;bbc/react-transcript-editor;155;2019-05-08T23:56:12Z;2019-05-10T09:56:52Z;2019-05-10T09:56:52Z;terite/react-transcript-editor;bbc/react-transcript-editor;terite;2;pietrop/terite;"Just noticed it works in Chrome, doesn't seem to work in Firefox? (on a mac) I'm able to get spell checking on macOS 10.14.4 using Firefox `66.0.5 (64-bit)`
<img src=""https://user-images.githubusercontent.com/44259/57495709-43c8e680-7284-11e9-9915-65a278360640.png"" width=""477"" height=""384"">

Does FireFox have a dictionary pre-installed for your locale? https://support.mozilla.org/en-US/kb/how-do-i-use-firefox-spell-checker

In any case, actual spell checking is browser dependent and out of my control as per links in the description."
8;bbc/react-transcript-editor;154;2019-05-07T18:22:50Z;2019-05-07T19:07:05Z;2019-05-07T19:07:05Z;terite/react-transcript-editor;bbc/react-transcript-editor;terite;1;pietrop;Thanks @terite !
9;bbc/react-transcript-editor;140;2019-04-09T15:10:14Z;2019-04-09T17:00:33Z;2019-04-09T17:00:32Z;philmcmahon/react-transcript-editor;bbc/react-transcript-editor;philmcmahon;1;pietrop;Looks good, thanks @philmcmahon 
11;bbc/react-transcript-editor;131;2019-04-07T19:58:23Z;2019-04-08T12:23:39Z;2019-04-08T12:23:39Z;philmcmahon/react-transcript-editor;bbc/react-transcript-editor;philmcmahon;1;pietrop;Looks good, thanks @philmcmahon  for writing the tests, and handling both when speaker segments are present as well as when they are not.
18;bbc/react-transcript-editor;111;2019-03-14T02:14:08Z;2019-03-18T16:00:57Z;2019-03-18T16:00:57Z;ivanji/react-transcript-editor;bbc/react-transcript-editor;ivanji;4;pietrop/ivanji/pietrop/ivanji;"Thanks for this @ivanji , we are having a closer look with @jamesdools tomorrow. 

I reckon we could hide the Picture in picture icon in mobile view as it doesn't seem be supported in iOS, or android, and that could make more space for other icons. Sure, thanks. BTW,  I'm going to push a couple more changes as I've been testing further and found some minor issues. I'll get rid of PiP in mobile view and bring back the sound control button, it's an accessibility issue not having it and there's no reason why it shouldn't be present.  ok, cool, thanks @ivanji !

re the sound toggle - ok that's good. 

A few other things I've noticed

**Progress bar**
In firefox it's a red dot while in chrome it's white?

**Current Timecode - colour**
Colour of current time, looks a bit faded `#E2A9A2` instead of `#a0372d` - was wondering what's the reason behind that?

**Position of settings icon, and keyboard shortcuts icon**
Position of settings icon, and keyboard shortcuts icon in mobile view seems to go a bit off to the top of the page, rather then staying with the component, see below

<img width=""357"" alt=""Screen Shot 2019-03-14 at 22 37 06"" src=""https://user-images.githubusercontent.com/4661975/54396099-bc0e9380-46a9-11e9-993c-e8efb429c88f.png"">

**ToolTip**
Also ""how does this work"" tooltip, doesn't seem to work?

<img width=""345"" alt=""Screen Shot 2019-03-14 at 22 43 34"" src=""https://user-images.githubusercontent.com/4661975/54396360-9fbf2680-46aa-11e9-91b0-387a4bab65c1.png"">
 I've fixed these issues and some minor ones I also noticed. I added Toggle Sound on/off button (instead of volume control as realistically that's what it is). 

> Colour of current time, looks a bit faded #E2A9A2 instead of #a0372d - was wondering what's the reason behind that?

Accessibility! previous red fails contrast checks. FYI, I didn't remove it, just added a new colour but like anything, it's to the devs what style they ultimately decide on, but hopefully always considering contrast. As a default option we might as well comply with best guidelines :)"
19;bbc/react-transcript-editor;110;2019-03-13T13:31:44Z;2019-03-15T21:32:16Z;2019-03-15T21:32:16Z;Gribbs/react-transcript-editor;bbc/react-transcript-editor;Gribbs;7;pietrop/chrishutchinson/pietrop/pietrop/Gribbs/pietrop/Gribbs;"Awesome, thanks @Gribbs ,
I'll find some time to have a look at this by the of the week.

for now I'd say: 
- ok to leave speaker identification for later stage - eg as separate PR.
- You can probably consider`example-usage.js` optional, as that can be added later. 
- But would you be able to add the`.test.js` test file so that the Travis CI doesn't fail? _Let me know if you need any help with that._

---

cc @chrishutchinson  Hey @Gribbs - I'll take a skim through the implementation too, but having run it locally with a test video / transcript from AWS, it seems to be working really well, nice one!

I don't seem to be able to download the resultant edited transcript, but I'm guessing that's either a bug with Firefox, or something else, not specific to this code change. cc @pietrop are you aware of anything? I'll do further digging if not and file a separate issue. Thanks @chrishutchinson ,

haven't had a chance to try it in the PR yet but I did a quick test in the demo app  https://bbc.github.io/react-transcript-editor (`load demo`)

I am able to download draftJs and plain text of current demo  in Chrome but not in firefox.

Firefox console says

```
TypeError: t.refs.timedTextEditor is undefined
```

which is something to do with `getEditorContent` in the example/demo app. 

Which at the moment is implemented this way

```js
  getEditorContent = (exportFormat) => {
    return this.refs.timedTextEditor.getEditorContent(exportFormat);
  }
```

But could be refactored as a callback? and not user `refs` - [which is not recommended by React](https://reactjs.org/docs/refs-and-the-dom.html) and see if it also fixes it in Firefox? -  this could be a separate PR.

Do you get the same error? (I am aware the demo is a different version number compared to master, and compared to the PR) Thanks for this PR @Gribbs!

**`generateEntitiesRanges`**
Glad it worked out to use the shared helper function

**Test**
The amazon transcribe test fails, because the test file `amazonTranscribe.sample.js` needs  [this setup step](https://github.com/bbc/react-transcript-editor/blob/master/docs/guides/adapters.md#tests).

In ` src/lib/Util/adapters/amazon-transcribe/sample/amazonTranscribe.sample.js` all the entity ranges are as 

```js
""entityRanges"": [{
		""start"": 13.03,
		""end"": 13.22,
		""confidence"": 1,
		""text"": ""There"",
		""offset"": 0,
		""length"": 5,
		""key"": ""ico58i6""
	}, {
```

and because the key is randomly generated it cannot be deterministically tested by jest.
So instead the attribute should be just expecting to be a string

```js
""key"": expect.any(String)
```

As explained in the guide, you could do a find and replace in your code editor, if it supports regex for `""key"": ""([a-zA-Z0-9]*)""` and replace with the above. if that makes sense?

[you should be able to see detailed Travis CI log of the test failing here](https://travis-ci.org/bbc/react-transcript-editor/builds/506115982?utm_source=github_status&utm_medium=notification)

Your tests should then pass.

**Console errors**

I get this error in the console when adding a AWS transcript

```
index.js:1446 Warning: Received NaN for the `data-start` attribute. If this is expected, cast the value to a string.
    in span (at Word.js:36)
```

as a quick fix might be enough to do some type casting and add a `.toString()` to `src/lib/TranscriptEditor/TimedTextEditor/Word.js` at line 37-38

```js
  <span
        data-start={ data.start.toString() }
        data-end={ data.end.toString() }

```

**Adding transcript first and then media - error**
If i test by adding adding media first and then transcript, it works fine but wen adding transcript first and then media it crashes and gives some errors

```
Uncaught TypeError: Cannot read property 'isPresentInLocalStorage' of null
    at TranscriptEditor._this.ifPresentRetrieveTranscriptFromLocalStorage 
```
Altho to be fair, might not be specific of this branch - just tested on master and got the same.
Altho it works fine in [current demo page](https://bbc.github.io/react-transcript-editor/) - which is a few versions behind, so might need to do some investigating.

I think it might be connected with issue https://github.com/bbc/react-transcript-editor/issues/87 and PR  https://github.com/bbc/react-transcript-editor/pull/88 and somehow most likely the bug might have been re-introduced since.  

But since it's effecting master as well, I wouldn't necessary aim to figure this out as part of this PR. can be a separate issue/PR.

**example usage**
You could add this in example usage 

```js
import amazonTranscribeToDraft from'./index';
import amazonTranscribeTedTalkTranscript from './sample/autoEdit2TedTalkTranscript.sample.json';

console.log(amazonTranscribeToDraft(amazonTranscribeTedTalkTranscript));
```

**eslint**
It be good to re-introduce ESLint in the dev dependencies. did you followed the instructions you got with the error that you copy and pasted up there? do you have a copy of ESLint installed globally? 

---

### TL;DR:
would you be able to: 
- [ ] fix the test
- [x] add the example usage
- [ ] ~restore the the linting~

The other errors, since they are across the master branch can look into it with @jamesdools  Thanks @pietrop pietrop. Ive added the eslint back in to dev dependencies.

I also was getting sporadic ""Received NaN for the `data-start` attribute"" too and couldn't work out what was causing it. I did notice the json returned from amazon transcribe provides the numbers wrapped in quotes like:

`  ""start_time"": ""13.22""`

  compared to bbck-kaldi for example, which looks like:

`  ""start"": 13.44`

  and thought this might've been causing it originally even though I was casting to a number. I've had to do some awkward processing with punctuation start and end times since there is no start and end time provided by Transcribe. I've now added an addition .toFixed() method so my decimal places don't go on too long:

`  start: /punctuation/.test(currentWord.type) ? (parseFloat(previousWord.end_time) + 0.05).toFixed(2) : parseFloat(currentWord.start_time)`

  For now I'm not getting the error.

  For the testing, I've added the `""key"": expect.any(String)` to the amazonTranscribe.sample.js but I still can't get the test to pass. I've tried to debug it but I can't work out how to get any visibility into what is making the test fail (or run forever). I've tried:

`  yarn test index.test.js`

  and

`  yarn test-ci`

  and

`  yarn test-ci --verbose`

  But nothing seems to give me an indication what the problem is. If you can help with that it would be appreciated Thank for the changes @Gribbs , 

**eslint**
ah, my bad, I think you were right, `eslint` doesn't need to be installed in create react app as apparently it's there under the hood (cc @jamesdools for some of the other PRs eg https://github.com/bbc/react-transcript-editor/pull/115)

I had missed that in the top part error message - [noticed it in the travis error message](https://travis-ci.org/bbc/react-transcript-editor/builds/506970779?utm_source=github_status&utm_medium=notification)

```
There might be a problem with the project dependency tree.
It is likely not a bug in Create React App, but something you need to fix locally.
The react-scripts package provided by Create React App requires a dependency:
  ""eslint"": ""5.12.0""
Don't try to install it manually: your package manager does it automatically.
```

**tests** 
No worries, I can have a look into it and see what might be the problem. Then I reckon it'd be good to merge to master. Alright sounds good! Thanks again for your help!"
20;bbc/react-transcript-editor;103;2019-02-20T14:22:44Z;2019-02-26T10:10:37Z;2019-02-26T10:10:37Z;murezzda/react-transcript-editor;bbc/react-transcript-editor;murezzda;4;pietrop/pietrop/murezzda/pietrop;"That's great thanks @murezzda 

## Cursor colour 

I found it difficult to follow where the cursor is when scrolling down the text, so thought might be a good idea to give it a different colour, eg [red or blue](https://css-tricks.com/almanac/properties/c/caret-color/)?

eg

```js
[contenteditable] {
  caret-color: red;
}
```

But perhaps scoped only to the Timed Text Editor (otherwise it will effect every other conte editable on the page on the parent application)

In the body of the text it works fine 🎉 

![draftjs](https://user-images.githubusercontent.com/4661975/53352722-3c4b9f80-391b-11e9-8ac1-370d5d490c03.gif)

## Issue when reaching top of page
There seems to be an edge case when reaching the top of the page and wanting to navigate back down.

When reached top of page if click arrow up cursor moves to the sidebar scroll rather then the cursor. 
if that makes sense? see gif below.

To reproduce
- Click in the timed text editor
- Arrow up  ↑ all the way to the end of the timed text editor
- Arrow down ↓
- You should notice that the cursor is disappeared and the arrow now controls the ""sidebar"" for the timed text editor.

![draftjs3](https://user-images.githubusercontent.com/4661975/53352976-b8de7e00-391b-11e9-8e48-0117a3d36988.gif)


As a side note, this does not seem to happen in the current master (try in [demo](https://bbc.github.io/react-transcript-editor/) - load demo)
 In `WrapperBlock.js` ( line `104` )it seems like a fix might be to add the `contentEditable={ false }` to the div that contains both the `speakerElement` and the `timecodeElement` only and with that change it seems to work fine 🎉 



```diff
<div className={ style.WrapperBlock }>
        <div className={ style.markers }
+      contentEditable={ false }
-   
    >
          {this.props.blockProps.showSpeakers ? speakerElement : ''}
          {this.props.blockProps.showTimecodes ? timecodeElement : ''}
        </div>
        <div className={ style.text }>
          <EditorBlock { ...this.props } />
        </div>
      </div>
``` Hi @pietrop, this does solve this problem indeed. Thanks a lot, I've pushed an updated version already. Awesome thanks @murezzda !"
23;bbc/react-transcript-editor;94;2019-02-08T07:22:19Z;2019-02-13T16:27:00Z;2019-02-13T16:27:00Z;murezzda/react-transcript-editor;bbc/react-transcript-editor;murezzda;3;murezzda/pietrop/pietrop;"PR is ready for review.

Added the following functionality:

-Speechmatics transcripts can now be loaded.
-Speechmatics speakers are added to paragraphs. Thanks @murezzda , I've a question in Speechmatics, speaker diarization is always provided or is it optional? (eg does it have extra cost?)

was looking at their [API docs](https://app.speechmatics.com/api-details) but it's unclear. Looks good, as agreed, you can leave grouping the text by speaker segments for another PR.

closes https://github.com/bbc/react-transcript-editor/issues/38"
30;bbc/react-transcript-editor;60;2018-12-21T09:25:40Z;2019-03-20T15:01:43Z;2019-03-20T15:01:43Z;AndrewDAnderson/react-transcript-editor;bbc/react-transcript-editor;AndrewDAnderson;3;pietrop/AndrewDAnderson/pietrop;"That's great, thanks @AndrewDAnderson 

I guess you meant to write STT (Speech To Text) and not TTS (Text To Speech) in the title of the PR (?).

Looks good, and thanks for adding tests!

A few comments 

1. As you mentioned Creating EntityRanges could be done with the shared helper function, unless there are any advantages in doing that within the IBM adapter?

2. Made a comment/suggestion re-speaker label names - see inline.

3. It might be good to have more meaningful names for `x`, `y`,`z`, I do realised they are just loop counters, for example `topLevelCounter`,`wordLevelCounter` and `sentenceLevelCounter` (?)

_We'll have another look and see if there's anything else, thanks_ > I guess you meant to write STT (Speech To Text) and not TTS (Text To Speech) in the title of the PR (?).

Yes. Note to self: do not make public commits at 3am.

> 1. As you mentioned Creating EntityRanges could be done with the shared helper function, unless there are any advantages in doing that within the IBM adapter?

Honestly, I didn't investigate the helper function at all - I had already started writing an adapter for a project and just tweaked it a little for use here. I do have questions about why there is so much duplication of data - but I will ask those in another place.

> 2. Made a comment/suggestion re-speaker label names - see inline.

Responded inline. Good suggestion.

> 3. It might be good to have more meaningful names for `x`, `y`,`z`, I do realised they are just loop counters, for example `topLevelCounter`,`wordLevelCounter` and `sentenceLevelCounter` (?)

Sounds good. This was just a quick attempt to get it *functional* - and I'm sure others would like basic IBM support, so I was pushing it out the door with plans of cleaning things up later. Hi @AndrewDAnderson , 
Just circling back to see if you are interested in re-basing this, and address some of the suggestions mentioned above so that we can merge it into master?

We just added support for Speechmatics https://github.com/bbc/react-transcript-editor/pull/94 and thought might be good to wrap up the IBM one as well.

Let me know"
36;bbc/react-transcript-editor;45;2018-12-06T16:49:55Z;2018-12-07T14:22:08Z;2018-12-07T14:22:08Z;chrisbaume/react-transcript-editor;bbc/react-transcript-editor;chrisbaume;1;pietrop;"Thanks @chrisbaume ! 
Looks good, just a few minor comments - see above.

I've used the [suggest a specific change to the line  beta feature](https://help.github.com/articles/reviewing-proposed-changes-in-a-pull-request/) so that they are easy to incorporate. 

Other then that will also just let @jamesdools have a look before we go ahead."
