No;mainline_repo;pr_no;created_at;closed_at;merged_at;repo_origin;repo_destin;pr_owner;no_commenters;pr_commenters;pr_comments
7;collectionspace/cspace-ui.js;110;2019-04-29T15:44:28Z;2019-05-01T21:35:00Z;2019-05-01T21:35:00Z;abbistani/cspace-ui.js;collectionspace/cspace-ui.js;abbistani;1;coveralls;"
[![Coverage Status](https://coveralls.io/builds/23087816/badge)](https://coveralls.io/builds/23087816)

Coverage decreased (-0.01%) to 99.989% when pulling **176835064f2642c3d381ad6488ea026011bb077d on abbistani:add_exhib_to_cc_reason** into **5de78bb630fdf55767b3b3ae73e315f68b07bf10 on collectionspace:master**.
"
8;collectionspace/cspace-ui.js;108;2019-03-07T23:06:55Z;2019-03-08T18:26:53Z;2019-03-08T18:26:53Z;cesarvh/cspace-ui.js;collectionspace/cspace-ui.js;cesarvh;2;coveralls/remillet;"
[![Coverage Status](https://coveralls.io/builds/22056202/badge)](https://coveralls.io/builds/22056202)

Coverage decreased (-0.01%) to 99.989% when pulling **3bc6e6f6b0379cadc732c04de9bc6a37b7c70de7 on cesarvh:reportparams** into **d4a19c176d937d2cb68b0d06db3b682d6e98dfe6 on collectionspace:master**.
 Looks like a false-positive test failure by coveralls."
9;collectionspace/cspace-ui.js;106;2019-01-24T23:33:49Z;2019-01-25T00:14:44Z;2019-01-25T00:14:44Z;remillet/cspace-ui.js;collectionspace/cspace-ui.js;remillet;2;coveralls/remillet;"
[![Coverage Status](https://coveralls.io/builds/21264660/badge)](https://coveralls.io/builds/21264660)

Coverage decreased (-0.01%) to 99.989% when pulling **5478e8c63124293562270a66eba17c9350119af7 on remillet:master** into **3abba4ad54971c980f7bb6f205f9c5b88851bdf8 on collectionspace:master**.
 Merging this pull request despite coveralls coverage errors because it appears to be a false-positive failure."
10;collectionspace/cspace-ui.js;105;2019-01-23T21:31:13Z;2019-01-23T22:15:19Z;2019-01-23T22:15:19Z;remillet/cspace-ui.js;collectionspace/cspace-ui.js;remillet;1;coveralls;"
[![Coverage Status](https://coveralls.io/builds/21240829/badge)](https://coveralls.io/builds/21240829)

Coverage decreased (-0.01%) to 99.989% when pulling **1aed487234f487330dd910003820965e0ff30333 on remillet:master** into **e29a31ae8e7d90b2039a88a37813714ff3effa1b on collectionspace:master**.
"
11;collectionspace/cspace-ui.js;104;2019-01-04T22:37:38Z;2019-01-04T23:53:40Z;2019-01-04T23:53:40Z;;collectionspace/cspace-ui.js;remillet;1;coveralls;"
[![Coverage Status](https://coveralls.io/builds/20914098/badge)](https://coveralls.io/builds/20914098)

Coverage decreased (-0.01%) to 99.989% when pulling **4196f75c58d971746d3dbed6447a34edf9feca3b on remillet:temp_master** into **45586ad73d5a6ba1c711bf695e0f33697f6cce31 on collectionspace:master**.
"
12;collectionspace/cspace-ui.js;102;2018-08-27T22:40:16Z;2018-08-27T23:53:29Z;2018-08-27T23:53:29Z;;collectionspace/cspace-ui.js;remillet;1;coveralls;"
[![Coverage Status](https://coveralls.io/builds/18696410/badge)](https://coveralls.io/builds/18696410)

Coverage remained the same at 100.0% when pulling **126cd6b53f7bd31649179df2a0864784576dc5f4 on remillet:master** into **f6b273a5e26e17623abfa1ec114126d2cfb18013 on collectionspace:master**.
"
13;collectionspace/cspace-ui.js;101;2018-08-09T19:14:00Z;2018-08-10T02:07:08Z;2018-08-10T02:07:08Z;cesarvh/cspace-ui.js;collectionspace/cspace-ui.js;cesarvh;1;coveralls;"
[![Coverage Status](https://coveralls.io/builds/18412757/badge)](https://coveralls.io/builds/18412757)

Coverage decreased (-0.01%) to 99.989% when pulling **e5dad83975f7b9faf1eb002d7a8f49ffce571b63 on cesarvh:DRYD-457** into **d5b5aeaec7b273dd06ba3e7d83d063f8d71f2e67 on collectionspace:master**.
"
14;collectionspace/cspace-ui.js;98;2018-06-29T19:42:18Z;2018-07-02T20:58:16Z;2018-07-02T20:58:16Z;;collectionspace/cspace-ui.js;remillet;1;coveralls;"
[![Coverage Status](https://coveralls.io/builds/17765007/badge)](https://coveralls.io/builds/17765007)

Coverage remained the same at 100.0% when pulling **adb561ed3c4c7907f9cbdcaae64e39dbda53578b on remillet:master** into **dab287aa6b1f320fbc12e51ad485f861d0bbdfdf on collectionspace:master**.
"
15;collectionspace/cspace-ui.js;96;2018-06-06T17:53:06Z;2018-06-07T01:26:11Z;2018-06-07T01:26:11Z;mark-cooper/cspace-ui.js;collectionspace/cspace-ui.js;mark-cooper;1;coveralls;"
[![Coverage Status](https://coveralls.io/builds/17355472/badge)](https://coveralls.io/builds/17355472)

Coverage remained the same at 100.0% when pulling **1759b8b819bf2e7dc59322cedfc36b4fc7a37c97 on mark-cooper:logo_max_width** into **34cf2372f8821af023ee79161fd12195e89bebe5 on collectionspace:master**.
"
16;collectionspace/cspace-ui.js;95;2018-05-17T02:57:55Z;2018-05-17T03:05:27Z;2018-05-17T03:05:26Z;;collectionspace/cspace-ui.js;remillet;1;coveralls;"
[![Coverage Status](https://coveralls.io/builds/17025387/badge)](https://coveralls.io/builds/17025387)

Coverage remained the same at 100.0% when pulling **65f743dee07368246985f48cd0f0335ee90cbe23 on remillet:master** into **a52b60c0543823f0e1cc79f40fc99e851a1f85cb on collectionspace:master**.
"
17;collectionspace/cspace-ui.js;93;2018-02-24T03:00:53Z;2018-02-24T03:09:19Z;2018-02-24T03:09:19Z;ray-lee/cspace-ui.js;collectionspace/cspace-ui.js;ray-lee;1;coveralls;"
[![Coverage Status](https://coveralls.io/builds/15676804/badge)](https://coveralls.io/builds/15676804)

Coverage remained the same at 100.0% when pulling **7b3528da6e38eb265560a16c5601ab4494ccf948 on ray-lee:notifyrelation** into **f5678337fd36f759c1dfd99cd6d2f1dfa2d25930 on collectionspace:master**.
"
18;collectionspace/cspace-ui.js;88;2018-01-23T05:03:39Z;2018-01-23T05:58:56Z;2018-01-23T05:58:56Z;ray-lee/cspace-ui.js;collectionspace/cspace-ui.js;ray-lee;1;coveralls;"
[![Coverage Status](https://coveralls.io/builds/15172397/badge)](https://coveralls.io/builds/15172397)

Coverage remained the same at 100.0% when pulling **704e7ad1b753c67f8e6def902d313aed23b3aa6f on ray-lee:colconfig** into **92828b5bbb73dbff0e1d373cbf1540e5156f87d5 on collectionspace:master**.
"
19;collectionspace/cspace-ui.js;87;2018-01-22T05:45:50Z;2018-01-22T06:26:39Z;2018-01-22T06:26:39Z;ray-lee/cspace-ui.js;collectionspace/cspace-ui.js;ray-lee;1;coveralls;"
[![Coverage Status](https://coveralls.io/builds/15154017/badge)](https://coveralls.io/builds/15154017)

Coverage remained the same at 100.0% when pulling **d5aef18584d4ecc54a8a411dc2804f9383be7d50 on ray-lee:authworkflow** into **594380c7f2e8dcc6ab37db91b48e157d8db5731c on collectionspace:master**.
"
20;collectionspace/cspace-ui.js;86;2018-01-16T04:38:32Z;2018-01-16T04:51:50Z;2018-01-16T04:51:50Z;ray-lee/cspace-ui.js;collectionspace/cspace-ui.js;ray-lee;1;coveralls;"
[![Coverage Status](https://coveralls.io/builds/15064553/badge)](https://coveralls.io/builds/15064553)

Coverage remained the same at 100.0% when pulling **b9d5ebcb95ba4097aa5b1f30d04d9e51fb1a74d9 on ray-lee:editvocabs** into **e503fbf398cf2c0da51fcfb1ac220b2e5374a2f1 on collectionspace:master**.
"
21;collectionspace/cspace-ui.js;85;2018-01-12T03:38:44Z;2018-01-12T18:02:30Z;2018-01-12T18:02:30Z;ray-lee/cspace-ui.js;collectionspace/cspace-ui.js;ray-lee;2;coveralls/coveralls;"
[![Coverage Status](https://coveralls.io/builds/15015868/badge)](https://coveralls.io/builds/15015868)

Changes Unknown when pulling **cec3c6c06a569874e7f6fae2cb13508a3a741505 on ray-lee:editvocabs** into ** on collectionspace:master**.
 
[![Coverage Status](https://coveralls.io/builds/15026849/badge)](https://coveralls.io/builds/15026849)

Coverage remained the same at 100.0% when pulling **6783a7db59db47909c2d3d96b588d94700976bbe on ray-lee:editvocabs** into **5f3f057a298f8b05547e95c135bd7afa3142311f on collectionspace:master**.
"
22;collectionspace/cspace-ui.js;84;2018-01-11T08:51:08Z;2018-01-11T09:00:03Z;2018-01-11T09:00:03Z;ray-lee/cspace-ui.js;collectionspace/cspace-ui.js;ray-lee;1;coveralls;"
[![Coverage Status](https://coveralls.io/builds/14999236/badge)](https://coveralls.io/builds/14999236)

Changes Unknown when pulling **15f7ea974e2f4a99eec68f0946bd7fb396249a68 on ray-lee:editusers** into ** on collectionspace:master**.
"
23;collectionspace/cspace-ui.js;83;2018-01-10T01:05:07Z;2018-01-10T01:15:11Z;2018-01-10T01:15:11Z;ray-lee/cspace-ui.js;collectionspace/cspace-ui.js;ray-lee;1;coveralls;"
[![Coverage Status](https://coveralls.io/builds/14976944/badge)](https://coveralls.io/builds/14976944)

Coverage remained the same at 100.0% when pulling **fd15aa304afd77bc135e29c089ea6baaecaeb1fd on ray-lee:advsearchrepeat** into **942613871167e6a0d234b800c739cfc232941f93 on collectionspace:master**.
"
24;collectionspace/cspace-ui.js;82;2018-01-06T00:56:23Z;2018-01-06T01:06:36Z;2018-01-06T01:06:36Z;ray-lee/cspace-ui.js;collectionspace/cspace-ui.js;ray-lee;1;coveralls;"
[![Coverage Status](https://coveralls.io/builds/14926589/badge)](https://coveralls.io/builds/14926589)

Changes Unknown when pulling **98603cf1a5222ef21a7f5816484a435c6cface61 on ray-lee:loginexpire** into ** on collectionspace:master**.
"
25;collectionspace/cspace-ui.js;81;2018-01-02T03:36:46Z;2018-01-02T04:39:50Z;2018-01-02T04:39:50Z;ray-lee/cspace-ui.js;collectionspace/cspace-ui.js;ray-lee;1;coveralls;"
[![Coverage Status](https://coveralls.io/builds/14861472/badge)](https://coveralls.io/builds/14861472)

Coverage remained the same at 100.0% when pulling **a180b810c698fa920c43b47d1d1a24d41445d1e2 on ray-lee:authpopup** into **bf17dffeabe3b7de621ad163df41c571d524a133 on collectionspace:master**.
"
26;collectionspace/cspace-ui.js;80;2017-12-16T02:50:26Z;2017-12-16T02:59:02Z;2017-12-16T02:59:02Z;ray-lee/cspace-ui.js;collectionspace/cspace-ui.js;ray-lee;1;coveralls;"
[![Coverage Status](https://coveralls.io/builds/14684688/badge)](https://coveralls.io/builds/14684688)

Coverage remained the same at 100.0% when pulling **37b31ef4e2071be3998b5f9be3f6c56a0aa4da9b on ray-lee:resetpw** into **b127cd0297b8fe8960e461ece0cb452e831c0951 on collectionspace:master**.
"
27;collectionspace/cspace-ui.js;79;2017-12-05T09:50:48Z;2017-12-10T09:27:30Z;2017-12-10T09:27:30Z;ray-lee/cspace-ui.js;collectionspace/cspace-ui.js;ray-lee;3;coveralls/coveralls/coveralls;"
[![Coverage Status](https://coveralls.io/builds/14519376/badge)](https://coveralls.io/builds/14519376)

Coverage decreased (-2.4%) to 97.627% when pulling **cc5139c55de14b218704242b85e3fc1cae676472 on ray-lee:editperms** into **02e4c2af9b5cdf2ca43786ac4b6d303c58939925 on collectionspace:master**.
 
[![Coverage Status](https://coveralls.io/builds/14584415/badge)](https://coveralls.io/builds/14584415)

Coverage remained the same at 100.0% when pulling **92ace8f902f7389c972cd23aaa4c952b26489eaa on ray-lee:editperms** into **ba4079b760f194f7f9dcf4608efd0d7f80bbff5d on collectionspace:master**.
 
[![Coverage Status](https://coveralls.io/builds/14584420/badge)](https://coveralls.io/builds/14584420)

Coverage remained the same at 100.0% when pulling **92ace8f902f7389c972cd23aaa4c952b26489eaa on ray-lee:editperms** into **ba4079b760f194f7f9dcf4608efd0d7f80bbff5d on collectionspace:master**.
"
28;collectionspace/cspace-ui.js;78;2017-11-28T21:47:47Z;2017-11-28T21:59:40Z;2017-11-28T21:59:40Z;ray-lee/cspace-ui.js;collectionspace/cspace-ui.js;ray-lee;1;coveralls;"
[![Coverage Status](https://coveralls.io/builds/14409254/badge)](https://coveralls.io/builds/14409254)

Coverage remained the same at 100.0% when pulling **29c12259fc53f9b07c00aa31012885fcc9786be3 on ray-lee:batch** into **a335e46e6bf5f55834f5f94db05a321e00634916 on collectionspace:master**.
"
29;collectionspace/cspace-ui.js;77;2017-11-27T20:49:44Z;2017-11-27T20:57:18Z;2017-11-27T20:57:18Z;ray-lee/cspace-ui.js;collectionspace/cspace-ui.js;ray-lee;1;coveralls;"
[![Coverage Status](https://coveralls.io/builds/14388649/badge)](https://coveralls.io/builds/14388649)

Coverage remained the same at 100.0% when pulling **4b623b19db1281e5847f3beea8b792b147872d73 on ray-lee:report** into **9bc3ef4031a4760f0d1e526444d7a367ddee6b51 on collectionspace:master**.
"
30;collectionspace/cspace-ui.js;76;2017-11-26T02:57:47Z;2017-11-26T03:32:00Z;2017-11-26T03:32:00Z;ray-lee/cspace-ui.js;collectionspace/cspace-ui.js;ray-lee;1;coveralls;"
[![Coverage Status](https://coveralls.io/builds/14366333/badge)](https://coveralls.io/builds/14366333)

Coverage increased (+0.02%) to 100.0% when pulling **bc6fed7b49e614f5c370e599a661e80f396e3a22 on ray-lee:selenium** into **9074045584c357cd69f045f6c6e278b9854d11d5 on collectionspace:master**.
"
31;collectionspace/cspace-ui.js;75;2017-11-08T06:28:39Z;2017-11-08T06:43:31Z;2017-11-08T06:43:31Z;ray-lee/cspace-ui.js;collectionspace/cspace-ui.js;ray-lee;1;coveralls;"
[![Coverage Status](https://coveralls.io/builds/14091749/badge)](https://coveralls.io/builds/14091749)

Coverage increased (+0.0003%) to 99.984% when pulling **db0e92cf657c881d0187289ce4cf253241228090 on ray-lee:perms** into **6fd18118819658b96fc5cc15cdd966c9ef742860 on collectionspace:master**.
"
32;collectionspace/cspace-ui.js;74;2017-11-01T22:28:07Z;2017-11-02T02:01:13Z;2017-11-02T02:01:13Z;ray-lee/cspace-ui.js;collectionspace/cspace-ui.js;ray-lee;1;coveralls;"
[![Coverage Status](https://coveralls.io/builds/13997046/badge)](https://coveralls.io/builds/13997046)

Coverage decreased (-3.0e-06%) to 99.984% when pulling **efba8bbe6c5327d23ce4df87fce736d0be73d5e9 on ray-lee:rename_forms** into **9e3511b4ef79d5f4e935d7d1199fe3137c971f2b on collectionspace:master**.
"
33;collectionspace/cspace-ui.js;73;2017-11-01T00:50:02Z;2017-11-01T02:21:39Z;2017-11-01T02:21:39Z;ray-lee/cspace-ui.js;collectionspace/cspace-ui.js;ray-lee;1;coveralls;"
[![Coverage Status](https://coveralls.io/builds/13980824/badge)](https://coveralls.io/builds/13980824)

Coverage increased (+2.0e-05%) to 99.984% when pulling **b73b7a85f592e221e7740740160ec01be1a02303 on ray-lee:rename_forms** into **23c2bb50bdf607e6a6c61cfd4f045fd051454af4 on collectionspace:master**.
"
34;collectionspace/cspace-ui.js;72;2017-10-31T20:54:31Z;2017-10-31T21:55:58Z;2017-10-31T21:55:58Z;ray-lee/cspace-ui.js;collectionspace/cspace-ui.js;ray-lee;1;coveralls;"
[![Coverage Status](https://coveralls.io/builds/13977877/badge)](https://coveralls.io/builds/13977877)

Changes Unknown when pulling **438b661526a36d4137df9b0b040b5c33a0e7dbcb on ray-lee:docgen** into ** on collectionspace:master**.
"
35;collectionspace/cspace-ui.js;71;2017-10-30T00:43:40Z;2017-10-30T00:52:37Z;2017-10-30T00:52:37Z;ray-lee/cspace-ui.js;collectionspace/cspace-ui.js;ray-lee;1;coveralls;"
[![Coverage Status](https://coveralls.io/builds/13944775/badge)](https://coveralls.io/builds/13944775)

Coverage increased (+0.0003%) to 99.984% when pulling **8367d0f94f245bb5dbc082b2491521583d16c65e on ray-lee:compute2** into **230f72db0c690bd2a7196003b530587bd045b0c9 on collectionspace:master**.
"
36;collectionspace/cspace-ui.js;70;2017-10-14T01:41:27Z;2017-10-14T01:46:28Z;2017-10-14T01:46:28Z;ray-lee/cspace-ui.js;collectionspace/cspace-ui.js;ray-lee;1;coveralls;"
[![Coverage Status](https://coveralls.io/builds/13713955/badge)](https://coveralls.io/builds/13713955)

Coverage increased (+0.1%) to 99.983% when pulling **d784d561576e029f6d1ff48110e380c58e6d750b on ray-lee:restimage** into **5138fc9cd8ed768fc64da19554b8ed1ff5bfb619 on collectionspace:master**.
"
37;collectionspace/cspace-ui.js;69;2017-10-08T19:46:16Z;2017-10-08T20:10:14Z;2017-10-08T20:10:14Z;ray-lee/cspace-ui.js;collectionspace/cspace-ui.js;ray-lee;1;coveralls;"
[![Coverage Status](https://coveralls.io/builds/13623442/badge)](https://coveralls.io/builds/13623442)

Coverage increased (+0.002%) to 99.882% when pulling **617a2d419fe1f2fb8c188993a2127313de6f28ab on ray-lee:locking** into **e79a993b49ba63f04f0661eb6a0171d63fc0dd0a on collectionspace:master**.
"
38;collectionspace/cspace-ui.js;68;2017-09-27T04:15:14Z;2017-09-27T04:25:34Z;2017-09-27T04:25:34Z;ray-lee/cspace-ui.js;collectionspace/cspace-ui.js;ray-lee;1;coveralls;"
[![Coverage Status](https://coveralls.io/builds/13448756/badge)](https://coveralls.io/builds/13448756)

Changes Unknown when pulling **758df04809e71e50acc81ba2bdfcddc680a65d43 on ray-lee:movement** into ** on collectionspace:master**.
"
39;collectionspace/cspace-ui.js;66;2017-09-23T01:29:58Z;2017-09-23T01:35:12Z;2017-09-23T01:35:12Z;ray-lee/cspace-ui.js;collectionspace/cspace-ui.js;ray-lee;1;coveralls;"
[![Coverage Status](https://coveralls.io/builds/13399087/badge)](https://coveralls.io/builds/13399087)

Coverage increased (+0.006%) to 99.878% when pulling **c2f054f6e04d6b1acd7f0a7347bd7f12636bf064 on ray-lee:blob** into **84cd7ea8aba43dd9ac786018597dbb360dada3da on collectionspace:master**.
"
40;collectionspace/cspace-ui.js;65;2017-09-18T22:34:48Z;2017-09-22T19:20:14Z;2017-09-22T19:20:14Z;;collectionspace/cspace-ui.js;remillet;1;coveralls;"
[![Coverage Status](https://coveralls.io/builds/13325985/badge)](https://coveralls.io/builds/13325985)

Coverage increased (+0.0006%) to 99.872% when pulling **2a04e5e82588dc0c5bb7fad067cc15c1117dd576 on remillet:master** into **7f74c03964862ff8dd223113cbc8c095324163b1 on collectionspace:master**.
"
41;collectionspace/cspace-ui.js;64;2017-09-15T20:06:02Z;2017-09-22T19:18:27Z;2017-09-22T19:18:27Z;ynejati/cspace-ui.js;collectionspace/cspace-ui.js;ynejati;1;coveralls;"
[![Coverage Status](https://coveralls.io/builds/13294457/badge)](https://coveralls.io/builds/13294457)

Coverage increased (+0.0002%) to 99.871% when pulling **92e5d1c44f45c0dfdc1ba2f614fd6fabfc3a6734 on ynejati:DRYD-163** into **bd13b3d522da3ac6650233fe1e707cdb8c21e7ab on collectionspace:master**.
"
42;collectionspace/cspace-ui.js;63;2017-09-08T19:36:20Z;2017-09-18T20:29:24Z;2017-09-18T20:29:24Z;;collectionspace/cspace-ui.js;remillet;5;coveralls/ynejati/ynejati/coveralls/coveralls;"
[![Coverage Status](https://coveralls.io/builds/13191755/badge)](https://coveralls.io/builds/13191755)

Coverage decreased (-0.04%) to 99.835% when pulling **82e020297743538ae50184b9abe369068c316cb1 on remillet:master** into **bd13b3d522da3ac6650233fe1e707cdb8c21e7ab on collectionspace:master**.
 The title.spec.js may need two more tests. One to check for when the 'commonName' is missing, 'family' is used, and one that returns an empty string when the common extension is missing. See the objectexit title.spec.js for an example. These should help you understand what is going on.

See this for columns.js: 
https://coveralls.io/builds/13191755/source?filename=src%2Fplugins%2FrecordTypes%2Fpottag%2Fcolumns.js

See this for title.js:
https://coveralls.io/builds/13191755/source?filename=src%2Fplugins%2FrecordTypes%2Fpottag%2Ftitle.js 
[![Coverage Status](https://coveralls.io/builds/13323314/badge)](https://coveralls.io/builds/13323314)

Coverage decreased (-0.02%) to 99.854% when pulling **55f2705eb3841c39e16dec75fc8a16554d98893c on remillet:master** into **bd13b3d522da3ac6650233fe1e707cdb8c21e7ab on collectionspace:master**.
 
[![Coverage Status](https://coveralls.io/builds/13323698/badge)](https://coveralls.io/builds/13323698)

Coverage increased (+0.0006%) to 99.872% when pulling **7169e95b2b5d15bd0a739dadf701b69bb971acfe on remillet:master** into **bd13b3d522da3ac6650233fe1e707cdb8c21e7ab on collectionspace:master**.
"
43;collectionspace/cspace-ui.js;62;2017-08-23T06:55:32Z;2017-08-23T07:06:38Z;2017-08-23T07:06:38Z;ray-lee/cspace-ui.js;collectionspace/cspace-ui.js;ray-lee;1;coveralls;"
[![Coverage Status](https://coveralls.io/builds/12950465/badge)](https://coveralls.io/builds/12950465)

Coverage remained the same at 99.87% when pulling **1f9119e271b8718a19639c0c38d72deb799555fc on ray-lee:fixOptionLists** into **70927e545bab6e60fb74346f566db36520d5a56f on collectionspace:master**.
"
44;collectionspace/cspace-ui.js;61;2017-08-22T19:28:06Z;2017-09-03T00:35:30Z;2017-09-03T00:35:30Z;ynejati/cspace-ui.js;collectionspace/cspace-ui.js;ynejati;14;coveralls/coveralls/ynejati/coveralls/ray-lee/ynejati/ray-lee/ynejati/coveralls/coveralls/ynejati/coveralls/coveralls/ray-lee;"
[![Coverage Status](https://coveralls.io/builds/12944038/badge)](https://coveralls.io/builds/12944038)

Coverage increased (+0.0005%) to 99.87% when pulling **01a65322bd8fc028c91ba75e286aeb05b7b0ce82 on ynejati:DRYD-54_dockbuttonbar-2** into **70927e545bab6e60fb74346f566db36520d5a56f on collectionspace:master**.
 
[![Coverage Status](https://coveralls.io/builds/12944232/badge)](https://coveralls.io/builds/12944232)

Coverage increased (+0.0005%) to 99.87% when pulling **48d794691baad30c4a9f93d1de4ae1473fac6815 on ynejati:DRYD-54_dockbuttonbar-2** into **70927e545bab6e60fb74346f566db36520d5a56f on collectionspace:master**.
 There are two things that I'm not sure I'm happy with. First, the use of media queries to determine the width of the RecordHeader as the viewport resizes. Second, setting the minimum height of the TitleBar so that location of the RecordHeader can be statically set (top: 70;). 

I used the media queries because I could not figure out how to have the header maintain the same width as the RecordEditor on resize. 

I set the min-height of the TitleBar so that the needed position for the header doesn't need to vary between new records and existing records as the content of the TitleBar's height changes.  

Does anyone have any suggestions for improvement on these items? Thoughts? 
[![Coverage Status](https://coveralls.io/builds/12955221/badge)](https://coveralls.io/builds/12955221)

Coverage increased (+0.0005%) to 99.87% when pulling **a9aff007efc40a610c5a8d1d2971eb254ece0a79 on ynejati:DRYD-54_dockbuttonbar-2** into **70927e545bab6e60fb74346f566db36520d5a56f on collectionspace:master**.
 I agree with your reservations. It does mostly work though, and I think it can be refined to be good enough. But let me think about it.  Glad you agree. At the moment I can't think of a better way unless we restructure things a bit. We could just as easily add more media queries to solve the width issue, or just go with 100% width and call it, but that would take up too much space. For the position of one fixed element to the other, I'm not sure if there's any any way to do that dynamically using CSS. Also, I'm making the naive assumption that the title bar will never wrap.    Yousuf, I'm going to send you a pull request with css changes that remove the media queries, and make the docked bar look the way I'd like. It jumps around a bit vertically when it docks, but I didn't try to address that. I'd like it to be smooth.

To deal with the title bar height, let's add a callback prop to TitleBar: onHeightChanged(height). And let's add a prop to RecordHeader: dockTop. Then RecordPage can hook them up. Sounds like a plan. I will get to it.

On Aug 24, 2017 2:35 PM, ""Ray Lee"" <notifications@github.com> wrote:

> Yousuf, I'm going to send you a pull request with css changes that remove
> the media queries, and make the docked bar look the way I'd like. It jumps
> around a bit vertically when it docks, but I didn't try to address that.
> I'd like it to be smooth.
>
> To deal with the title bar height, let's add a callback prop to TitleBar:
> onHeightChanged(height). And let's add a prop to RecordHeader: dockTop.
> Then RecordPage can hook them up.
>
> —
> You are receiving this because you authored the thread.
> Reply to this email directly, view it on GitHub
> <https://github.com/collectionspace/cspace-ui.js/pull/61#issuecomment-324764078>,
> or mute the thread
> <https://github.com/notifications/unsubscribe-auth/AMEHY3wgb61Q2UR_eb7V1-fyXPoTzMPKks5sbeyGgaJpZM4O_E8g>
> .
>
 
[![Coverage Status](https://coveralls.io/builds/12999110/badge)](https://coveralls.io/builds/12999110)

Coverage increased (+0.0006%) to 99.87% when pulling **7f770f881bc9a0c5d9e93cd0aa7c56fcab34f3fb on ynejati:DRYD-54_dockbuttonbar-2** into **70927e545bab6e60fb74346f566db36520d5a56f on collectionspace:master**.
 
[![Coverage Status](https://coveralls.io/builds/13004090/badge)](https://coveralls.io/builds/13004090)

Coverage increased (+0.0009%) to 99.871% when pulling **380336113510b5cf60a856f3477c077b4a37a02a on ynejati:DRYD-54_dockbuttonbar-2** into **70927e545bab6e60fb74346f566db36520d5a56f on collectionspace:master**.
 Ready for review now. The RecordPage now has a state property that is set by the titlebar height change handler which then gets passed down to the RecordHeader as a prop to help determine where it should dock using inline styles. Inline styles are also used to ensure that the editor form doesn't jump upward when the RecordHeader is docked and thus a much smoother experience on scroll. Let me know what you think. By the way, I like the way you faded the right edge of the header into the editor by manipulating the box shadow. You're right, it is much cleaner. 
[![Coverage Status](https://coveralls.io/builds/13025652/badge)](https://coveralls.io/builds/13025652)

Coverage decreased (-0.02%) to 99.852% when pulling **a241f8bb18ea7e4d92f75fefeee7009ad1bbd758 on ynejati:DRYD-54_dockbuttonbar-2** into **70927e545bab6e60fb74346f566db36520d5a56f on collectionspace:master**.
 
[![Coverage Status](https://coveralls.io/builds/13036317/badge)](https://coveralls.io/builds/13036317)

Coverage increased (+0.001%) to 99.871% when pulling **e21d740cdb846bdd0635162adf3ae19ea035b571 on ynejati:DRYD-54_dockbuttonbar-2** into **70927e545bab6e60fb74346f566db36520d5a56f on collectionspace:master**.
 Thanks! People will love this."
45;collectionspace/cspace-ui.js;60;2017-08-20T07:50:02Z;2017-08-20T07:58:49Z;2017-08-20T07:58:49Z;ray-lee/cspace-ui.js;collectionspace/cspace-ui.js;ray-lee;1;coveralls;"
[![Coverage Status](https://coveralls.io/builds/12910390/badge)](https://coveralls.io/builds/12910390)

Coverage increased (+0.004%) to 99.87% when pulling **0c4ab73d14b7831becaac73a0834bc063f0d38b6 on ray-lee:subrecord** into **0cf623b214862b88d708c763e53ea6e1dc161b12 on collectionspace:master**.
"
46;collectionspace/cspace-ui.js;59;2017-08-12T00:02:20Z;2017-08-13T23:20:49Z;2017-08-13T23:20:49Z;ynejati/cspace-ui.js;collectionspace/cspace-ui.js;ynejati;1;coveralls;"
[![Coverage Status](https://coveralls.io/builds/12817209/badge)](https://coveralls.io/builds/12817209)

Coverage increased (+0.0005%) to 99.866% when pulling **00d64d027394dc47c3e0df985a4f74fbd73ce21a on ynejati:DRYD-137_org** into **de6c547832cc840364db658a3b016ae401154a2a on collectionspace:master**.
"
47;collectionspace/cspace-ui.js;58;2017-08-11T15:48:23Z;2017-08-11T22:43:34Z;2017-08-11T22:43:33Z;ynejati/cspace-ui.js;collectionspace/cspace-ui.js;ynejati;1;coveralls;"
[![Coverage Status](https://coveralls.io/builds/12797915/badge)](https://coveralls.io/builds/12797915)

Coverage increased (+0.0005%) to 99.865% when pulling **687dadf1b242d4944dd6b562fac0f8d3033547f7 on ynejati:DRYD-134_concept** into **934cd6c1ff42082aabd4ada90dec9d5ea610346a on collectionspace:master**.
"
48;collectionspace/cspace-ui.js;57;2017-08-11T07:01:36Z;2017-08-11T07:10:36Z;2017-08-11T07:10:36Z;;collectionspace/cspace-ui.js;remillet;1;coveralls;"
[![Coverage Status](https://coveralls.io/builds/12791042/badge)](https://coveralls.io/builds/12791042)

Coverage remained the same at 99.865% when pulling **a768cd8636220b3709df8398666e0cfc0ed0605d on remillet:master** into **2fc2d59715e0cb9fd240ca0f2909203e636635d2 on collectionspace:master**.
"
49;collectionspace/cspace-ui.js;56;2017-08-09T18:03:02Z;2017-08-10T19:56:06Z;2017-08-10T19:56:05Z;ynejati/cspace-ui.js;collectionspace/cspace-ui.js;ynejati;1;coveralls;"
[![Coverage Status](https://coveralls.io/builds/12765588/badge)](https://coveralls.io/builds/12765588)

Coverage increased (+0.0006%) to 99.865% when pulling **1c4e550f3df4f5c80558b508b1d17d2bfe1a238d on ynejati:DRYD-136_citation** into **84735d6b5fe0975398c594e74057a7fa781f4a8e on collectionspace:master**.
"
50;collectionspace/cspace-ui.js;52;2017-08-07T15:20:06Z;2017-08-08T23:37:52Z;2017-08-08T23:37:52Z;ynejati/cspace-ui.js;collectionspace/cspace-ui.js;ynejati;2;coveralls/coveralls;"
[![Coverage Status](https://coveralls.io/builds/12725469/badge)](https://coveralls.io/builds/12725469)

Coverage increased (+0.0006%) to 99.864% when pulling **51cb5e936b98055c30bf44572a363887ecab58d1 on ynejati:DRYD-132_work** into **b9725288d9fbcdfe8d3d95f77fb35048744c15b0 on collectionspace:master**.
 
[![Coverage Status](https://coveralls.io/builds/12734062/badge)](https://coveralls.io/builds/12734062)

Coverage increased (+0.0006%) to 99.864% when pulling **01c09ea812dfa123223ca3969dbf4bcabef94ba7 on ynejati:DRYD-132_work** into **b9725288d9fbcdfe8d3d95f77fb35048744c15b0 on collectionspace:master**.
"
51;collectionspace/cspace-ui.js;51;2017-08-02T04:21:34Z;2017-08-02T04:30:56Z;2017-08-02T04:30:55Z;ray-lee/cspace-ui.js;collectionspace/cspace-ui.js;ray-lee;1;coveralls;"
[![Coverage Status](https://coveralls.io/builds/12652213/badge)](https://coveralls.io/builds/12652213)

Coverage remained the same at 99.863% when pulling **ea6416ca3358e7cf8f1d74f39bf19116abaf966e on ray-lee:master** into **eac0b3ad7f5bf5ed27f311a0f7b95e0c5b6a449f on collectionspace:master**.
"
52;collectionspace/cspace-ui.js;50;2017-07-25T20:33:41Z;2017-07-27T03:05:16Z;2017-07-27T03:05:16Z;ynejati/cspace-ui.js;collectionspace/cspace-ui.js;ynejati;1;coveralls;"
[![Coverage Status](https://coveralls.io/builds/12547668/badge)](https://coveralls.io/builds/12547668)

Changes Unknown when pulling **c96c96ba809b9bb11672f5a93f0e4a4924376634 on ynejati:DRYD-135_placeauth** into ** on collectionspace:master**.
"
53;collectionspace/cspace-ui.js;49;2017-07-25T07:19:09Z;2017-07-25T07:25:59Z;2017-07-25T07:25:59Z;ray-lee/cspace-ui.js;collectionspace/cspace-ui.js;ray-lee;1;coveralls;"
[![Coverage Status](https://coveralls.io/builds/12535224/badge)](https://coveralls.io/builds/12535224)

Coverage increased (+0.0005%) to 99.862% when pulling **c6fd2bf79924d055e013637f78a52d58f740e0a7 on ray-lee:perms** into **92ff89077260584212a3599a6ea8ece69a207964 on collectionspace:master**.
"
54;collectionspace/cspace-ui.js;48;2017-07-24T19:10:44Z;2017-07-25T06:38:59Z;2017-07-25T06:38:59Z;ynejati/cspace-ui.js;collectionspace/cspace-ui.js;ynejati;2;ynejati/coveralls;"Running 'npm update' automatically changed the cspace-*.js package version in the package.json to static versions instead of being dynamically bounded. React-router and react-router-dom minor versions were also updated. 
[![Coverage Status](https://coveralls.io/builds/12527786/badge)](https://coveralls.io/builds/12527786)

Coverage remained the same at 99.862% when pulling **a0c6f65b7c17465efda7845c580b4b5d768533e0 on ynejati:NOJIRA-fix-conditioncheck-and-loans** into **b5424f60a5e5aea295bd0b5eed801e2e55e9f992 on collectionspace:master**.
"
55;collectionspace/cspace-ui.js;47;2017-07-23T07:16:54Z;2017-07-23T09:24:45Z;2017-07-23T09:24:45Z;ray-lee/cspace-ui.js;collectionspace/cspace-ui.js;ray-lee;2;coveralls/coveralls;"
[![Coverage Status](https://coveralls.io/builds/12510535/badge)](https://coveralls.io/builds/12510535)

Coverage remained the same at 99.862% when pulling **f53af26bb9e86853c8d4683a974c749141be040f on ray-lee:webpack_upgrade** into **e2ae7917ac3706415063689c1a7e08eb41789515 on collectionspace:master**.
 
[![Coverage Status](https://coveralls.io/builds/12510992/badge)](https://coveralls.io/builds/12510992)

Coverage remained the same at 99.862% when pulling **5e8bea57c555e19d4f81b376213448c5082ac6f4 on ray-lee:webpack_upgrade** into **e2ae7917ac3706415063689c1a7e08eb41789515 on collectionspace:master**.
"
56;collectionspace/cspace-ui.js;46;2017-07-21T16:46:09Z;2017-07-23T06:03:08Z;2017-07-23T06:03:08Z;ynejati/cspace-ui.js;collectionspace/cspace-ui.js;ynejati;1;coveralls;"
[![Coverage Status](https://coveralls.io/builds/12497023/badge)](https://coveralls.io/builds/12497023)

Coverage increased (+0.0006%) to 99.862% when pulling **7431896308ae88a862f026545ae9725857a52f05 on ynejati:DRYD-142_valuation** into **5ad1c8d7110e6d8c585e01e1f1f6ba6afa60a90f on collectionspace:master**.
"
57;collectionspace/cspace-ui.js;45;2017-07-21T05:27:56Z;2017-07-21T05:34:25Z;2017-07-21T05:34:25Z;ray-lee/cspace-ui.js;collectionspace/cspace-ui.js;ray-lee;1;coveralls;"
[![Coverage Status](https://coveralls.io/builds/12489046/badge)](https://coveralls.io/builds/12489046)

Coverage increased (+0.0007%) to 99.861% when pulling **860608edf461442aa3c1dcbdda7fdc11d5bdc8b9 on ray-lee:validate** into **d21cc6edd1a9114588d78a858be3c81c6596e345 on collectionspace:master**.
"
58;collectionspace/cspace-ui.js;44;2017-07-17T16:24:57Z;2017-07-21T04:09:27Z;2017-07-21T04:09:27Z;ynejati/cspace-ui.js;collectionspace/cspace-ui.js;ynejati;1;coveralls;"
[![Coverage Status](https://coveralls.io/builds/12425488/badge)](https://coveralls.io/builds/12425488)

Coverage increased (+0.0007%) to 99.861% when pulling **1fb22b48c964b6bf33b071934d0618a8dd0fefbd on ynejati:DRYD-138_storagelocation** into **c634230cf2586109853db7553b771608a7ad4aef on collectionspace:master**.
"
59;collectionspace/cspace-ui.js;43;2017-07-13T16:10:37Z;2017-07-16T00:57:11Z;2017-07-16T00:57:11Z;ynejati/cspace-ui.js;collectionspace/cspace-ui.js;ynejati;1;coveralls;"
[![Coverage Status](https://coveralls.io/builds/12381061/badge)](https://coveralls.io/builds/12381061)

Coverage increased (+0.0006%) to 99.86% when pulling **9b06f99a8bdd690b6ebefee54f12a5c776fe8ffd on ynejati:DRYD-140_conditioncheck** into **28f6e1570f501e9c6057046aadcca9ad2d57c313 on collectionspace:master**.
"
60;collectionspace/cspace-ui.js;42;2017-07-12T00:44:33Z;2017-07-12T01:01:17Z;2017-07-12T01:01:17Z;ray-lee/cspace-ui.js;collectionspace/cspace-ui.js;ray-lee;2;coveralls/coveralls;"
[![Coverage Status](https://coveralls.io/builds/12351826/badge)](https://coveralls.io/builds/12351826)

Coverage increased (+0.002%) to 99.859% when pulling **efe500c58389837fb4258531cb4aeb7f38c4d42f on ray-lee:template** into **d213deaa4a62462c44ad9435bc460dd046ef9ac6 on collectionspace:master**.
 
[![Coverage Status](https://coveralls.io/builds/12351972/badge)](https://coveralls.io/builds/12351972)

Coverage increased (+0.002%) to 99.859% when pulling **b59495acdd11ba980088530a7e62977a579c89f7 on ray-lee:template** into **d213deaa4a62462c44ad9435bc460dd046ef9ac6 on collectionspace:master**.
"
61;collectionspace/cspace-ui.js;41;2017-07-11T21:54:30Z;2017-07-12T00:18:41Z;2017-07-12T00:18:41Z;ynejati/cspace-ui.js;collectionspace/cspace-ui.js;ynejati;2;coveralls/ynejati;"
[![Coverage Status](https://coveralls.io/builds/12349995/badge)](https://coveralls.io/builds/12349995)

Coverage increased (+0.0006%) to 99.857% when pulling **217261f601c0b9354c69bee08d955a3653e2935b on ynejati:DRYD-147_intake** into **83df562ca21a009fd83ec5375adec7e208685e57 on collectionspace:master**.
 Ready."
62;collectionspace/cspace-ui.js;40;2017-07-10T02:13:14Z;2017-07-10T02:36:38Z;2017-07-10T02:36:38Z;ray-lee/cspace-ui.js;collectionspace/cspace-ui.js;ray-lee;1;coveralls;"
[![Coverage Status](https://coveralls.io/builds/12316029/badge)](https://coveralls.io/builds/12316029)

Coverage increased (+0.002%) to 99.856% when pulling **38ed759f212a329527f33aecf4de1254e25d4171 on ray-lee:createnew** into **3f5272e6ac6b2871d2f4905dd1572e93a89cfed3 on collectionspace:master**.
"
63;collectionspace/cspace-ui.js;39;2017-07-08T14:33:23Z;2017-07-10T01:01:10Z;2017-07-10T01:01:10Z;ynejati/cspace-ui.js;collectionspace/cspace-ui.js;ynejati;4;coveralls/ynejati/coveralls/ynejati;"
[![Coverage Status](https://coveralls.io/builds/12306988/badge)](https://coveralls.io/builds/12306988)

Coverage decreased (-0.02%) to 99.833% when pulling **d3d62873174e93a9d86d2954e3dd0910715941af on ynejati:DRYD-143_objectexit** into **5a72a69a38963c4a6781567c381de3878b5d5fcc on collectionspace:master**.
 Added another test to column spec for object exit plugin hoping to increase coverage and defeat coveralls ;) 
[![Coverage Status](https://coveralls.io/builds/12307116/badge)](https://coveralls.io/builds/12307116)

Coverage increased (+0.0006%) to 99.854% when pulling **15d10af77bcc59d1d0a2b11667917907d639129d on ynejati:DRYD-143_objectexit** into **5a72a69a38963c4a6781567c381de3878b5d5fcc on collectionspace:master**.
 Great, it passed. I see the first test in column.spec.js wasn't considered to be covering anything. I'll continue to work my way through the record types in order to complete them by early next week. I may even take a crack at Media Handling and Location/Movement records too, but I'll leave them for last."
64;collectionspace/cspace-ui.js;38;2017-07-06T04:39:32Z;2017-07-06T04:49:51Z;2017-07-06T04:49:51Z;ray-lee/cspace-ui.js;collectionspace/cspace-ui.js;ray-lee;1;coveralls;"
[![Coverage Status](https://coveralls.io/builds/12270679/badge)](https://coveralls.io/builds/12270679)

Coverage increased (+0.003%) to 99.853% when pulling **68e7df7cec472ec40a3189fa47415d313d7fa10c on ray-lee:delete** into **b23ba2537201556a92590cdb5bdda68209847b07 on collectionspace:master**.
"
65;collectionspace/cspace-ui.js;37;2017-07-04T14:37:29Z;2017-07-06T04:24:24Z;2017-07-06T04:24:24Z;ynejati/cspace-ui.js;collectionspace/cspace-ui.js;ynejati;2;coveralls/coveralls;"
[![Coverage Status](https://coveralls.io/builds/12247004/badge)](https://coveralls.io/builds/12247004)

Coverage increased (+0.0007%) to 99.85% when pulling **59af27d640d1ecebc6fe8a12ff96ec8099aea93a on ynejati:DRYD-141-conservation-1** into **aee331317165636e5dace5248ec4abeb39582747 on collectionspace:master**.
 
[![Coverage Status](https://coveralls.io/builds/12247626/badge)](https://coveralls.io/builds/12247626)

Coverage increased (+0.0007%) to 99.85% when pulling **0f81e4c0a95072647177e5fe2912bdd276960e8f on ynejati:DRYD-141-conservation-1** into **aee331317165636e5dace5248ec4abeb39582747 on collectionspace:master**.
"
66;collectionspace/cspace-ui.js;36;2017-06-30T07:49:39Z;2017-06-30T08:02:37Z;2017-06-30T08:02:37Z;ray-lee/cspace-ui.js;collectionspace/cspace-ui.js;ray-lee;1;coveralls;"
[![Coverage Status](https://coveralls.io/builds/12201529/badge)](https://coveralls.io/builds/12201529)

Coverage increased (+0.006%) to 99.849% when pulling **4cf69298dee616a5de0bb93f86e1decc5b95be7c on ray-lee:traverser** into **a5e93d62c5d209600af7c32fa92bc4b8a07d3186 on collectionspace:master**.
"
67;collectionspace/cspace-ui.js;34;2017-06-28T14:31:34Z;2017-06-30T07:28:18Z;2017-06-30T07:28:18Z;ynejati/cspace-ui.js;collectionspace/cspace-ui.js;ynejati;7;coveralls/coveralls/coveralls/coveralls/coveralls/coveralls/coveralls;"
[![Coverage Status](https://coveralls.io/builds/12169872/badge)](https://coveralls.io/builds/12169872)

Coverage decreased (-0.02%) to 99.822% when pulling **0acf336cfb3d8de0d89c3b91aa6694761d008a79 on ynejati:DRYD-146_acquisition-2** into **289c4eda059fa2b8bc8ffec700fa7c4b21d7406e on collectionspace:master**.
 
[![Coverage Status](https://coveralls.io/builds/12178356/badge)](https://coveralls.io/builds/12178356)

Coverage decreased (-0.02%) to 99.822% when pulling **d27a8189d8d52a8e07f0323dca5f3cc19d2763fa on ynejati:DRYD-146_acquisition-2** into **289c4eda059fa2b8bc8ffec700fa7c4b21d7406e on collectionspace:master**.
 
[![Coverage Status](https://coveralls.io/builds/12178838/badge)](https://coveralls.io/builds/12178838)

Coverage decreased (-0.02%) to 99.822% when pulling **d897b043ed57e5abe392e099f298e17600e07cc8 on ynejati:DRYD-146_acquisition-2** into **289c4eda059fa2b8bc8ffec700fa7c4b21d7406e on collectionspace:master**.
 
[![Coverage Status](https://coveralls.io/builds/12181980/badge)](https://coveralls.io/builds/12181980)

Coverage decreased (-0.02%) to 99.822% when pulling **6f9cdfc1c799e4ca50909436baf59ea0e0465d17 on ynejati:DRYD-146_acquisition-2** into **289c4eda059fa2b8bc8ffec700fa7c4b21d7406e on collectionspace:master**.
 
[![Coverage Status](https://coveralls.io/builds/12187864/badge)](https://coveralls.io/builds/12187864)

Coverage increased (+0.0007%) to 99.844% when pulling **4a334802a7d5ebb60d9c1aa253291bbf3b92f7ff on ynejati:DRYD-146_acquisition-2** into **289c4eda059fa2b8bc8ffec700fa7c4b21d7406e on collectionspace:master**.
 
[![Coverage Status](https://coveralls.io/builds/12190355/badge)](https://coveralls.io/builds/12190355)

Coverage increased (+0.0007%) to 99.844% when pulling **7bace346d5ea0edfd6b5c54697d3cc5517a349fc on ynejati:DRYD-146_acquisition-2** into **289c4eda059fa2b8bc8ffec700fa7c4b21d7406e on collectionspace:master**.
 
[![Coverage Status](https://coveralls.io/builds/12190411/badge)](https://coveralls.io/builds/12190411)

Coverage increased (+0.0007%) to 99.844% when pulling **7bace346d5ea0edfd6b5c54697d3cc5517a349fc on ynejati:DRYD-146_acquisition-2** into **289c4eda059fa2b8bc8ffec700fa7c4b21d7406e on collectionspace:master**.
"
68;collectionspace/cspace-ui.js;33;2017-06-16T06:42:29Z;2017-06-19T20:11:48Z;2017-06-19T20:11:48Z;ray-lee/cspace-ui.js;collectionspace/cspace-ui.js;ray-lee;3;coveralls/coveralls/coveralls;"
[![Coverage Status](https://:/builds/11999064/badge)](https://:/builds/11999064)

Coverage increased (+0.0002%) to 99.84% when pulling **f138653b0c9ebe3831aad24043dbafc23eba3520 on ray-lee:updaterouter** into **2c9bb156f3cf9db56f95c7c4fc3da5be14599f83 on collectionspace:master**.
 
[![Coverage Status](https://:/builds/11999140/badge)](https://:/builds/11999140)

Coverage increased (+0.0002%) to 99.84% when pulling **f138653b0c9ebe3831aad24043dbafc23eba3520 on ray-lee:updaterouter** into **2c9bb156f3cf9db56f95c7c4fc3da5be14599f83 on collectionspace:master**.
 
[![Coverage Status](https://:/builds/12037417/badge)](https://:/builds/12037417)

Coverage increased (+0.003%) to 99.843% when pulling **4cd852f6a036447b9d401d3c3b4c2f10d5183518 on ray-lee:updaterouter** into **2c9bb156f3cf9db56f95c7c4fc3da5be14599f83 on collectionspace:master**.
"
69;collectionspace/cspace-ui.js;32;2017-06-14T01:46:21Z;2017-06-14T04:27:20Z;2017-06-14T04:27:20Z;ray-lee/cspace-ui.js;collectionspace/cspace-ui.js;ray-lee;1;coveralls;"
[![Coverage Status](https://:/builds/11960101/badge)](https://:/builds/11960101)

Coverage increased (+0.007%) to 99.84% when pulling **785acac8e395206b0c5ec2fe4a22d2dc09ccea23 on ray-lee:validation** into **44be8f19681651b6243b710610c772f67500a762 on collectionspace:master**.
"
70;collectionspace/cspace-ui.js;31;2017-06-13T21:32:55Z;2017-06-14T01:02:39Z;2017-06-14T01:02:39Z;ynejati/cspace-ui.js;collectionspace/cspace-ui.js;ynejati;1;coveralls;"
[![Coverage Status](https://:/builds/11957164/badge)](https://:/builds/11957164)

Coverage increased (+0.0008%) to 99.833% when pulling **0ab0dc9a29374cbea0fdc676c57f52398c21a7d2 on ynejati:DRYD-148_exhibition-2** into **a66add95c26c6028c9d597d6d165019adc4348fc on collectionspace:master**.
"
71;collectionspace/cspace-ui.js;30;2017-06-07T20:00:48Z;2017-06-09T18:39:48Z;2017-06-09T18:39:48Z;ynejati/cspace-ui.js;collectionspace/cspace-ui.js;ynejati;1;coveralls;"
[![Coverage Status](https://coveralls.io/builds/11874679/badge)](https://coveralls.io/builds/11874679)

Coverage increased (+0.0008%) to 99.832% when pulling **d1efa0c0eb7289faa457a106a29066799d9e4322 on ynejati:DRYD-139_loanin-2** into **344bbf00093c64f4f4b5056cff39b06ef4d40551 on collectionspace:master**.
"
72;collectionspace/cspace-ui.js;29;2017-06-05T06:43:47Z;2017-06-05T06:49:56Z;2017-06-05T06:49:56Z;ray-lee/cspace-ui.js;collectionspace/cspace-ui.js;ray-lee;1;coveralls;"
[![Coverage Status](https://coveralls.io/builds/11826454/badge)](https://coveralls.io/builds/11826454)

Coverage increased (+0.003%) to 99.831% when pulling **9f1022d9fda5e7432e95b54632f03daccddc3c46 on ray-lee:notification** into **92fff92f4c4426a40a90ff8b7686fc7ba231a324 on collectionspace:master**.
"
73;collectionspace/cspace-ui.js;28;2017-06-03T01:52:44Z;2017-06-03T04:41:51Z;2017-06-03T04:41:51Z;ynejati/cspace-ui.js;collectionspace/cspace-ui.js;ynejati;1;coveralls;"
[![Coverage Status](https://coveralls.io/builds/11812731/badge)](https://coveralls.io/builds/11812731)

Coverage increased (+0.0009%) to 99.828% when pulling **981c30b25c8c892360036bd6a140deffccb7f4ab on ynejati:DRYD-144_loanout** into **8b54ee56e6dfeed3ffd1e5103a18ea0f48ebe642 on collectionspace:master**.
"
74;collectionspace/cspace-ui.js;26;2017-05-05T20:58:48Z;2017-05-08T19:10:33Z;2017-05-08T19:10:33Z;ray-lee/cspace-ui.js;collectionspace/cspace-ui.js;ray-lee;2;coveralls/coveralls;"
[![Coverage Status](https://coveralls.io/builds/11396649/badge)](https://coveralls.io/builds/11396649)

Coverage increased (+0.009%) to 99.774% when pulling **cf6f0ea69b47be5cac5cb899283e2f6f66d1a0f2 on ray-lee:hierarchy** into **3775e6cb80ff14f0e767d53ca00202017ba1b62a on collectionspace:master**.
 
[![Coverage Status](https://coveralls.io/builds/11412556/badge)](https://coveralls.io/builds/11412556)

Coverage increased (+0.01%) to 99.776% when pulling **310bda3b853cd43945c37a201fe2206d873974d5 on ray-lee:hierarchy** into **3775e6cb80ff14f0e767d53ca00202017ba1b62a on collectionspace:master**.
"
75;collectionspace/cspace-ui.js;25;2017-04-29T08:11:36Z;2017-04-29T08:25:20Z;2017-04-29T08:25:20Z;ray-lee/cspace-ui.js;collectionspace/cspace-ui.js;ray-lee;1;coveralls;"
[![Coverage Status](https://coveralls.io/builds/11301635/badge)](https://coveralls.io/builds/11301635)

Coverage increased (+1.6%) to 99.764% when pulling **516bc3f98a3ea35cf99c98e4faf287f2bfa06d11 on ray-lee:relatefromsearch** into **6b6f5fbec5348495e8e1830ef815637777cc68d9 on collectionspace:master**.
"
76;collectionspace/cspace-ui.js;24;2017-04-21T23:00:54Z;2017-04-21T23:40:34Z;2017-04-21T23:40:34Z;ray-lee/cspace-ui.js;collectionspace/cspace-ui.js;ray-lee;1;coveralls;"
[![Coverage Status](https://coveralls.io/builds/11191161/badge)](https://coveralls.io/builds/11191161)

Coverage increased (+0.02%) to 98.157% when pulling **5e01d9407dfc882a4bc4f3918866a0454455838c on ray-lee:recordtabs** into **bfc6fb1517f4d284595ec309b2bdd54d5053734c on collectionspace:master**.
"
77;collectionspace/cspace-ui.js;23;2017-04-21T08:01:43Z;2017-04-21T08:08:03Z;2017-04-21T08:08:03Z;ray-lee/cspace-ui.js;collectionspace/cspace-ui.js;ray-lee;1;coveralls;"
[![Coverage Status](https://coveralls.io/builds/11178098/badge)](https://coveralls.io/builds/11178098)

Coverage increased (+0.8%) to 98.139% when pulling **dca9a2d72dd95d3229bcef6d949927aa69cc26fe on ray-lee:recordtabs** into **b7eb843ccfbaaa478ff626234a613ed83b1521b7 on collectionspace:master**.
"
78;collectionspace/cspace-ui.js;22;2017-04-17T20:02:12Z;2017-04-17T21:16:39Z;2017-04-17T21:16:39Z;ray-lee/cspace-ui.js;collectionspace/cspace-ui.js;ray-lee;2;coveralls/coveralls;"
[![Coverage Status](https://coveralls.io/builds/11115315/badge)](https://coveralls.io/builds/11115315)

Coverage increased (+0.6%) to 97.378% when pulling **29bdca895c01dba61cf79bc37dff2a03c9d12894 on ray-lee:recordtabs** into **a309255ddc7ea6b493fa1fbf97b2fcdf2cd2dfcb on collectionspace:master**.
 
[![Coverage Status](https://coveralls.io/builds/11116408/badge)](https://coveralls.io/builds/11116408)

Coverage increased (+0.6%) to 97.378% when pulling **7d595566d25a8365a6a7b74bcf0368ebd02d9b2c on ray-lee:recordtabs** into **a309255ddc7ea6b493fa1fbf97b2fcdf2cd2dfcb on collectionspace:master**.
"
79;collectionspace/cspace-ui.js;21;2017-03-23T08:10:34Z;2017-04-07T08:19:55Z;2017-04-07T08:19:55Z;ray-lee/cspace-ui.js;collectionspace/cspace-ui.js;ray-lee;4;coveralls/coveralls/coveralls/coveralls;"
[![Coverage Status](https://coveralls.io/builds/10732818/badge)](https://coveralls.io/builds/10732818)

Coverage decreased (-3.2%) to 96.529% when pulling **c1ccdc5cb1eb95ba9e3acbad5e8361f108378f2a on ray-lee:recordtabs** into **2294ff3d8570f17cda6ecfa38eb861991eb7d5ba on collectionspace:master**.
 
[![Coverage Status](https://coveralls.io/builds/10752495/badge)](https://coveralls.io/builds/10752495)

Coverage increased (+0.02%) to 99.713% when pulling **8dba36737475896b0e265085510de2d1d4e902cb on ray-lee:recordtabs** into **2294ff3d8570f17cda6ecfa38eb861991eb7d5ba on collectionspace:master**.
 
[![Coverage Status](https://coveralls.io/builds/10934105/badge)](https://coveralls.io/builds/10934105)

Coverage decreased (-5.004%) to 94.694% when pulling **b550b4d57032cc5aa2b9a5f9496aa8b821ff5375 on ray-lee:recordtabs** into **2294ff3d8570f17cda6ecfa38eb861991eb7d5ba on collectionspace:master**.
 
[![Coverage Status](https://coveralls.io/builds/10977184/badge)](https://coveralls.io/builds/10977184)

Coverage decreased (-3.0%) to 96.745% when pulling **f048d955272a8c1709066a9ab17549c97f6552f8 on ray-lee:recordtabs** into **2294ff3d8570f17cda6ecfa38eb861991eb7d5ba on collectionspace:master**.
"
80;collectionspace/cspace-ui.js;20;2017-03-17T01:15:39Z;2017-03-17T03:28:27Z;2017-03-17T03:28:27Z;ray-lee/cspace-ui.js;collectionspace/cspace-ui.js;ray-lee;1;coveralls;"
[![Coverage Status](https://coveralls.io/builds/10638517/badge)](https://coveralls.io/builds/10638517)

Coverage increased (+0.01%) to 99.698% when pulling **e71e64b304a128e75f76d245914d71cd91c5777e on ray-lee:recordtabs** into **4a315faa4642a1c5263b23754cd18c1bf5f2d3b3 on collectionspace:master**.
"
81;collectionspace/cspace-ui.js;19;2017-03-14T04:42:06Z;2017-03-14T04:56:42Z;2017-03-14T04:56:42Z;ray-lee/cspace-ui.js;collectionspace/cspace-ui.js;ray-lee;1;coveralls;"
[![Coverage Status](https://coveralls.io/builds/10577861/badge)](https://coveralls.io/builds/10577861)

Changes Unknown when pulling **e1fa4c4c11a663cbae466e595b03dd82f4e87a9c on ray-lee:advsearch** into ** on collectionspace:master**.
"
82;collectionspace/cspace-ui.js;18;2017-03-11T01:32:17Z;2017-03-11T01:44:28Z;2017-03-11T01:44:28Z;ray-lee/cspace-ui.js;collectionspace/cspace-ui.js;ray-lee;1;coveralls;"
[![Coverage Status](https://coveralls.io/builds/10542131/badge)](https://coveralls.io/builds/10542131)

Coverage increased (+2.3%) to 99.65% when pulling **5eac2e15782859d47d6ee3e1c7e544d8d20851de on ray-lee:advsearch** into **82d7ba88fbd17b6752f921759a44cf42a1c784aa on collectionspace:master**.
"
83;collectionspace/cspace-ui.js;17;2017-03-07T01:48:09Z;2017-03-07T19:46:07Z;2017-03-07T19:46:07Z;ray-lee/cspace-ui.js;collectionspace/cspace-ui.js;ray-lee;1;coveralls;"
[![Coverage Status](https://coveralls.io/builds/10463786/badge)](https://coveralls.io/builds/10463786)

Changes Unknown when pulling **63e3c335a6b6e2cc0716663d30064ea35840a874 on ray-lee:refactormessages** into ** on collectionspace:master**.
"
84;collectionspace/cspace-ui.js;16;2017-03-02T08:08:41Z;2017-03-02T08:52:39Z;2017-03-02T08:52:39Z;ray-lee/cspace-ui.js;collectionspace/cspace-ui.js;ray-lee;1;coveralls;"
[![Coverage Status](https://coveralls.io/builds/10393386/badge)](https://coveralls.io/builds/10393386)

Coverage decreased (-2.3%) to 97.388% when pulling **fe6210edcc185c39a96add98fed0b6bd60ecc8e8 on ray-lee:advsearch** into **1b62f6bff12a037fe7a5eb2c09f9c4bff55a5623 on collectionspace:master**.
"
85;collectionspace/cspace-ui.js;15;2017-02-27T00:08:55Z;2017-02-27T00:45:59Z;2017-02-27T00:45:59Z;ray-lee/cspace-ui.js;collectionspace/cspace-ui.js;ray-lee;1;coveralls;"
[![Coverage Status](https://coveralls.io/builds/10338787/badge)](https://coveralls.io/builds/10338787)

Coverage increased (+0.03%) to 99.642% when pulling **d81421ffaea418b9a7a8bcbd622639335f3052ac on ray-lee:advsearch** into **83232af4b41910ac63d0307d19fd58ace70b9218 on collectionspace:master**.
"
86;collectionspace/cspace-ui.js;14;2017-02-11T01:42:40Z;2017-02-11T03:17:58Z;2017-02-11T03:17:58Z;ray-lee/cspace-ui.js;collectionspace/cspace-ui.js;ray-lee;2;coveralls/coveralls;"
[![Coverage Status](https://coveralls.io/builds/10104261/badge)](https://coveralls.io/builds/10104261)

Coverage increased (+0.003%) to 99.595% when pulling **38a89fc8dc277336d3ab52fc18eb46d86ff26f48 on ray-lee:saveindicator** into **75312804d43e0e67f4ab5fd44074eaf97c8172ed on collectionspace:master**.
 
[![Coverage Status](https://coveralls.io/builds/10104759/badge)](https://coveralls.io/builds/10104759)

Coverage increased (+0.004%) to 99.596% when pulling **013d299788a10f4c2ee1036a32f3e28aa79da49d on ray-lee:saveindicator** into **75312804d43e0e67f4ab5fd44074eaf97c8172ed on collectionspace:master**.
"
87;collectionspace/cspace-ui.js;13;2017-02-09T09:32:42Z;2017-02-10T01:39:31Z;2017-02-10T01:39:31Z;ray-lee/cspace-ui.js;collectionspace/cspace-ui.js;ray-lee;2;coveralls/coveralls;"
[![Coverage Status](https://coveralls.io/builds/10082081/badge)](https://coveralls.io/builds/10082081)

Coverage increased (+0.009%) to 99.592% when pulling **376a40a2353951e93883b2382076bbd077489f6c on ray-lee:refactor** into **94889dcfc4f77d4eb846044a010df613c591ea2b on collectionspace:master**.
 
[![Coverage Status](https://coveralls.io/builds/10086375/badge)](https://coveralls.io/builds/10086375)

Coverage increased (+0.009%) to 99.591% when pulling **018e00754ae25779612bcd27b71b0b3e9db9cbea on ray-lee:refactor** into **94889dcfc4f77d4eb846044a010df613c591ea2b on collectionspace:master**.
"
88;collectionspace/cspace-ui.js;12;2017-02-01T06:58:02Z;2017-02-01T09:06:03Z;2017-02-01T09:06:03Z;ray-lee/cspace-ui.js;collectionspace/cspace-ui.js;ray-lee;4;coveralls/coveralls/coveralls/coveralls;"
[![Coverage Status](https://coveralls.io/builds/9937713/badge)](https://coveralls.io/builds/9937713)

Coverage increased (+0.007%) to 99.858% when pulling **d2e75b8e3c562b733e7f2f6c140d88b8e618ec13 on ray-lee:sidebar** into **ad98bd7565d811924268af6835d98eb5cd933951 on collectionspace:master**.
 
[![Coverage Status](https://coveralls.io/builds/9938316/badge)](https://coveralls.io/builds/9938316)

Coverage increased (+0.007%) to 99.858% when pulling **220972c8b3f6ac974e8fd15080c187aa80af953b on ray-lee:sidebar** into **ad98bd7565d811924268af6835d98eb5cd933951 on collectionspace:master**.
 
[![Coverage Status](https://coveralls.io/builds/9938615/badge)](https://coveralls.io/builds/9938615)

Coverage increased (+0.007%) to 99.858% when pulling **5123ce76acc984e9c246fc1e98a96f27ddf4f2d1 on ray-lee:sidebar** into **ad98bd7565d811924268af6835d98eb5cd933951 on collectionspace:master**.
 
[![Coverage Status](https://coveralls.io/builds/9938692/badge)](https://coveralls.io/builds/9938692)

Coverage increased (+0.007%) to 99.858% when pulling **4e2caeb6f5638e8f83926d6c2a35bf944c060abc on ray-lee:sidebar** into **ad98bd7565d811924268af6835d98eb5cd933951 on collectionspace:master**.
"
89;collectionspace/cspace-ui.js;11;2017-01-26T21:20:18Z;2017-01-30T08:18:05Z;2017-01-30T08:18:05Z;ray-lee/cspace-ui.js;collectionspace/cspace-ui.js;ray-lee;4;coveralls/coveralls/coveralls/coveralls;"
[![Coverage Status](https://coveralls.io/builds/9863808/badge)](https://coveralls.io/builds/9863808)

Coverage increased (+0.07%) to 99.837% when pulling **bd3521aa5ec968d9868aab2e85b48beb259fd7c1 on ray-lee:sidebar** into **cbcd83944030250fa7032189cd43f194a075c182 on collectionspace:master**.
 
[![Coverage Status](https://coveralls.io/builds/9882118/badge)](https://coveralls.io/builds/9882118)

Coverage increased (+0.07%) to 99.843% when pulling **96c0a86d34390d1e7a53d007fa75383e457fe597 on ray-lee:sidebar** into **cbcd83944030250fa7032189cd43f194a075c182 on collectionspace:master**.
 
[![Coverage Status](https://coveralls.io/builds/9899926/badge)](https://coveralls.io/builds/9899926)

Coverage increased (+0.08%) to 99.851% when pulling **b0a49a20e5392445444414771a0c56e2d2217054 on ray-lee:sidebar** into **cbcd83944030250fa7032189cd43f194a075c182 on collectionspace:master**.
 
[![Coverage Status](https://coveralls.io/builds/9900047/badge)](https://coveralls.io/builds/9900047)

Coverage increased (+0.08%) to 99.851% when pulling **716122f4b1171845734166858186ac9ecff3b3ee on ray-lee:sidebar** into **cbcd83944030250fa7032189cd43f194a075c182 on collectionspace:master**.
"
90;collectionspace/cspace-ui.js;10;2017-01-22T02:01:22Z;2017-01-25T07:59:38Z;2017-01-25T07:59:38Z;ray-lee/cspace-ui.js;collectionspace/cspace-ui.js;ray-lee;2;coveralls/coveralls;"
[![Coverage Status](https://coveralls.io/builds/9784518/badge)](https://coveralls.io/builds/9784518)

Coverage increased (+0.3%) to 99.626% when pulling **b98b56e2ad1de68d3a86dbecd796d95cb070b101 on ray-lee:sidebar** into **4bb62eb1375a322d0abdbbbdefb7a0d3876128f0 on collectionspace:master**.
 
[![Coverage Status](https://coveralls.io/builds/9830776/badge)](https://coveralls.io/builds/9830776)

Coverage increased (+0.5%) to 99.828% when pulling **c3fe7687271594a93f0783d489030a0a2d228cfa on ray-lee:sidebar** into **4bb62eb1375a322d0abdbbbdefb7a0d3876128f0 on collectionspace:master**.
"
91;collectionspace/cspace-ui.js;9;2017-01-17T02:48:18Z;2017-01-17T03:13:40Z;2017-01-17T03:13:40Z;ray-lee/cspace-ui.js;collectionspace/cspace-ui.js;ray-lee;1;coveralls;"
[![Coverage Status](https://coveralls.io/builds/9698726/badge)](https://coveralls.io/builds/9698726)

Coverage increased (+0.002%) to 99.858% when pulling **c4ae548e327747085371ca49d41b8a58c56b8577 on ray-lee:refactor** into **baf705aa90a3d490e55ae9835cebe13ff3e24fe3 on collectionspace:master**.
"
92;collectionspace/cspace-ui.js;8;2017-01-08T04:06:56Z;2017-01-11T03:02:01Z;2017-01-11T03:02:01Z;ray-lee/cspace-ui.js;collectionspace/cspace-ui.js;ray-lee;4;coveralls/coveralls/coveralls/coveralls;"
[![Coverage Status](https://coveralls.io/builds/9569515/badge)](https://coveralls.io/builds/9569515)

Coverage increased (+0.05%) to 99.844% when pulling **c4adf7a4d9ea86d252f54ea46603ab050fc067d9 on ray-lee:search** into **e11ce7bc6a310522edfcc9a58a2207c974cd552b on collectionspace:master**.
 
[![Coverage Status](https://coveralls.io/builds/9597890/badge)](https://coveralls.io/builds/9597890)

Coverage increased (+0.06%) to 99.854% when pulling **66522c333f9e7b84e029657979073976e308f93b on ray-lee:search** into **e11ce7bc6a310522edfcc9a58a2207c974cd552b on collectionspace:master**.
 
[![Coverage Status](https://coveralls.io/builds/9613648/badge)](https://coveralls.io/builds/9613648)

Coverage increased (+0.06%) to 99.856% when pulling **f10ce5e70b922342edccf076f81913904a19814f on ray-lee:search** into **e11ce7bc6a310522edfcc9a58a2207c974cd552b on collectionspace:master**.
 
[![Coverage Status](https://coveralls.io/builds/9614045/badge)](https://coveralls.io/builds/9614045)

Coverage increased (+0.06%) to 99.856% when pulling **4aa433d86c9671fc09480e385cf9a71bdcb9d284 on ray-lee:search** into **e11ce7bc6a310522edfcc9a58a2207c974cd552b on collectionspace:master**.
"
93;collectionspace/cspace-ui.js;7;2016-12-21T09:09:44Z;2016-12-21T09:19:44Z;2016-12-21T09:19:44Z;ray-lee/cspace-ui.js;collectionspace/cspace-ui.js;ray-lee;1;coveralls;"
[![Coverage Status](https://coveralls.io/builds/9374304/badge)](https://coveralls.io/builds/9374304)

Coverage increased (+0.009%) to 99.791% when pulling **358fe1982682f6fe5a0391fc6a4864a8467d0531 on ray-lee:search** into **afb1616df04cd06e41fdccef0255977daca193ee on collectionspace:master**.
"
94;collectionspace/cspace-ui.js;6;2016-12-17T03:13:21Z;2016-12-17T03:17:28Z;2016-12-17T03:17:28Z;ray-lee/cspace-ui.js;collectionspace/cspace-ui.js;ray-lee;1;coveralls;"
[![Coverage Status](https://coveralls.io/builds/9323900/badge)](https://coveralls.io/builds/9323900)

Coverage increased (+1.2%) to 99.782% when pulling **a903396c1fbd09f112f9a949e7928731d842f3ee on ray-lee:idgenerator** into **55694ad953d8b58b5692a1d0ce90a3c80763027f on collectionspace:master**.
"
95;collectionspace/cspace-ui.js;5;2016-12-11T02:52:58Z;2016-12-11T03:04:05Z;2016-12-11T03:04:05Z;ray-lee/cspace-ui.js;collectionspace/cspace-ui.js;ray-lee;1;coveralls;"
[![Coverage Status](https://coveralls.io/builds/9224718/badge)](https://coveralls.io/builds/9224718)

Coverage increased (+0.02%) to 98.58% when pulling **85e843eb1e6c874efc5d0794bd90e144ffd363b9 on ray-lee:caldate** into **3f116e7e1ddc0661c3c64c81f49acfe12058defa on collectionspace:master**.
"
96;collectionspace/cspace-ui.js;4;2016-12-02T01:35:43Z;2016-12-02T02:42:29Z;2016-12-02T02:42:29Z;ray-lee/cspace-ui.js;collectionspace/cspace-ui.js;ray-lee;1;coveralls;"
[![Coverage Status](https://coveralls.io/builds/9093784/badge)](https://coveralls.io/builds/9093784)

Coverage increased (+0.1%) to 92.25% when pulling **bf8ac3cf1dc1aeaa199161543f951550c4e3d9bf on ray-lee:group** into **43338dcaa25bfe80508cf39deab3830825572839 on collectionspace:master**.
"
97;collectionspace/cspace-ui.js;3;2016-11-29T08:03:38Z;2016-11-29T08:20:59Z;2016-11-29T08:20:59Z;ray-lee/cspace-ui.js;collectionspace/cspace-ui.js;ray-lee;1;coveralls;"
[![Coverage Status](https://coveralls.io/builds/9038208/badge)](https://coveralls.io/builds/9038208)

Coverage decreased (-7.5%) to 92.097% when pulling **402e3a200bdda3ddb33a9c46071c451e5088be9a on ray-lee:autocomplete** into **b90b2cba85c8b72d372609e30c04b796dc73f221 on collectionspace:master**.
"
