No;mainline_repo;pr_no;created_at;closed_at;merged_at;repo_origin;repo_destin;pr_owner;no_commenters;pr_commenters;pr_comments
1;courajs/node-svn;4;2016-05-17T00:00:19Z;2016-05-17T12:39:03Z;2016-05-17T12:39:03Z;CrashCodes/node-svn;courajs/node-svn;CrashCodes;3;courajs/CrashCodes/courajs;"Thanks for the PR! I'll merge and release if you update the error messages.
Also, it looks like your editor changed a lot of tabs to spaces. If you could try to prevent that in the future, it will make your PRs easier to review
 Good suggestions on the error messages. 
Sorry about the whitespace. 
btw, this is my first PR.
 Awesome, thanks for opening it! Welcome!
This was my first npm module, and first bit of open source too 😄
"
2;courajs/node-svn;2;2014-01-27T17:33:27Z;2014-01-27T18:31:03Z;2014-01-27T18:31:03Z;GDKsoftware/node-svn;courajs/node-svn;partouf;1;courajs;"Cool man thanks
"
