No;mainline_repo;pr_no;created_at;closed_at;merged_at;repo_origin;repo_destin;pr_owner;no_commenters;pr_commenters;pr_comments
14;dial-once/node-cache-manager-redis;17;2015-11-15T22:53:20Z;2015-11-15T23:16:02Z;2015-11-15T23:16:02Z;;dial-once/node-cache-manager-redis;cludden;1;jkernech;"@cludden Indeed, the exposition of the raw `pool` object should not cause any problems.
Your PR fixes #16 ! Thanks for your reactivity, it's awesome :)
"
15;dial-once/node-cache-manager-redis;10;2015-11-11T17:13:20Z;2015-11-12T13:32:47Z;2015-11-12T13:32:47Z;;dial-once/node-cache-manager-redis;mariosvlad;1;jkernech;"Thanks @mariostesla. I'll check this out soon !
"
16;dial-once/node-cache-manager-redis;1;2015-05-29T23:59:11Z;2015-05-30T00:12:40Z;2015-05-30T00:12:40Z;;dial-once/node-cache-manager-redis;amit777;1;jkernech;"Thanks for your contribution @amit777  !
"
