No;mainline_repo;pr_no;created_at;closed_at;merged_at;repo_origin;repo_destin;pr_owner;no_commenters;pr_commenters;pr_comments
8;SBoudrias/gulp-istanbul;62;2015-06-11T18:48:06Z;2015-06-11T22:43:47Z;2015-06-11T22:43:47Z;tteltrab/gulp-istanbul;SBoudrias/gulp-istanbul;tteltrab;1;SBoudrias;"Thanks!
"
9;SBoudrias/gulp-istanbul;61;2015-05-23T03:20:39Z;2015-06-07T00:09:52Z;2015-06-07T00:09:52Z;pablolmiranda/gulp-istanbul;SBoudrias/gulp-istanbul;pablolmiranda;2;SBoudrias/SBoudrias;"Hey, sorry this is taking a while, I'm busy this week so I haven't had time to review the changes. Hopefully I will in the next few days.
 Maybe @robatron or @robrich can lend a hand reviewing this one! :smile: 
"
10;SBoudrias/gulp-istanbul;59;2015-04-28T17:06:08Z;2015-05-07T15:40:22Z;2015-05-07T15:40:22Z;peterjwest/gulp-istanbul;SBoudrias/gulp-istanbul;peterjwest;5;SBoudrias/peterjwest/peterjwest/SBoudrias/peterjwest;"Couple review comments, but that looks mostly good - that's a high quality PR, thanks a lot!
 I think the test failure may be a node version issue, gonna try and figure it out.
 Now updated.
Also what do you think about my comments above re. `on('error', cb)`?
 Sounds good, can you squash your commits?
 Squashed.
"
11;SBoudrias/gulp-istanbul;55;2015-04-01T16:04:11Z;2015-04-05T06:36:39Z;2015-04-05T06:36:39Z;;SBoudrias/gulp-istanbul;yodeyer;1;Adrien-Martins;"This seems to correct issus #54
:+1: 
"
12;SBoudrias/gulp-istanbul;53;2015-03-25T00:55:16Z;2015-03-25T18:35:32Z;2015-03-25T18:35:32Z;peterjwest/gulp-istanbul;SBoudrias/gulp-istanbul;peterjwest;2;peterjwest/SBoudrias;"Updated
 LGTM, thanks!
"
13;SBoudrias/gulp-istanbul;49;2015-02-01T00:00:09Z;2015-02-01T02:08:58Z;2015-02-01T02:08:58Z;jamiebuilds/gulp-istanbul;SBoudrias/gulp-istanbul;jamiebuilds;1;SBoudrias;"That looks good, thanks!
"
14;SBoudrias/gulp-istanbul;34;2014-09-10T19:52:45Z;2014-09-10T20:15:53Z;2014-09-10T20:15:52Z;EricMCornelius/gulp-istanbul;SBoudrias/gulp-istanbul;EricMCornelius;1;EricMCornelius;"See #30 
"
15;SBoudrias/gulp-istanbul;31;2014-08-28T10:08:49Z;2014-08-28T18:16:48Z;2014-08-28T18:16:48Z;golyshevd/gulp-istanbul;SBoudrias/gulp-istanbul;golyshevd;1;SBoudrias;"Ahh good catch!
"
16;SBoudrias/gulp-istanbul;29;2014-08-18T20:02:26Z;2014-09-10T04:26:29Z;2014-09-10T04:26:29Z;robrich/gulp-istanbul;SBoudrias/gulp-istanbul;robrich;2;SBoudrias/robatron;"So, this will only update complete coverage data on watch rather than re-running only for the changed files?
 :+1: 

Deleting the global coverage var also makes it so you can't call `summarizeCoverage()` after writing reports.

What's the danger in not deleting it?
"
17;SBoudrias/gulp-istanbul;28;2014-08-06T15:01:00Z;2014-08-13T06:16:28Z;2014-08-13T06:16:28Z;;SBoudrias/gulp-istanbul;ebertsch;1;SBoudrias;"Thanks for looking into this!
"
18;SBoudrias/gulp-istanbul;26;2014-07-18T05:25:41Z;2014-07-18T05:45:41Z;2014-07-18T05:45:41Z;;SBoudrias/gulp-istanbul;rianmcguire;1;SBoudrias;"LGTM, thanks!
"
19;SBoudrias/gulp-istanbul;20;2014-05-10T01:53:28Z;2014-05-10T21:55:54Z;2014-05-10T21:55:54Z;robrich/gulp-istanbul;SBoudrias/gulp-istanbul;robrich;2;SBoudrias/robrich;"Left some inline comments, the rest looks good.

Also tidy up the commit history before we merge. There's no need for merge commits in the stack, and some other commits are redundant - or unimportant and should be squashed too.
 spaces, squashed, rebased.
"
20;SBoudrias/gulp-istanbul;19;2014-05-09T23:21:25Z;2014-05-10T00:07:27Z;2014-05-10T00:07:27Z;robrich/gulp-istanbul;SBoudrias/gulp-istanbul;robrich;3;robrich/robrich/SBoudrias;"Pre-squashed.
 rebased.
 I added you as a collaborator. Rebase and send directly on master on your will :)
"
21;SBoudrias/gulp-istanbul;18;2014-05-09T20:53:39Z;2014-05-09T23:27:15Z;2014-05-09T23:27:15Z;robrich/gulp-istanbul;SBoudrias/gulp-istanbul;robrich;6;SBoudrias/robrich/SBoudrias/robrich/SBoudrias/robrich;"Just use the extend option in the test folder in order to not duplicate the settings.
 That sounds intriguing, but I'm having difficulty finding a reference.  Can you point me to any docs?
 Cannot find documentation, it might not have been updated in a while, but there was some issues opened about the functionnality: https://github.com/jshint/jshint/issues/1439 You'll see how to use it in the tests cases
 Here ya go.  Pre-squashed.
 You forgot to push?
 Good catch.  Try it now.
"
22;SBoudrias/gulp-istanbul;17;2014-05-09T20:29:21Z;2014-05-09T23:58:49Z;2014-05-09T23:58:49Z;robrich/gulp-istanbul;SBoudrias/gulp-istanbul;robrich;2;robrich/robrich;"Pre-squashed.
 rebased.
"
23;SBoudrias/gulp-istanbul;16;2014-05-09T20:08:19Z;2014-05-09T23:59:47Z;2014-05-09T23:59:47Z;robrich/gulp-istanbul;SBoudrias/gulp-istanbul;robrich;2;robrich/robrich;"squashed.
 rebased.
"
24;SBoudrias/gulp-istanbul;15;2014-05-09T18:39:16Z;2014-05-09T23:59:30Z;2014-05-09T23:59:30Z;robrich/gulp-istanbul;SBoudrias/gulp-istanbul;robrich;4;SBoudrias/robrich/robrich/robrich;"squash :)
 You really do like this remote git command.
 squashed.
 rebased.
"
25;SBoudrias/gulp-istanbul;13;2014-05-09T17:24:25Z;2014-05-09T17:33:30Z;2014-05-09T17:33:30Z;robrich/gulp-istanbul;SBoudrias/gulp-istanbul;robrich;1;SBoudrias;"Fair enough
"
26;SBoudrias/gulp-istanbul;12;2014-05-09T17:23:07Z;2014-05-09T20:41:00Z;2014-05-09T20:41:00Z;robrich/gulp-istanbul;SBoudrias/gulp-istanbul;robrich;6;SBoudrias/robrich/SBoudrias/robrich/SBoudrias/robrich;"Can you add the global definitions to the `.jshintrc` - or to a test specific jshintrc file that extend the base one?
 It is done.
 Allright, squash and I'll merge.
 squashed.
 Please rebase, cannot merge as it is.
 You really do like this remote git command.
"
27;SBoudrias/gulp-istanbul;8;2014-05-07T21:59:40Z;2014-05-09T18:32:47Z;2014-05-09T18:32:47Z;robrich/gulp-istanbul;SBoudrias/gulp-istanbul;robrich;5;SBoudrias/robrich/SBoudrias/robrich/SBoudrias;"Please remove unrelated commits on the jshint and the package.json

You don't need mocha in the devDependencies to run the tests. You need mocha globally.
 What is your style guide?  This space thing is very weird.
Also moved the mocha and jshint to separate pull requests.  See #10 and #13.
 The style guide is based on google style guide with spaces inside for object and array literals. It's the style we use on Yeoman.

Squash your commits and we'll be good to merge.
 squashed.
 Thanks!
"
28;SBoudrias/gulp-istanbul;4;2014-02-18T23:56:01Z;2014-02-19T01:46:35Z;2014-02-19T01:46:35Z;;SBoudrias/gulp-istanbul;dashed;5;SBoudrias/dashed/dashed/SBoudrias/dashed;"Test are failing, mind fixing?
 On it.
 Tests finally pass. Almost felt stupid with the global variable.
 Thanks, just squash your commits together, and we'll be good to merge.
 Squashed.
"
