No;mainline_repo;pr_no;created_at;closed_at;merged_at;repo_origin;repo_destin;pr_owner;no_commenters;pr_commenters;pr_comments
0;gabidavila/react-usa-map;38;2020-03-27T01:45:50Z;2020-07-07T15:47:36Z;2020-07-07T15:47:35Z;lachlanjc/react-usa-map;gabidavila/react-usa-map;lachlanjc;2;goldblatt/jamesrwaugh;"Can we merge this! We should merge this!
@gabidavila "
