No;mainline_repo;pr_no;created_at;closed_at;merged_at;repo_origin;repo_destin;pr_owner;no_commenters;pr_commenters;pr_comments
2;andyet/json-rpc-ws;47;2017-09-16T05:27:25Z;2017-09-18T21:58:58Z;2017-09-18T21:58:58Z;andyet/json-rpc-ws;andyet/json-rpc-ws;greenkeeper[bot];1;greenkeeper[bot];"## Version **5.1.0** just got published. 
[Update to this version instead 🚀](https://github.com/andyet/json-rpc-ws/compare/greenkeeper%2Fcode-5.1.0?expand=1) 

<details>
<summary>Commits</summary>
<p>The new version differs by 1 commits.</p>
<ul>
<li><a href=""https://urls.greenkeeper.io/hapijs/code/commit/a878e86667c05b3974b4456386e2277bb770f02e""><code>a878e86</code></a> <code>Return rejection error. Closes #106</code></li>
</ul>
<p>See the <a href=""https://urls.greenkeeper.io/hapijs/code/compare/50faff7eeb9e5a9a437910cecbca72a99e1fbf6f...a878e86667c05b3974b4456386e2277bb770f02e"">full diff</a></p>
</details>"
3;andyet/json-rpc-ws;45;2017-06-24T02:40:24Z;2017-06-26T14:49:16Z;2017-06-26T14:49:16Z;andyet/json-rpc-ws;andyet/json-rpc-ws;greenkeeper[bot];1;greenkeeper[bot];"## Version **4.1.1** just got published. 
[Update to this version instead 🚀](https://github.com/andyet/json-rpc-ws/compare/greenkeeper%2Feslint-4.1.1?expand=1) 

<details>
<summary>Release Notes</summary>
<strong>v4.1.1</strong>

<ul>
<li><a href=""https://urls.greenkeeper.io/eslint/eslint/commit/f307aa0bd4a21bd9e6147a067b30564f85c9a4df"" class=""commit-link""><tt>f307aa0</tt></a> Fix: ensure configs from a plugin are cached separately (fixes <a href=""https://urls.greenkeeper.io/eslint/eslint/issues/8792"" class=""issue-link js-issue-link"" data-url=""https://github.com/eslint/eslint/issues/8792"" data-id=""238299775"" data-error-text=""Failed to load issue title"" data-permission-text=""Issue title is private"">#8792</a>) (<a href=""https://urls.greenkeeper.io/eslint/eslint/pull/8798"" class=""issue-link js-issue-link"" data-url=""https://github.com/eslint/eslint/issues/8798"" data-id=""238350821"" data-error-text=""Failed to load issue title"" data-permission-text=""Issue title is private"">#8798</a>) (Teddy Katz)</li>
<li><a href=""https://urls.greenkeeper.io/eslint/eslint/commit/8b48ae87716554c232c2c6e965225182a86551ef"" class=""commit-link""><tt>8b48ae8</tt></a> Docs: Add doc on parser services (fixes <a href=""https://urls.greenkeeper.io/eslint/eslint/issues/8390"" class=""issue-link js-issue-link"" data-url=""https://github.com/eslint/eslint/issues/8390"" data-id=""218780512"" data-error-text=""Failed to load issue title"" data-permission-text=""Issue title is private"">#8390</a>) (<a href=""https://urls.greenkeeper.io/eslint/eslint/pull/8795"" class=""issue-link js-issue-link"" data-url=""https://github.com/eslint/eslint/issues/8795"" data-id=""238328618"" data-error-text=""Failed to load issue title"" data-permission-text=""Issue title is private"">#8795</a>) (Victor Hom)</li>
<li><a href=""https://urls.greenkeeper.io/eslint/eslint/commit/0d041e715927d28ef1c6f4e72c539148404966a5"" class=""commit-link""><tt>0d041e7</tt></a> Fix: avoid crashing when using baseConfig with extends (fixes <a href=""https://urls.greenkeeper.io/eslint/eslint/issues/8791"" class=""issue-link js-issue-link"" data-url=""https://github.com/eslint/eslint/issues/8791"" data-id=""238286328"" data-error-text=""Failed to load issue title"" data-permission-text=""Issue title is private"">#8791</a>) (<a href=""https://urls.greenkeeper.io/eslint/eslint/pull/8797"" class=""issue-link js-issue-link"" data-url=""https://github.com/eslint/eslint/issues/8797"" data-id=""238350690"" data-error-text=""Failed to load issue title"" data-permission-text=""Issue title is private"">#8797</a>) (Teddy Katz)</li>
<li><a href=""https://urls.greenkeeper.io/eslint/eslint/commit/03213bb2b76f53008fe104c473542e71066aafcc"" class=""commit-link""><tt>03213bb</tt></a> Chore: improve comment explanation of <code>indent</code> internal functions (<a href=""https://urls.greenkeeper.io/eslint/eslint/pull/8800"" class=""issue-link js-issue-link"" data-url=""https://github.com/eslint/eslint/issues/8800"" data-id=""238355820"" data-error-text=""Failed to load issue title"" data-permission-text=""Issue title is private"">#8800</a>) (Teddy Katz)</li>
<li><a href=""https://urls.greenkeeper.io/eslint/eslint/commit/d2e88edf0a145011b67799bdf49727e854239eb6"" class=""commit-link""><tt>d2e88ed</tt></a> Chore: Fix misleading comment in ConfigCache.js (<a href=""https://urls.greenkeeper.io/eslint/eslint/pull/8799"" class=""issue-link js-issue-link"" data-url=""https://github.com/eslint/eslint/issues/8799"" data-id=""238350844"" data-error-text=""Failed to load issue title"" data-permission-text=""Issue title is private"">#8799</a>) (Teddy Katz)</li>
</ul>
</details>

<details>
<summary>Commits</summary>
<p>The new version differs by 7 commits.</p>
<ul>
<li><a href=""https://urls.greenkeeper.io/eslint/eslint/commit/1df6a019f0d1866058a66c4fa7ec9ef5f30fd235""><code>1df6a01</code></a> <code>4.1.1</code></li>
<li><a href=""https://urls.greenkeeper.io/eslint/eslint/commit/79a44823389bcbdb882fb259c6d6616680677121""><code>79a4482</code></a> <code>Build: changelog update for 4.1.1</code></li>
<li><a href=""https://urls.greenkeeper.io/eslint/eslint/commit/f307aa0bd4a21bd9e6147a067b30564f85c9a4df""><code>f307aa0</code></a> <code>Fix: ensure configs from a plugin are cached separately (fixes #8792) (#8798)</code></li>
<li><a href=""https://urls.greenkeeper.io/eslint/eslint/commit/8b48ae87716554c232c2c6e965225182a86551ef""><code>8b48ae8</code></a> <code>Docs: Add doc on parser services (fixes #8390) (#8795)</code></li>
<li><a href=""https://urls.greenkeeper.io/eslint/eslint/commit/0d041e715927d28ef1c6f4e72c539148404966a5""><code>0d041e7</code></a> <code>Fix: avoid crashing when using baseConfig with extends (fixes #8791) (#8797)</code></li>
<li><a href=""https://urls.greenkeeper.io/eslint/eslint/commit/03213bb2b76f53008fe104c473542e71066aafcc""><code>03213bb</code></a> <code>Chore: improve comment explanation of <code>indent</code> internal functions (#8800)</code></li>
<li><a href=""https://urls.greenkeeper.io/eslint/eslint/commit/d2e88edf0a145011b67799bdf49727e854239eb6""><code>d2e88ed</code></a> <code>Chore: Fix misleading comment in ConfigCache.js (#8799)</code></li>
</ul>
<p>See the <a href=""https://urls.greenkeeper.io/eslint/eslint/compare/7d9e3beeb58c1ee71d53dfcfd3e3b0721dd79b46...1df6a019f0d1866058a66c4fa7ec9ef5f30fd235"">full diff</a></p>
</details>"
4;andyet/json-rpc-ws;42;2017-03-29T23:32:20Z;2017-03-30T17:06:15Z;2017-03-30T17:06:15Z;andyet/json-rpc-ws;andyet/json-rpc-ws;greenkeeper[bot];1;wraithgar;huzzah!
5;andyet/json-rpc-ws;22;2016-05-21T02:38:18Z;2016-05-23T18:28:47Z;2016-05-23T18:28:47Z;andyet/json-rpc-ws;andyet/json-rpc-ws;greenkeeperio-bot;1;wraithgar;"code@3 toggled default to deep comparison, there's a fix in this branch and we can merge once github sees it (they're having ops hiccups today let's be patient)
"
6;andyet/json-rpc-ws;17;2016-02-22T19:02:13Z;2016-02-22T19:08:07Z;2016-02-22T19:08:07Z;andyet/json-rpc-ws;andyet/json-rpc-ws;greenkeeperio-bot;1;wraithgar;"Really dodged a bullet on this one, there were a few rules in this that were causing tests in a lot of my other projects to fail w/ new lab/eslint versions.  This should put that issue to rest and take a weight off my mind.
"
7;andyet/json-rpc-ws;11;2016-01-13T11:00:17Z;2016-01-14T21:47:09Z;2016-01-14T21:47:09Z;andyet/json-rpc-ws;andyet/json-rpc-ws;greenkeeperio-bot;12;wraithgar/wraithgar/pdf/wraithgar/wraithgar/pdf/wraithgar/wraithgar/wraithgar/wraithgar/pdf/wraithgar;"This is being used only in one place, which is in the browser handler of `lib/connection.js`.  Updating this would, I think, mean losing IE 6-8 support.

At a glance, this build appears to be breaking because of a timing issue where a dependency of lodash-bind wasn't on npm yet.
 Kicked off the builds again, will wait to merge this to give those IE6 fans time to speak up.
 If you're going to lose IE6-8 support anyway, you may as well just drop the dep and use [ES5 bind](http://caniuse.com/#feat=es5)
 You're right, and when I went to look at the rest of lib/connection I remembered why it's like this. The entire reason we're using this (notice how we use es5 bind in non-browser) is because phantomjs@1.x.x (our test suite) does not support this https://github.com/ariya/phantomjs/issues/10522
 Additionally, because of build problems on os x and linux, it won't be available on npm untill 2.1 https://github.com/Medium/phantomjs/issues/288
 A different approach might be to just pull in a polyfill - should solve the problem, and the polyfill is unlikely to change or be deprecated for the foreseeable future.
 Yeah I'm pretty torn on this. After my work on [amp](https://amp.ampersandjs.com/#amp-bind) I'm pretty gun shy about re-implementing things like this.  I think ultimately the problem of removing this is separate from the smaller one of ""should we update""

I think we can just update, since there's no real expectation of support below IE9 here anyways, and wait for phantomjs@2.1 (Or some other solution we haven't thought of) before removing it altogether.
 Ok gonna try this https://twitter.com/philip_roberts/status/687407032715067393
 So, since we're only concerned about the fact that phantomjs doesn't have the polyfill, not whether or not the user browser does in production, we moved the shim into the test script.  I think this works.

Really not concerned about legacy browser support.
 I renamed the browser test file so as to not be confused with the exported `browser` sub library in this module.
 Oh right, I was indeed confused!
 thanks for being a sounding board for this @pdf I'm pretty happy with where it ended up. I'll merge this tomorrow morning (PST)
"
8;andyet/json-rpc-ws;8;2015-12-30T16:35:24Z;2016-01-04T23:01:34Z;2016-01-04T23:01:34Z;andyet/json-rpc-ws;andyet/json-rpc-ws;greenkeeperio-bot;5;wraithgar/wraithgar/wraithgar/wraithgar/pdf;"`ws` removed the client code and it's not a simple thing to fix now.  We may have to remove browser support from the main export, and have a specific file you require from code you will eventually browserify.
 ws < 1.0.1 had a vulnerability so this PR sets us at ^1.0.1
 The failed test is a timeout that is not present locally or in the second travis test.
 @pdf heads up on this I'll be merging soon, as this turned into a security problem as of ws@1.0.1 https://nodesecurity.io/advisories/67

This will be a major release since it's using ws@1.x and also cause of the changed API for browser code.
 @wraithgar ACK, thanks for the heads-up.
"
9;andyet/json-rpc-ws;7;2015-12-28T01:37:13Z;2015-12-28T22:02:58Z;2015-12-28T22:02:58Z;pdf/json-rpc-ws;andyet/json-rpc-ws;pdf;3;wraithgar/pdf/wraithgar;"This all looks good, but probably should have a test around the omitted params ensuring it works w/ undefined as well as null.

This is also as far as I can tell a patch version bump, given that this won't break anything currently working, and fixes it to match the spec aka expected behavior .
 Updated per feedback
 Thanks, I spent today trying to track down anyone w/ admin access to this repo to add you as a collaborator but they're all on (much much deserved) vacation.  Once such a person is available you should have more access and I'll add you to npm too.

Thank you for your help on this repo.  I'll get this merged and deployed as a patch now.
"
