No;mainline_repo;pr_no;created_at;closed_at;merged_at;repo_origin;repo_destin;pr_owner;no_commenters;pr_commenters;pr_comments
2;davidtheclark/stylelint-checkstyle-formatter;4;2016-07-07T10:03:37Z;2016-07-07T14:46:14Z;2016-07-07T14:46:14Z;nan;davidtheclark/stylelint-checkstyle-formatter;danez;1;davidtheclark;"Thanks!
"
3;davidtheclark/stylelint-checkstyle-formatter;3;2016-02-16T00:44:58Z;2016-02-17T03:59:02Z;2016-02-17T03:59:02Z;nan;davidtheclark/stylelint-checkstyle-formatter;ntwb;1;davidtheclark;"Thanks!
"
