No;mainline_repo;pr_no;created_at;closed_at;merged_at;repo_origin;repo_destin;pr_owner;no_commenters;pr_commenters;pr_comments
12;lindell/JsBarcode;22;2015-01-22T00:54:25Z;2015-01-22T08:27:01Z;2015-01-22T08:27:01Z;nan;lindell/JsBarcode;bcho;1;bcho;"And I think it's better to use 4 (or 2) spaces indent and lf newline?
"
