No;mainline_repo;pr_no;created_at;closed_at;merged_at;repo_origin;repo_destin;pr_owner;no_commenters;pr_commenters;pr_comments
4;mafintosh/node-gyp-install;1;2015-02-10T01:59:07Z;2015-02-10T02:09:39Z;2015-02-10T02:09:39Z;nan;mafintosh/node-gyp-install;fengmk2;1;fengmk2;"Support mirror it will helpful for Chinese users.
"
