No;mainline_repo;pr_no;created_at;closed_at;merged_at;repo_origin;repo_destin;pr_owner;no_commenters;pr_commenters;pr_comments
3;Mottie/javascript-number-formatter;2;2015-01-23T12:46:19Z;2015-01-26T12:45:23Z;2015-01-26T12:45:23Z;MadMG/javascript-number-formatter;Mottie/javascript-number-formatter;MadMG;1;MadMG;"- You`re right! I`ve changed the check of `exports` to make sense.
- Yes it is my personal preference and my default setting in webstorm. I've changed it back to tabs.
"
