No;mainline_repo;pr_no;created_at;closed_at;merged_at;repo_origin;repo_destin;pr_owner;no_commenters;pr_commenters;pr_comments
1;smore-inc/react-native-segment-io-analytics;15;2016-02-16T16:27:17Z;2016-03-11T09:33:35Z;2016-03-11T09:33:35Z;nan;smore-inc/react-native-segment-io-analytics;tobycox;1;yelled3;"@talkain LGTM
"
2;smore-inc/react-native-segment-io-analytics;9;2015-12-18T13:40:57Z;2015-12-28T12:05:37Z;2015-12-28T12:05:37Z;smore-inc/react-native-segment-io-analytics;smore-inc/react-native-segment-io-analytics;talkain;1;yelled3;"@talkain LGTM, is it ready for merge?
"
