No;mainline_repo;pr_no;created_at;closed_at;merged_at;repo_origin;repo_destin;pr_owner;no_commenters;pr_commenters;pr_comments
1;stdarg/tcp-port-used;2;2013-12-17T00:55:11Z;2013-12-17T01:07:33Z;2013-12-17T01:07:33Z;stdarg/tcp-port-used;stdarg/tcp-port-used;stdarg;1;demmer;"Other than the minor nits above this looks good to merge.
"
2;stdarg/tcp-port-used;1;2013-12-15T21:33:00Z;2013-12-16T23:38:14Z;2013-12-16T23:38:14Z;stdarg/tcp-port-used;stdarg/tcp-port-used;stdarg;5;demmer/stdarg/stdarg/demmer/stdarg;"I still think there's an opportunity for DRY improvement by merging the logic from waitUntilFree and waitUntilUsed into a single function (say waitUntilState) which takes a boolean as to whether the function should loop until the port is free or in use. 

As far as I can tell the only difference between the two implementations now is how they handle whether inUse is true or false.
 Yep, there was a good opportunity. Thanks!
 I'll update the README later.
 Core changes look good to me.

The only remaining issue is whether you keep the function arguments as-is or whether it gets converted to an options structure (eliminating the XYZonHost variants). I prefer the options structure as I mentioned previously since I think it's a cleaner API.
 I'll create an additional options structure method, but I was aiming for compatibility with the old API because the previous version exists on NPM. 
"
