No;mainline_repo;pr_no;created_at;closed_at;merged_at;repo_origin;repo_destin;pr_owner;no_commenters;pr_commenters;pr_comments
3;validator/gulp-html;23;2017-06-23T08:21:55Z;2017-06-23T08:26:16Z;2017-06-23T08:26:16Z;validator/gulp-html;validator/gulp-html;watilde;1;watilde;"Somehow this error was still existing. I updated the value of `-Xss`.
```
Message:
    StackOverflowError while evaluating HTML schema.
The checker requires a java thread stack size of at least 512k.
Consider invoking java with the -Xss option. For example:
  java -Xss512k -jar ~/vnu.jar FILE.html
```"
4;validator/gulp-html;21;2017-04-28T21:14:34Z;2017-04-29T12:45:33Z;2017-04-29T12:45:33Z;mischah/gulp-html;validator/gulp-html;mischah;1;watilde;WOoo thank you so much! We gonna get the green light again 🍏 
5;validator/gulp-html;20;2017-04-28T14:43:54Z;2017-04-28T17:35:26Z;2017-04-28T17:35:26Z;DanielBrommer/gulp-html;validator/gulp-html;DanielBrommer;1;watilde;Thanks!
6;validator/gulp-html;17;2017-02-07T10:06:01Z;2017-06-23T08:12:26Z;2017-06-23T08:12:26Z;Vernando05/gulp-html;validator/gulp-html;Vernando05;3;XhmikosR/watilde/watilde;This should be merged. We do the same in grunt-html. Oops, sorry I overlooked this PR. I'm going to land this. The ci error is not related to this patch.
7;validator/gulp-html;16;2016-12-12T19:59:31Z;2016-12-17T12:12:18Z;2016-12-17T12:12:18Z;nan;validator/gulp-html;SiTaggart;1;watilde;WOoo this is great news! Thanks for putting this, let me test it.
8;validator/gulp-html;11;2015-09-26T09:29:07Z;2015-10-02T07:48:16Z;2015-10-02T07:48:16Z;nan;validator/gulp-html;Dilatorily;1;watilde;"LGTM! Thanks for your commit, I'll publish it after merging this PR.
"
9;validator/gulp-html;7;2015-07-19T08:39:00Z;2015-07-19T12:12:39Z;2015-07-19T12:12:39Z;nan;validator/gulp-html;Dilatorily;1;watilde;"Oh thank you very much! LGTM. After marging this patch, I'll ship it quickly.
"
10;validator/gulp-html;5;2015-06-12T05:43:24Z;2015-06-12T05:45:05Z;2015-06-12T05:45:05Z;validator/gulp-html;validator/gulp-html;watilde;1;watilde;"Seems ok, I'll update patch version and publish. Any problem, feel free to comment me please.

Thanks.
"
11;validator/gulp-html;2;2015-02-20T13:01:25Z;2015-03-10T10:47:56Z;2015-03-10T10:47:56Z;nan;validator/gulp-html;silvenon;1;watilde;"Wow LGRM. I'm sorry for my late response.

Thanks!
"
