No,mainline_repo,pr_no,created_at,closed_at,merged_at,repo_origin,repo_destin,pr_owner,no_commenters,pr_commenters,pr_comments
0,borschik/borschik,149,2018-09-24T13:01:15Z,2018-09-28T10:35:47Z,2018-09-28T10:35:47Z,,borschik/borschik,kolesnikovde,1,miripiruni,Lets publish it as `v2.1.0-rc.2`
1,borschik/borschik,148,2018-08-27T16:45:25Z,2018-09-05T17:45:10Z,2018-09-05T17:45:09Z,,borschik/borschik,kolesnikovde,5,miripiruni/miripiruni/tadatuta/miripiruni/miripiruni,"BTW it’s fix for issue #17  LGTM! @miripiruni @kolesnikovde 
Is it ready? I'm fine to merge.
Do we need a minor release when it's merged? @tadatuta Until we are finished fiji patching I'd better not to release it. But we can release RC. Let’s release v2.1.0-rc"
2,borschik/borschik,144,2018-03-15T07:56:13Z,2018-03-20T10:30:43Z,2018-03-20T10:30:43Z,sergcen/borschik,borschik/borschik,sergcen,4,tadatuta/sergcen/tadatuta/tadatuta,"please provide additional description about the task @tadatuta fixed @sergcen
LGTM but there's falling test. I know it's not your fault but I want to fix it first before merge.
Tell me if this update is urgent.
 @sergcen will you please rebase the PR on top of current state of `master` to fix the tests?"
3,borschik/borschik,139,2017-05-24T09:07:43Z,2017-06-21T10:50:48Z,2017-06-21T10:50:48Z,raulleo/borschik,borschik/borschik,raulleo,1,raulleo,#129 
7,borschik/borschik,117,2016-03-24T11:32:05Z,2016-04-05T11:19:58Z,2016-04-05T11:19:58Z,MrKashlakov/borschik,borschik/borschik,MrKashlakov,1,tadatuta,"cc @doochik 
"
10,borschik/borschik,107,2015-08-17T15:04:16Z,2015-08-18T20:16:23Z,2015-08-18T20:16:23Z,pavelpower/borschik,borschik/borschik,pavelpower,1,pavelpower,"@tadatuta update uglify, done
"
13,borschik/borschik,95,2015-06-24T15:39:57Z,2015-06-25T17:05:12Z,2015-06-25T17:05:12Z,petrukhin/borschik,borschik/borschik,petrukhin,1,petrukhin,"ping
"
14,borschik/borschik,88,2015-01-23T13:32:38Z,2015-02-17T19:21:17Z,2015-02-17T19:21:17Z,gkrasulya/borschik,borschik/borschik,gkrasulya,5,gkrasulya/arikon/gkrasulya/1999/arikon,"@doochik 
 :+1: 
 ping
 Ребята, вмержите пулреквест пожалуйста поскорей.
cc @dab 
 Пингани Лёшу Андросова в джаббере. Он мейнтейнер.

14.02.2015, 14:56, ""Dmitry Sorin"" notifications@github.com:

> Ребята, вмержите пулреквест пожалуйста поскорей.
> 
> —
> Reply to this email directly or view it on GitHub.

## 

Отправлено из мобильной Яндекс.Почты: http://m.ya.ru/ymail
"
17,borschik/borschik,73,2014-08-06T13:14:24Z,2014-08-11T19:40:39Z,2014-08-11T19:40:39Z,,borschik/borschik,insane-developer,2,veged/insane-developer,"не хватает документации про фичу
 Дописал документацию
"
20,borschik/borschik,66,2014-05-17T06:30:52Z,2014-07-07T05:36:59Z,2014-07-07T05:36:59Z,,borschik/borschik,rakchaev,1,tadatuta,"@doochik, please take a look, people on Windows are affected :(
http://clubs.ya.ru/bem/replies.xml?item_no=5583
"
