No,mainline_repo,pr_no,created_at,closed_at,merged_at,repo_origin,repo_destin,pr_owner,no_commenters,pr_commenters,pr_comments
1,collectionspace/cspace-ui.js,122,2020-08-05T14:37:59Z,2020-09-05T20:48:42Z,2020-09-05T20:48:42Z,abbistani/cspace-ui.js,collectionspace/cspace-ui.js,abbistani,3,coveralls/mark-cooper/ray-lee,"
[![Coverage Status](https://coveralls.io/builds/33218068/badge)](https://coveralls.io/builds/33218068)

Coverage decreased (-0.01%) to 99.99% when pulling **bb32c6a3ff9f1f68efe72934118f89948c710fce on abbistani:update_place_type** into **04c49f4a390b893b2cd701e46e9cd0a52b2f38a3 on collectionspace:master**.
 @abbistani there's a conflict because the master branch version is 5.0.0. @ray-lee what version would you suggest for the changes being made here? 5.0.1? I think adding a value to an option list counts as a new feature (though it may be the smallest possible new feature), so it should probably be 5.1.0."
2,collectionspace/cspace-ui.js,118,2020-02-27T23:29:09Z,2020-03-10T03:45:26Z,2020-03-10T03:45:26Z,cesarvh/cspace-ui.js,collectionspace/cspace-ui.js,cesarvh,2,coveralls/cesarvh,"
[![Coverage Status](https://coveralls.io/builds/29236704/badge)](https://coveralls.io/builds/29236704)

Coverage decreased (-0.01%) to 99.99% when pulling **6dc60a66c7910ae472a135218e3568c77fbd2056 on cesarvh:DRYD-776** into **e8a0b1ec97d89a588e524ce6f307ac643268b080 on collectionspace:master**.
 @ray-lee Changes complete! :) "
3,collectionspace/cspace-ui.js,117,2020-02-27T23:27:11Z,2020-04-20T23:40:19Z,2020-04-20T23:40:19Z,cesarvh/cspace-ui.js,collectionspace/cspace-ui.js,cesarvh,8,cesarvh/coveralls/cesarvh/cesarvh/ray-lee/cesarvh/ray-lee/ray-lee,"Currently working on coverage fixes for this PR. 
[![Coverage Status](https://coveralls.io/builds/29760904/badge)](https://coveralls.io/builds/29760904)

Coverage decreased (-0.01%) to 99.99% when pulling **72fb1118369d6df1e0a2692b4f076c38cbe8fcd7 on cesarvh:DRYD-831** into **f7a27709b34bd9f53eb5d97ca5d0daa1e712af89 on collectionspace:master**.
 Forced pushed to delete a few commits I added on accident from another issue. Hi Ray,

A while months back, @remillet  made a change to the report schema [here](https://github.com/collectionspace/services/pull/232). I don't think that change is on core.dev yet, though. We created a report on botgarden-dev with these new fields. I made it backwards compatible with reports that don't have these fields, too. We would need to update each report on a case-by-case basis if it doesn't support every MIME type, yes.

If the files are present, the resource record looks like
```xml
<?xml version=""1.0""?>
<ns2:reports_common xmlns:ns2=""http://collectionspace.org/services/report"" xmlns:xsi=""http://www.w3.org/2001/XMLSchema-instance"">
  <notes>
Individuals that died in a specified garden location
</notes>
  <filename>ucbgDiedInLocationExcel.jasper</filename>
  <forDocTypes>
    <forDocType>Locationitem</forDocType>
  </forDocTypes>
  <supportsGroup>false</supportsGroup>
  <name>Deads in Bed (Excel)</name>
  <supportsOutputMIMEList>
    <outputMIME>
application/vnd.openxmlformats-officedocument.spreadsheetml.sheet
</outputMIME>
  </supportsOutputMIMEList>
  <supportsSingleDoc>true</supportsSingleDoc>
  <outputMIME>
application/vnd.openxmlformats-officedocument.spreadsheetml.sheet
</outputMIME>
  <supportsDocList>false</supportsDocList>
  <supportsNoContext>false</supportsNoContext>
  <forRoles/>
  <resourceActionGroupList/>
</ns2:reports_common>
```
And the UI presents only the XML MIME type:
![image](https://user-images.githubusercontent.com/9059527/78415917-c879cd00-75d9-11ea-8056-c08e5eb824eb.png)

If we go ahead and remove it from the resource record, we get an unfiltered list:
![image](https://user-images.githubusercontent.com/9059527/78415878-7cc72380-75d9-11ea-85dc-0ca7b1045667.png) @cesarvh  @remillet It sounds like you got it working on the UCB botgarden branch. Have you actually tried it on a build from collectionspace/master? I don't think it works. I can't set supportsOutputMIMEList through the REST API. @ray-lee Since we don't have tomcat8 yet, we can't deploy the latest services layer code. Is the `https://core.dev.collectionspace.org/` services layer code the most up to date? @cesarvh Yes, core.dev has the latest. If you're developing contributions for master, I expect that you have tested it against a build from master before you make a pull request. If it's UI code, you can just use  *.dev.collectionspace.org as the back end. If you're developing services layer code, you have to have a local installation built from master. Use your own VM, if you have to. @Cesar, the problem was that app layer config was missing for the supportsOutputMIMEList field. You have this in the UCB branch, but you/Richard did not put it into master. That's why it's so important to actually test that your pull request works on master. I've fixed this now."
4,collectionspace/cspace-ui.js,116,2020-02-24T22:00:02Z,2020-03-10T02:51:50Z,2020-03-10T02:51:50Z,cesarvh/cspace-ui.js,collectionspace/cspace-ui.js,cesarvh,2,coveralls/cesarvh,"
[![Coverage Status](https://coveralls.io/builds/29233475/badge)](https://coveralls.io/builds/29233475)

Coverage decreased (-0.01%) to 99.99% when pulling **ae53b3830899c2c8ad2ee5856636a161907cf0a5 on cesarvh:DRYD-827** into **fc00ef1da8947c0b01f1441f6c3130b7de7a632f on collectionspace:master**.
 @ray-lee  Not sure why the coveralls is decreasing. I cherry-picked this right onto the tip of the master branch on the collectionspace repo. Let me know if there's anything I need to do to fix this. Same with #117  and #115 "
5,collectionspace/cspace-ui.js,115,2020-02-06T21:08:50Z,2020-03-03T00:25:48Z,2020-03-03T00:25:47Z,cesarvh/cspace-ui.js,collectionspace/cspace-ui.js,cesarvh,1,coveralls,"
[![Coverage Status](https://coveralls.io/builds/29012568/badge)](https://coveralls.io/builds/29012568)

Coverage decreased (-0.01%) to 99.99% when pulling **315c97ce916008f3ec2b99ce804a12acc50a4155 on cesarvh:DRYD-823** into **47ca06cb51cbc2105b395fb637c4944958c69dd5 on collectionspace:master**.
"
6,collectionspace/cspace-ui.js,113,2019-12-09T01:21:24Z,2019-12-09T01:33:20Z,2019-12-09T01:33:20Z,ray-lee/cspace-ui.js,collectionspace/cspace-ui.js,ray-lee,1,coveralls,"
[![Coverage Status](https://coveralls.io/builds/27489883/badge)](https://coveralls.io/builds/27489883)

Coverage decreased (-0.01%) to 99.99% when pulling **385128d3de209bccc9138e0fe373c15df7b8935f on ray-lee:DRYD-800** into **92e434ae4e06ed71c75c4901973d23913c944dfc on collectionspace:master**.
"
