No,mainline_repo,pr_no,created_at,closed_at,merged_at,repo_origin,repo_destin,pr_owner,no_commenters,pr_commenters,pr_comments
0,courajs/node-svn,6,2020-09-10T14:57:41Z,2020-10-05T14:32:19Z,2020-10-05T14:32:19Z,418sec/node-svn,courajs/node-svn,huntr-helper,1,courajs,"Sure, looks like an improvement.
This was written much earlier in my career, and was meant for use in our custom CI server, never intended for untrusted user input. Merging this shouldn't imply it's now safe for arbitrary user input."
