No,mainline_repo,pr_no,created_at,closed_at,merged_at,repo_origin,repo_destin,pr_owner,no_commenters,pr_commenters,pr_comments
0,eggjs/eslint-config-egg,57,2020-11-06T06:58:44Z,2020-11-11T10:59:45Z,2020-11-11T10:59:45Z,zhaoxingyue/eslint-config-egg,eggjs/eslint-config-egg,zhaoxingyue,3,whxaxes/popomore/zhaoxingyue,"@atian25 @popomore  也看一下？ 尽量减少 prefer-global，我觉得保留 console 和 process 是可以的，其他也不是非常常用，没必要 global。 > 尽量减少 prefer-global，我觉得保留 console 和 process 是可以的，其他也不是非常常用，没必要 global。

其他的用 warn 或者直接关闭？ prefer-global 这个是不是都 follow 一套规则会好一点"
1,eggjs/eslint-config-egg,48,2019-09-04T13:39:58Z,2019-09-10T06:02:12Z,2019-09-10T06:02:12Z,missjing/eslint-config-egg,eggjs/eslint-config-egg,missjing,2,whxaxes/missjing,"CI 挂了，有 lint 错误，修复一下 > CI 挂了，有 lint 错误，修复一下

done"
4,eggjs/eslint-config-egg,35,2018-07-15T12:37:49Z,2018-07-16T03:18:14Z,2018-07-16T03:18:14Z,aladdin-add/eslint-config-ts,eggjs/eslint-config-egg,aladdin-add,2,atian25/aladdin-add,should reinstall deps to recreate travis.yml updated and the tests passed. 💯 
