No,mainline_repo,pr_no,created_at,closed_at,merged_at,repo_origin,repo_destin,pr_owner,no_commenters,pr_commenters,pr_comments
4,ember-fastboot/simple-dom,18,2015-10-02T03:11:13Z,2015-10-02T17:40:00Z,2015-10-02T17:40:00Z,ronco/simple-dom,ember-fastboot/simple-dom,ronco,2,rwjblue/tomdale,"It seems that we are basically making `serializeChildren` similar to `elem.innerHTML` and `serialize` is like `elem.outerHTML`.

This looks good to me.

@tomdale / @krisselden - Any issues with this?
 Seems fine to me.
"
5,ember-fastboot/simple-dom,15,2015-07-30T17:18:39Z,2015-08-04T14:07:35Z,2015-08-04T14:07:35Z,shrunyan/simple-dom,ember-fastboot/simple-dom,shrunyan,2,aMarCruz/stefanpenner,"This issue is breaking riot tests, please merge the PR.
 Cc @krisselden 
"
6,ember-fastboot/simple-dom,14,2015-07-13T20:41:19Z,2015-07-21T05:33:32Z,2015-07-21T05:33:32Z,,ember-fastboot/simple-dom,gpoitch,2,krisselden/gpoitch,"tests too please
 @krisselden good to go
"
7,ember-fastboot/simple-dom,12,2015-07-06T22:17:55Z,2015-07-30T19:20:15Z,2015-07-30T19:20:15Z,GetBlimp/simple-dom,ember-fastboot/simple-dom,jpadilla,3,jpadilla/antonioparisi/antonioparisi,"Any feedback on this would be appreciated it.
 :+1: 
 @krisselden any update on this?
"
