No,mainline_repo,pr_no,created_at,closed_at,merged_at,repo_origin,repo_destin,pr_owner,no_commenters,pr_commenters,pr_comments
0,gaearon/react-document-title,38,2017-04-10T03:03:11Z,2017-04-12T13:44:42Z,2017-04-12T13:44:42Z,JaapRood/react-document-title,gaearon/react-document-title,JaapRood,2,JaapRood/JaapRood,"@gaearon fair enough on not wanting to rely on `create-react-class`. I'll probably have some time today to rewrite it as a prototype. @gaearon how about this? Seemed the simplest way to create the component prototypally (stateless functions won't work because returning `null` was added until React v15). 

I also removed `React.createClass` calls in the tests, something I totally missed before. I assumed that relying on `create-react-class` as a dev dependency is alright. "
1,gaearon/react-document-title,32,2016-05-26T17:35:46Z,2016-06-10T13:59:40Z,2016-06-10T13:59:39Z,,gaearon/react-document-title,buzinas,11,buzinas/buzinas/buzinas/gaearon/buzinas/gaearon/buzinas/gaearon/buzinas/gaearon/buzinas,"@gaearon?
 Is anyone actively maintaining this project?
 @gaearon ...
 No, it's not maintained, please use react-helmet or equivalent. I should put up a badge about it.
 @gaearon Could you transfer it for me, or at least merge this PR? It's only an `if` statement.

There are two problems with react-helmet:
- It's bloated for who only wants to change the document's title
- It doesn't play well with Redux
 Can you explain this change better?

> When using DocumentTitle today, any time some child component updates, the current document.title updates as well, and it shouldn't.

Why shouldn’t it? This sounds like the correct behavior.

I’m also not sure what exactly the check accomplishes. Is updating `document.title` expensive?
 @gaearon Sure, I can.

I'm developing a React/Redux Sports Betting application, and for each sport there is a ""gamecast"" feature, which simulates what's happening in a real game. I developed a SVG animation library for it, and it uses `requestAnimationFrame` and `setState` internally. But since my component is inside another component, that is inside another component (...) that is inside DocumentTitle, every frame the `document.title` is updated. It's not very expensive, but on my old mobile device, when I remove it, I can reach 45~50fps, and using it, I can only reach 30~35fps.

The check is about ~15x faster than updating every time (at least for those animations specifically, didn't test in other scenarios). The goal is to touch the DOM only when needed, since there is no need to update it if the value is the same as it was before.
 @buzinas 

Added you as a collab on this repo and owner of npm package. Please feel free to release the fix when you’re ready. (Note my small nit in this PR.)

A few notes:
- Please make sure to run `npm run lint` and `npm test` before releasing
- Please either stick to ES5 or add a build system (there’s currently none)
- Please make sure to follow semver

Thanks for your help!
 @gaearon Thanks very much for reopening the issue and also for the permissions.

I made the change you asked, and both linting and tests are passing (and I'm sticking to ES5, also).

About semver, should I realease this as a patch or minor bump? (Some people would call this a feature and bump minor version, others would call this a fix, and bump patch, so not sure what you prefer).
 I think this is safe to go as a patch. 
 Thank you!
"
