No,mainline_repo,pr_no,created_at,merged_at,repo_origin_ml,repo_destin,pr_owner,no_commenters,pr_commenters,pr_comments
2,balderdashy/waterline-adapter-tests,91,2015-08-16T22:14:16Z,2015-08-25T03:57:12Z,tjwebb/waterline-adapter-tests,balderdashy/waterline-adapter-tests,tjwebb,2,dmarcelino/tjwebb,"The `CompositeUnique` are also in this PR, does this change depend on PR #90?

Another question: would a collection would composite primary keys support associations?
 @dmarcelino sorry, I branched this off of #90.

> Another question: would a collection would composite primary keys support associations?

Not currently. I'll create a separate feature for that and test it separately. 
"
3,balderdashy/waterline-adapter-tests,86,2015-08-12T04:32:45Z,2015-08-12T14:19:26Z,tjwebb/waterline-adapter-tests,balderdashy/waterline-adapter-tests,tjwebb,2,dmarcelino/devinivy,":+1: 
 Looks good!
"
4,balderdashy/waterline-adapter-tests,84,2015-07-24T17:34:39Z,2015-07-29T15:06:08Z,dmarcelino/waterline-adapter-tests,balderdashy/waterline-adapter-tests,dmarcelino,1,devinivy,":+1: looks good.
"
5,balderdashy/waterline-adapter-tests,81,2015-06-08T14:02:18Z,2015-06-15T10:42:27Z,marnusw/waterline-adapter-tests,balderdashy/waterline-adapter-tests,marnusw,5,devinivy/dmarcelino/marnusw/devinivy/dmarcelino,"Hey, this is some great stuff.  I wish I had some pointers for Postgres... it can definitely be a pain!  @tjwebb isn't there some Postgres knowledge at balderdash?  Who might be able to help?
 @marnusw, this is awesome! Thanks for going through all the trouble to create this.

I only have one very little minor suggestion: move the the steps necessary to run vagrant from the main README to, for example, .puppet/README.md. Leave the intro and then add a link to the steps. The reason I suggest this is that we don't scare or put off people with so much vagrant stuff since it's optional.
 So I got PostgreSQL working too and I just started up a fresh Vagrant VM and ran all the tests to get the results below. I believe that means this is ready to merge! From there I'll confirm that the other changes in my other PRs work as expected for all the adapters. 

The following db versions are installed on the VM:
- MongoDB v3.0.3 (Ahead of Travis which uses 2.4 or 2.6)
- MySQL v14.14 (Not sure what the Travis default is)
- PostgreSQL v9.3 (Matches the configuration in `.travis.yml`)
- Redis v2.8.12 (Not sure what the Travis default is)

```
 -----------------------------------
| core modules            | version |
|-------------------------|---------|
| waterline               | 0.10.23 |
| - anchor                |  0.10.2 |
| - waterline-schema      |  0.1.17 |
| waterline-adapter-tests | 308c387 |
 -----------------------------------

 ------------------------------------------------------------------
| adapter          | version | result | failed | total | wl-sequel |
|------------------|---------|--------|--------|-------|-----------|
| sails-postgresql | 30317cd | passed |      0 |   339 |     0.4.0 |
| sails-memory     | c7b0610 | passed |      0 |   314 |           |
| sails-disk       | e95628b | passed |      0 |   314 |           |
| sails-mongo      | 021ec02 | passed |      0 |   314 |           |
| sails-mysql      | f6e27d4 | passed |      0 |   339 |     0.4.0 |
| sails-redis      | 72ced91 | passed |      0 |   232 |           |
 -------------------------------------------------------------------
```
 Beautiful, thank you!  I see you also took care of @dmarcelino's concerns.  I think it's good to go! :+1: :+1: 
 Thanks @marnusw!
"
6,balderdashy/waterline-adapter-tests,79,2015-06-03T23:05:34Z,2015-06-04T13:42:03Z,balderdashy/waterline-adapter-tests,balderdashy/waterline-adapter-tests,dmarcelino,1,devinivy,"Merge away!
"
7,balderdashy/waterline-adapter-tests,78,2015-06-03T09:32:16Z,2015-06-05T09:28:21Z,balderdashy/waterline-adapter-tests,balderdashy/waterline-adapter-tests,dmarcelino,1,dmarcelino,"Updated async to 1.2.0. It's hard to stay in sync with async these days... 
"
8,balderdashy/waterline-adapter-tests,77,2015-05-25T13:17:44Z,2015-05-28T18:43:03Z,dmarcelino/waterline-adapter-tests,balderdashy/waterline-adapter-tests,dmarcelino,1,dmarcelino,"Not sure why the tests didn't run, but they were run in my own repo: https://travis-ci.org/dmarcelino/waterline-adapter-tests/builds/63955413 and relevant ones pass so its safe to merge this.

```
 ------------------------------------------------------------------ 
| adapter          | version | result | failed | total | wl-sequel |
|------------------|---------|--------|--------|-------|-----------|
| sails-postgresql | 30317cd | passed |      0 |   304 |     0.4.0 |
| sails-memory     | c7b0610 | passed |      0 |   280 |           |
| sails-disk       | e95628b | passed |      0 |   278 |           |
| sails-mongo      | fd788af | passed |      0 |   280 |           |
| sails-mysql      | f1e6393 | passed |      0 |   305 |     0.4.0 |
| sails-redis      | 6eb8f92 | failed |      0 |     0 |           |
 ------------------------------------------------------------------- 
```
"
9,balderdashy/waterline-adapter-tests,76,2015-05-25T10:56:21Z,2015-06-02T13:53:50Z,dmarcelino/waterline-adapter-tests,balderdashy/waterline-adapter-tests,dmarcelino,3,dmarcelino/devinivy/dmarcelino,"Hey @devinivy, can you take a look at this please? Thanks!
 This looks good, @dmarcelino.
 Thanks!
"
10,balderdashy/waterline-adapter-tests,74,2015-05-22T19:24:48Z,2015-05-28T18:41:18Z,particlebanana/waterline-adapter-tests,balderdashy/waterline-adapter-tests,particlebanana,2,dmarcelino/particlebanana,"Nice... great work! :+1:

Any particular reason for not adding many-to-many tests?
 @dmarcelino I'll add the m:m tests. Just ran out of time when I was working on it.
"
11,balderdashy/waterline-adapter-tests,72,2015-05-15T19:03:50Z,2015-06-11T18:25:07Z,dmarcelino/waterline-adapter-tests,balderdashy/waterline-adapter-tests,dmarcelino,3,dmarcelino/devinivy/dmarcelino,"@devinivy, these tests were done in order to confirm balderdashy/waterline#1003 was not an issue but they are not entirely needed since they are more or less covered in [waterline/test/unit/query/query.update.js#L48-L53](https://github.com/balderdashy/waterline/blob/4653f8a18016d2bcde9a70c90dd63a7c69381935/test/unit/query/query.update.js#L48-L53). So... should we:
- merge :+1: 
- or close :-1: 
 Hmmm, it's sort of a wash for me.  I suppose there's no harm in keeping it.  Theoretically an adapter _could_ break this functionality? :P
 Indeed it's possible for an adapter to somehow break it... :eyes: 
"
12,balderdashy/waterline-adapter-tests,71,2015-05-15T15:18:32Z,2015-06-07T18:17:43Z,dmarcelino/waterline-adapter-tests,balderdashy/waterline-adapter-tests,dmarcelino,6,dmarcelino/dmarcelino/devinivy/dmarcelino/dmarcelino/devinivy,"As a side note, given balderdashy/waterline#997 we probably should add `.find({ select: []}).populate()` tests to the `Associations` interface to confirm associated records are not impacted by the `select` modifier.
 All tests passing, this one is ready merge!

@devinivy, mind giving this a look?
 Looks good!  Brings up a question– if you `findOne` using `select` then save the record, are those `undefined` fields updated to be empty or ignored by waterline?

Also, does it make more sense to use `assert.notProperty(x, y)` or `assert.isUndefined(x[y])` instead of `assert.equal(x[y], undefined)`?  In any case, these tests look good to me.
 >  if you `findOne` using `select` then save the record, are those `undefined` fields updated to be empty or ignored by waterline?

I believe waterline ignores `undefined` fields but saves `null` fields.

> Also, does it make more sense to use `assert.notProperty(x, y)` or `assert.isUndefined(x[y])` instead of `assert.equal(x[y], undefined)`?  In any case, these tests look good to me.

I'm not familiar with `assert.notProperty()` or `assert.isUndefined()`, nor I see them in [Node.js docs](https://nodejs.org/api/assert.html)... but you do have a point. Perhaps we should use `assert('y' in x === false)`?
 @devinivy, I've added the function `assertNotProperty` which asserts the property is not present in the retrieved record. It makes the tests more strict and also more coherent with the intended behaviour. Tests still pass for all official adapters which is reassuring :grinning: 
 Awesome!  I'd say merge away!  I was getting confused with the Chai assertion library.
"
13,balderdashy/waterline-adapter-tests,70,2015-05-13T15:59:19Z,2015-05-13T23:06:01Z,dmarcelino/waterline-adapter-tests,balderdashy/waterline-adapter-tests,dmarcelino,3,dmarcelino/devinivy/dmarcelino,"We should do the same for waterline core.
 Wild!  This looks good :+1: 
 Thanks @devinivy! I'll merge this now because any other PR will probably cause merge conflicts in this.
"
14,balderdashy/waterline-adapter-tests,68,2015-05-08T04:34:10Z,2015-06-19T09:37:36Z,marnusw/waterline-adapter-tests,balderdashy/waterline-adapter-tests,marnusw,24,marnusw/dmarcelino/devinivy/marnusw/devinivy/dmarcelino/marnusw/devinivy/dmarcelino/marnusw/marnusw/marnusw/dmarcelino/marnusw/dmarcelino/marnusw/particlebanana/marnusw/devinivy/dmarcelino/marnusw/marnusw/marnusw/devinivy,"Thinking about this again, auto-inc is not really [MongoDb friendly](http://docs.mongodb.org/manual/tutorial/create-an-auto-incrementing-field/#considerations). Perhaps this is another test that should wait for #64.
 Thanks @marnusw!

> Thinking about this again, auto-inc is not really MongoDb friendly. Perhaps this is another test that should wait for #64.

That's true Indeed!
 I don't know that this behavior should be tested in the general-purpose adapter tests.  There are many ways that auto-incrementing could work.  Some (non-waterline-official) adapters also use the auto-incrementing property to make a UUID field on databases that don't support auto-incrementing.
 @devinivy but even if the auto-increment function is implemented in the adapter level rather than the underlying persistence mechanism wouldn't it still make sense to expect the operation as tested here? It seems like the `autoIncrement` attribute property should specify one and only one type of behavior.

That said, PR #64 suggests specifying a list of ""features"" in the `package.json` of an adapter to indicate which specialized attribute properties it supports which should thus be tested. Adapters that don't support a feature (for example MongoDb in the case of auto inc) would then not specify `autoIncrement` skip the relevant test entirely.
 I don't generally agree that auto-increment should have one behavior.  To achieve the same effect, why couldn't some database/adapter increment by 2s instead of 1s?  More realistically, why couldn't a database/adapter implement something like [snowflake](https://blog.twitter.com/2010/announcing-snowflake) for auto-incrementing?  The sails-dynamodb adapter uses the setting to generate UUIDs, since an auto-increment counter wouldn't make much sense for that type of database.  It's more about auto-generating ids.  Waterline was built with SQL in mind originally, so we call it `autoIncrement`.

I could be off-base here!  Maybe @tjwebb or @dmarcelino have thoughts.

In any case, we could add this test directly onto the adapters that are expected to auto-increment in this manner.
 I believe the problem is that the keyword `autoIncrement` is used too broadly. The test proposed by @marnusw seems to cover the default (for some adapters) case where implicitly:

``` javascript
id: {
  type: ""integer"",
  autoIncrement: true,
  primaryKey: true
}
```

But `autoIncrement` can also be applied to:
- different data types;
- non primaryKey columns.

So @devinivy has a good point. In other words, an adapter can implement `autoIncrement` and still break these tests. So, the way these tests are written are probably not broad enough for all adapters that implement some sort of `autoIncrement`...

We probably should discuss what `autoIncrement` (in the context of waterline) means and what is intended functionality for it. As it stands in current waterline `autoIncrement` functionality the only thing we can _guarantee_ is that the adapter won't re-use an existing `id`.
 > As it stands in current waterline autoIncrement functionality the only thing we can guarantee is that the adapter won't re-use an existing id.

I can rewrite the test to be more general but still ensure the above. It actually describes the problem I encountered in `sails-memory` perfectly and would test that the issue has been resolved. 

The very specialised nature of this test was because I aimed it at the SQL-like `sails-memory` and also because I interpreted the stricter meaning of `autoIncrement`. I guess it's not necessary to be that specific even for `sails-memory` though. Thanks for the feedback!

> We probably should discuss what autoIncrement (in the context of waterline) means and what is intended functionality for it.

If you do formalise this and want me to write the tests for your definition I'd be more than happy to.
 Thanks a bunch @marnusw – if you have any suggestions for formalizing this we'd love the help!
 @marnusw, PR #64 has been merged, do you mind refactoring this as a ""feature""? Thanks!
 Will do.
 @devinivy and @dmarcelino, I've been thinking about a formal definition for the `autoIncrement` attribute option and I've come up with the following:

> _Basic Definition:_ When `autoIncrement` is set to `true` on an attribute and no value is provided for it a new unique value will be assigned by the adapter before the record is created. It is guaranteed that the adapter will assign a unique value not present on any existing record. The values assigned automatically will not necessarily be sequential, which accommodates the use of UUIDs. If a value for the attribute is present in the data provided for a new record it will be saved as-is without any guarantee of uniqueness. The `autoIncrement` option has no effect when updating existing records. The feature flag is `autoIncrement`.
> 
> _Extended Sequential Definition:_ If the adapter will provide sequential unique values, for example increasing integers, then it is further guaranteed that the next value will be the last saved value plus one increment. If a value is provided and is larger than the current auto-inc counter the counter will be bumped to the provided value. If a provided value is less than or equal to the auto-inc counter value the counter will remain unchanged, and again there will be no guaranteed that this value is unique. This extended feature is indicated with the `autoIncrementSequential` feature flag.

I have written a test for the Basic Definition above and pushed it on this PR. The Travis build passes as expected since the feature isn't enabled for any of the adapters. When it is enabled for `sails-memory` it fails, which is expected until balderdashy/sails-memory#20 is merged. The `sails-disk` adapter passes with this feature test enabled. I couldn't test the others right now since I don't have the databases installed on my machine at the moment.

I'll continue to implement a test for the Extended Definition (which I had pretty much done earlier). In the mean time I welcome your feedback.

You'll notice that I'm starting off with a new empty database/adapter before each test. This is to force auto-inc counters to reset. Since the `id` can be an integer or string depending on the adapter it's also quite hard to generate known values for initial records. By using the values generated on the first test as the preset values on the second test this problem is resolved.
 Tests for sequential auto-inc values have been added, so this PR is complete pending feedback. Once we finalize this and it gets merged I'll update my PR on `sails-memory` to add the two features to its `package.json`.
 @marnusw, I finally got a chance to look deeper at this. I quite like the `autoIncrement.test.js` tests. Have you had the chance to test this against any of the SQL adapters?

I'm not so sure about an `autoIncrementSequential` feature, I think it would most likely belong in the adapters themselves, my reasons are:
- from an API perspective the `autoIncrement` flag is a boolean so the user never gets a chance to choose if he wants a sequential (or whatever) auto increment;
- I'd like to avoid an explosion of features to keep them meaningful and, more or less, obvious.

Anyway let's here what others have to say. When I get the chance I'll pull this to my machine and test against the adapters I have installed.
 @dmarcelino, thanks for the feedback. OK, I agree that having an explicit `autoIncrementSequential` feature is not ideal. 

I still kind of feel that I'd like to have sequential increments tested when appropriate, which I'd imagine is whenever an integer value is used, but I guess there might just pop up a case where an adapter doesn't want this for some good reason and then the tests are stricter than necessary. 

I'll leave it for comment until the weekend, then I'll take that feature out again. I'll also see if I can make time to run these tests against all the main adapters then. Also for #63.
 > and then the tests are stricter than necessary.

That's my main fear...

> I still kind of feel that I'd like to have sequential increments tested when appropriate

I agree, I'm just unsure if it belongs on waterline-adapter-tests or in the adapter itself.

BTW, if we are going to have features and... _sub-features_ I propose we use dot ""."" notation. Example: `autoIncrement.sequential`. In terms of file structure we could do:

```
features
├- autoIncrement
      ├- core
      ├- sequential 
```
- For an adapter implementing `autoIncrement` only the tests in the `core` folder would run.
- For an adapter implementing `autoIncrement.sequential` both the core and sequential folders would be used.

We would have to update `crossAdapter` and move all contents to `crossAdapter/core`.
 The ""."" notation makes a lot of sense to me! It makes the intended outcome much more apparent, and doesn't introduce additional features which are really only special cases. So I'd say definitely the way to go if the consensus is to allow sub-features.
 This looks pretty good. I like the dot approach, hopefully it doesn't get too out of hand. All the core adapters should support the sequential feature. Do we want the file structure to look like what @dmarcelino defined above using core as the main test?
 Two things are still necessary to get this merged:
1. Run the new tests against all core adapters.
2. Make a decision on the ""dot approach"" and whether to keep `autoIncrement.sequential`

Status:
1. Done: See below and #81.
2. Maybe @devinivy can give the deciding vote?

The results of testing against the various adapters are below. I didn't realize MySQL only supports one autoInc field per table, so I've adapted the tests to account for that. It now only looks for properly incrementing ids.

```
 ------------------------------------------------------------------
| adapter          | version | result | failed | total | wl-sequel |
|------------------|---------|--------|--------|-------|-----------|
| sails-memory     | c7b0610 | failed |      3 |   288 |           |
| sails-disk       | e95628b | passed |      0 |   288 |           |
| sails-mongo      | 021ec02 | passed |      0 |   285 |           |
| sails-mysql      | f6e27d4 | passed |      0 |   313 |     0.4.0 |
| sails-redis      | 72ced91 | failed |      1 |   219 |           |
 -------------------------------------------------------------------
```

I couldn't get PostgreSQL working in the VM yet as mentioned in #81, but the rest have all been run. Since MySQL passes I'm guessing we're OK with Postgres as well, but it's your call. Tested features:
- `sails-memory`: `autoIncrement.sequential` - The errors are expected (balderdashy/sails-memory#20)
- `sails-disk`: `autoIncrement.sequential`
- `sails-mongo`: `autoIncrement` - Sequential increments not supported as far as I know.
- `sails-mysql`: `autoIncrement.sequential`
- `sails-redis`: `autoIncrement.sequential` - Basic autoInc passes, but not sequential. Not sure if it should be supported though.
 I dig the dot notation and its proposed usage here– nice!
 I guess it's decided, dot '.' notation it is! :+1: 
 Thanks guys, I'll make the changes.
 I think we're good to go here now. There was actually no need to move the `crossAdapter` test into a ""core"" folder since it's treated as a special case, but I did so anyway for consistency.

Let me know if you spot anything we still need that I might have missed!
 @dmarcelino Here is the latest update now that all adapters can be tested with the Vagrant VM, I updated all adapters to the most recent versions:

```
 -----------------------------------
| core modules            | version |
|-------------------------|---------|
| waterline               | 0.10.24 |
| - anchor                |  0.10.3 |
| - waterline-schema      |  0.1.17 |
| waterline-adapter-tests | 7cdff89 |
 -----------------------------------


 ------------------------------------------------------------------
| adapter          | version | result | failed | total | wl-sequel |
|------------------|---------|--------|--------|-------|-----------|
| sails-postgresql | 30317cd | passed |      0 |   342 |     0.4.0 |
| sails-memory     | c7b0610 | failed |      3 |   320 |           |
| sails-disk       | e95628b | passed |      0 |   320 |           |
| sails-mongo      | 021ec02 | passed |      0 |   317 |           |
| sails-mysql      | 01c1a0e | passed |      0 |   345 |     0.4.0 |
| sails-redis      | 72ced91 | passed |      0 |   317 |           |
 -------------------------------------------------------------------
```

### autoIncrement.sequential
- `sails-memory` (Only fails due to balderdashy/sails-memory#20)
- `sails-disk`
- `sails-mysql`

### autoIncrement
- `sails-postgresql`
- `sails-mongodb`
- `sails-redis`

## PostgreSQL and autoIncrement.sequential

It seems that PostgreSQL doesn't support sequential auto increments. Everything works but for the last test, which checks that if a large value is set explicitly, which moves the auto inc counter forward, and then a smaller value is set again the auto inc counter shouldn't be moved back to that value. If this happens and auto incs continue there will eventually be a unique constraint exception, which is the case here!

This seems to be an [implementation detail of PostgreSQL](http://www.postgresql.org/docs/9.3/static/datatype-numeric.html#DATATYPE-SERIAL) and not a problem with the test itself. It seems strange that PostgreSQL would have this problem though. @particlebanana, do you have any insights?

## ""."" notation implementation

Please note that this was also implemented on this branch in `lib/index.js`, so let me know if you have comments on the way I did that.

**In my opinion this branch is ready to merge!** :smile: 
 Looking good :+1: 
@dmarcelino if you like it, I'd say feel free to push the button!  I think this is technically a blocker for https://github.com/balderdashy/sails-memory/pull/20 right now?
"
15,balderdashy/waterline-adapter-tests,66,2015-05-07T08:53:00Z,2015-05-12T19:08:00Z,khalilTN/waterline-adapter-tests,balderdashy/waterline-adapter-tests,khalilTN,8,devinivy/khalilTN/dmarcelino/atiertant/dmarcelino/dmarcelino/khalilTN/dmarcelino,"Looks good– thanks! :+1: 
 You are welcome ! ;)
 @khalilTN, @atiertant, this does look good indeed! This has exposed an apparent bug in sails-mongo since it is breaking the test:
- Semantic Interface Binary Type with valid data should store proper binary value

build log line 536: https://travis-ci.org/balderdashy/waterline-adapter-tests/jobs/61589255#L536

We'll need to fix that before we can merge this to avoid breaking the build. I've raised balderdashy/sails-mongo#272 to address the sails-mongo issue.
 @dmarcelino there is no better demonstation about this tests are useful...
 Indeed! :smiley:

@khalilTN, @atiertant, it just occurred to me that this change make us lose the verification of the values returned by `.create()`. Can we also add checks to those, like:

``` javascript
  assert.equal(createdRecord.list.length, 4);
```
 I've submitted PR balderdashy/sails-mongo#274 which fixes balderdashy/sails-mongo#272, feel free to review it! :wink: 
 I have commited the tests for the record returned by .create().
 Perfect @khalilTN! Thank you.
"
16,balderdashy/waterline-adapter-tests,64,2015-05-02T11:54:55Z,2015-05-20T22:39:00Z,dmarcelino/waterline-adapter-tests,balderdashy/waterline-adapter-tests,dmarcelino,9,devinivy/dmarcelino/devinivy/dmarcelino/dmarcelino/devinivy/dmarcelino/particlebanana/particlebanana,"In what way do cross-adapter features rely on adapter functionality?  I thought this all came down to the integrator in waterline, but it seems I'm misunderstanding.  For example, what does sails-orientbd need to do to become cross-adapter compatible?

**Edit**
Ah, is it a cross-_connection_ association using a shared adapter?  I think that it should be part of adapter spec/tests that adapters be able to manage multiple connections, if there aren't tests for that already.  I know that [the comments](https://github.com/balderdashy/sails-adapter-boilerplate/blob/master/index.js#L39-L48) in the adapter boilerplate insinuate that it's okay to start creating adapters that do not manage collections over multiple waterline connections.  Maybe that should change!
 Hi @devinivy, so without getting too deep on OrientDB, OrientDB has 3 important classes (its equivalent of tables): `Document`, `Vertex` and `Edge` (the last 2 extend the former). In graphDB mode, associations are made using edges that connect vertexes. This works perfectly outside a cross-adapter scenario but currently it breaks on cross-adapter mode. We will need to change sails-orientdb to detect if a given association is cross-adapter and if so use a `Document` (instead of `Edge`) as join table to hold the other side's FKey.

Currently, an adapter can implement `Semantic` and `Queryable`, which would mean it supports `Associations`, and still have `Associations` turned off in the `package.json`. As you mention, current adapter philosophy is a bit like _you can implement what you want_, and my proposal abides to that. If we are changing the community adapter philosophy then I agree with you. There will be a tradeoff however, as the higher the demand is the more people will feel demotivated and may not want to use the waterline-adapter-tests as it will become harder to get them to pass.
 Okay– sounds good.  We should think about this more, and maybe at least make sure the features/interfaces are transparently shown in the adapter readmes.  Perhaps WL needs adapter badges :P.  This PR looks good.
 > Perhaps WL needs adapter badges :P

That actually sounds like a good idea! :smiley:
 BTW, another advantage of having optional `features` is that we can add tests for db constraints like `unique` (#63), `auto increment` (#68) and specific tests for `schemaless` (balderdashy/waterline#366 comes to mind) or even case sensitive of the adapters that support it.

The badges part is actually not that difficult :wink: :

[![interfaces](https://img.shields.io/badge/interface-associations-brightgreen.svg)](https://github.com/balderdashy/sails-docs/blob/master/contributing/adapter-specification.md)
[![features](https://img.shields.io/badge/feature-cross--adapter-yellow.svg)](https://github.com/balderdashy/sails-docs/blob/master/contributing/adapter-specification.md)

```
[![interfaces](https://img.shields.io/badge/interface-associations-brightgreen.svg)](https://github.com/balderdashy/sails-docs/blob/master/contributing/adapter-specification.md)
[![features](https://img.shields.io/badge/feature-cross--adapter-yellow.svg)](https://github.com/balderdashy/sails-docs/blob/master/contributing/adapter-specification.md)
```
 @dmarcelino what tasks need to be done to get this merged?
 > @dmarcelino what tasks need to be done to get this merged?

Pushing the big green ""Merge pull request button""? :stuck_out_tongue: 

Sorry, couldn't resist myself :blush: ... From waterline-adapter-tests perspective this is done and complete. It's _mergeable_ as it is without breaking any tests because no adapter has cross-adapter feature enabled. In my opinion we should do this in the following order:
- [x] 1. Merge PR balderdashy/waterline#984
- [x] 2. Enable cross-adapter feature in all official adapters ( `""waterlineAdapter"": { ""features"": [""cross-adapter""] }` );
- [x] 3. re-run travis build and make sure all tests are passing
- [x] 4. merge this PR.
- [ ] 5. open some champagne and celebrate! :grinning: 

All this provided we choose this PR over @particlebanana's #62.
 Looks like an issue with sails-mysql on the cross-adapter tests. Looking into it.
 Fixed mysql with https://github.com/balderdashy/sails-mysql/commit/4145e0793ea8abebc46c95f54000858b56e82175 so lets see what else errors.
"
17,balderdashy/waterline-adapter-tests,63,2015-05-02T11:51:40Z,2015-06-19T14:05:05Z,marnusw/waterline-adapter-tests,balderdashy/waterline-adapter-tests,marnusw,13,marnusw/dmarcelino/dmarcelino/marnusw/marnusw/dmarcelino/marnusw/dmarcelino/marnusw/dmarcelino/marnusw/devinivy/marnusw,"I see the Travis build fails now because this issue is present in a number of the adapters. If _unique attributes_ aren't supported for all adapters, is there a way to detect whether it is for a given adapter and run this test only in that case?
 Hi @marnusw, thanks for your PR. Indeed `unique` is not supported by all adapters, as described in the [docs](https://github.com/balderdashy/waterline-docs/blob/master/models.md#unique):

> This is a database level constraint so in most cases a unique index will be created in the underlying data-store.

As to regards to detection I don't think there is currently a way to do it. In the future, a possible solution for this is by placing this test in a `/features/unique` folder and then add `""features"": [""unique""]` to the adapter's package.json. Such functionality is not decided yet and is being discussed in PR #64. I suggest you subscribe to it and then adapt this solution depending on the outcome.
 @marnusw, PR #64 has been merged, do you mind refactoring this as a ""feature""? Thanks!
 Will do.
 I've refactored this to a feature test for the `unique` attribute option. Perhaps simply calling the feature ""unique"" is too vague? Let me know if it should change.

At present these tests pass for `sails-disk`, but will fail for `sails-memory` until balderdashy/sails-memory#19 is merged. Once this PR is merged I will update it to include `unique` as a feature.
 > I've refactored this to a feature test for the `unique` attribute option. Perhaps simply calling the feature ""unique"" is too vague? Let me know if it should change.

Well... the flag is called `unique` in waterline and the related constraint has the same name in SQL so people will ""hopefully"" associate it with the right thing, given the context :)

The tests looks good :white_check_mark: 

Have you tested this with any adapter besides sails-memory/disk?
 I believe this is now ready to merge once #68, providing the '.' feature notation and knowledge of ""core"" folders, is merged.
 @devinivy, can you take a second look please?
 @dmarcelino Now that the ""."" notation is merged via #68 I'll run this test for all adapters as well and report back over/after the weekend! With that and @devinivy's go-ahead it should be ready too.
 Nice, thanks! :beers: 
 So I ended up doing it now... :blush: 

The feature wasn't enabled for Redis, but it was for all other adapters. It all seems good, and 
`sails-memory` will be fixed with the PR I have open that side. 

```
 -----------------------------------
| core modules            | version |
|-------------------------|---------|
| waterline               | 0.10.24 |
| - anchor                |  0.10.3 |
| - waterline-schema      |  0.1.17 |
| waterline-adapter-tests | 5656f2c |
 -----------------------------------


 ------------------------------------------------------------------
| adapter          | version | result | failed | total | wl-sequel |
|------------------|---------|--------|--------|-------|-----------|
| sails-postgresql | 30317cd | passed |      0 |   344 |     0.4.0 |
| sails-memory     | c7b0610 | failed |      1 |   319 |           |
| sails-disk       | e95628b | passed |      0 |   324 |           |
| sails-mongo      | 021ec02 | passed |      0 |   321 |           |
| sails-mysql      | 01c1a0e | passed |      0 |   349 |     0.4.0 |
| sails-redis      | 72ced91 | passed |      0 |   317 |           |
 -------------------------------------------------------------------
```
 To be clear– in the test results that we're seeing, all those adapters were tagged with the `unique` feature aside from sails-redis, correct?  And all the tests pass Travis CI because none of the adapters are tagged with the `unique` feature currently.  Should we make issues on postgres, disk, mongo, and mysql?  And ensure the tag makes it into your PR on memory?

This PR looks good!
 @devinivy that is correct.

And yes, I'll update my sails-memory PR with the tags, and I think adding issues for the others is a good idea. I'll do them all when I update the memory PR.
"
18,balderdashy/waterline-adapter-tests,61,2015-04-30T12:53:14Z,2015-04-30T14:55:08Z,dmarcelino/waterline-adapter-tests,balderdashy/waterline-adapter-tests,dmarcelino,2,devinivy/dmarcelino,":+1: nice!
 Thanks @devinivy, lets see what @anthonybriand says as so far I haven't been able to reproduce his issue (appscot/sails-orientdb#89)...
"
19,balderdashy/waterline-adapter-tests,60,2015-04-30T07:39:12Z,2015-05-04T08:49:37Z,khalilTN/waterline-adapter-tests,balderdashy/waterline-adapter-tests,khalilTN,4,dmarcelino/atiertant/dmarcelino/devinivy,"For reference this issue fixes #26.

@khalilTN, @atiertant, it's not possible to merge this PR. @khalilTN, can you merge the latest version of master into your branch and fix any conflicts?
 @dmarcelino all is ok now ;)
 Good stuff, looks good! :white_check_mark:

@devinivy, are you OK with these changes?
 Yeah, I like it!
"
20,balderdashy/waterline-adapter-tests,59,2015-04-29T14:05:05Z,2015-04-29T14:15:30Z,balderdashy/waterline-adapter-tests,balderdashy/waterline-adapter-tests,dmarcelino,2,devinivy/dmarcelino,":heavy_check_mark: Pending CI, looks good!
 ""The Travis CI build passed: All is well"", merging :wink: 
"
21,balderdashy/waterline-adapter-tests,58,2015-04-29T11:27:01Z,2015-04-29T11:38:31Z,balderdashy/waterline-adapter-tests,balderdashy/waterline-adapter-tests,dmarcelino,1,devinivy,"Looks great @dmarcelino!  Thanks again @kevinburke.
"
22,balderdashy/waterline-adapter-tests,56,2015-04-29T10:41:01Z,2015-04-29T11:32:52Z,balderdashy/waterline-adapter-tests,balderdashy/waterline-adapter-tests,dmarcelino,2,dmarcelino/devinivy,"@devinivy, another step in getting rid of those pesky false positives.
 Glad they're still positives!  Looks good!
"
23,balderdashy/waterline-adapter-tests,55,2015-04-28T18:41:00Z,2015-04-28T20:16:29Z,dmarcelino/waterline-adapter-tests,balderdashy/waterline-adapter-tests,dmarcelino,3,devinivy/dmarcelino/dmarcelino,"Pending CI, this looks great to me :)
 Fingers crossed! travis is so slow today because of them rolling back their April release... :angry:
http://www.traviscistatus.com
 It's green! :green_apple: , :green_book: , :green_heart: , :recycle: green!!! For the first time :smiley: 

:confetti_ball: :confetti_ball:  :confetti_ball: 
"
24,balderdashy/waterline-adapter-tests,54,2015-04-28T17:05:38Z,2015-04-28T18:16:55Z,balderdashy/waterline-adapter-tests,balderdashy/waterline-adapter-tests,dmarcelino,2,dmarcelino/devinivy,"@devinivy, can you give a glance at this just to have another pair of eyes checking everything is _kosher_?
 Kosher indeed!
"
25,balderdashy/waterline-adapter-tests,52,2015-04-23T17:19:56Z,2015-04-27T11:36:01Z,balderdashy/waterline-adapter-tests,balderdashy/waterline-adapter-tests,dmarcelino,2,dmarcelino/devinivy,"@devinivy, can you take a look at this please? It would be good to have another pair of eyes going through this :wink: 
 Looks right to me!
"
26,balderdashy/waterline-adapter-tests,50,2015-04-22T11:56:21Z,2015-04-23T16:46:33Z,balderdashy/waterline-adapter-tests,balderdashy/waterline-adapter-tests,dmarcelino,2,devinivy/dmarcelino,"Seems good to me :heavy_check_mark: 
 @tjwebb, if we compare the [latest master build](https://travis-ci.org/balderdashy/waterline-adapter-tests/jobs/57844170#L2130) (using the merged new default balderdashy/waterline#962) we can see:

```
 ------------------------------------------------------------------- 
| adapter          | version | status  | failed | total | wl-sequel |
|------------------|---------|---------|--------|-------|-----------|
| sails-postgresql | 0ad94e5 | failed  |      6 |     6 |     0.3.0 |
| sails-memory     | 7cf3600 | success |      0 |   207 |           |
| sails-disk       | 5210c18 | success |      0 |   209 |           |
| sails-mongo      | 414d748 | failed  |      5 |   210 |           |
| sails-mysql      | d289f11 | failed  |      2 |     2 |     0.3.0 |
| sails-redis      | 6eb8f92 | failed  |     29 |   196 |           |
 ------------------------------------------------------------------- 
```

On sails-postgresql and sails-mysql most tests don't even run because of `migrate: 'safe'` being the default.

On the other hand this [PR's build](https://travis-ci.org/balderdashy/waterline-adapter-tests/jobs/59539534#L1825) brings the results to normality:

```
 ------------------------------------------------------------------- 
| adapter          | version | status  | failed | total | wl-sequel |
|------------------|---------|---------|--------|-------|-----------|
| sails-postgresql | 0ad94e5 | failed  |      2 |   228 |     0.3.0 |
| sails-memory     | 7cf3600 | success |      0 |   211 |           |
| sails-disk       | 5210c18 | success |      0 |   209 |           |
| sails-mongo      | 414d748 | failed  |      5 |   209 |           |
| sails-mysql      | d289f11 | failed  |      3 |   235 |     0.3.0 |
| sails-redis      | 6eb8f92 | failed  |     42 |   209 |           |
 ------------------------------------------------------------------- 
```

With only the known/expected errors. Any other concerns or shall we merge this as well?
"
27,balderdashy/waterline-adapter-tests,49,2015-04-19T18:23:48Z,2015-04-27T11:44:19Z,balderdashy/waterline-adapter-tests,balderdashy/waterline-adapter-tests,dmarcelino,2,dmarcelino/devinivy,"@devinivy, @tjwebb, any concerns regarding this? These tests have already been successfully used to assess the performance benefits of #924 and can help us in the future to determine if a given change improves or not performance.

They are not ran in the automated builds so they won't slow down or break the builds.
 Yup, this looks good!
"
28,balderdashy/waterline-adapter-tests,48,2015-04-09T02:54:50Z,2015-04-09T17:42:25Z,devinivy/waterline-adapter-tests,balderdashy/waterline-adapter-tests,devinivy,1,dmarcelino,"Thanks for checking this @devinivy, I like it! :white_check_mark:  Thanks

PS: such a rookie mistake on my part... 
"
29,balderdashy/waterline-adapter-tests,46,2015-04-08T11:58:42Z,2015-04-08T19:05:20Z,balderdashy/waterline-adapter-tests,balderdashy/waterline-adapter-tests,dmarcelino,2,particlebanana/dmarcelino,"@dmarcelino you the man!
 Merging with @particlebanana's blessing, https://github.com/balderdashy/waterline/issues/937#issuecomment-90979473:

> #938 / balderdashy/waterline-adapter-tests#46 - looks great
"
30,balderdashy/waterline-adapter-tests,45,2015-04-07T12:33:21Z,2015-04-07T14:59:26Z,Globegitter/waterline-adapter-tests,balderdashy/waterline-adapter-tests,Globegitter,1,dmarcelino,"Good stuff @Globegitter, this improves the reliability of `findOrCreate`. Thanks!

I'm good with these changes: :white_check_mark:
"
31,balderdashy/waterline-adapter-tests,44,2015-04-07T02:18:47Z,2015-04-08T19:58:07Z,devinivy/waterline-adapter-tests,balderdashy/waterline-adapter-tests,devinivy,4,tjwebb/dmarcelino/devinivy/particlebanana,"cc @particlebanana 
 Great work @devinivy, from what I've seen all looks good. :white_check_mark: .
 @particlebanana would you like this PR merged once waterline is released with the recently-merged https://github.com/balderdashy/waterline/pull/930 and https://github.com/balderdashy/waterline/pull/934 ?
 @devinivy I think it's good to merge now. I'll get a waterline release out today.
"
32,balderdashy/waterline-adapter-tests,43,2015-04-04T15:35:46Z,2015-04-04T15:45:50Z,devinivy/waterline-adapter-tests,balderdashy/waterline-adapter-tests,devinivy,1,dmarcelino,"This change fixes the MySQL tests and doesn't break any other adapter tests. Given it's benign and surgical I'm merging this now.

We are one step closer to have all integration tests passing. Now if we could only get #40 sorted so sails-memory and sails-disk tests would pass...

@particlebanana we'll need a waterline-adapter-tests release so sails-mysql build gets fixed. Please also take a look at #40 so we can fix sails-mysql and sails-disk tests.
"
33,balderdashy/waterline-adapter-tests,42,2015-03-30T14:35:59Z,2015-04-07T12:16:28Z,devinivy/waterline-adapter-tests,balderdashy/waterline-adapter-tests,devinivy,2,dmarcelino/dmarcelino,"Thanks @devinivy, that looks very good! :white_check_mark: 
 Now that balderdashy/waterline#889 is merged we should also merge this test to prevent regressions in the future.
"
34,balderdashy/waterline-adapter-tests,41,2015-03-28T16:16:48Z,2015-04-08T17:41:42Z,balderdashy/waterline-adapter-tests,balderdashy/waterline-adapter-tests,dmarcelino,4,devinivy/dmarcelino/tjwebb/particlebanana,"@tjwebb @particlebanana how do you feel about this?  I think the PR is looking fine, and that the new interface is a good idea.  It will also allow sails-memory and sails-disk to pass the adapter tests.
 @particlebanana, @tjwebb, can you please take a look at this? In what concerns testing this is one of our top priorities! Thanks
 I like this. I'll review after I finish reviewing the fix for the association naming bug
 Looks perfect and is exactly the idea behind being able to specify interfaces at the adapter level. We also have [Waterline-Sequel](https://github.com/balderdashy/waterline-sequel/tree/master/test) tests now as well so it should provide pretty good coverage for adapters using sql adapters.
"
35,balderdashy/waterline-adapter-tests,39,2015-03-27T15:31:25Z,2015-04-01T17:44:46Z,balderdashy/waterline-adapter-tests,balderdashy/waterline-adapter-tests,dmarcelino,4,dmarcelino/devinivy/dmarcelino/tjwebb,"@tjwebb, @devinivy, @particlebanana, please take a look at this. TL;DR: removes bash script and replaces it with javascript, shows number of failed tests, shows the versions of the components tested, adds sails-redis and added a README.md.
 I don't currently have time to test this out, but the code itself looks good to me.  Is it behaving as expected, @dmarcelino?
 Yeap @devinivy, you can see the results for yourself here: https://travis-ci.org/balderdashy/waterline-adapter-tests/jobs/56210085#L1360.

And when we sort out the SQL interface, sails-memory and sails-disk will also turn green.
 Woohoo! :+1: 
"
36,balderdashy/waterline-adapter-tests,36,2015-03-25T01:37:26Z,2015-03-26T17:11:11Z,dmarcelino/waterline-adapter-tests,balderdashy/waterline-adapter-tests,dmarcelino,5,tjwebb/devinivy/dmarcelino/devinivy/particlebanana,"They are passing on Travis-CI, right? Can you clarify what the difference is here that makes them fail
 I am a little confused by this at first glance too.  For example, on sails-memory,
1. It passes CI.  200 passing / 0 failing / 2 pending
2. It fails on my machine.  19 passing / 1 failing / 0 pending (?!)
3. It fails on this PR . 201 passing / 2 failing / 2 pending

What am I missing here?  Why do only 20 tests occur on my machine?

An aside–I think this is a great idea.  It really lowers the barrier to entry for people testing their changes to WL core.
 @tjwebb, @devinivy, oops I should have explained myself better. So, the current adapter tests setup is good but has 2 deficiencies:
1. Travis builds only run when a change is pushed or a project owner presses the travis build button;
2. The adapters are only tested against the latest npm (not github) version of waterline and waterline-adapter-tests.

There is nothing wrong _per se_ with this but it makes these tests little useful for waterline/waterline-adapter-tests core developers. @devinivy the reason for different result sets has probably got to do with different versions of waterline/waterline-adapter-tests. The table below gives you a breakdown of what the current adapters have been tested against and when:

| adapter | last build | waterline version | waterline-adapter-tests versions |
| --- | --- | --- | --- |
| sails-postgresql | [12 days ago](https://travis-ci.org/balderdashy/sails-postgresql/builds/54277398) | 0.10.18 | 0.10.8 |
| sails-mysql | [7 days ago](https://travis-ci.org/balderdashy/sails-mysql/builds/54893696) | 0.10.18 | 0.10.8 |
| sails-mongo | [7 days ago](https://travis-ci.org/balderdashy/sails-mongo/builds/54907059) | 0.10.18 | 0.10.8 |
| sails-memory | [7 months ago](https://travis-ci.org/balderdashy/sails-memory/builds/33848730) | 0.10.9 | 0.10.4 |
| sails-disk | [3 months ago](https://travis-ci.org/balderdashy/sails-disk/builds/45490139) | 0.10.14 | 0.10.5 |

waterline / waterline adapter status:

| project | last commit | commits since last release* |
| --- | --- | --- |
| waterline | 4 days ago | [25 commits](https://github.com/balderdashy/waterline/compare/v0.10.18...master) |
| waterline-adapter-tests | 16 hours ago | [2 commits](https://github.com/balderdashy/waterline-adapter-tests/compare/v0.10.8...master) |

*AKA commits untested against latest versions of adapters

As you can see from the above tables, each adapter set of tests never ran against the latests commits in waterline core. Ironically the more stable an adapter is the more likely it is for a change in waterline core to break it. Look at sails-memory and sails-disk, because they have been so stable their tests haven't ran for months!

PS: In addition to my PR we should also look into implementing https://github.com/FiloSottile/travis-cron or https://github.com/grosser/travis_cron for waterline, waterline-adapter-tests and all official adapters given how intertwined they are.
 Indeed!  All good points.  In my case, it was only running 20 tests because mocha has `bail: true` in the sails-memory config.  Once I commented that out, I got the same results as in this PR.

TL;DR for @dmarcelino's comment (but do read it!): those adapters **are _legitimately_ failing** CI right now due to updates to waterline-adapter-test and waterline since their last build.  That realization makes this PR yet more crucial, and it answers @tjwebb's original question.

Luckily most of the failing tests seem reasonably easy to fix.  Can we push this PR through?  The code looks good to me.
 This is awesome! Go for it!
"
37,balderdashy/waterline-adapter-tests,35,2015-03-23T17:35:11Z,2015-03-24T18:18:33Z,dmarcelino/waterline-adapter-tests,balderdashy/waterline-adapter-tests,dmarcelino,3,dmarcelino/devinivy/dmarcelino,"@tjwebb, @devinivy, please take a look at this change. It's fairly benign and it will add flexibility for those creating adapters.
 Seems okay to me, as long as this wont be used for evil!  Is there any possibility we'd like to identify some tests that _must_ pass?
 That's a fair question @devinivy. According to [sails-adapter-boilerplate index.js#L102](https://github.com/balderdashy/sails-adapter-boilerplate/blob/master/index.js#L102):

> [registerCollection] is the only required method.

Given you can't do much without registering a connection I would said any mix of tests always cover that requirement. My expectation is that official adapters should always pass all tests and that community adapters may opt-out certain features. As it stands now, authors of adapters that don't implement the full spec are discouraged from using the adapter-tests.
"
39,balderdashy/waterline-adapter-tests,31,2015-01-16T04:00:57Z,2015-03-30T10:22:58Z,tjwebb/waterline-adapter-tests,balderdashy/waterline-adapter-tests,tjwebb,2,dmarcelino/tjwebb,"@tjwebb, I'm good with this :+1: 
 Ha I forgot about this. You can merge
"
40,balderdashy/waterline-adapter-tests,23,2014-11-04T20:11:06Z,2014-11-07T20:47:00Z,nan,balderdashy/waterline-adapter-tests,DavidEBest,1,DavidEBest,"This is a re-submission of @jmdobry's fix for #7 (PR #8) to the master branch.
"
41,balderdashy/waterline-adapter-tests,14,2014-01-29T19:45:42Z,2015-04-30T16:03:05Z,leedm777/waterline-adapter-tests,balderdashy/waterline-adapter-tests,leedm777,5,dmarcelino/leedm777/dmarcelino/leedm777/dmarcelino,"More than a year later... @leedm777 it's no longer possible to automagically merge this PR. Would you mind merging master to it and solve any conflicts?

BTW, your test seems related with issue balderdashy/waterline#412.
 @dmarcelino I've rebased against master. Thanks!
 Thanks @leedm777! The build has failed (in all adapters) but not for the predicted reason: 

```
Queryable Interface IN Query Modifier with a record when given an empty array should return an empty array:
     ReferenceError: User is not defined
      at Context.<anonymous> (/home/travis/build/balderdashy/waterline-adapter-tests/interfaces/queryable/modifiers/in.modifier.test.js:33:11)
```

There seems to be a problem with your test.
 @dmarcelino I think that's got it. Thanks!
 Your test actually passes on all official adapters:

```
| adapter          | version | result | failed | total | wl-sequel |
|------------------|---------|--------|--------|-------|-----------|
| sails-postgresql | 0ad94e5 | passed |      0 |   235 |     0.3.1 |
| sails-memory     | 7cf3600 | passed |      0 |   211 |           |
| sails-disk       | 5210c18 | passed |      0 |   208 |           |
| sails-mongo      | ae251dc | passed |      0 |   209 |           |
| sails-mysql      | d289f11 | passed |      0 |   234 |     0.3.1 |
| sails-redis      | 6eb8f92 | failed |     41 |   209 |           |
```

Someone must have fixed sails-mysql meanwhile. :) Looks good! :white_check_mark: 

I'll give others the opportunity to check your PR and if no one opposes I'll merge it soon. Thanks @leedm777!
"
42,balderdashy/waterline-adapter-tests,6,2013-07-23T23:04:23Z,2013-07-28T08:15:41Z,Zolmeister/waterline-adapter-tests,balderdashy/waterline-adapter-tests,Zolmeister,1,Zolmeister,"https://github.com/balderdashy/waterline/issues/61
"
43,balderdashy/waterline-adapter-tests,4,2013-06-07T08:47:08Z,2013-06-07T14:47:25Z,CrucialDivide/waterline-adapter-tests,balderdashy/waterline-adapter-tests,dasher,1,particlebanana,"@dasher thanks for the contribution! The more tests the better! I have a few notes before I can pull this:

Yes, `findAll` has been removed. We now have `findOne` which will return an object and `find` which will always return an array. The tests you added are for the `find` method so they should always get an array.

Also you don't need to change the schema type here: https://github.com/CrucialDivide/waterline-adapter-tests/blob/89c51ef0b8663b7cb10cf3ca8f13f22e8e1e203c/lib/fixtures/crud.js#L23 as Waterline doesn't know what a `numberTypeAge` is. It will automatically convert that to a string, which we don't want here.

And then in the other fixture file: https://github.com/CrucialDivide/waterline-adapter-tests/blob/89c51ef0b8663b7cb10cf3ca8f13f22e8e1e203c/lib/fixtures/schema-options.js#L18-L21 you added an attribute but you are not using that fixture for any testing. Basically that is adding a column named `numberTypeAge` with a type integer to a separate table used for different tests.

The fixture files are example models used for testing. So the find test is only using the crud fixture in `/lib/fixtures/crud.js`.

So before I merge can you:
- remove the stuff from `/lib/fixtures/schema-options.js`
- change the type for age back to integer in the `/lib/fixtures/crud.js`
- remove the findAll test stuff from `/lib/collection/find.test.js`
"
