No,mainline_repo,pr_no,created_at,merged_at,repo_origin_ml,repo_destin,pr_owner,no_commenters,pr_commenters,pr_comments
16,postcss/gulp-postcss,11,2014-11-20T01:48:59Z,2014-11-20T17:06:01Z,lboecker/gulp-postcss,postcss/gulp-postcss,lboecker,3,w0rm/ai/lboecker,"@superlukas can you assure that this won't break other functionality e.g. sourcemaps? Is there any way to add a test for this? cc @ai @MoOx
 @w0rm absolute paths is better for sourcemaps, because they doesn’t require root path :).
 Sounds good to me. I was about to test this, but as far as I can tell the paths are only used to generate file urls so you can look at the sources in your browser's dev tools. Absolute paths should at least work as good as, but probably even better than relative paths for this kind of thing.
"
17,postcss/gulp-postcss,3,2014-09-12T08:41:34Z,2014-09-12T08:43:52Z,nan,postcss/gulp-postcss,danielhusar,1,w0rm,"@danielhusar thanks!
"
18,postcss/gulp-postcss,2,2014-08-27T23:34:12Z,2014-10-06T12:28:22Z,nan,postcss/gulp-postcss,silvenon,16,ai/silvenon/ai/ai/silvenon/w0rm/silvenon/w0rm/silvenon/w0rm/silvenon/w0rm/w0rm/silvenon/silvenon/silvenon,"@w0rm my English is too bad for it :).
 What do you mean?
 @silvenon sorry, I miss, that it was PR, not a issue :).
 @silvenon maybe we should show some real example in custom processor? If real example will be long, we can show it in separated section.
 PostCSS already has some really nice examples, my assumption was that users would check those out.
 @silvenon thanks for this contribution, I agree that this custom usage should be documented! 

I also agree with @ai that we should provide an example for custom processor function in separate section. I doubt it is safe enough to assume that the user knows how to write [processor](https://github.com/postcss/postcss#processor), but at the same time doesn't know how multiple processors are combined, i.e. that `autoprefixer.postcss` is processor function and you can use your own in its place.
 Sure… does it really have to be such a big processor that it has its own section? Maybe just a minifier or a certain browser hack for a quick example, then link to PostCSS for more complex examples (for example that link you just used)? It's really the same.

If not, it doesn't matter, it's your project :)
 @silvenon I see it as a separate section (e.g. ""Using with custom processor"") that briefly explains what postcss processor is (with a link to postcss docs) and gives an example of processor function and how to use it with gulp-postcss.
 In the README, right? Not in a different file?
 Yep, in the readme.

> On 28 Aug 2014, at 22:34, Matija Marohnić notifications@github.com wrote:
> 
> In the README, right? Not in a different file?
> 
> —
> Reply to this email directly or view it on GitHub.
 Sure, I'll write some examples :)
 @silvenon great, looking forward for your update!
 @silvenon are you still willing to do this, what's ETA?
 Sorry, I was away. I'll do it soon :smiley: Today or tomorrow.
 I added an example with autoprefixer and a custom processor for adding an opacity fallback for IE8. Did you want something like this?
 Oh that's right, my bad. Updated.
"
19,postcss/gulp-postcss,1,2014-08-18T18:41:35Z,2014-08-18T18:51:12Z,nan,postcss/gulp-postcss,ai,1,ai,"@w0rm Also I use 4 spaces in README.md examples, because it is readable in docs.
"
