No,mainline_repo,pr_no,created_at,merged_at,repo_origin_ml,repo_destin,pr_owner,no_commenters,pr_commenters,pr_comments
4,TriplyDB/YASGUI.YASQE,129,2018-01-08T11:58:54Z,2018-01-08T11:59:56Z,Triply-Dev/YASGUI.YASQE-deprecated,Triply-Dev/YASGUI.YASQE-deprecated,GerwinBosch,1,LaurensRietveld,"cool, thanks :+1: "
5,TriplyDB/YASGUI.YASQE,121,2017-06-20T16:31:09Z,2017-06-20T20:44:26Z,l00mi/YASGUI.YASQE,Triply-Dev/YASGUI.YASQE-deprecated,l00mi,1,LaurensRietveld,"I seem to have accidentally closed this issue. Merged now, thanks "
6,TriplyDB/YASGUI.YASQE,115,2017-06-15T16:18:05Z,2017-06-18T06:31:52Z,jindrichmynarz/YASGUI.YASQE,Triply-Dev/YASGUI.YASQE-deprecated,jindrichmynarz,1,LaurensRietveld,Thanks for the pr (and sorry for the slow response ). Will release this in the next week together with some other issues
7,TriplyDB/YASGUI.YASQE,76,2016-01-11T07:52:00Z,2016-01-17T15:35:44Z,nan,Triply-Dev/YASGUI.YASQE-deprecated,erikap,1,LaurensRietveld,"excellent , thanks. I'm on holiday now, but will merge both PRs when I'm
back.

Gr, Laurens

---

Send with my thumbs.
Please excuse brevity and typos
On Jan 11, 2016 8:52 AM, ""Erika Pauwels"" notifications@github.com wrote:

> Use a protocol relative URL to get prefixes to avoid 'Mixed content'
> 
> ## errors in the browser when hosting YASGUI over HTTPS.
> 
> You can view, comment on, or merge this pull request online at:
> 
>   https://github.com/YASGUI/YASQE/pull/76
> Commit Summary
> - Use protocol relative URL to retrieve prefixes
> 
> File Changes
> - _M_ src/autocompleters/prefixes.js
>   https://github.com/YASGUI/YASQE/pull/76/files#diff-0 (4)
> 
> Patch Links:
> - https://github.com/YASGUI/YASQE/pull/76.patch
> - https://github.com/YASGUI/YASQE/pull/76.diff
> 
> —
> Reply to this email directly or view it on GitHub
> https://github.com/YASGUI/YASQE/pull/76.
"
