No,mainline_repo,pr_no,created_at,merged_at,repo_origin_ml,repo_destin,pr_owner,no_commenters,pr_commenters,pr_comments
1,openlayers/closure-util,201,2016-08-03T08:11:01Z,2016-08-03T08:59:56Z,fredj/closure-util,openlayers/closure-util,fredj,4,probins/fredj/ahocevar/fredj,"I think this makes sense. Node is dropping LTS for 0.12 at the end of the year anyway https://github.com/nodejs/LTS/
 And we should tests version 6 instead of 5
 Looks good. And yes, better to test with Node 6 rather than 5.
 Thanks for the review
"
2,openlayers/closure-util,200,2016-08-03T07:36:04Z,2016-08-03T09:04:00Z,nan,openlayers/closure-util,probins,2,probins/fredj,"re-started so Travis now passes
 Thanks @probins 
"
3,openlayers/closure-util,191,2016-07-25T11:57:38Z,2016-08-15T09:03:56Z,nan,openlayers/closure-util,sbrunner,1,ahocevar,"Looks good, please merge.
"
4,openlayers/closure-util,180,2016-06-27T06:40:07Z,2016-06-27T12:44:15Z,fredj/closure-util,openlayers/closure-util,fredj,2,ahocevar/fredj,"Looks good, please merge.
 Thanks for the review
"
5,openlayers/closure-util,156,2016-05-23T06:50:22Z,2016-05-25T07:17:48Z,fredj/closure-util,openlayers/closure-util,fredj,2,ahocevar/fredj,"Looks good, please merge.
 Thanks for the review
"
6,openlayers/closure-util,150,2016-05-11T22:42:55Z,2016-05-30T07:14:06Z,gberaudo/closure-util,openlayers/closure-util,gberaudo,3,gberaudo/gberaudo/fredj,"Any review?
 Is there something wrong or unclear with this PR?
@tschaub, @fredj, this is blocking openlayers/ol3#5341. It would be great if one of you had some time to review this PR so that I can go forward.
 LGTM
"
7,openlayers/closure-util,125,2016-03-29T07:30:24Z,2016-03-29T08:57:29Z,fredj/closure-util,openlayers/closure-util,fredj,2,ahocevar/fredj,"Looks good. Please merge.
 Thanks for the review
"
8,openlayers/closure-util,90,2016-01-29T19:55:06Z,2016-02-01T08:06:33Z,tschaub/closure-util,openlayers/closure-util,tschaub,1,fredj,"+1, thanks !
"
9,openlayers/closure-util,87,2016-01-28T08:15:31Z,2016-02-22T08:59:21Z,fredj/closure-util,openlayers/closure-util,fredj,5,fredj/fredj/ahocevar/fredj/fredj,"Thanks for any review
 A new compiler version was released yesterday, updated
 Looks good, please merge.
 I've just checked this version with ol3 and it doesn't build (new errors) 
 All the ol3 issue have been fixed
"
10,openlayers/closure-util,77,2016-01-04T12:21:07Z,2016-01-05T07:28:45Z,fredj/closure-util,openlayers/closure-util,fredj,1,tschaub,"Looks good.  Please merge.
"
11,openlayers/closure-util,75,2015-10-20T13:08:41Z,2015-11-02T08:30:15Z,fredj/closure-util,openlayers/closure-util,fredj,3,fredj/fredj/elemoine,"ol3 compiles with this version
 Thanks for any review
 LGTM.
"
12,openlayers/closure-util,74,2015-10-19T08:52:15Z,2015-10-20T13:05:20Z,fredj/closure-util,openlayers/closure-util,fredj,1,elemoine,"Thanks @fredj.
"
13,openlayers/closure-util,72,2015-09-24T09:57:18Z,2015-09-24T10:00:46Z,nan,openlayers/closure-util,elemoine,2,elemoine/fredj,"When merged I'll create a new closure-util release and use it in OpenLayers.
 Please merge when travis is happy
"
14,openlayers/closure-util,71,2015-09-16T07:04:46Z,2015-09-22T07:26:24Z,fredj/closure-util,openlayers/closure-util,fredj,4,fredj/elemoine/fredj/elemoine,"Thanks for any review
 I have to admit that I don't understand the problem and why moving `temp` from `devDependencies` to `dependencies` fixes it. But feel free to merge if you think this is the proper fix. More explanations would also be welcome.
 If closure-util is installed as a devDependencies, the devDependencies from closure-util are not installed at all.
 Please merge.
"
15,openlayers/closure-util,69,2015-08-24T10:48:10Z,2015-08-24T11:43:40Z,fredj/closure-util,openlayers/closure-util,fredj,5,elemoine/elemoine/fredj/elemoine/fredj,"I am also having problems with closure-util 1.6. See https://github.com/openlayers/ol3/pull/4028. Maybe it's related to your PR.
 Yep, that fixes it. We could also use single quotes in ol3's umdWrapper, no?
 > We could also use single quotes in ol3's umdWrapper, no?

I didn't tried but it should work. 
 I think you can still merge that. And I think it would make sense to release 1.6.1. Would you do that?
 > And I think it would make sense to release 1.6.1. Would you do that?

I will do it
"
16,openlayers/closure-util,68,2015-08-20T13:29:04Z,2015-08-20T15:22:06Z,nan,openlayers/closure-util,elemoine,2,tschaub/elemoine,"Looks good.  Thanks @artursmirnov for the initial fix, and thanks @elemoine for finalizing it.
 Cool. I'll create a new release.
"
17,openlayers/closure-util,67,2015-08-20T12:19:54Z,2015-09-02T07:03:21Z,fredj/closure-util,openlayers/closure-util,fredj,10,elemoine/fredj/elemoine/fredj/elemoine/fredj/elemoine/fredj/elemoine/fredj,"Does OpenLayers compile with this?
 Depends on https://github.com/openlayers/ol3/pull/4027
 Is this ready for merging?
 re-testing now
 Thanks @fredj. This is for https://github.com/camptocamp/ngeo/issues/306: ngeo and ngeo app builds fail at compilation time because of changes in the angular externs. My guess is that these changes depend on recent version of the compiler.
 ol3 compiles with  this version.
tested with:

``` diff
diff --git a/closure-util.json b/closure-util.json
index 1568b29..efbeda5 100644
--- a/closure-util.json
+++ b/closure-util.json
@@ -1,3 +1,4 @@
 {
+  ""compiler_url"": ""http://dl.google.com/closure-compiler/compiler-20150729.zip"",
   ""library_url"": ""https://github.com/google/closure-library/archive/a5f9b8a.zip""
 }
```

and `make ci`
 So I'd suggest that we merge this, publish a new version of closure-util, and update closure-util in ol3. I can take care of the rest when this is merged.
 version 1.6.2 or 1.7.0 ?
 What do we usually do when upgrading the compiler? 
 ""minor"" update -> 1.7.0
"
18,openlayers/closure-util,66,2015-07-08T01:52:47Z,2015-07-08T14:47:56Z,tschaub/closure-util,openlayers/closure-util,tschaub,2,elemoine/tschaub,"This looks good to me.
 Thanks @elemoine.
"
19,openlayers/closure-util,65,2015-06-24T12:19:11Z,2015-08-04T09:11:51Z,fredj/closure-util,openlayers/closure-util,fredj,3,fredj/elemoine/fredj,"ecma 5 is a subset of ecma 6; this change is backward compatible 
 This looks good to me.
 Thanks for the review.
FYI I'm using it to play with es6 in ol3: https://github.com/openlayers/ol3/compare/master...fredj:es6
"
20,openlayers/closure-util,60,2015-05-07T11:51:08Z,2015-05-07T15:48:15Z,fredj/closure-util,openlayers/closure-util,fredj,2,elemoine/fredj,"Please merge if ol3 still compiles.
 ol3 is happy
(FYI: I need this new version because of https://github.com/google/closure-compiler/pull/916; these externs are included in the compiler)
"
21,openlayers/closure-util,55,2015-04-02T09:30:24Z,2015-04-02T10:09:02Z,malaretv/closure-util,openlayers/closure-util,malaretv,1,elemoine,"Thanks.
"
22,openlayers/closure-util,54,2015-04-02T09:26:42Z,2015-04-02T10:08:37Z,malaretv/closure-util,openlayers/closure-util,malaretv,1,elemoine,"Very nice.
"
23,openlayers/closure-util,53,2015-03-31T15:39:10Z,2015-04-04T16:53:53Z,nan,openlayers/closure-util,elemoine,4,elemoine/elemoine/tschaub/elemoine,"Now rebased on the current master.
 I just updated the description of the issue. Please review.
 Looks great @elemoine.  One minor comment about the `_namingConvention`, but that is a stylistic thing (and not yet enforced).

Please merge (and release).
 > Looks great @elemoine. One minor comment about the _namingConvention, but that is a stylistic thing (and not yet enforced).

I'll remove the underscore before merging. Thanks for the review.
"
24,openlayers/closure-util,52,2015-03-31T13:44:33Z,2015-04-02T13:29:54Z,nan,openlayers/closure-util,elemoine,4,elemoine/tschaub/elemoine/tschaub,"This is now ready for review.
 @elemoine please rebase.
 Now rebased.
 Looks great @elemoine.  One minor comment above about avoiding the 30s timeout time for all tests, but I think this looks good to merge otherwise.
"
25,openlayers/closure-util,51,2015-03-31T12:56:41Z,2015-04-02T11:10:54Z,fredj/closure-util,openlayers/closure-util,fredj,4,fredj/elemoine/fredj/elemoine,"Depends on https://github.com/openlayers/ol3/pull/3433
 @fredj can this be merged?
 Yes, it's ready
 Please merge.
"
26,openlayers/closure-util,50,2015-03-31T12:53:15Z,2015-03-31T13:45:46Z,nan,openlayers/closure-util,elemoine,1,fredj,"+1
"
27,openlayers/closure-util,46,2015-02-25T12:25:59Z,2015-02-25T13:34:55Z,fredj/closure-util,openlayers/closure-util,fredj,2,elemoine/fredj,"Looks good to me.

Out of curiosity, how do you update the `compiler-options.txt` file?
 With:

```
java -jar compiler.jar --help 2&> compiler-options.txt
```

and a bit of edit afterward
"
28,openlayers/closure-util,45,2015-01-13T09:04:08Z,2015-01-16T07:54:32Z,nan,openlayers/closure-util,elemoine,2,ahocevar/tschaub,"Looks good to me. But I think it's fair to leave the final decision to @tschaub.
 Sounds good to me.
"
29,openlayers/closure-util,44,2014-12-09T08:45:03Z,2014-12-09T10:49:36Z,fredj/closure-util,openlayers/closure-util,fredj,1,elemoine,"Looks good.
"
30,openlayers/closure-util,43,2014-11-17T10:46:44Z,2014-11-26T06:18:36Z,fredj/closure-util,openlayers/closure-util,fredj,5,elemoine/fredj/elemoine/fredj/tschaub,"I was hesitating to do the update because several problems have been reported on the latest compiler version on the closure-compiler mailing list. Does ol3 compile without errors with this version of the compiler?
 ol3 compile without errors, see https://github.com/fredj/ol3/compare/update-closure
 Cool!
 Now with the latest release: v20141120
 I think this looks safe to merge (we manage the Compiler version for ol3 separately anyhow).
"
31,openlayers/closure-util,42,2014-10-16T20:17:18Z,2015-01-08T07:14:43Z,tschaub/closure-util,openlayers/closure-util,tschaub,2,elemoine/tschaub,"@tschaub, can this be merged? It looks good to me.
 Hmmm.   I just sat down with a Windows VM the other day and found some other issues.  But I think this one is still valid.
"
32,openlayers/closure-util,40,2014-10-14T07:41:52Z,2014-10-14T15:30:28Z,fredj/closure-util,openlayers/closure-util,fredj,1,tschaub,"Please merge.
"
33,openlayers/closure-util,39,2014-10-10T14:11:34Z,2014-10-14T05:56:22Z,eriktim/closure-util,openlayers/closure-util,eriktim,1,tschaub,"Thanks @gingerik.
"
34,openlayers/closure-util,38,2014-09-26T20:24:46Z,2014-09-30T03:15:47Z,tschaub/closure-util,openlayers/closure-util,tschaub,4,elemoine/elemoine/tschaub/elemoine,"That sounds good to me. Am I right to think that we will have to use the `closure-util` command in ol3 instead of doing [`node node_modules/closure-util/install.js`](https://github.com/openlayers/ol3/blob/master/package.json#L7) at `postinstall` time?
 This may also help us for ngeo. See https://github.com/camptocamp/ngeo/pull/40.
 Right.  This is a follow up to https://github.com/openlayers/ol3/issues/2668#issuecomment-54220259.  Still need to confirm that this will work in practice.
 Woa. Very nice.
"
35,openlayers/closure-util,37,2014-09-15T21:39:52Z,2014-09-17T04:49:52Z,pdehaan/closure-util,openlayers/closure-util,pdehaan,3,pdehaan/pdehaan/tschaub,"I took the lazy way out and only updated **send** (and **grunt-contrib-watch** -- but turns out that it still never fixed that **qs** warning :sadtrombone:).

These packages could still optionally be updated, but figured they may have more  of an impact and require refactoring if any API changes. Let me know if you want me to file a new tracking bug.

``` sh
$ npm outdated --depth 0 | sort
Package               Current  Wanted  Latest  Location
acorn                   0.4.2   0.4.2   0.8.0  acorn
async                   0.2.9   0.2.9   0.9.0  async
chai                    1.8.1   1.8.1   1.9.1  chai
gaze                    0.4.3   0.4.3   0.6.4  gaze
glob                    3.2.7   3.2.7   4.0.5  glob
grunt-contrib-jshint    0.8.0   0.8.0  0.10.0  grunt-contrib-jshint
grunt-mocha-test        0.8.2   0.8.2  0.12.0  grunt-mocha-test
handlebars              1.3.0   1.3.0   2.0.0  handlebars
minimatch              0.2.14  0.2.14   1.0.0  minimatch
npmlog                  0.0.6   0.0.6   0.1.1  npmlog
socket.io              0.9.16  0.9.16   1.1.0  socket.io
```
 Added another commit to update to **get-down@0.5.0** which should solve one of the two issues reported by `nsp audit-shrinkwrap`.
 Thanks @pdehaan!

Updates to the other dependencies are welcome as well.  Though the test coverage is not good enough to do so without some care.
"
36,openlayers/closure-util,35,2014-09-08T11:23:07Z,2014-09-08T13:21:39Z,fredj/closure-util,openlayers/closure-util,fredj,1,elemoine,"Please merge. Thanks.
"
37,openlayers/closure-util,33,2014-08-04T08:17:05Z,2014-08-04T08:26:04Z,fredj/closure-util,openlayers/closure-util,fredj,1,elemoine,"Looks good to me.
"
38,openlayers/closure-util,32,2014-08-02T10:40:02Z,2014-09-08T13:20:54Z,nan,openlayers/closure-util,probins,3,elemoine/fredj/elemoine,"This looks good to me. @tschaub please merge if you agree.
 ping @tschaub 
 Do not ping @tschaub, he's busy right now. Just merge :-)
"
39,openlayers/closure-util,29,2014-07-03T08:07:21Z,2014-07-03T11:50:21Z,nan,openlayers/closure-util,elemoine,2,tschaub/elemoine,"Looks good to me.
 Thanks.
"
40,openlayers/closure-util,28,2014-07-02T07:09:51Z,2014-07-02T08:15:38Z,fredj/closure-util,openlayers/closure-util,fredj,1,elemoine,"Looks good to me. Please merge when Travis passes.
"
41,openlayers/closure-util,27,2014-06-29T17:57:37Z,2014-06-29T18:57:39Z,tschaub/closure-util,openlayers/closure-util,tschaub,1,elemoine,"Looks good to me.
"
42,openlayers/closure-util,26,2014-06-19T20:06:28Z,2014-06-19T20:31:11Z,nan,openlayers/closure-util,elemoine,1,tschaub,"Please merge.
"
43,openlayers/closure-util,25,2014-06-19T19:51:45Z,2014-06-19T20:25:06Z,tschaub/closure-util,openlayers/closure-util,tschaub,1,elemoine,"Looks good to me. Thanks.
"
44,openlayers/closure-util,23,2014-06-12T03:16:14Z,2014-06-13T17:38:53Z,tschaub/closure-util,openlayers/closure-util,tschaub,1,elemoine,"Feel free to merge this (and further PRs related to the build failures).
"
45,openlayers/closure-util,22,2014-06-11T15:06:10Z,2014-06-19T19:17:56Z,nan,openlayers/closure-util,elemoine,8,tschaub/elemoine/elemoine/tschaub/elemoine/elemoine/tschaub/elemoine,"Can you talk more about requires that cannot be satisfied?
 Sure. It's related to a lib we're building. This lib's code includes `goog.require`'s for `ol` namespaces/symbols. We want to be able to compile ol, that lib, and the application together. But we also want to create a standalone version of that lib, with no ol code included. When building the standalone version closure-util complains on `goog.require`'s for `ol`, because it cannot find corresponding `goog.provide`'s among the source files. So when building the standalone version I'd like to use `""ignoreRequires"": ""^ol\\..*""` in the manager config. I hope this clarifies our need for such an option. I'm happy to rename to option and write tests if that patch makes sense.
 Unconvinced?
 This makes sense to me @elemoime.  I just got caught up with the build failures.  Please rebase and continue your work with this.
 I just added a test, and mentioned this option in the readme.
 @tschaub, need anything else from me on that PR? :)
 Looks good to me @elemoine.  Minor doc comment.  Please merge and publish.
 I've updated the readme as suggested. I also created two sections for the options, to separate advanced/secondary options like `ignoreRequires` from the main options. I hope it makes sense.
"
46,openlayers/closure-util,21,2014-06-05T22:00:38Z,2014-06-06T06:00:20Z,tschaub/closure-util,openlayers/closure-util,tschaub,1,elemoine,"+1 thanks
"
47,openlayers/closure-util,17,2014-05-23T10:32:01Z,2014-05-23T10:36:43Z,nan,openlayers/closure-util,probins,1,elemoine,"Cool. Thanks.
"
48,openlayers/closure-util,16,2014-05-20T23:10:09Z,2014-05-21T17:36:00Z,tschaub/closure-util,openlayers/closure-util,tschaub,1,elemoine,"Looks good. Thanks for the patch.
"
49,openlayers/closure-util,13,2014-05-08T07:42:02Z,2014-05-09T05:37:19Z,fredj/closure-util,openlayers/closure-util,fredj,1,tschaub,"Please merge.
"
50,openlayers/closure-util,11,2014-04-17T21:11:57Z,2014-04-18T14:22:31Z,tschaub/closure-util,openlayers/closure-util,tschaub,2,elemoine/elemoine,"This looks good. But why use `-server` by default? Using `-client` would make more sense to me here, but I'm not a Java expert. Just curious.
 Just noticed that you provided a link to the Closure Compiler FAQ. Very good. Please merge.
"
51,openlayers/closure-util,9,2014-04-16T07:21:25Z,2014-04-16T12:29:54Z,fredj/closure-util,openlayers/closure-util,fredj,1,tschaub,"Thanks @fredj.  Please merge.
"
52,openlayers/closure-util,7,2014-04-07T23:22:54Z,2014-04-09T17:03:51Z,tschaub/closure-util,openlayers/closure-util,tschaub,1,tschaub,"These changes will be used in an upcoming build task for ol3, so I'm merging.
"
