No;variant_repo;pr_no;created_at;closed_at;merged_at;repo_origin_ml;repo_destin;pr_owner;no_commenters;pr_commenters;pr_comments
0;andyburke/tinycache;3;2014-09-12T04:56:35Z;2014-09-12T19:48:27Z;2014-09-12T19:48:27Z;;andyburke/tinycache;Efreak;1;coveralls;"[![Coverage Status](https://coveralls.io/builds/1200463/badge)](https://coveralls.io/builds/1200463)

Coverage remained the same when pulling **6f56225764fa767574ebb322d051376ad499c0d9 on Efreak:patch-1** into **7807d9f8649330427d0b6c528c61a8d05e3995f4 on andyburke:master**.
"
