No;variant_repo;pr_no;created_at;closed_at;merged_at;repo_origin_ml;repo_destin;pr_owner;no_commenters;pr_commenters;pr_comments
1;cnpm/node-gyp-install;2;2017-02-07T17:38:34Z;2017-02-08T15:41:39Z;;SwenChan/node-gyp-install;cnpm/node-gyp-install;SwenChan;2;mention-bot/fengmk2;@SwenChan, thanks for your PR! By analyzing the history of the files in this pull request, we identified @fengmk2 and @mafintosh to be potential reviewers. 我手动合并。
2;cnpm/node-gyp-install;1;2016-06-30T02:50:37Z;2016-07-01T03:34:06Z;2016-07-01T03:34:06Z;SwenChan/node-gyp-install;cnpm/node-gyp-install;SwenChan;2;mention-bot/fengmk2;"By analyzing the blame information on this pull request, we identified @fengmk2 and @mafintosh to be potential reviewers
 +1
"
