No;variant_repo;pr_no;created_at;closed_at;merged_at;repo_origin_ml;repo_destin;pr_owner;no_commenters;pr_commenters;pr_comments
11;lijunle/depcheck-es6;84;2015-10-16T20:19:10Z;2015-10-20T16:34:10Z;2015-10-20T16:34:10Z;mathieudutour/depcheck-es6;lijunle/depcheck-es6;mathieudutour;1;lijunle;"Hi, @mathieudutour Thanks for working on this.

Is CoffeeScript compatible with ES6 import declaration? If yes, could you please add a test case for it?
"
12;lijunle/depcheck-es6;83;2015-10-16T15:34:04Z;2015-10-16T18:14:26Z;;mathieudutour/depcheck-es6;lijunle/depcheck-es6;mathieudutour;4;lijunle/mathieudutour/lijunle/mathieudutour;"The test case failed because it finds dependencies on the `depend` function calls.

In general, we grab `require` function calls to get the dependent packages. However, user can use other function calls to define dependencies, and user can opt-in their logic by themselvies. 

In this particular test case, it find dependencies from `depend` function calls and ignore the original `require` function calls from AST. Deps-regex only report the packages for `require` function calls, so it fails on this test case.

I agree that, this is a rare corner case. However, I think we should still support it in native JavaScript file.
 Oh I get it. But then it's incompatible with all parsers returning just the array of dependencies right?
 No, only this test case ignore the `require` function calls.

In regards to this RP, consider a known issue https://github.com/mathieudutour/deps-regex/issues/1 from deps-regex, we could **not** touch the existing ES6 and JSX parser, but introduce deps-regex for CoffeeScript parser. If someone report issues related to the known issue, we have a chance to ""fix"" it.
 Agree. I will personally use deps-regex for everything as having the trade-off between false positive and performance is worth it in my case. Feel free to close this PR.
"
17;lijunle/depcheck-es6;76;2015-10-14T11:39:28Z;2015-10-15T02:42:24Z;2015-10-15T02:42:24Z;dylang/depcheck;lijunle/depcheck-es6;dylang;8;lijunle/dylang/lijunle/dylang/lijunle/dylang/dylang/lijunle;"Hi, @dylang. Thanks for handling this. Two question:
- Any concerns to touch `good` test case?
- I saw that, `require(1)` is meant to support browserify output. Is that a necessary to support? I have removed the `require number` test case in [this commit](https://github.com/lijunle/depcheck-es6/commit/7375e72977631dd6b3f2ea4ca7808d58592d70d3).
 Thanks for taking a look at my PR. I love how you have ""modernized"" this package, lots I can learn from your improvements.

Good: I touched the `good` case to make sure we were testing `package/file.js` occurrences.

Numbers: I was seeing issues locally and getting issues reported when `depCheck` would read a file `browserify` built because it was using numbers for module names and `<number>.replace` would throw an `undefined function` error. 
 In regards to the _good_ test case, I could rather move those `require`s to _scoped_module_ test case and mention they are the test cases inspired from [require-package-name](https://www.npmjs.com/package/require-package-name).

In regard to the number issue, currently, depcheck-es6 will [ignore](https://github.com/lijunle/depcheck-es6/blob/master/src/detector/requireCallExpression.js#L7) the `require` statements with number.
 > In regard to the number issue, currently, depcheck-es6 will ignore the require statements with number. 

Haha, awesome!

Changes made based on your helpful feedback.
 Thanks for your updating, could you please squash your chagnes to one commit? Besides, I am thinking that, we could keep the `require(1)` in a separated test case - it _should ignore require number_.
 I didn't include a test for `it should ignore require number` because it's unrelated to this feature.
 The appveyor fail doesn't seem related, maybe just a hiccup on their system? Can you try re-running it?
 That is OK, I am re-running it.

It may caused by deep folder hierarchy in Windows. In that case, I should use NPM 3.x for AppVeyor.
"
70;lijunle/depcheck-es6;7;2015-09-19T18:23:39Z;2015-09-19T20:15:50Z;2015-09-19T20:15:50Z;woodb/depcheck-es6;lijunle/depcheck-es6;woodb;5;woodb/lijunle/lijunle/woodb/woodb;"So it turns out that `node-source-walker` doesn't like it when it finds the `import ""module-name"" as name;` syntax. I've just removed it from the tests, as that problem is upstream of us. I think this covers all our other bases though.
 Yes, I am thinking about if it is necessary to merge this. :ghost: 
 Besides, I think it is OK to ignore the failing case. Because Babel does not support it too.

https://babeljs.io/repl/#?experimental=false&evaluate=true&loose=false&spec=false&code=import%20%22module-name%22%20as%20name%3B
 Agreed, if Babel doesn't support it then I think we're good. Besides, it wouldn't be a depcheck problem anyway.
 Just wanted to point out that in https://github.com/woodb/depcheck-es6/commit/02c4a6150b7d45b41e2f1354363dc47a43b07f7a I addressed your line note and made the module name checks explicit. It's kinda hard to see when surrounded by the comments. We should be good now... hopefully :) Thanks for taking the time to review.
"
