No;variant_repo;pr_no;created_at;closed_at;merged_at;repo_origin_ml;repo_destin;pr_owner;no_commenters;pr_commenters;pr_comments
2;Skyscanner/react-native-awesome-card-io;4;2019-01-25T15:39:31Z;2019-01-30T11:34:30Z;2019-01-30T11:34:30Z;;Skyscanner/react-native-awesome-card-io;jmikulka;1;jmikulka;"Hi @emmajam,

I've updated `package.json`, `package-lock.json` and `RNAwesomeCardIO.podspec`. Once this is merged, we need to create new git tag `v0.7.0-skyscanner` and publish this package to public npm registry under `@skyscanner/react-native-awesome-card-io`, version `0.7.0-skyscanner`.

Many thanks,
Jiri"
