No;variant_repo;pr_no;created_at;closed_at;merged_at;repo_origin_ml;repo_destin;pr_owner;no_commenters;pr_commenters;pr_comments
5;tadas-s/isbnjs;11;2016-03-11T11:50:38Z;2016-03-14T12:13:06Z;2016-03-14T12:13:06Z;iwazaru/isbnjs;tadas-s/isbnjs;iwazaru;1;tadas-s;"Many thanks @iwazaru ! It might take couple days though until I get a chance to review it properly, hope it's OK.
"
