No;variant_repo;pr_no;created_at;closed_at;merged_at;repo_origin_ml;repo_destin;pr_owner;no_commenters;pr_commenters;pr_comments
1;tonyxiao/react-native-analytics;14;2017-11-28T10:09:53Z;2017-12-01T19:01:43Z;2017-12-01T19:01:43Z;SanyasiraoM/react-native-analytics;tonyxiao/react-native-analytics;SanyasiraoM;2;SanyasiraoM/sesm;@tonyxiao @sesm updated peer version @SanyasiraoM Looks good!
2;tonyxiao/react-native-analytics;13;2017-11-28T05:43:51Z;2017-11-28T10:08:12Z;;SanyasiraoM/react-native-analytics;tonyxiao/react-native-analytics;SanyasiraoM;2;SanyasiraoM/sesm;"@tonyxiao @sesm updated in single PR @SanyasiraoM Thank you for quick response! 
The only thing left: react-native peer dependency should be `>=0.40.0` rather then just `0.40.0`, to allow all later version."
3;tonyxiao/react-native-analytics;12;2017-11-27T13:06:35Z;2017-11-28T09:57:35Z;;hellohippo/react-native-analytics;tonyxiao/react-native-analytics;sesm;1;sesm;Closing as duplicate #13 
4;tonyxiao/react-native-analytics;11;2017-11-24T15:50:42Z;2017-12-11T18:02:21Z;;datnguyen92/react-native-analytics;tonyxiao/react-native-analytics;datnguyen92;3;sesm/sesm/datnguyen92;"Could you please change RN peer dependency to 0.40.0? In this case #12 will be redundant and I'll close it as duplicate.
Thanks! @datnguyen92 can we close this one as a duplicate of #14? That PR includes updated peerDependency. Sure I will close this PR, sorry for the late response."
5;tonyxiao/react-native-analytics;10;2017-10-16T11:41:53Z;2017-11-28T05:41:41Z;;SanyasiraoM/react-native-analytics;tonyxiao/react-native-analytics;SanyasiraoM;1;sesm;"Could you please combine your two PRs in one and update RN peer dependency to 0.40?
In this case the other 2 similar PRs will be redundant."
6;tonyxiao/react-native-analytics;9;2017-10-16T11:41:28Z;2017-11-28T05:42:18Z;;SanyasiraoM/react-native-analytics;tonyxiao/react-native-analytics;SanyasiraoM;1;sesm;"Could you please combine your two PRs in one and update RN peer dependency to 0.40?
In this case the other 2 similar PRs will be redundant."
7;tonyxiao/react-native-analytics;5;2017-03-21T22:08:53Z;2017-10-13T16:42:08Z;2017-10-13T16:42:08Z;indiemoney/react-native-indie-analytics;tonyxiao/react-native-analytics;jlo1;1;SanyasiraoM;@tonyxiao Any update on when you might merge this?
9;tonyxiao/react-native-analytics;1;2016-11-14T15:14:37Z;2017-12-12T07:37:22Z;;tijs/react-native-analytics;tonyxiao/react-native-analytics;tijs;4;gpminsuk/tijs/gpminsuk/sesm;"@tijs What was your issue? Was it library not being linked? My work around was to add .h and .m files to the project not to Libraries so that the files can be compiled. @gpminsuk the code as it was gave me a build error in xcode. xcode suggested replacing the angled brackets with quotes, as in my PR. When you do that it builds fine. @tijs Okay then, it seems not the same issue that I posted in Issues of this project.

Thanks for confirmation!
-Minsuk @tijs this fix is already merged in scope of #14 , I guess we can close this PR."
