No;mainline_repo;pr_no;created_at;closed_at;merged_at;repo_origin;repo_destin;pr_owner;no_commenters;pr_commenters;pr_comments
0;bpmn-io/bpmn-js-bpmnlint;19;2020-01-31T10:59:46Z;2020-01-31T15:30:55Z;2020-01-31T15:30:55Z;rumata28/bpmn-js-bpmnlint;bpmn-io/bpmn-js-bpmnlint;rumata28;4;nikku/nikku/rumata28/nikku;"You may want to [add a test case](https://github.com/bpmn-io/bpmn-js-bpmnlint/blob/master/test/spec/LintingSpec.js) that ensures we do not accidentally unbuild this feature in the future.
 Otherwise, looking good. Great contribution.

Good catch on the CRLF, too. I'll reformat the code base to LF after your PR is merged. Yes, you are right (lazy me! :) )
I added some tests, hope I done it right :)

I also would like to note that I have hard times with these scripts:
    ""bundle"": ""NODE_ENV=production rollup -c"",
    ""bundle:watch"": ""NODE_ENV=production rollup -c -w"",

Without removing locally ""NODE_ENV=production"", I could not get it work, getting the following error:
`'NODE_ENV' is not recognized as an internal or external command, operable program or batch file.`
 Regarding [your comment](https://github.com/bpmn-io/bpmn-js-bpmnlint/pull/19#issuecomment-580770215), you're on Windows, right? You have to use a shell that allows passing of environment variables, POSIX style.

A couple of options:

* `gitbash`
* [Linux Subsystem For Windows](https://adamtheautomator.com/windows-subsystem-for-linux/)"
1;bpmn-io/bpmn-js-bpmnlint;15;2019-09-05T14:58:53Z;2019-09-05T15:18:59Z;2019-09-05T15:18:58Z;bpmn-io/bpmn-js-bpmnlint;bpmn-io/bpmn-js-bpmnlint;nikku;1;philippfromme;So it's basically like it was before. 😅 
