No;mainline_repo;pr_no;created_at;closed_at;merged_at;repo_origin;repo_destin;pr_owner;no_commenters;pr_commenters;pr_comments
0;dtolstyi/node-chromium;34;2020-09-01T13:03:39Z;2020-09-02T07:48:53Z;2020-09-02T07:48:53Z;Timon0/node-chromium;dtolstyi/node-chromium;Timon0;1;dtolstyi;"Nice, thank you @Timon0 !
I will verify it locally and merge."
1;dtolstyi/node-chromium;33;2020-08-10T02:56:31Z;2020-08-10T07:28:23Z;2020-08-10T07:28:23Z;ricksbrown/node-chromium;dtolstyi/node-chromium;ricksbrown;1;dtolstyi;Good points, Rick! Thank you.
2;dtolstyi/node-chromium;31;2020-08-04T02:36:10Z;2020-08-04T07:32:15Z;2020-08-04T07:32:15Z;ricksbrown/node-chromium;dtolstyi/node-chromium;ricksbrown;1;dtolstyi;Great work, Rick! Thank you!
3;dtolstyi/node-chromium;30;2020-08-01T11:26:12Z;2020-08-04T09:00:14Z;2020-08-04T09:00:14Z;ricksbrown/node-chromium;dtolstyi/node-chromium;ricksbrown;11;ricksbrown/dtolstyi/dtolstyi/ricksbrown/ricksbrown/dtolstyi/ricksbrown/dtolstyi/dtolstyi/ricksbrown/dtolstyi;"Hey dude - I added another commit to this after looking at #25 - I realised my previous commit would have broken the ability to share the node_modules directory between OSs. I've fixed that now and exposed `install` on the main API to facilitate what they are trying to do:

```js
chromium.install().then(function() {
    // do stuff...
});
``` Wow. That's amazing, Rick! Thank you. I'm taking a look into it now. Wow, I just checked Progress Bar and it looks really amazing! Thank you Rick! Ok yep - I've removed the progress bar from this PR.
 > OK, looks like we got 2 points remaining to solve and we are ready to go:
> 
> 1. Env Vars naming
> 2. `.cache` folder location

Thanks for all your feedback on the PR, your points have been wise and constructive, you sure know your stuff. It's amazing how much better people can make things when they work together.

I think the cache module looks so much better now using [node-cachedir](https://www.npmjs.com/package/cachedir) - I definitely had that wrong first time around trying to manage it ourselves. I think it's in safe hands now, that module gets well over 2 million downloads from NPM a week, so it is mature and well-tested. 

I'm really happy with it now, but if you still want to change it that's your call...
 Thank you for all your work, suggestions and kind words Rick. I do really appreciate it. 
I still think that all the merit here goes to you as far as I haven't done much and all was done by you.

I'm almost convinced to use `cachedir` module you found which is so widely-used. 

It's quite late here, so I don't want to merge and release a new version now (merging/releasing late night usually leads to very bad consequences). And, I would like to add **Contributors** section to README before release. So, I will try to do it tomorrow morning.

I need your advice regarding the version: do you think this is major release? For me it looks like one (I'm thinking about version 3.0.0). Here, it's quite complicated to tell but looks like back compatibility is broken in this version as far as we introduced caching by default what was not the case before. So, I'm not sure if this is actually 3.0.0 or 2.4.0. What do you think?

And could you open that PR with progress bar, please? I would love to have it available in next version as well.

Thank you once more for all your help! It's really huge and I do appreciate it! Yes on not making decisions late at night! I hear you man 🦉 

Hmmm, regarding the version bump - strictly speaking the **API** is backwards compatible with the previous release so it would probably be a minor increment (not 3.0.0). 

I see the caching as an implementation detail (which can easily be disabled to restore the old behavior).
As a consumer when I see a major version increment I assume things are likely to break - if I pick them up I know I might have to change my own code too - this PR is not likely to break anybody's existing code. 

I was going to ask if you think we should rename these for consistency:

`CHROMIUM_DOWNLOAD_HOST` > `NODE_CHROMIUM_DOWNLOAD_HOST`
`CHROMIUM_REVISION` > `NODE_CHROMIUM_REVISION`

If so, that would be a definite major version bump to 3.0.0 because it would not be backwards compatible.

FWIW I think the previous release might have been more of a candidate for a major version bump since we modified the export of install.js and changed the supported NodeJS version. For example the code honeo posted in #25 will no longer work in the previous release (they aren't using your official documented API though). 

Perhaps this PR and the previous one combined do add up to a 3.0.0

Ultimately you don't need to stick to strict semver anyway. I've seen people bump the major version just to indicate significant changes and I think that could apply here. 

I'd go with your gut feeling. Hi Rick,

Thank you for your recommendations.

Regarding the variables names, I've already been thinking about this and I got some mixed feelings.
From one side, I do love when everything is of the same format (all our variables start from `NODE_CHROMIUM`).
From the other side, it doesn't seem very intuitive and nice the name: `NODE_CHROMIUM_REVISION` as far as it pretends to specify revision of node_chromium and not chromium itself. But, if we look at it as a parameter with just `NODE_CHROMIUM` prefix is starts to make sense. 

Not sure if I managed to explain my feelings correctly but they are somehow mixed. 

But, if you mentioned this as well, I think it would be a good idea to have all our variables prefixed as `NODE_CHROMIUM`. I prefer this. Could you change old variables to a new format and then we will release a new major version? Great! Thank you, Rick! Hey man, I just tried the progressbar against the taobao mirror - the stream does not have the necessary HTTP headers.
Hope you don't mind, I'm going to throw in a fix for that too... Sure, no problem))"
4;dtolstyi/node-chromium;27;2020-07-23T14:17:49Z;2020-07-29T11:31:22Z;2020-07-29T11:31:22Z;psociety/node-chromium;dtolstyi/node-chromium;psociety;1;dtolstyi;Great! Thank you. README updates are done by @ricksbrown in PR #28 .
5;dtolstyi/node-chromium;22;2020-02-20T10:43:25Z;2020-02-27T15:19:57Z;2020-02-27T15:19:57Z;dhAlcojor/node-chromium-revision;dtolstyi/node-chromium;dhAlcojor;1;dhAlcojor;Resolves #21 
6;dtolstyi/node-chromium;13;2018-12-12T10:35:31Z;2018-12-12T18:16:55Z;2018-12-12T18:16:55Z;aschlosser-tf/node-chromium;dtolstyi/node-chromium;aschlosser-tf;4;dtolstyi/aschlosser-tf/dtolstyi/aschlosser-tf;"Good job, Alex @aschlosser-tf!

Could you add details about the usage (`npm_config_https_proxy`, `process.env.npm_config_proxy`, `process.env.npm_config_http_proxy` env variables) to `README.md` file?

Thank you! Will do. I will also update the package-lock.json as the CI suggests. Great! Thank you Alex! All done."
7;dtolstyi/node-chromium;4;2018-08-01T21:16:12Z;2018-11-14T12:08:35Z;2018-11-14T12:08:35Z;amilajack/node-chromium;dtolstyi/node-chromium;amilajack;1;dtolstyi;"I've still remained versions 6.x and 7.x as far as they are still maintained (6.x until April 2019).
Thank you for your PR @amilajack."
