No;mainline_repo;pr_no;created_at;closed_at;merged_at;repo_origin;repo_destin;pr_owner;no_commenters;pr_commenters;pr_comments
0;ehynds/grunt-image-embed;35;2014-08-21T23:05:45Z;2014-12-19T17:18:57Z;2014-12-19T17:18:57Z;shubik/grunt-image-embed;ehynds/grunt-image-embed;shubik;1;shubik;"Eric, hi, it would be great if you could approve my pull request. Look here: https://github.com/ehynds/grunt-image-embed/issues/33#issuecomment-66451774 -- people have same issue.
"
