No;mainline_repo;pr_no;created_at;closed_at;merged_at;repo_origin;repo_destin;pr_owner;no_commenters;pr_commenters;pr_comments
0;fvdm/nodejs-piwik;30;2017-10-15T00:43:42Z;2017-12-05T22:54:55Z;2017-12-05T22:54:55Z;fvdm/nodejs-piwik;fvdm/nodejs-piwik;greenkeeper[bot];1;greenkeeper[bot];"
Hey there 👋,

we noticed that this PR isn’t merged yet. Just to let you know: if you don't merge this PR, _Greenkeeper will not be enabled_ on this repo, and you won't receive updates for your dependencies.

If don't want to enable Greenkeeper here, just close or ignore this PR, we won't nag you again. ✌️

Have a great day! 🌴
"
1;fvdm/nodejs-piwik;7;2015-03-02T15:58:13Z;2015-03-02T16:40:14Z;2015-03-02T16:40:14Z;nan;fvdm/nodejs-piwik;julien-f;1;fvdm;"Ah yes, thanks. Still learning :smiley: 
"
2;fvdm/nodejs-piwik;6;2015-03-02T15:57:21Z;2015-03-02T16:46:58Z;2015-03-02T16:46:58Z;nan;fvdm/nodejs-piwik;julien-f;1;fvdm;"Looking good, thanks for helping!
"
3;fvdm/nodejs-piwik;1;2014-12-19T07:32:21Z;2014-12-19T08:26:53Z;2014-12-19T08:26:53Z;engelfrost/nodejs-piwik;fvdm/nodejs-piwik;engelfrost;1;fvdm;"Good one, thanks
"
