No;mainline_repo;pr_no;created_at;closed_at;merged_at;repo_origin;repo_destin;pr_owner;no_commenters;pr_commenters;pr_comments
0;harthur/replace;9;2013-01-24T03:57:32Z;2013-01-25T02:13:18Z;2013-01-25T02:13:18Z;nan;harthur/replace;sc0ttkclark;3;sc0ttkclark/sc0ttkclark/diogobaeder;"Related to #7, I just had a few moments and wanted to help in case it was what you were after. Saw your blog, disagree with the way people acted :(
 Also, sorry this wasn't a more substantial contribution. I like your utility, haven't used it yet but I love what it does. I often rely on my IDE to do this, but it's imperfect and doesn't let you replace against specific files that match patterns.
 Interesting addition, I agree that this would make the example easier to read. ""var"" and ""let"" seem like reserved words, and not arbitrary values which you want to replace, I think.
"
1;harthur/replace;4;2012-11-07T15:09:52Z;2012-11-08T20:12:05Z;2012-11-08T20:12:05Z;maxogden/replace;harthur/replace;maxogden;2;maxogden/maxogden;"oh yeah, also it would be cool if the default exclude list automatically added itself to the options if it isn't specified
 my last comment here turned into https://github.com/harthur/replace/pull/5
"
