No;mainline_repo;pr_no;created_at;closed_at;merged_at;repo_origin;repo_destin;pr_owner;no_commenters;pr_commenters;pr_comments
0;MathieuLoutre/grunt-aws-s3;119;2017-06-22T22:05:08Z;2017-09-12T21:39:30Z;2017-09-12T21:39:30Z;smeder/grunt-aws-s3;MathieuLoutre/grunt-aws-s3;smeder;1;MathieuLoutre;This looks pretty good, thanks! (Sorry, I'm only seeing this now for some odd reason). I can't see any reason for not supporting other compression algorithms, just need to look over the code a bit more.
1;MathieuLoutre/grunt-aws-s3;112;2016-11-18T15:53:09Z;2016-11-20T19:16:34Z;2016-11-20T19:16:34Z;parsingphase/grunt-aws-s3;MathieuLoutre/grunt-aws-s3;parsingphase;1;MathieuLoutre;"Good catch, thanks!
"
2;MathieuLoutre/grunt-aws-s3;89;2015-11-09T09:01:38Z;2015-11-13T10:40:53Z;2015-11-13T10:40:53Z;AfterShip/grunt-aws-s3;MathieuLoutre/grunt-aws-s3;trioni;1;MathieuLoutre;"Oh that's pretty cool, thanks. Will merge!
"
3;MathieuLoutre/grunt-aws-s3;82;2015-09-06T15:02:37Z;2015-09-06T18:08:39Z;2015-09-06T18:08:39Z;nan;MathieuLoutre/grunt-aws-s3;immer;1;MathieuLoutre;"Good spot! Thanks :)
"
4;MathieuLoutre/grunt-aws-s3;80;2015-08-16T22:20:22Z;2015-08-17T08:12:07Z;2015-08-17T08:12:07Z;nan;MathieuLoutre/grunt-aws-s3;RHavar;1;MathieuLoutre;"Thanks! Old habit from CoffeeScript.
"
5;MathieuLoutre/grunt-aws-s3;65;2015-03-15T18:46:28Z;2015-03-16T16:46:48Z;2015-03-16T16:46:48Z;dedsm/grunt-aws-s3;MathieuLoutre/grunt-aws-s3;dedsm;2;MathieuLoutre/dedsm;"Ah! Good shout, however I'm having a hard time working out exactly what changed (the diff is a little messy). Did you essentially move the rename part before the `isFileDifferent` check (what would make sense)?
 yeah, I moved all the rename part to a separate function and I just call it before checking if object.dest is in the server list.

P.S.: maybe checking the diff with 'split' style helps? git made some clever diff thing in the commit that makes it very confusing.
"
6;MathieuLoutre/grunt-aws-s3;58;2015-02-04T20:27:40Z;2015-02-05T22:13:05Z;2015-02-05T22:13:05Z;ahageali/grunt-aws-s3;MathieuLoutre/grunt-aws-s3;ahageali;3;MathieuLoutre/ahageali/MathieuLoutre;"Oooh I see. Nice one. Any idea why the build fails? I'm not sure it's worked with the recent releases but I'd like to look into it before I merge it. Thanks!
 Please refer [here](https://github.com/MathieuLoutre/mock-aws-s3/pull/5) for a fix to the build failing.
 Amazing! Great work. I'll merge that very soon. Thanks for taking the time to find the source of the problem.

On Thu, Feb 5, 2015 at 1:48 AM, ahageali notifications@github.com wrote:

> ## Please refer [here](https://github.com/MathieuLoutre/mock-aws-s3/pull/5) for a fix to the build failing.
> 
> Reply to this email directly or view it on GitHub:
> https://github.com/MathieuLoutre/grunt-aws-s3/pull/58#issuecomment-72979858
"
7;MathieuLoutre/grunt-aws-s3;53;2015-01-09T12:29:14Z;2015-01-09T17:06:47Z;2015-01-09T17:06:47Z;nan;MathieuLoutre/grunt-aws-s3;jeantil;1;MathieuLoutre;"Good find!
"
8;MathieuLoutre/grunt-aws-s3;50;2014-12-08T20:12:29Z;2014-12-08T22:08:56Z;2014-12-08T22:08:56Z;bprodoehl/grunt-aws-s3;MathieuLoutre/grunt-aws-s3;bprodoehl;1;MathieuLoutre;"Oh! Sorry about that. Of course, any improvements to the docs are more than welcome :)
"
9;MathieuLoutre/grunt-aws-s3;47;2014-11-23T20:37:40Z;2014-11-24T09:37:34Z;2014-11-24T09:37:34Z;iltempo/grunt-aws-s3;MathieuLoutre/grunt-aws-s3;iltempo;1;MathieuLoutre;"Thanks! That's what you get when you're used to coffeescript!
"
10;MathieuLoutre/grunt-aws-s3;33;2014-07-31T14:33:45Z;2014-09-11T09:30:35Z;2014-09-11T09:30:35Z;admittedly/grunt-aws-s3;MathieuLoutre/grunt-aws-s3;seth-admittedly;1;MathieuLoutre;"This looks very cool thank you. I'll have a play before merging when I get some time but by the looks of it, it should be ok!
"
