No;mainline_repo;pr_no;created_at;closed_at;merged_at;repo_origin;repo_destin;pr_owner;no_commenters;pr_commenters;pr_comments
0;Merott/nativescript-pdf-view;40;2019-03-14T09:48:48Z;2019-03-14T12:51:50Z;2019-03-14T12:51:50Z;EddyVerbruggen/nativescript-pdf-view;Merott/nativescript-pdf-view;EddyVerbruggen;1;Merott;"Hey there @EddyVerbruggen 	- thanks for your PR, and sorry I haven't been quite attentive to this package, with lots of other commitments these days.

Merging now."
1;Merott/nativescript-pdf-view;13;2016-12-08T18:54:22Z;2017-02-11T15:05:30Z;2017-02-11T15:05:30Z;dpdragnev/nativescript-pdf-view;Merott/nativescript-pdf-view;dpdragnev;3;40x/Merott/dpdragnev;"+1
 Apologies for leaving this for so long, been so busy. I will be updating the module in the next week or two. Thank you for the PR. My pleasure.  I figured that you must have been busy.

On Jan 26, 2017 12:40 PM, ""Merott Movahedi"" <notifications@github.com>
wrote:

> Apologies for leaving this for so long, been so busy. I will be updating
> the module in the next week or two. Thank you for the PR.
>
> —
> You are receiving this because you authored the thread.
> Reply to this email directly, view it on GitHub
> <https://github.com/Merott/nativescript-pdf-view/pull/13#issuecomment-275507138>,
> or mute the thread
> <https://github.com/notifications/unsubscribe-auth/AK0awBj6cCbvetRjChSAJaXeZgktD2Kcks5rWQTPgaJpZM4LIKJV>
> .
>
"
