No;mainline_repo;pr_no;created_at;closed_at;merged_at;repo_origin;repo_destin;pr_owner;no_commenters;pr_commenters;pr_comments
0;mescroll/mescroll;345;2020-05-14T06:17:55Z;2020-07-16T02:11:39Z;2020-07-16T02:11:39Z;cuteCloud/mescroll;mescroll/mescroll;cuteCloud;1;mescroll;感谢反馈,已稍作优化,合并分支..
1;mescroll/mescroll;235;2019-04-19T07:21:11Z;2019-05-09T07:04:34Z;2019-05-09T07:04:34Z;Skura23/mescroll;mescroll/mescroll;Skura23;1;mescroll;O(∩_∩)O哈哈~ 确实是漏了 你可真仔细
2;mescroll/mescroll;147;2018-09-15T10:12:23Z;2018-09-29T01:42:50Z;2018-09-29T01:42:50Z;Leotw/mescroll;mescroll/mescroll;Leotw;2;Leotw/mescroll;"只修改了mescroll.js 没有修改压缩文件 感谢您的建议与支持,下个版本会加入,到时再合并您的分支哦 
再次感谢 Thanks♪(･ω･)ﾉ"
