No;mainline_repo;pr_no;created_at;closed_at;merged_at;repo_origin;repo_destin;pr_owner;no_commenters;pr_commenters;pr_comments
0;mozilla-frontend-infra/components;76;2020-01-15T14:00:33Z;2020-01-29T08:45:22Z;2020-01-29T08:45:22Z;nan;mozilla-frontend-infra/components;HP-bit;6;HP-bit/helfi92/HP-bit/helfi92/helfi92/HP-bit;"@helfi92 Error is of changing _MarkdownProps_ to _Markdownprops_.

![Screenshot from 2020-01-16 20-44-09](https://user-images.githubusercontent.com/43513114/72536808-fe43cb00-38a0-11ea-891d-accb75fd6eb9.png)
 Do you still see the error after implementing the diff mentioned above? You can test it by running the components styleguide. https://github.com/mozilla-frontend-infra/components/blob/master/README.md#development-and-contributing Can you explain to me this, why is the error not showing now ? It's because markdownProps was being fed to the TextField component. markdownProps is not defined in TextField...

```jsx
render() {
  const { classes, rows, markdownProps } = this.props;
  const { onChange, defaultTabIndex, ...props } = this.props;
  
  // ...
    
  <TextField
    name=""Write""
    onChange={this.handleValueChange}
    fullWidth
    multiline
    rows={rows}
    // ...props  will have markdownProps which is not defined in TextField
    {...props}
    value={props.value || value}
/>
  }
``` Could you rename the pull-request to follow the convention we use for this repo? https://github.com/mozilla-frontend-infra/components#committing-and-pushing-changes Thanks! > Could you rename the pull-request to follow the convention we use for this repo? https://github.com/mozilla-frontend-infra/components#committing-and-pushing-changes Thanks!

Done"
1;mozilla-frontend-infra/components;70;2019-11-15T11:47:43Z;2019-11-15T14:18:11Z;2019-11-15T14:18:10Z;Rolikasi/components;mozilla-frontend-infra/components;Rolikasi;1;helfi92;"This repo follows the ESLint convention. Based on commit messages, the repo will deploy new versions automatically. That's why I changed the PR title and added a new commit that starts with ""Fix: "" :)

https://github.com/mozilla-frontend-infra/components#committing-and-pushing-changes"
2;mozilla-frontend-infra/components;68;2019-10-30T11:11:32Z;2019-11-13T18:07:55Z;2019-11-13T18:07:55Z;Rolikasi/components;mozilla-frontend-infra/components;Rolikasi;1;Rolikasi;@helfi92, should I change test snapshot files?
3;mozilla-frontend-infra/components;64;2019-10-13T04:11:18Z;2019-10-14T14:02:40Z;2019-10-14T14:02:40Z;vishakhanihore/components;mozilla-frontend-infra/components;vishakhanihore;3;vishakhanihore/vishakhanihore/vishakhanihore;"@djmitche @helfi92 Please Review You are right, I did follow the same way dont know why it got added in
.json, no worries I will fix it tonight 😄.

On Sun, 13 Oct, 2019, 18:34 Dustin J. Mitchell, <notifications@github.com>
wrote:

> *@djmitche* commented on this pull request.
>
> This seems to have worked! However, adding it in packages.json suggests
> that this app depends directly on caniuse-lite, which it doesn't. We
> really just want the yarn.lock change. I think yarn upgrade --latest
> <package> will do this, but if not, another option is to delete the
> section in yarn.lock naming the package you'd like to upgrade, then run yarn
> install again -- it will put it back, but in the process it will use the
> latest version.
>
> —
> You are receiving this because you authored the thread.
> Reply to this email directly, view it on GitHub
> <https://github.com/mozilla-frontend-infra/components/pull/64?email_source=notifications&email_token=AM6PS4U5BFTXKIBR6WWQVJLQOMMGFA5CNFSM4JAFL7DKYY3PNVWWK3TUL52HS4DFWFIHK3DMKJSXC5LFON2FEZLWNFSXPKTDN5WW2ZLOORPWSZGOCHY2AVY#pullrequestreview-301047895>,
> or unsubscribe
> <https://github.com/notifications/unsubscribe-auth/AM6PS4TJGPEF25K7U7SD72LQOMMGFANCNFSM4JAFL7DA>
> .
>
 @djmitche fixed it . Please REview"
4;mozilla-frontend-infra/components;62;2019-10-13T03:11:15Z;2019-10-15T14:45:33Z;2019-10-15T14:45:33Z;vishakhanihore/components;mozilla-frontend-infra/components;vishakhanihore;5;vishakhanihore/vishakhanihore/vishakhanihore/helfi92/vishakhanihore;@helfi92 @djmitche Please Review @helfi92 made the requested changes. Please review @helfi92 Done, Please Review Let me know when this is ready for review. @helfi92 Ready for review
5;mozilla-frontend-infra/components;60;2019-10-12T00:51:56Z;2019-10-12T12:02:58Z;2019-10-12T12:02:58Z;vishakhanihore/components;mozilla-frontend-infra/components;vishakhanihore;1;vishakhanihore;"
@helfi92 Please Review."
6;mozilla-frontend-infra/components;57;2019-10-11T01:17:40Z;2019-10-11T13:12:51Z;2019-10-11T13:12:50Z;vishakhanihore/components;mozilla-frontend-infra/components;vishakhanihore;1;vishakhanihore;@helfi92 Please review .
7;mozilla-frontend-infra/components;55;2019-10-11T01:11:42Z;2019-10-11T13:17:17Z;2019-10-11T13:17:17Z;vishakhanihore/components;mozilla-frontend-infra/components;vishakhanihore;1;vishakhanihore;@helfi92 Please Review
8;mozilla-frontend-infra/components;49;2019-10-01T10:38:50Z;2019-10-15T18:48:42Z;2019-10-15T18:48:42Z;Shubhamchinda/components;mozilla-frontend-infra/components;Shubhamchinda;5;Shubhamchinda/helfi92/Shubhamchinda/helfi92/Shubhamchinda;"@djmitche 
Made the changes! :) Planning to review this very soon :) > Planning to review this very soon :)

Okay 👍 Thanks! @Shubhamchinda Did you have some time to look at https://github.com/mozilla-frontend-infra/components/pull/49#discussion_r333564354? :-) > @Shubhamchinda Did you have some time to look at [#49 (comment)](https://github.com/mozilla-frontend-infra/components/pull/49#discussion_r333564354)? :-)

Hey @helfi92 , I had been busy in college. I'll take a look right now! :)"
