No;mainline_repo;pr_no;created_at;closed_at;merged_at;repo_origin;repo_destin;pr_owner;no_commenters;pr_commenters;pr_comments
0;otalk/jingle-media-session;36;2018-04-18T13:29:08Z;2018-04-19T15:29:25Z;2018-04-19T15:29:25Z;otalk/jingle-media-session;otalk/jingle-media-session;fippo;2;xdumaine/fippo;I'm ok with lockless. It doesn't lock upstream projects, so either way. Probably better to leave unlocked to catch problems earlier. removed the lock
1;otalk/jingle-media-session;32;2017-09-22T19:38:49Z;2017-11-10T17:45:39Z;2017-11-10T17:45:39Z;jeffstephens/jingle-media-session;otalk/jingle-media-session;jeffstephens;2;NicoPampe/jeffstephens;"I ran into this issue to. When adding a stream without any audio, an error would occur. I only needed the video channel. This helped my issue!
+1 Hi @xdumaine - do you need anything else from me to merge this?"
2;otalk/jingle-media-session;31;2017-08-17T21:43:16Z;2017-09-30T14:32:04Z;2017-09-30T14:32:04Z;dwilson6/jingle-media-session;otalk/jingle-media-session;dwilson6;2;jmartine/RTGeorge;This fixed my problem. Thanks. I believe this will solve my problem too. Please merge.
