No;mainline_repo;pr_no;created_at;closed_at;merged_at;repo_origin;repo_destin;pr_owner;no_commenters;pr_commenters;pr_comments
0;rebassjs/grid;187;2019-08-02T20:09:45Z;2019-08-06T15:33:16Z;2019-08-06T15:33:16Z;sibelius/grid;rebassjs/grid;sibelius;4;jxnblk/sibelius/sibelius/jxnblk;"Oh! You’ll need to update the functions used here too. See the migration guide https://styled-system.com/guides/migrating#style-categories updated to use new grouped layout, updated snapshots as well

but 

@media screen and (min-width:40em) 

is missing from the new snapshots the old props like `width` won't work anymore? Still not sure what's going on with the snapshots, but I can take this from here. Thanks for working on this!"
1;rebassjs/grid;162;2018-12-03T07:35:58Z;2018-12-09T16:48:26Z;2018-12-09T16:48:26Z;SimeonC/grid;rebassjs/grid;SimeonC;9;vercel[bot]/SimeonC/jxnblk/SimeonC/jxnblk/jxnblk/SimeonC/jxnblk/SimeonC;"
This pull request is [automatically deployed](https://zeit.co/docs/features/now-for-github?utm_source=automated&utm_medium=github&utm_campaign=now_bot) with [Now](https://zeit.co/now?utm_source=automated&utm_medium=github&utm_campaign=now_bot).
To access deployments, click Details below or on the icon next to each push.


	
 @jxnblk Can you help shed some light onto why Travis doesn't pass? First off it complained about package-lock being different now it has some obscure sha error?
Tests and build pass on my local machine. Thanks! Not sure why the CI is failing, but looks like it might be related to the lock file – not sure if you wanna try undoing that change and running `npm i --package-lock-only` to see if it helps – otherwise I can try on another branch later. 

It might make sense to remove all the peer dependencies in this PR as well, see #157 @jxnblk Thanks for the tip, I tried that but it didn't change the package-lock file. I didn't remove the peerDependencies as it would have conflicted with https://github.com/rebassjs/grid/pull/158
I can just remove any changes to the peerDependencies then it won't conflict? Oh, missed the other PR, sorry. I'll get that merged in first. But yeah, other than doing `git checkout package-lock.json` to reset it, I'm not sure what else to advise I branched off of this one to try reseting the lock file and it seems to pass in travis now, see this branch for comparison https://github.com/rebassjs/grid/tree/SimeonC-emotion-fix-lock-file Hmmm, I must be running a different version of `node/npm` - I don't know what version travis is using. What version of `node/npm` are you using?
If that's the case I'll add a [`.nvmrc`](https://github.com/creationix/nvm#nvmrc) file that should help alleviate those kinds of issues.

__EDIT:__ As an aside I don't mind if you manually merge in with the correct package-lock and close this PR. I'd like to have your contribution in here if possible, but also wanna make sure that contributing to this project works as expected. I don't think an `.nvmrc` file really should be necessary, but this project should work with Node 10 and npm 6 OK, I'm on Node 8 and npm 6 as well so there shouldn't be any problems.
This time I tried deleting node_modules and package-lock and that seems to have worked so I think I may have just installed it the first time pointing at my companies private npm instead of the public one or something."
2;rebassjs/grid;160;2018-11-29T23:53:55Z;2018-11-30T00:00:17Z;2018-11-30T00:00:17Z;rebassjs/grid;rebassjs/grid;jxnblk;1;vercel[bot];"
This pull request is [automatically deployed](https://zeit.co/docs/features/now-for-github?utm_source=automated&utm_medium=github&utm_campaign=now_bot) with [Now](https://zeit.co/now?utm_source=automated&utm_medium=github&utm_campaign=now_bot).
To access deployments, click Details below or on the icon next to each push.


	
"
3;rebassjs/grid;158;2018-11-26T06:22:50Z;2018-12-05T15:52:05Z;2018-12-05T15:52:04Z;mweibel/grid;rebassjs/grid;mweibel;1;vercel[bot];"
This pull request is [automatically deployed](https://zeit.co/docs/features/now-for-github?utm_source=automated&utm_medium=github&utm_campaign=now_bot) with [Now](https://zeit.co/now?utm_source=automated&utm_medium=github&utm_campaign=now_bot).
To access deployments, click Details below or on the icon next to each push.


	
"
4;rebassjs/grid;152;2018-09-22T19:07:07Z;2018-09-25T22:36:36Z;2018-09-25T22:36:36Z;rebassjs/grid;rebassjs/grid;jxnblk;1;vercel[bot];"
This pull request is [automatically deployed](https://zeit.co/docs/features/now-for-github?utm_source=automated&utm_medium=github&utm_campaign=now_bot) with [Now](https://zeit.co/now?utm_source=automated&utm_medium=github&utm_campaign=now_bot).
To access deployments, click Details below or on the icon next to each push.


	"
5;rebassjs/grid;139;2018-08-17T09:53:02Z;2018-09-25T23:08:57Z;2018-09-25T23:08:57Z;nan;rebassjs/grid;TrySound;1;TrySound;@jxnblk Are you okay with this?
6;rebassjs/grid;117;2018-06-20T14:00:59Z;2018-06-23T00:21:37Z;2018-06-23T00:21:37Z;felipeleusin/grid-styled;rebassjs/grid;felipeleusin;4;felipeleusin/jxnblk/jxnblk/felipeleusin;"I haven't rebuild the snapshots because I'm not entirelly sure if the change to styled(Box) instead of box.extend is equivalent, I'm not really used to styled components. There's some mention to deprecating extend at https://github.com/styled-components/styled-components/issues/1546
 Thanks! I can take a look at the snapshots locally to see if it’s working as expected Thanks for this! I've checked locally, and it looks like the snapshot changes are due to styled-components creating two classnames now. This should be fine, and I'll get the tests sorted out after merging this in. Also, I think I'll switch to Jest and jest-styled-components to make the tests a little more useful: #118 Yeah. I'm using jest-emotion on my projects and works like a charm. Another
option is skip the extend a just put the styled-system props there.

Em Sex, 22 de jun de 2018 19:58, Brent Jackson <notifications@github.com>
escreveu:

> Thanks for this! I've checked locally, and it looks like the snapshot
> changes are due to styled-components creating two classnames now. This
> should be fine, and I'll get the tests sorted out after merging this in.
> Also, I think I'll switch to Jest and jest-styled-components to make the
> tests a little more useful: #118
> <https://github.com/jxnblk/grid-styled/pull/118>
>
> —
> You are receiving this because you authored the thread.
> Reply to this email directly, view it on GitHub
> <https://github.com/jxnblk/grid-styled/pull/117#issuecomment-399605044>,
> or mute the thread
> <https://github.com/notifications/unsubscribe-auth/AAKP8Y9mGlO-PGLG2EwsU-BXATtWQmuuks5t_XZ6gaJpZM4UvVT_>
> .
>
"
7;rebassjs/grid;111;2018-05-30T17:24:08Z;2018-06-11T14:51:10Z;2018-06-11T14:51:10Z;HipsterBrown/grid-styled;rebassjs/grid;HipsterBrown;1;jxnblk;Awesome! Thanks!
8;rebassjs/grid;107;2018-05-17T11:29:30Z;2018-06-11T14:56:12Z;2018-06-11T14:56:12Z;FDiskas/grid-styled;rebassjs/grid;FDiskas;1;jxnblk;Sorry for the delay, and thanks!
9;rebassjs/grid;102;2018-05-01T11:08:48Z;2018-06-14T12:14:22Z;2018-06-14T12:14:22Z;karland/grid-styled;rebassjs/grid;karland;1;jxnblk;Awesome, thanks!
10;rebassjs/grid;100;2018-04-19T14:50:16Z;2018-04-24T14:19:05Z;2018-04-24T14:19:05Z;lhache/grid-styled;rebassjs/grid;lhache;2;lhache/jxnblk;I'll update the Typescript definitions if this is accepted. Thanks! This looks great!
11;rebassjs/grid;90;2018-02-23T21:20:58Z;2018-04-13T14:41:17Z;2018-04-13T14:41:16Z;garretttaco/grid-styled;rebassjs/grid;garretttaco;21;jxnblk/garretttaco/jxnblk/aewing/paynecodes/paynecodes/duro/paynecodes/duro/DJTB/chrishurlburt/kytwb/DJTB/xDae/lhrinaldi/garretttaco/jablonnc/joseph-galindo/morganney/nmrshll/jxnblk;"1. The versioning on this library should be loose enough that it won't install a separate styled-components dependency in the `node_modules/grid-styled/node_modules/` folder, and I'm slightly concerned that people have their build set up in a not-so-great way. I am unable to reproduce this on my end.
2. I know the styled-components docs recommend using peerDependencies for libraries, but this shouldn't be necessary
3. This is a *breaking change* which means I'd have to bump the major version again  It looks like you just updated the peer dependency criteria for styled-components 20 days ago. I did not see that. We have the previous version that specifies `v3.1.5`. We are using styled-components v2 so we were getting two different versions of styled-components. I am going to try upgrading first to see if that solves the issue. See the screen show below for context.
<img width=""1432"" alt=""screen shot 2018-02-23 at 2 49 01 pm"" src=""https://user-images.githubusercontent.com/10181154/36618541-c9d8fa12-18a8-11e8-8c37-fbc5ad5b2025.png"">


Would it be possible to consider making this change for your next major release? The use case of people using grid-styled and not styled-components cannot be more than not. Based on the previous PRs and opened issues, I am clearly not the first person this has affected. Thanks for checking on the latest version. I'll certainly consider it again, but I'm fairly certain, despite what the numbers may be, that there will be issues created for *not* having it in dependencies. As a library author, this is a tough thing to manage since there are many different ways to set up app bundling, but generally I prefer to side on how things *should* work with npm.

That said, I would be more than happy to add more documentation for troubleshooting issues that arise from duplicative dependencies, so please let me know how it goes on your end I can see why making a change here is a difficult choice to make. Damned if you do... My preference as the potentially affected developer would be to deal with the requirement to install the peer dependency. This is something that is easily addressed -- and I think most would be able to discern from the error messages provided what they'd need to do to solve the problem. Debugging version conflicts and the lack of errors provided with them is a time consuming endeavor. I am also being affected by this issue, and I'm not sure where to start. If I keep a dep on styled components pegged at `^2.1.2`, my app works in dev, but not in production. If I upgrade my styled components dependency to `^3.2.0`, my app breaks in dev and production builds. Any clues? I've found that if I include the exact version that is currently being used by grid-styled `3.1.6`, everything works ok. Otherwise, problems are likely to occur. I too am running into this issue, and I can't even lock it to 3.1.6 using yarn as @jpdesigndev suggested. When I do that, grid-styled still seems to install 3.2.0 along side 3.1.6  @duro Perhaps you could try to clean your yarn or npm cache. I'm not certain which series of events allowed me to lock in on `3.1.6`. This, of course, is scary to me :)

I'll see if I can gather some more details about what should work. @jpdesigndev @jxnblk I was actually able to get this to install only one version of styled-components by setting my deps to `""styled-components"": ""^3.0.0"",`

This installed one version of styled-components 3.2.0.

Both dev and prod builds are working. I did have to do a bunch of prop renaming to move over to the new flex prop names, but everything is working now. Ran into the same issue + solution as @duro / @jpdesigndev getting stuck with 3.2.1 + duplicate of 3.1.6 I also would like to throw my support into the mix for this PR as it's been a blocker for me in a project. For what it's worth, almost all the styled-component grid libs here have styled-components as a peerDependency: [https://github.com/styled-components/awesome-styled-components#grid-systems](https://github.com/styled-components/awesome-styled-components#grid-systems) @chrishurlburt brought up a good point. I'd be for merging this PR as well. #### Edit: this comment's specific problem is likely just due to https://github.com/yarnpkg/yarn/issues/3967

If I upgrade `styled-components` via `yarn upgrade-interactive` my `yarn.lock` changes from:  
```
styled-components@3.2.2, ""styled-components@>=2.0 || >=3.0"", styled-components@>=3.0.0:
  version ""3.2.2""
  resolved ""https://registry.yarnpkg.com/styled-components/-/styled-components-3.2.2.tgz#3a3a49e0009a212d1fee173e3a7719a489e11299""
  dependencies:
    buffer ""^5.0.3""
    css-to-react-native ""^2.0.3""
    fbjs ""^0.8.9""
    hoist-non-react-statics ""^1.2.0""
    is-plain-object ""^2.0.1""
    opencollective ""^1.0.3""
    prop-types ""^15.5.4""
    stylis ""^3.5.0""
    stylis-rule-sheet ""^0.0.10""
    supports-color ""^3.2.3""
```
to:  

```
styled-components@3.2.3:
  version ""3.2.3""
  resolved ""https://registry.yarnpkg.com/styled-components/-/styled-components-3.2.3.tgz#50f71207320eeb1ef539dec4637f21f5e3c936b4""
  dependencies:
    buffer ""^5.0.3""
    css-to-react-native ""^2.0.3""
    fbjs ""^0.8.9""
    hoist-non-react-statics ""^1.2.0""
    is-plain-object ""^2.0.1""
    opencollective ""^1.0.3""
    prop-types ""^15.5.4""
    stylis ""^3.5.0""
    stylis-rule-sheet ""^0.0.10""
    supports-color ""^3.2.3""

""styled-components@>=2.0 || >=3.0"", styled-components@>=3.0.0:
  version ""3.2.2""
  resolved ""https://registry.yarnpkg.com/styled-components/-/styled-components-3.2.2.tgz#3a3a49e0009a212d1fee173e3a7719a489e11299""
  dependencies:
    buffer ""^5.0.3""
    css-to-react-native ""^2.0.3""
    fbjs ""^0.8.9""
    hoist-non-react-statics ""^1.2.0""
    is-plain-object ""^2.0.1""
    opencollective ""^1.0.3""
    prop-types ""^15.5.4""
    stylis ""^3.5.0""
    stylis-rule-sheet ""^0.0.10""
    supports-color ""^3.2.3""
```

Though one **can** work around this by changing the version to `>3.2.3` in `package.json`, deleting `node_modules` and `yarn.lock`, and reinstalling...
* It's a pain to remember to do this
* Have to clear caching on CI as well and rebuild from scratch
* You lose the benefit of having an **exact** version specified -> potential regressions due to unwanted upgrades, different versions between machines Im not sure if its related to this, but Im having this problem:

<img width=""997"" alt=""screen shot 2018-04-03 at 16 56 28"" src=""https://user-images.githubusercontent.com/6037190/38253706-04cf99e8-3760-11e8-85b8-25c1347e4057.png"">


 Still suffering from this problem :(  @lcsrinaldi Unfortunately, for me to effectively solve this issue, I had to use a forked version of grid-styled where styled-components is a peer-dependency. Nothing else seemed to work. If this PR is merged, I will be able to start using this again. I hope it is eventually! @jxnblk Do we have a verdict on this?  If you plan on merging this sometime soon I plan on waiting, otherwise I will fork as @garretttaco has done. +1 to the above sentiment, planning to fork without this PR. Library authors need to use styled-components as a peer dependency. Nuff said: https://www.styled-components.com/docs/faqs#i-am-a-library-author-should-i-bundle-styledcomponents-with-my-library Following @jpdesigndev 's answer I was able to fix the problem by changing the version of `styled-components` in my project's package.json and setting it to the same value as the `styled-components` used in `grid-styled`. (currently `""styled-components"": ""3.2.5""`)

A fix (using peer dependencies) in the next major version would be nice though, as this would break again if I chose to use another package that forces me to use its version of `styled-components` @garretttaco sorry for the delay on this. After considering this change, I plan on merging this in and publishing a new major version – thanks again for helping out here!"
12;rebassjs/grid;87;2018-02-21T07:29:08Z;2018-02-23T14:31:59Z;2018-02-23T14:31:59Z;rlopez4/grid-styled;rebassjs/grid;rlopez4;1;jxnblk;Awesome, thanks!
13;rebassjs/grid;74;2018-02-06T09:21:30Z;2018-02-06T13:33:30Z;2018-02-06T13:33:30Z;nan;rebassjs/grid;emilbaekdahl;1;jxnblk;Awesome, thanks!
14;rebassjs/grid;69;2018-02-01T16:05:34Z;2018-02-04T01:14:00Z;2018-02-04T01:14:00Z;dipiash/grid-styled;rebassjs/grid;dipiash;1;jxnblk;Awesome, thanks!
15;rebassjs/grid;32;2017-07-14T12:47:16Z;2017-07-18T23:15:03Z;2017-07-18T23:15:03Z;nan;rebassjs/grid;MiguelSavignano;2;jxnblk/jxnblk;👍 - just one nit: can you use single quotes for the strings for consistency? This looks great, thanks!
