No;mainline_repo;pr_no;created_at;closed_at;merged_at;repo_origin;repo_destin;pr_owner;no_commenters;pr_commenters;pr_comments
0;spite/THREE.MeshLine;102;2020-06-01T16:45:39Z;2020-09-13T21:56:59Z;2020-09-13T21:56:59Z;ryanking1809/threejs-meshline;spite/THREE.MeshLine;ryanking1809;8;Jeremboo/lancelet/ryanking1809/dskeithbuck/lancelet/trusktr/ryanking1809/ryanking1809;"Amazing man! Give me some time to take a look of it too! Some demos don't cover some features AFAICT, this also contains the changes from PR #73, right? Seems to need a rebase though. > AFAICT, this also contains the changes from PR #73, right? Seems to need a rebase though.

Oh yes, that's right. That will break some things, however, I do believe @axion014 modifications here are more correct than the existing implementation.

Can fix up the readme in the future as well :) Any updates on this? Hoping to use @ryanking1809's changes but would rather pull from this repo. Thanks! I'd really like to see things consolidated too. I've switched to @ryanking1809's version for the time being, but I hope there will be a central place for future development. It's really up to the maintainers of this repository to decide though (if / when they have time).

Hopefully the missing examples / test cases that are mentioned above can be enumerated so that those of us who are cheering from the sidelines can help provide them later. @Jeremboo Can you please make the demos that show the features that you said aren't currently shown, so we can verify them? That would be extremely great. Thanks @Jeremboo , should be able to review over the weekend! All good, let's call it done! Thanks @Jeremboo !"
1;spite/THREE.MeshLine;96;2020-02-04T19:21:34Z;2020-05-28T02:16:52Z;2020-05-28T02:16:52Z;andreasplesch/THREE.MeshLine;spite/THREE.MeshLine;andreasplesch;2;lmagedanz/fahadm;"Hi @spite, any chance that this could be merged? @spite if you're not active can you please appoint another contributor/owner so that people who depend on this can keep it up to date? ( both this change the `.at() is now required` fix 
I would be up for that."
2;spite/THREE.MeshLine;77;2019-03-15T09:36:40Z;2020-05-28T02:42:00Z;2020-05-28T02:42:00Z;Tankerxyz/THREE.MeshLine;spite/THREE.MeshLine;Tankerxyz;1;OlivierKamers;@spite Any update on this? We're getting the same warning. Thanks!
3;spite/THREE.MeshLine;73;2019-01-28T12:08:45Z;2020-09-13T21:57:00Z;2020-09-13T21:57:00Z;nan;spite/THREE.MeshLine;axion014;4;spite/axion014/trusktr/axion014;"Hi! Thanks for the PR. I tested it and the graph.html example doesn't work as expected. Is there anything I'm missing? The Graph demo were coded for current bugged MeshLine.
I didn't see why sizeAttenuation should be disabled here as line width is meant to be constant regardless of camera zooming, so I turned it to `false`(this syntax should definitely be reversed). Hello! Can you explain what this does? Can you explain before/after? Shader math is complicated and I mostly forgot what this does, but it basically fixes #26, making `lineWidth` behavior consistent between both type of cameras."
