No;mainline_repo;pr_no;created_at;closed_at;merged_at;repo_origin;repo_destin;pr_owner;no_commenters;pr_commenters;pr_comments
0;WebDevStudios/generator-plugin-wp;170;2017-08-08T15:29:41Z;2017-08-13T20:48:24Z;2017-08-13T20:48:24Z;jtsternberg/generator-plugin-wp;WebDevStudios/generator-plugin-wp;jtsternberg;1;jtsternberg;Related to: https://github.com/WebDevStudios/generator-plugin-wp/pull/164#issuecomment-320988961
1;WebDevStudios/generator-plugin-wp;168;2017-08-08T01:35:29Z;2017-10-18T20:24:16Z;2017-10-18T20:24:16Z;WebDevStudios/generator-plugin-wp;WebDevStudios/generator-plugin-wp;binarygary;1;gregrickaby;At a glance, this looks good. Let me pull it down later and test...
2;WebDevStudios/generator-plugin-wp;140;2017-03-15T13:57:54Z;2017-03-16T01:30:11Z;2017-03-16T01:30:11Z;nan;WebDevStudios/generator-plugin-wp;gregrickaby;1;gregrickaby;Also... this PR includes Travis --> Slack notifcations
3;WebDevStudios/generator-plugin-wp;137;2017-03-03T03:55:43Z;2017-03-03T04:16:09Z;2017-03-03T04:16:09Z;rclations/generator-plugin-wp;WebDevStudios/generator-plugin-wp;rclations;1;bradp;Heck yeah, good call here. 
4;WebDevStudios/generator-plugin-wp;136;2017-03-01T21:27:12Z;2017-03-02T14:56:29Z;2017-03-02T14:56:29Z;nan;WebDevStudios/generator-plugin-wp;bradp;3;bradp/bradp/bradp;"#132 is now totally absorbed in this. On merge, closes #132. Also now fixes #124 @binarygary @aubreypwd This PR spiraled out of control a bit.

It is now ready though. I've tested pretty throughly locally, generating a whole bunch of plugins locally, along with the subgenerators. No problems that I've seen.

This closes #124 and #132."
5;WebDevStudios/generator-plugin-wp;126;2017-02-17T19:57:26Z;2017-02-18T17:03:44Z;2017-02-18T17:03:44Z;nan;WebDevStudios/generator-plugin-wp;bradp;1;bradp;prettyNames fixed
6;WebDevStudios/generator-plugin-wp;125;2017-02-16T18:38:29Z;2017-02-18T17:17:05Z;2017-02-18T17:17:05Z;nan;WebDevStudios/generator-plugin-wp;tnorthcutt;1;binarygary;"@tnorthcutt This is cool.
Really appreciate the PR, thanks!"
