No;mainline_repo;pr_no;created_at;closed_at;merged_at;repo_origin;repo_destin;pr_owner;no_commenters;pr_commenters;pr_comments
2;tryggingamidstodin/node-jt400;24;2018-09-04T21:01:56Z;2018-10-08T09:28:49Z;2018-10-08T09:28:49Z;cwg999/node-jt400;tryggingamidstodin/node-jt400;cwg999;3;bergur/erwinlobos/bergur;Hi Cody and thanks for the contribution! We have a big project deadline closing in so I won't be able to take a look at this until friday afternoon or over the weekend. But I will let you know as soon as I have something. could you please merge this change, so it can help others like us @erwinlobos Yeah I will talk to the team tomorrow :)
3;tryggingamidstodin/node-jt400;23;2018-09-04T20:10:36Z;2018-10-08T18:22:47Z;2018-10-08T18:22:47Z;cwg999/node-jt400;tryggingamidstodin/node-jt400;cwg999;3;cwg999/cwg999/jakobrun;"There's a test that writes to the current user's queue. Its not perfect because if something is in your message queue then the test will fail.

The only other option I can think of is to supper creating message queues for the sake of testing it!

Let me know if there are any updates you'd like to see.

Thanks! So I've made some changes to my branch --- 

1. When I downloaded this repository from github through npm it would leave out the /dist folder, not sure if it's a difference between how npm handles npm repositories vs git repositories, so I added the dist folder by removing it from the git ignore.
2. Added the java/build folder because when running ""npm run build-all"" the build would fail due to the lack of that folder.  Thanks for the contribution @cwg999 

1. We don't want the dist folder in the git repo. You could build the project and publish your own fork to npm.

2. We've now modified build.xml to create the folder before we build.

Also I don't understand why the jt400.jar has changed."
4;tryggingamidstodin/node-jt400;18;2018-06-28T16:11:26Z;2018-07-04T10:37:44Z;2018-07-04T10:37:44Z;cwg999/node-jt400;tryggingamidstodin/node-jt400;cwg999;3;cwg999/bergur/cwg999;"Hello,

I have added Message File support because I needed it in a project. Wondering if you would like to merge it in. The promises thing isn't really necessary if you want to keep Node Support < 8, and beyond that I think I have roughly followed the same coding style as the package currently is. 

Let me know if you require tests, or any updates to merge in this feature. 
Thanks!
 Hi Cody and thank you for your contribution.

Overall I think this looks good, but some tests are needed. Doesn't have to be big or complicated.  For example: you could a dummy MessageFile in the test-data folder and then just make a test that would call the read function.

I have tagged @jakobrun who is the lead dev on our team. I think its best if he gives some comments and finally decides if this should be accepted :) With help from our friends over at stackoverflow I chose a test case using QSYS.LIB/QCPFMSG.MSGF.

https://stackoverflow.com/q/51088372/2446254"
