No;mainline_repo;pr_no;created_at;closed_at;merged_at;repo_origin;repo_destin;pr_owner;no_commenters;pr_commenters;pr_comments
1;bem/html-differ;145;2017-01-26T17:05:08Z;2017-02-16T14:39:36Z;2017-02-16T14:39:36Z;;bem/html-differ;marcbachmann;1;eGavr;Thanks.
2;bem/html-differ;142;2016-08-08T13:31:08Z;2016-08-08T15:34:29Z;2016-08-08T15:34:29Z;golyshevd/html-differ;bem/html-differ;golyshevd;10;qfox/golyshevd/qfox/qfox/golyshevd/eGavr/qfox/golyshevd/eGavr/eGavr;"А это точно правильно?
 > А это точно правильно?

Ни один прежний тест не упал, мой тест прошел. 
Теперь ключи объектов железобетонно будут отсортированы на любой вложенности в любые контейнеры.
По сути пришлось сделать кастомный JSON.stringify, оригинальный я использую только для сериализации примитивов.

Если  знаете узкие места, я могу еще тестов добавить, скажите только какие кейсы хотите
 > Если знаете узкие места

По стандарту ключи в объектах не упорядочены.
Реализации в разных популярных браузерах не следуют этому правилу и периодически что-то ломается, когда одни разработчики завязываются на реализацию, а другие на стандарт.
Понять разработчиков браузеров можно — им нужно поддерживать наследие. Понять html-differ с таким поведением пока сложно.

> Теперь ключи объектов железобетонно будут отсортированы

Да, но зачем? Это точно правильно их так сортировать? Почему текущее поведение неверное?
 Есть кейс из жизни:

``` html
<body class=""i-bem"" data-bem='{""i-global"":{},""b-page"":{}}'> — было
<body class=""i-bem"" data-bem='{""b-page"":{},""i-global"":{}}'> — стало
```

2 часа искали причину.
 > Почему текущее поведение неверное?

Потому что по прежней логике объекты

``` js
[{a: 1, b: 2}]
// и
[{b: 2, a: 1}]
```

не эквивалентны, а точнее не всегда, потому что JSON.stringify может поменять местами ключи при сериализации. Прежняя реализация сортировки объекта не корректна, потому что спецификация не гарантирует какого-либо порядка при итерации по ключам объекта. 
Но в прежней реализации было сделано предположение, что порядок ключей соответствует порядку их присваивания, и это работает постолько поскольку. На это нельзя полагаться.

> Есть кейс из жизни:

Тут тесты бы не упали и при прежней логике, но это проделки JSON.stringify
 @zxqfox 

тут,  кажется, действительно автор пулл-реквеста пофиксил злостную багу, которую я описал в issue – https://github.com/bem/html-differ/issues/33
 Убедили. Вариантов нет, придется резать.
 Если тут все норм, выпустите новую версию enb-bem-tmpl-specs?
 @golyshevd 

про выпуск `enb-bem-tmpl-specs` это к @blond 
 Спасибо за фикс
"
8;bem/html-differ;121;2015-02-19T23:44:51Z;2015-02-20T18:25:44Z;2015-02-20T18:25:44Z;qfox/html-differ;bem/html-differ;qfox;8;qfox/eGavr/eGavr/qfox/eGavr/eGavr/qfox/eGavr;"@eGavr Give it a try ;-)
 Code style ;(
 На счет выноса дефолтных значений, я думаю, что все таки можно оставить как есть. В пресетах будем просто переопределять дефолтные значения.
 В целом, вроде, ок... Для начала ;)
 пинг?)
 Мне релизить надо, буду вливать или пофиксишь?  ;)
 @eGavr Глянь ;)
 o_O, спасибо за сотрудничество ;)
"
11;bem/html-differ;112;2014-11-14T12:18:36Z;2014-11-14T15:18:21Z;2014-11-14T15:18:21Z;4exova/html-differ;bem/html-differ;4exova;1;eGavr;"Thanks!
"
31;bem/html-differ;50;2014-07-15T08:22:08Z;2014-07-15T11:23:28Z;2014-07-15T11:23:28Z;;bem/html-differ;shuhrat;6;shuhrat/eGavr/shuhrat/coveralls/shuhrat/eGavr;"//cc @eGavr, @tadatuta 
 :+1:  Great! As usual)

But in order not to break the API, I would like to support two options `showCharacters` and `charsAroundDiff`. They will have the same sence,  but the first one will be `deprecated`.
 done
 [![Coverage Status](https://coveralls.io/builds/968619/badge)](https://coveralls.io/builds/968619)

Coverage remained the same when pulling **f64fbf3bb7b40c35f89c123d40762b992bfe0c9f on Shuhrat:diff-refactor** into **3f69ae8699e63a3b12d4dd3a21c99aa164309f6b on bem:master**.
 could you please publish new package with my changes?
 Yep! Of Course!
I'll update README as soon as possible and publish new package!
"
32;bem/html-differ;49;2014-07-11T21:07:46Z;2014-07-13T13:23:57Z;2014-07-13T13:23:57Z;;bem/html-differ;shuhrat;3;shuhrat/tadatuta/eGavr;"//cc @tadatuta @eGavr 
 looks good, thank you!
 :+1: 
Thank you very much!
"
