No;mainline_repo;pr_no;created_at;closed_at;merged_at;repo_origin;repo_destin;pr_owner;no_commenters;pr_commenters;pr_comments
243;depcheck/depcheck;15;2014-09-30T19:23:18Z;2014-10-01T12:22:52Z;2014-10-01T12:22:52Z;alanhoff/depcheck;depcheck/depcheck;alanhoff;1;rumpl;"Awesome, thanks man!
"
244;depcheck/depcheck;8;2014-06-11T03:41:05Z;2014-06-14T20:00:42Z;2014-06-14T20:00:42Z;dylang/depcheck;depcheck/depcheck;dylang;2;dylang/dylang;"This PR address #6, #7, and #8.
 I'd like to publish an update to [npm-check](https://github.com/dylang/npm-check) that will require the changes from this PR. 

If these changes were more than you were expecting and you don't want to accept them because the code is too different I totally understand. If that's the case, would it be okay if I use my PR to create a new module? I'll give you credit as the original author in the readme and code.
"
