No;mainline_repo;pr_no;created_at;closed_at;merged_at;repo_origin;repo_destin;pr_owner;no_commenters;pr_commenters;pr_comments
9;ember-fastboot/simple-dom;8;2015-05-12T03:00:47Z;2015-05-23T21:57:51Z;2015-05-23T21:57:51Z;code0100fun/simple-dom;ember-fastboot/simple-dom;code0100fun;1;rwjblue;"Looks good to me. 
"
