No;mainline_repo;pr_no;created_at;closed_at;merged_at;repo_origin;repo_destin;pr_owner;no_commenters;pr_commenters;pr_comments
21;UKHomeOffice/passports-frontend-toolkit;21;2015-06-24T11:20:29Z;2015-06-24T11:27:12Z;2015-06-24T11:27:12Z;easternbloc/passports-frontend-toolkit;UKHomeOffice/passports-frontend-toolkit;easternbloc;4;lennym/easternbloc/easternbloc/lennym;"This is fine, but do you mind removing the npm version commit, and we'll manage the versioning and publishing separately from PRs? Running `npm version` once it's in master does the tagging for us, and avoids any issues about merge order of PRs.
 Sure. Will do.
 Done. Cheers dude.
 Will merge and publish once travis is done.
"
