mainline;total_issues_ml;total_pr_ml;issue_users_ml;issue_commenters_ml;pr_users_ml;pr_commenters_ml;variant;total_issues_vr;total_pr_vr;issue_users_vr;issue_commenters_vr;pr_users_vr;pr_commenters_vr;common_issue_users;common_issue_commenters;common_pr_users;common_pr_commenters;text_common_issue_users;text_common_issue_commenters;text_common_pr_users;text_common_pr_commenters;text_issue_users_ml;text_issue_commenters_ml;text_pr_users_ml;text_pr_commenters_ml;text_issue_users_vr;text_issue_commenters_vr;text_pr_users_vr;text_pr_commenters_vr
h2zero/esp-nimble-cpp;34;13;7;7;2;2;h2zero/NimBLE-Arduino;74;74;58;68;16;20;4;4;1;2;h2zero/ntwallace/elliottkember/mitchjs;h2zero/elliottkember/ntwallace/mitchjs;h2zero;h2zero/mitchjs;mitchjs-15/h2zero-13/szroland-2/elliottkember-1/Dave-Osborne-1/outlandnish-1/ntwallace-1;h2zero-106/mitchjs-93/outlandnish-9/elliottkember-3/fhelie-2/Dave-Osborne-1/ntwallace-1;h2zero-12/szroland-1;mitchjs-26/h2zero-13;Jeroen88-46/h2zero-28/wakwak-koba-10/m-menon-6/elguiri-5/lknop-5/doudar-5/btsimonh-5/beegee-tokyo-4/gkoh-4/schlaegerz-3/tobozo-3/thorrak-3/darshan-mirajkar-3/corneliusmunz-3/ccssw-3/Staars-2/straccio-2/fightforlife-2/mblasee-2/asukiaaa-2/pletch-2/justoke-2/juppees-1/elliottkember-1/mitchjs-1/TheNitek-1/kaiwen98-1/GianCann-1/coppercele-1/sanketa-54-1/michapr-1/vicatcu-1/combatistor-1/projecta98-1/samscam-1/Calypso971-1/sujeendran-1/davidkjackson54-1/ntwallace-1/piaskowyk-1/noukee-1/tcpipchip-1/dariocavada-1/antonsperling-1/JesusAlexlara-1/AdamMiltonBarker-1/skypoldo-1/deepak4395-1/foofel-1/dom96-1/fvanroie-1/kerimt-dek-1/tonton81-1/Proto-ventures-1/Edzelf-1/ClaesClaes-1/lbussy-1;h2zero-651/Jeroen88-175/doudar-55/chegewara-49/btsimonh-42/wakwak-koba-41/elguiri-36/beegee-tokyo-23/justoke-23/lbussy-22/m-menon-20/gkoh-15/tonton81-15/ntwallace-14/tcpipchip-14/lknop-14/corneliusmunz-14/GianCann-11/sanketa-54-11/Staars-9/elliottkember-7/davidkjackson54-7/ccssw-7/mblasee-7/thorrak-6/1technophile-6/asukiaaa-6/darshan-mirajkar-5/Calypso971-5/gittehupe-5/fightforlife-5/dendavidseh-4/TheNitek-4/tobozo-4/hannahvsawiuk-4/vicatcu-4/antonsperling-4/fvanroie-4/kerimt-dek-4/Ysbrand-4/straccio-3/sujeendran-3/noukee-3/skypoldo-3/schlaegerz-2/everslick-2/kaiwen98-2/alvarowolfx-2/Sanketa54-2/michapr-2/wmarkow-2/JesusAlexlara-2/deepak4395-2/dom96-2/renatobo-2/selman-nus-2/pletch-2/Edzelf-2/ClaesClaes-2/pix3lize-1/Torxgewinde-1/bluelu-1/mitchjs-1/txf--1/piaskowyk-1/AdamMiltonBarker-1/Jason2866-1/kind3r-1;Jeroen88-29/h2zero-22/wakwak-koba-5/beegee-tokyo-2/tobozo-2/Staars-2/lknop-2/gkoh-2/thorrak-1/corneliusmunz-1/piaskowyk-1/deepak4395-1/doudar-1/mblasee-1/asukiaaa-1/btsimonh-1;h2zero-170/Jeroen88-117/wakwak-koba-12/doudar-11/chegewara-9/gkoh-4/asukiaaa-3/elguiri-2/1technophile-2/deepak4395-2/selman-nus-2/tobozo-1/Staars-1/lknop-1/mitchjs-1/alvarowolfx-1/piaskowyk-1/mblasee-1/Jason2866-1/kind3r-1
wbhart/Nemo.jl;0;0;11;8;11;8;Nemocas/Nemo.jl;652;652;72;58;38;28;8;6;7;5;kalmarek/cossio/fieker/defeo/Jorispilot/thofma/github-actions[bot]/wbhart;kalmarek/cossio/fieker/defeo/thofma/wbhart;kalmarek/fieker/defeo/Jorispilot/thofma/github-actions[bot]/wbhart;kalmarek/fieker/defeo/thofma/wbhart;thofma-11/github-actions[bot]-7/cossio-6/wbhart-3/Jorispilot-2/fieker-2/rdeits-1/kalmarek-1/tkluck-1/defeo-1/rimbach-1;wbhart-20/thofma-9/cossio-5/rdeits-2/kalmarek-2/tkluck-2/fieker-2/defeo-1;thofma-11/github-actions[bot]-7/cossio-6/wbhart-3/Jorispilot-2/fieker-2/rdeits-1/kalmarek-1/tkluck-1/defeo-1/rimbach-1;wbhart-20/thofma-9/cossio-5/rdeits-2/kalmarek-2/tkluck-2/fieker-2/defeo-1;wbhart-322/thofma-283/rfourquet-66/fieker-57/heiderich-21/kalmarek-18/fingolfin-18/PeterLuschny-12/tthsqe12-11/alexjbest-10/martinra-8/kirtsar-7/defeo-7/johannes-hoffmann-7/albinahlback-7/OpenLibMathSeq-6/Keno-5/zhaoli-IHEP-5/ulthiel-4/github-actions[bot]-4/ThomasBreuer-4/cossio-3/tkelman-3/konkam-3/a-kulkarn-3/erou-3/joschmitt-3/JeffreySarnoff-2/hsgg-2/fredrik-johansson-2/dimpase-2/JKieffer95-2/steenpass-2/siddMahen-2/Jorispilot-2/sachinkmohan-2/erecthorn-2/saschatimme-2/eschnett-1/waldyrious-1/isuruf-1/exit91-1/staticfloat-1/lbenet-1/dourouc05-1/ChrisRackauckas-1/andreasnoack-1/fredrikekre-1/mehranhussain-1/aghitza-1/edwardcao3026-1/Quar-1/chriselrod-1/chakravala-1/ollyoil-1/WT215-1/asbuch-1/ambiso-1/Joel-Dahne-1/thchr-1/mforets-1/lairez-1/stevengj-1/slel-1/keithbriggs-1/JuliaTagBot-1/fpmenninger-1/CarloSircana-1/abagciphys-1/Neutrino155-1/switzel-1/simonbrandhorst-1;wbhart-1002/thofma-791/rfourquet-134/kalmarek-81/fieker-70/fredrik-johansson-38/PeterLuschny-37/tthsqe12-34/fingolfin-32/heiderich-29/codecov-io-18/defeo-15/Keno-12/tkelman-10/zhaoli-IHEP-10/martinra-8/benlorenz-8/JeffreySarnoff-7/OpenLibMathSeq-7/alexjbest-7/erou-7/switzel-7/keithbriggs-6/abagciphys-6/dimpase-5/a-kulkarn-5/johannes-hoffmann-5/kirtsar-5/lbenet-4/konkam-4/micjoswig-4/JuliaTagBot-4/albinahlback-4/stevengj-3/slel-3/eschnett-2/hsgg-2/isuruf-2/ChrisRackauckas-2/vtjnash-2/siddMahen-2/saschatimme-2/edwardcao3026-2/chakravala-2/joschmitt-2/WT215-2/Joel-Dahne-2/thchr-2/mforets-2/CarloSircana-2/waldyrious-1/cossio-1/andreasnoack-1/steenpass-1/ThomasBreuer-1/chriselrod-1/ambiso-1/fpmenninger-1;thofma-244/wbhart-189/rfourquet-63/fieker-54/fingolfin-14/kalmarek-10/heiderich-9/martinra-8/tthsqe12-7/github-actions[bot]-4/albinahlback-4/alexjbest-3/Keno-3/a-kulkarn-3/erou-3/JeffreySarnoff-2/tkelman-2/joschmitt-2/steenpass-2/Jorispilot-2/sachinkmohan-2/erecthorn-2/PeterLuschny-2/johannes-hoffmann-2/waldyrious-1/fredrik-johansson-1/hsgg-1/staticfloat-1/dourouc05-1/JKieffer95-1/defeo-1/fredrikekre-1/mehranhussain-1/aghitza-1/mforets-1/stevengj-1/slel-1/CarloSircana-1;wbhart-488/thofma-440/rfourquet-103/fieker-44/kalmarek-43/fingolfin-24/tthsqe12-20/codecov-io-18/fredrik-johansson-16/heiderich-12/Keno-11/JeffreySarnoff-7/martinra-5/a-kulkarn-5/erou-5/slel-3/vtjnash-2/defeo-2/mforets-2/benlorenz-2/alexjbest-2/stevengj-2/waldyrious-1/joschmitt-1/steenpass-1/johannes-hoffmann-1/CarloSircana-1/albinahlback-1
adrianlopezroche/fdupes;100;0;96;98;33;27;jbruchon/jdupes;35;35;103;77;27;12;6;5;0;1;maysara/jbruchon/saintger/nepumuk-fs/PatMyron/DEVoytas;roycewilliams/jbruchon/saintger/nodecentral/FabioPedretti;;jbruchon;sandrotosi-13/adrianlopezroche-7/jbruchon-5/Harvie-4/DEVoytas-4/ivan-dives-3/tomhoover-3/yazug-2/Motardo-2/clara-j-2/jerome-bouat-2/ghost-2/tenleftfingers-2/nepumuk-fs-2/springfielddatarecovery-2/hrieke-2/valentijnscholten-2/jshcmpbll-2/fancywriter-2/progman32-2/davidcox143-1/scratcher28-1/Georges760-1/guettli-1/amigalemming-1/jlec-1/doughdemon-1/pauladam-1/maysara-1/AnrDaemon-1/gerritgriebel-1/ngrigoriev-1/rafaelstz-1/yath-1/malkuh-1/Joshfindit-1/sebaplaza-1/berlincount-1/rudepython-1/jaromil-1/courtney-rosenthal-1/sergiomb2-1/icve-1/saintger-1/falkartis-1/Ferroin-1/dcb314-1/illumino-1/onstrees-1/peti-1/mmynsted-1/rheber-1/kucharskim-1/jasonblewis-1/hellyberry-1/rolfen-1/kilobyte-1/rbanffy-1/cjfp-1/bwduncan-1/patatetom-1/gritsulyak-1/danielhoherd-1/db-inf-1/agrotux-1/francoip-1/kanihal-1/PoHsun-Su-1/sheikhness-1/adamfur-1/elfring-1/sebma-1/nuriakman-1/PatMyron-1/duplisea-1/addisonklinke-1/interstar-1/thiagostahlschmidt-1/S-trace-1/Blatinox-1/jakem72360-1/Bustamite-1/crabbedhaloablution-1/borwick-1/jmvp-1/macau23-1/PanderMusubi-1/karlwbrown-1/badlandz-1/enes4949-1/DimStar77-1/dstw-1/Polynomial-C-1/pluja-1/NHOrus-1/stephane-archer-1;adrianlopezroche-97/sandrotosi-32/jbruchon-13/wmertens-8/Harvie-8/sergiomb2-6/hellyberry-6/FabioPedretti-6/fancywriter-6/ivan-dives-5/jasonblewis-5/DEVoytas-5/tenleftfingers-4/hsoft-3/aviogit-3/saintger-3/hasufell-3/run-dey-3/ferdnyc-3/berlincount-3/ErwanAliasr1-3/Blatinox-3/AnrDaemon-2/guettli-2/seb-mueller-2/clara-j-2/malkuh-2/gsakkis-2/yath-2/jfilak-2/strugee-2/gritsulyak-2/danielhoherd-2/quixand-2/elfring-2/thevikas-2/valentijnscholten-2/maxatka-2/DimStar77-2/ant0ine-1/yazug-1/amigalemming-1/george-viaud-1/doughdemon-1/eMPee584-1/vsiegel-1/Joshfindit-1/bwduncan-1/nodecentral-1/IvanTurgenev-1/etique57-1/xambroz-1/boldandbusted-1/jaakla-1/q2dg-1/xerc-1/jaromil-1/icve-1/allanwind-1/golimarrrr-1/albertyw-1/JohnAZoidberg-1/pabloab-1/holzkohlengrill-1/springfielddatarecovery-1/roycewilliams-1/kucharskim-1/pabs3-1/llimeht-1/feluxe-1/kilobyte-1/igronus-1/ddawson-1/rbanffy-1/francoip-1/candux-1/mlybarger-1/sheikhness-1/adamfur-1/moonshiner-1/nuriakman-1/GTP95-1/interstar-1/alexandr7035-1/jakem72360-1/fasiha-1/borwick-1/jmvp-1/da-sti-1/PanderMusubi-1/CoderJamie-1/yaseenkadir-1/karlwbrown-1/Polynomial-C-1/jvacek-1/badlandz-1/sim6-1/pluja-1;ivan-dives-3/tomhoover-3/Motardo-2/DEVoytas-2/yazug-1/jerome-bouat-1/jlec-1/doughdemon-1/pauladam-1/clara-j-1/yath-1/jbruchon-1/malkuh-1/courtney-rosenthal-1/falkartis-1/rheber-1/kucharskim-1/bwduncan-1/gritsulyak-1/db-inf-1/francoip-1/PoHsun-Su-1/adamfur-1/thiagostahlschmidt-1/S-trace-1/Blatinox-1/jakem72360-1/valentijnscholten-1/jshcmpbll-1/fancywriter-1/enes4949-1/dstw-1/Polynomial-C-1;adrianlopezroche-22/ivan-dives-5/sandrotosi-4/jbruchon-4/FabioPedretti-3/ErwanAliasr1-3/seb-mueller-2/yath-2/jfilak-2/gritsulyak-2/ferdnyc-2/Blatinox-2/hellyberry-1/ant0ine-1/george-viaud-1/doughdemon-1/eMPee584-1/q2dg-1/kucharskim-1/francoip-1/candux-1/berlincount-1/adamfur-1/jakem72360-1/Polynomial-C-1/maxatka-1/sim6-1;jbruchon-13/eribertomota-10/saintger-6/mmitch-5/Artoria2e5-5/Asureus-4/nodecentral-4/meoso-3/alexhunsley-3/sunk818-2/sergeevabc-2/rr--2/sbromwich-2/anfractuosity-2/Jahhein-2/slrslr-2/tylerszabo-2/nihelmasell-2/AnselmD-2/adkist01-2/wshyang-2/e-gaulue-2/anno73-1/janklabacka-1/yuri-sevatz-1/thequestatredtotal-1/igittigitthub-1/gdance-1/jaxon-1/micbis-1/avrilthevine-1/medovarsky-1/paxperscientiam-1/Kyslik-1/22dh22-1/jwilk-1/ptman-1/alexweirig-1/d-arndt-1/vitgid-1/thenlich-1/donaldsycamore-1/xrmx-1/rasa-1/raegis-1/razvanco13-1/maysara-1/Ralf-Friedl-1/roycewilliams-1/huangyingw-1/kralo-1/ivanperez-keera-1/jvirkki-1/erthink-1/skadauke-1/pdvnl-1/DEVoytas-1/mquinson-1/Freaky-1/fxcoudert-1/cardi-1/agsimmons-1/Golutazem-1/PatMyron-1/Calinou-1/damenleeturks-1/TheMatt2-1/mmastrac-1/atifaziz-1/michaelschufi-1/SurpriseDog-1/j0y-1/jrgutier-1/tjmnmk-1/nepumuk-fs-1/rblenis-1/picorealm-1/ratsch-1/anthonyfok-1/alicektx-1/sarfatis-1/grypho-1/rezad1393-1/kattjevfel-1/flying-sausages-1/straxhaber-1/GiovanH-1/gagarine-1/nomis-1/EdwinKM-1/QX7337-1/pxssy-1/Passyo-1/akraines-1/FabioPedretti-1/Teddy-Moeller-1/chrisisbd-1/Gelma-1/AronToYou-1/Lo118-1/PeashyScript-1/TahomaSoft-1/scottmlew-1;jbruchon-371/eribertomota-34/saintger-19/e-gaulue-19/alexweirig-15/alexhunsley-15/nodecentral-14/AnselmD-13/sergeevabc-8/Jahhein-7/rr--6/mmitch-6/gagarine-6/meoso-5/norpol-5/ivanperez-keera-4/billdenney-3/CaptainSifff-3/22dh22-3/konste-3/anfractuosity-3/MegaByte-3/tb00185733-3/tylerszabo-3/michaelschufi-3/Artoria2e5-3/picorealm-3/adkist01-3/igittigitthub-2/jalla2000-2/calestyo-2/ptman-2/thenlich-2/maysara-2/GreasyMonk-2/razvanco13-2/mohag-2/slrslr-2/cardi-2/PatMyron-2/tjmnmk-2/alicektx-2/grypho-2/PeashyScript-2/unhammer-1/frodete-1/stepvda-1/RaymondSchnyder-1/sunk818-1/gdance-1/jaxon-1/Kyslik-1/liori-1/donaldsycamore-1/rasa-1/divinity76-1/roycewilliams-1/huangyingw-1/Olen-1/erthink-1/Asureus-1/mquinson-1/nihelmasell-1/Calinou-1/TheMatt2-1/rblenis-1/pxssy-1/jvirkki-1/wshyang-1/straxhaber-1/GiovanH-1/EdwinKM-1/akraines-1/FabioPedretti-1/Lo118-1/TahomaSoft-1/scottmlew-1;Asureus-4/Artoria2e5-4/mmitch-3/janklabacka-1/yuri-sevatz-1/thequestatredtotal-1/micbis-1/medovarsky-1/Kyslik-1/jwilk-1/razvanco13-1/Jahhein-1/skadauke-1/tylerszabo-1/agsimmons-1/Calinou-1/damenleeturks-1/atifaziz-1/tjmnmk-1/rblenis-1/eribertomota-1/ratsch-1/anthonyfok-1/sarfatis-1/kattjevfel-1/alexhunsley-1/Gelma-1;jbruchon-41/alexhunsley-9/mmitch-3/tylerszabo-3/razvanco13-2/Kyslik-1/Jahhein-1/Asureus-1/Artoria2e5-1/Calinou-1/tjmnmk-1/rblenis-1
SpEcHiDe/PublicLeech;0;0;41;23;19;11;gautamajay52/TorrentLeech-Gdrive;136;136;104;46;67;11;7;6;3;2;maiz94/darkparky/gautamajay52/trending1newmovie/jikkubot/ghost/vaisakhc56;gautamajay52/pep8speaks/ghost/askfriends/vaisakhc56/Harsh-br0;gautamajay52/trending1newmovie/jikkubot;pep8speaks/gautamajay52;SpEcHiDe-7/anon97945-5/yash-dk-4/SayanthD-4/coolviraj-3/hmntrjpt-3/gautamajay52-3/vaisakhc56-3/aritradatta0-2/Donking47-2/Luciferleech-2/utsav7799-2/BeratungsResistent-2/sourcery-ai[bot]-2/LucentW-2/darkparky-1/sahadz-1/limaceous-bushwhacker-1/maiz94-1/Mrvishal2k2-1/tilonuz99-1/vikramaditya1190-1/add830830-1/adityabandara-1/ghost-1/trending1newmovie-1/halkatmanus-1/Ashiz-Red-1/indru-dudez-1/satyushree-1/sonofshantanu-1/thakorrohan22-1/MonkAnoo-1/tnwaps-1/rohitbots-1/jikkubot-1/Techks-1/cvatricks-1/kirodewa2-1/CyberBoyAyush-1/flmorse-1;SpEcHiDe-29/gautamajay52-9/MeliodasBot-7/coolviraj-5/sourcery-ai[bot]-5/hmntrjpt-3/prono69-3/anon97945-3/pep8speaks-2/yash-dk-2/davtur19-2/Harsh-br0-2/aritradatta0-1/askfriends-1/ghost-1/Luciferleech-1/Mohithash-1/vaisakhc56-1/UdayKumarChunduru-1/Phyco-Ninja-1/LucentW-1/Techks-1/IshwaranRudhara-1;yash-dk-4/gautamajay52-3/SayanthD-3/anon97945-3/utsav7799-2/sourcery-ai[bot]-2/sahadz-1/tilonuz99-1/vikramaditya1190-1/add830830-1/adityabandara-1/trending1newmovie-1/Ashiz-Red-1/indru-dudez-1/thakorrohan22-1/tnwaps-1/LucentW-1/jikkubot-1/kirodewa2-1;SpEcHiDe-10/sourcery-ai[bot]-5/MeliodasBot-3/prono69-3/pep8speaks-2/yash-dk-2/Mohithash-1/gautamajay52-1/Harsh-br0-1/Phyco-Ninja-1/anon97945-1;gautamajay52-37/ghost-8/askfriends-7/telegrambotdev-7/547555909-7/vaisakhc56-6/RinTohsakaBestWaifu-6/Pritam-Patra-5/nimma0001-4/vaibhavdost-4/KAMG95-4/soffex-3/none5969-3/Yashbarod-3/iamlordutkarsh-3/NEOIR-3/doloresjose-3/sevvian-3/mughals786-3/chammiii-3/judhistir88-3/em108-2/GAMERPIYUSH9090-2/cocoamartin-2/X-Gorn-2/UsamaKarim-2/jgo42-2/rockydares-2/Tyriontheimp987-2/RomanGoddess-2/StazCherryBlood-2/thanioruvangkl-2/arjuntsgowda-2/devsdocs-2/trickesterking-2/onlychecking-1/cobadulu001-1/pratik2596-1/mateuszz0000-1/kamalteja1998-1/Kidzdev-1/darkparky-1/maybesmart-1/maiz94-1/IronYash-1/DakshVV-1/NandiyaLive-1/sawankumar-1/devillD-1/trending1newmovie-1/aman130-afk-1/SerMax20-1/f0rx4-1/isaccx-1/rafsanbasunia-1/Atrate-1/AbhiSgr-1/uzemalik-1/dbinheaven-1/HappyBoy0509-1/Apitpr0-1/skbaji6-1/trancanh1102-1/blackps3hack-1/naveen9329-1/Hadi0609-1/synt4x3rr0r-syn-1/spkal01-1/vari98-1/vivekdarji00-1/desire101-1/naibataunga-1/LikerPlayer-1/noonegupta734-1/herrysis404-1/theRay1s-1/jamesdean13-1/daniyallko-1/hairatoo-1/mrsauravkr1-1/Mz96movie-1/mohan585-1/sourav5314-1/prgofficial-1/YishuBindoriya-1/Technical-Jigar-1/MaxxRider-1/Ashfanndm-1/Thanioruvangkl1-1/Saitoling-1/FristyFlakes-1/jikkubot-1/anymv-1/NoobPeoples-1/GuruXD-1/martha2211-1/Munalia-1/Eagletech001-1/andimandi12-1/charindithjaindu-1/IshwaranRudhara-1/killerlearner-1/NamasteIndia-1/xiaoqi-beta-1;gautamajay52-168/telegrambotdev-26/RomanGoddess-16/547555909-13/NEOIR-8/askfriends-8/vaisakhc56-8/sevvian-7/em108-6/pep8speaks-6/doloresjose-5/FristyFlakes-5/GAMERPIYUSH9090-4/nimma0001-4/devsdocs-4/KAMG95-4/none5969-3/skbaji6-3/iamlordutkarsh-3/X-Gorn-3/usmanmughalji-3/NandiyaLive-2/maiz94-2/ghost-2/jgo42-2/sivagurus-2/noonegupta734-2/trickesterking-2/LuqmanReburn-2/jikkubot-2/KGK06-2/NamasteIndia-2/AdzeB-1/darkparky-1/cocoamartin-1/rockydares-1/UsamaKarim-1/sethazazel-1/Yashbarod-1/Atrate-1/dbinheaven-1/Harsh-br0-1/theRay1s-1/judhistir88-1/Ashfanndm-1/GuruXD-1;gautamajay52-34/ghost-6/RinTohsakaBestWaifu-6/Pritam-Patra-4/nimma0001-4/vaibhavdost-4/soffex-3/Yashbarod-3/mughals786-3/none5969-2/cocoamartin-2/UsamaKarim-2/askfriends-2/vaisakhc56-2/Tyriontheimp987-2/doloresjose-2/StazCherryBlood-2/thanioruvangkl-2/arjuntsgowda-2/trickesterking-2/onlychecking-1/cobadulu001-1/pratik2596-1/mateuszz0000-1/maybesmart-1/IronYash-1/DakshVV-1/sawankumar-1/trending1newmovie-1/aman130-afk-1/SerMax20-1/isaccx-1/AbhiSgr-1/dbinheaven-1/HappyBoy0509-1/skbaji6-1/iamlordutkarsh-1/naveen9329-1/Hadi0609-1/synt4x3rr0r-syn-1/spkal01-1/vari98-1/vivekdarji00-1/desire101-1/sevvian-1/naibataunga-1/jamesdean13-1/daniyallko-1/KAMG95-1/hairatoo-1/mrsauravkr1-1/Mz96movie-1/mohan585-1/sourav5314-1/prgofficial-1/judhistir88-1/YishuBindoriya-1/Technical-Jigar-1/Thanioruvangkl1-1/jikkubot-1/NoobPeoples-1/Munalia-1/andimandi12-1/charindithjaindu-1/IshwaranRudhara-1/NamasteIndia-1/xiaoqi-beta-1;gautamajay52-12/pep8speaks-6/nimma0001-3/trickesterking-2/jikkubot-2/NamasteIndia-2/Yashbarod-1/dbinheaven-1/skbaji6-1/askfriends-1/judhistir88-1
helloworld1/FreeOTPPlus;110;22;77;87;12;6;helloworld1/FreeOTPPlus;22;22;77;87;12;6;77;87;12;6;6543/Disqu3-mirOir-qt/heinrich5991/hmuus/wwwurst/FabriceSalvaire/spiffzilla/gemarcano/atallo/mattcen/OLLI-S/daiaji/unicorntaco/bluecypher/Porkepix/oxr463/GameScripting/bonjour81/beatstick/Primokorn/ema-pe/heindel/KlavsKlavsen/ejortegau/gergelypolonkai/scorthyn/andreapx/chgeuer/atrent/itsKV/mwt/Krawei/altiOnGithub/shezzski/akwala/telans/schlagi123/7uppi/danjde/Poussinou/macducknut/andrew-t/johnwick1/Keraldi/yuv/mbarashkov/tidoni/emericv/Minoru/wischi-chr/JanZerebecki/jdevora/MarcelTUC/MalikKillian/error401de/kuba-orlik/jugendhacker/poiNt3D/helloworld1/StoyanDimitrov/Francewhoa/ghost/pasha132/kelna/mikoladz/m-alice/onos1/ExpandingFoam/mueller-ma/pietervw/taelfrinn/delbonis/ralfbergs/james-reed/strugee/Aeny202/fortran77;mymindstorm/6543/heinrich5991/vikingtiger/hmuus/jalcine/silviuvulcan/spiffzilla/jamesprite/atallo/clach04/tengwar/mattcen/daiaji/unicorntaco/solarchemist/gloomytrousers/oxr463/daniel-illi/KeronCyst/bonjour81/beatstick/seventer/konus1/KlavsKlavsen/andreapx/AGlezB/danieldjewell/chgeuer/atrent/cClaude/itsKV/Krawei/altiOnGithub/guy-talbot/BugProg/ndorf/bluikko/akwala/7uppi/fe60/danjde/Poussinou/aemxn/fabermundi/johnwick1/Keraldi/Lekensteyn/yuv/mbarashkov/dschneiderch/emericv/s-hemer/davidcstevens/Minoru/rugk/bodograumann/wischi-chr/JanZerebecki/JoschaLaubach/error401de/kuba-orlik/tpapp/jugendhacker/helloworld1/ce-4/SuperTux88/wjoe/ghost/tvdmitrii/pasha132/opensam/kelna/m-alice/ExpandingFoam/mueller-ma/NRGLine4Sec/samphunter/kdoteu/wesinator/Rudloff/james-reed/strugee/fortran77/ItsExtra/lotth/pavelpicka;pietervw/6543/Francewhoa/Disqu3-mirOir-qt/Poussinou/error401de/mbarashkov/bluecypher/ema-pe/GameScripting/tidoni/andrew-t;6543/jugendhacker/ghost/helloworld1/error401de/mbarashkov;6543-15/error401de-3/ghost-3/wischi-chr-3/Poussinou-2/itsKV-2/ema-pe-2/helloworld1-2/atallo-2/MalikKillian-2/mbarashkov-2/yuv-2/pietervw-2/james-reed-2/mueller-ma-2/Minoru-2/jugendhacker-2/Primokorn-1/GameScripting-1/shezzski-1/macducknut-1/mwt-1/poiNt3D-1/beatstick-1/akwala-1/gergelypolonkai-1/onos1-1/kelna-1/Aeny202-1/andreapx-1/Krawei-1/spiffzilla-1/Disqu3-mirOir-qt-1/Francewhoa-1/taelfrinn-1/unicorntaco-1/schlagi123-1/kuba-orlik-1/fortran77-1/emericv-1/strugee-1/oxr463-1/scorthyn-1/StoyanDimitrov-1/m-alice-1/bonjour81-1/chgeuer-1/ExpandingFoam-1/OLLI-S-1/telans-1/wwwurst-1/MarcelTUC-1/atrent-1/andrew-t-1/danjde-1/gemarcano-1/pasha132-1/delbonis-1/mikoladz-1/heindel-1/KlavsKlavsen-1/johnwick1-1/Porkepix-1/daiaji-1/ralfbergs-1/altiOnGithub-1/FabriceSalvaire-1/jdevora-1/ejortegau-1/JanZerebecki-1/heinrich5991-1/hmuus-1/bluecypher-1/7uppi-1/mattcen-1/Keraldi-1/tidoni-1;helloworld1-175/6543-23/jugendhacker-8/fortran77-6/heinrich5991-6/itsKV-5/davidcstevens-5/JoschaLaubach-5/hmuus-5/s-hemer-4/akwala-3/KeronCyst-3/guy-talbot-3/error401de-3/seventer-3/Lekensteyn-2/ndorf-2/atallo-2/wjoe-2/ItsExtra-2/rugk-2/pavelpicka-2/mbarashkov-2/yuv-2/cClaude-2/johnwick1-2/james-reed-2/ce-4-2/mueller-ma-2/kdoteu-2/aemxn-1/daniel-illi-1/samphunter-1/SuperTux88-1/silviuvulcan-1/beatstick-1/gloomytrousers-1/unicorntaco-1/bluikko-1/kelna-1/bodograumann-1/AGlezB-1/wesinator-1/Poussinou-1/Rudloff-1/Krawei-1/jalcine-1/spiffzilla-1/andreapx-1/solarchemist-1/strugee-1/kuba-orlik-1/mymindstorm-1/clach04-1/emericv-1/oxr463-1/tengwar-1/wischi-chr-1/m-alice-1/ExpandingFoam-1/bonjour81-1/chgeuer-1/atrent-1/danjde-1/BugProg-1/fabermundi-1/opensam-1/pasha132-1/tpapp-1/tvdmitrii-1/dschneiderch-1/konus1-1/lotth-1/vikingtiger-1/KlavsKlavsen-1/jamesprite-1/daiaji-1/fe60-1/altiOnGithub-1/mattcen-1/JanZerebecki-1/danieldjewell-1/NRGLine4Sec-1/ghost-1/7uppi-1/Minoru-1/Keraldi-1;6543-9/pietervw-2/error401de-2/GameScripting-1/Poussinou-1/Disqu3-mirOir-qt-1/Francewhoa-1/ema-pe-1/andrew-t-1/mbarashkov-1/bluecypher-1/tidoni-1;helloworld1-11/6543-11/error401de-2/mbarashkov-1/ghost-1/jugendhacker-1;6543-15/error401de-3/ghost-3/wischi-chr-3/Poussinou-2/itsKV-2/ema-pe-2/helloworld1-2/atallo-2/MalikKillian-2/mbarashkov-2/yuv-2/pietervw-2/james-reed-2/mueller-ma-2/Minoru-2/jugendhacker-2/Primokorn-1/GameScripting-1/shezzski-1/macducknut-1/mwt-1/poiNt3D-1/beatstick-1/akwala-1/gergelypolonkai-1/onos1-1/kelna-1/Aeny202-1/andreapx-1/Krawei-1/spiffzilla-1/Disqu3-mirOir-qt-1/Francewhoa-1/taelfrinn-1/unicorntaco-1/schlagi123-1/kuba-orlik-1/fortran77-1/emericv-1/strugee-1/oxr463-1/scorthyn-1/StoyanDimitrov-1/m-alice-1/bonjour81-1/chgeuer-1/ExpandingFoam-1/OLLI-S-1/telans-1/wwwurst-1/MarcelTUC-1/atrent-1/andrew-t-1/danjde-1/gemarcano-1/pasha132-1/delbonis-1/mikoladz-1/heindel-1/KlavsKlavsen-1/johnwick1-1/Porkepix-1/daiaji-1/ralfbergs-1/altiOnGithub-1/FabriceSalvaire-1/jdevora-1/ejortegau-1/JanZerebecki-1/heinrich5991-1/hmuus-1/bluecypher-1/7uppi-1/mattcen-1/Keraldi-1/tidoni-1;helloworld1-175/6543-23/jugendhacker-8/fortran77-6/heinrich5991-6/itsKV-5/davidcstevens-5/JoschaLaubach-5/hmuus-5/s-hemer-4/akwala-3/KeronCyst-3/guy-talbot-3/error401de-3/seventer-3/Lekensteyn-2/ndorf-2/atallo-2/wjoe-2/ItsExtra-2/rugk-2/pavelpicka-2/mbarashkov-2/yuv-2/cClaude-2/johnwick1-2/james-reed-2/ce-4-2/mueller-ma-2/kdoteu-2/aemxn-1/daniel-illi-1/samphunter-1/SuperTux88-1/silviuvulcan-1/beatstick-1/gloomytrousers-1/unicorntaco-1/bluikko-1/kelna-1/bodograumann-1/AGlezB-1/wesinator-1/Poussinou-1/Rudloff-1/Krawei-1/jalcine-1/spiffzilla-1/andreapx-1/solarchemist-1/strugee-1/kuba-orlik-1/mymindstorm-1/clach04-1/emericv-1/oxr463-1/tengwar-1/wischi-chr-1/m-alice-1/ExpandingFoam-1/bonjour81-1/chgeuer-1/atrent-1/danjde-1/BugProg-1/fabermundi-1/opensam-1/pasha132-1/tpapp-1/tvdmitrii-1/dschneiderch-1/konus1-1/lotth-1/vikingtiger-1/KlavsKlavsen-1/jamesprite-1/daiaji-1/fe60-1/altiOnGithub-1/mattcen-1/JanZerebecki-1/danieldjewell-1/NRGLine4Sec-1/ghost-1/7uppi-1/Minoru-1/Keraldi-1;6543-9/pietervw-2/error401de-2/GameScripting-1/Poussinou-1/Disqu3-mirOir-qt-1/Francewhoa-1/ema-pe-1/andrew-t-1/mbarashkov-1/bluecypher-1/tidoni-1;helloworld1-11/6543-11/error401de-2/mbarashkov-1/ghost-1/jugendhacker-1
lzzy12/python-aria-mirror-bot;100;0;72;64;24;16;magneto261290/magneto-python-aria;8;8;53;38;7;3;15;11;1;1;Kiran-web-star/kartara/alamia442/ghost/UsamaKarim/em108/doloresjose/ElytrA8/Ashish0804/SamirJanaOfficial/adisubagja/nullbytes0/trancanh1102/Suyashjain05/OryWareKyrie;KenHV/flmorse/TheFierceWarrior/em108/adisubagja/nullbytes0/Suyashjain05/DevTeady/magneto261290/Hemchand-King/yashptel;SamirJanaOfficial;magneto261290;OryWareKyrie-7/TheFierceWarrior-5/Hashimkp-5/adisubagja-4/sawankumar-4/magneto261290-4/herrysis404-3/ghost-3/elbert505-3/meeker0-3/ElytrA8-2/lxmicode-2/SamirJanaOfficial-2/Madhavreddy672-2/Lucky056-2/thehamkercat-2/buddhhu-1/telegrambotdev-1/em108-1/sagirisayang-1/cdfxscrq-1/DevTeady-1/SerMax20-1/alamia442-1/skbaji6-1/RomanGoddess-1/masbodo-1/ktanay98-1/viper-adnan-1/Suyashjain05-1/NandiyaLive-1/PengfeiXie-1/sumitbot-1/gautamajay52-1/smartass08-1/thegreatestminer-1/immoIT-1/riganf-1/HafizZiq-1/uzemalik-1/ScientificX-1/iamlordutkarsh-1/Kiran-web-star-1/TheWeaver786-1/Ashish0804-1/pokurt-1/chintan992-1/parnexcodes-1/iamLiquidX-1/SpEcHiDe-1/ronitMaitra-1/X-Gorn-1/dhairya137-1/kedyao-1/UsamaKarim-1/anyone00-1/VegitoUchiha-1/trancanh1102-1/kartara-1/flmorse-1/Flacial-1/KenHV-1/AmirulAndalib-1/ksssomesh12-1/Bartixxx32-1/doloresjose-1/nullbytes0-1/successful-fella-1/TanjimReza-1/Dark-Matter7232-1/sobuj53-1/mohitmallick17-1;lzzy12-27/AlbionWhite07-12/a092devs-11/yuno74-11/elbert505-8/gautamajay52-7/iamlordutkarsh-7/em108-5/hjyoung1-5/WiizarDxD-5/smartass08-5/ghost-5/tylahibeb-5/jaskaranSM-5/RomanGoddess-4/NandiyaLive-4/viper-adnan-4/nullbytes0-4/herrysis404-3/adisubagja-3/masbodo-3/TheFierceWarrior-3/sumitbot-3/Hashimkp-3/Suyashjain05-3/OryWareKyrie-3/AmirulAndalib-3/ElytrA8-2/skbaji6-2/Akshaygit1-2/ktanay98-2/noobvishal-2/Yash-Garg-2/thegreatestminer-2/lxmicode-2/sawankumar-2/kedyao-2/magneto261290-2/yashptel-2/Madhavreddy672-2/Lucky056-2/yshalsager-1/sagirisayang-1/DevTeady-1/prono69-1/krypticallusion-1/dhruvanbhalara-1/vishansh-1/riganf-1/420tushar-1/ScientificX-1/Hemchand-King-1/ParveenBhadooOfficial-1/Akianonymus-1/ronitMaitra-1/rsuchwani-1/tldr-cell-1/ksssomesh12-1/flmorse-1/devsdocs-1/Flacial-1/KenHV-1/meeker0-1/TanjimReza-1;TheFierceWarrior-4/magneto261290-4/sawankumar-2/SamirJanaOfficial-2/Madhavreddy672-2/thehamkercat-2/ghost-1/viper-adnan-1/Suyashjain05-1/sumitbot-1/gautamajay52-1/smartass08-1/HafizZiq-1/uzemalik-1/iamlordutkarsh-1/TheWeaver786-1/pokurt-1/SpEcHiDe-1/Hashimkp-1/VegitoUchiha-1/ksssomesh12-1/meeker0-1/Dark-Matter7232-1/mohitmallick17-1;gautamajay52-7/lzzy12-5/sumitbot-3/smartass08-3/a092devs-3/jaskaranSM-2/TheFierceWarrior-2/yuno74-2/magneto261290-2/yashptel-2/Madhavreddy672-2/Yash-Garg-1/vishansh-1/Akianonymus-1/Hashimkp-1/viper-adnan-1;nullbytes0-5/Hemchand-King-3/Kiran-web-star-3/adisubagja-3/noobvishal-2/none5969-2/Rahul-Tyagi12-2/mlwbd-2/Suyashjain05-2/vergaten-2/Stallqi-2/UsamaKarim-2/trancanh1102-2/OryWareKyrie-2/arjun4414-2/ikssas35b-2/Tazhossain-2/alamia442-2/bunnyrockz-1/ikssas35-1/ghost-1/advik-afk-1/doloresjose-1/im-asf-1/cloudoftg-1/sapthesh-1/MaxxRider-1/nenokkadine-1/jgo42-1/mehlam619-1/Ashish0804-1/Subwayqueen-1/ElytrA8-1/0x01x0-1/iykoou-1/destiny6520-1/nenofetch-1/FristyFlakes-1/kartara-1/droideronline-1/MrCarb0n-1/547555909-1/onlyabay-1/Vincher-coder-1/SamirJanaOfficial-1/kristenleppel-1/anasty17-1/IMMANUEL44-1/em108-1/AbirHasan2005-1/sherlockia2-1/abdulkader00-1/yasirarism-1;magneto261290-59/Suyashjain05-5/nullbytes0-5/im-asf-4/adisubagja-4/ikssas35-3/noonegupta734-3/FristyFlakes-3/TheFierceWarrior-2/enjeyisback-2/UsamaKarim-2/nenokkadine-2/DevTeady-2/Rahul-Tyagi12-2/ikssas35b-2/trancanh1102-2/kartara-2/KenHV-2/droideronline-2/SamirJanaOfficial-2/hitesh920-2/none5969-1/immoIT-1/askfriends-1/sapthesh-1/Kiran-web-star-1/Hemchand-King-1/mehlam619-1/GaryLz-1/vergaten-1/flmorse-1/yashptel-1/MrCarb0n-1/arjun4414-1/anasty17-1/Tazhossain-1/em108-1/abdulkader00-1;noobvishal-2/Subwayqueen-1/vergaten-1/onlyabay-1/SamirJanaOfficial-1/ikssas35b-1/IMMANUEL44-1;magneto261290-4/SamirJanaOfficial-2/hitesh920-1
madler/zlib;538;299;377;302;202;142;zlib-ng/minizip-ng;281;281;225;150;106;48;10;9;3;2;kloczek/praiskup/vszakats/kouzhudong/Iniesta8/RomeroMalaquias/nmoinvaz/cleric/ghost/wangp;vszakats/kloczek/nmoinvaz/Neustradamus/kouzhudong/praiskup/gvollant/madler/ghost;vszakats/nmoinvaz/RomeroMalaquias;vszakats/nmoinvaz;tbeu-9/jaykrell-9/vinniefalco-7/sebpop-6/poiru-5/syntheticpp-5/likema-5/praiskup-5/AraHaan-5/ksophocleous-5/pmqs-5/vszakats-5/irwir-5/Adenilson-5/dankegel-5/clin1234-5/tofutim-4/ghost-4/sav-ix-4/pzychotic-4/ProgramMax-4/jk3064-3/forderud-3/mtl1979-3/scop-3/kiyolee-3/angeleno-3/grooverdan-3/sunnyap-3/chris19782-3/mscastanho-3/kouzhudong-3/alexhultman-3/broonie-2/dsagal-2/willglynn-2/jwakely-2/tstuefe-2/abby-sergz-2/DanKonigsbach-2/danoli3-2/Storyyeller-2/Fredrik89-2/ehsan-2/delphij-2/osmanager-2/yangzhang-2/BlackDoomer-2/ZoeB-2/lygstate-2/TaleTN-2/quatmax-2/leinadn-2/sylvestre-2/LebedevRI-2/boxerab-2/JoeUX-2/sh1boot-2/stilor-2/hadrien-psydk-2/fgsch-2/jeking3-2/rurban-2/mathstuf-2/GyrosGeier-2/noahdav-2/scubjwu-2/htuch-2/nigeltao-2/WilliamHeaven-2/bshastry-2/0ric1-2/simonis-2/stokito-2/null77-2/orgads-2/nmoinvaz-2/Alanscut-2/Meithal-2/wrowe-2/lekanteto-1/GerHobbelt-1/binki-1/qtip-1/sandvige-1/GregDomjan-1/nwwt-1/takacsd-1/Singijeon-1/Garonenur-1/kreuzerkrieg-1/licquia-1/danielkaneider-1/weltling-1/vlajos-1/SZD-48-1/akrylysov-1/Tvangeste-1/kwk-1/yochy4671-1/paroga-1/msturgill-1/michelangelo-1/virmitio-1/monnerat-1/ebiggers-1/jdx-john-1/dietmarw-1/dgmz-1/dbarkar-1/georgy7-1/mattyclarkson-1/jmvdkolk98-1/Dead2-1/ojwb-1/vkrasnov-1/dandesousa-1/toddr-1/jagiller-1/MelvinGr-1/Cyberunner23-1/ENikS-1/jeffreydwalter-1/maryamtahhan-1/carlobaldassi-1/MarkJonas-1/redditanalytics-1/ingvagabund-1/vbuslov-1/loganaden-1/zbrad-1/bulk88-1/aagmangour-1/abalib-1/afarbos-1/schwehr-1/chraac-1/ams-tschoening-1/RomeroMalaquias-1/ianhays-1/crrodriguez-1/ValleyBell-1/gnieboer-1/jvanlabeke-1/kolomenkin-1/Qix--1/JPGygax68-1/jcmartins-1/ChrisKitching-1/dacap-1/tele1-1/jkbonfield-1/OneSecure-1/paulsapps-1/rickertm-1/sergeycheban-1/yuslepukhin-1/qwertychouskie-1/tklauser-1/chronoxor-1/chcg-1/Windeal-1/pdtoit-1/xpol-1/flememl-1/ashoksrinath-1/MrSparc-1/vookimedlo-1/cliffordwolf-1/ingvarha-1/chris2553-1/arekm-1/rleigh-codelibre-1/paaguti-1/zonr-1/itsb-1/ketjow4-1/mmogilvi-1/psumbera-1/bachp-1/HTPCGuides-1/eldruin-1/jeremyjh-1/alejolp-1/minhajakhterkhan199-1/bnason-nf-1/christoph-cullmann-1/roncli-1/jcadduono-1/maddin200-1/stanguturi-1/Snuff-Daddy-1/ab-acx-1/tztester-1/scobiej-1/gildor2-1/csware-1/makdharma-1/alefallas-1/doko42-1/LouisStrous-1/DbxDev-1/npm1-1/yurymik-1/vanillycpp-1/1234sv-1/alexcohn-1/simhos01-1/JeffBerman-1/rlishtaba-1/Dridi-1/eolivi-1/AhmedX6-1/atmosx-1/cnd-1/Sav0966-1/AntonyBlakey-1/na-Itms-1/umokk-1/xuemingshen-1/Thormidable-1/dgobbi-1/fowles-1/chund-1/MylesBorins-1/silverqx-1/dimzon-1/rcdailey-1/Sebbyastian-1/saxenasaurabh-1/JohanEngelen-1/sithmein-1/robiwano-1/concatime-1/luzpaz-1/ash1day-1/PhoenixMage-1/perrygeo-1/breakin-1/d3netxer-1/vadz-1/oveilak-1/rc-upstream-1/pedro-vicente-1/apowers313-1/McNeight-1/Mizux-1/wangzf1979-1/topwizprogramming-1/landfillbaby-1/tr1cks-1/malytomas-1/ClausKlein-1/rouault-1/hjred-1/Pzixel-1/scarabeusiv-1/01e9-1/photopea-1/adyshimony-1/mgoblue-1/snahmad-1/Jaxo-1/Iniesta8-1/johnb003-1/MaEtUgR-1/cleric-1/gustafn-1/yamaken93-1/cryptomilk-1/clouds-drift-1/wangp-1/CristiFati-1/levicki-1/sweatmonkey-1/loskiq-1/dexterbg-1/mjunix-1/vmiklos-1/miurahr-1/hlindberg-1/benslack19-1/Ericson2314-1/siepkes-1/bsdphk-1/lufia-1/escherstair-1/jsoref-1/a-kulakov-1/ogaun-1/frankvyncke-1/agrandville-1/SunshineAllWay-1/rossburton-1/iii-i-1/blackandwhitebg-1/JaomBerine-1/KalleOlaviNiemitalo-1/vemakereporter-1/coypoop-1/kenavolic-1/Displacer-1/xerta555-1/kloczek-1/Omega-Ariston-1/TorKlingberg-1/disigma-1/LanceAndersen-1/karkador-1/ijhowle-1/xnox-1/ssrobins-1/MrMehdi-1/Sundarcj-1/straubar-1/geerit-1/lmajewski-1/puzrin-1/hikari-no-yume-1/rdoeffinger-1/AleXoundOS-1/darksectordds-1/racardoso-1/kaidokert-1/dcb314-1/VivekZak-samsung-1/dmitry-lipetsk-1/zengletian1491-1/Ikayanjoh-1/schultetwin1-1/Nepetalactone-1/milos273-1/kasru-1/jasmt-us-1/qingkaishi-1/sunny-shu-1/NancyLi1013-1/babulin-1/chanphil-1/WinteryFox-1/lizan-1/guoang-1/eldiener-1/Optiligence-1/Sibras-1/ptoche-1/hlewin-1/gamearea-1/timblechmann-1/theresa-m-1/scorpion9111-1/heeran-xilinx-1/Togtja-1/riordanmr-1/bhupiister-1/zhengjunling-1/ironxu-1/zchrissirhcz-1/zmodem-1/PiotrSikora-1/akshayrb9-1/Liam89-1/harkue-1/9EOR9-1/bgermann-1/basiliscos-1/PatriosTheGreat-1/snowgoon88-1/tfarina-1/kfiros-1/peterbmckinley-1/elfring-1/deepin-mozart-1/ihsinme-1/nicolas-cellier-aka-nice-1/WildCard65-1/CxMachine-1;madler-323/Adenilson-60/tbeu-42/mtl1979-40/AraHaan-30/ProgramMax-28/vinniefalco-22/dankegel-22/jeking3-17/praiskup-14/rhuijben-13/Neustradamus-11/nmoinvaz-11/sithmein-10/sebpop-10/iii-i-9/jaykrell-9/gildor2-8/vszakats-8/1234sv-7/rcdailey-7/xuemingshen-7/robiwano-7/sav-ix-6/grooverdan-6/andrewvaughanj-6/poiru-5/jeffreydwalter-5/kolomenkin-5/minexew-5/tele1-5/sverker-5/silviucpp-5/npm1-5/JoeUX-5/Mizux-5/mscastanho-5/scorpion9111-5/pmqs-5/CxMachine-5/DanKonigsbach-4/Storyyeller-4/maryamtahhan-4/ismail-4/pzychotic-4/Dead2-4/schwehr-4/mlt-4/ketjow4-4/4144-4/yselkowitz-4/sunnyap-4/philippeVerney-4/bhupiister-4/jubueche-4/MaEtUgR-4/irwir-4/gvollant-4/zhengjunling-4/broonie-3/avdv-3/kreuzerkrieg-3/carlobaldassi-3/wipkirill-3/auroraeosrose-3/bsdphk-3/LebedevRI-3/ioquatix-3/zouzou123gen-3/RReverser-3/lukasf-3/fowles-3/nigeltao-3/pedro-vicente-3/LifeIsStrange-3/henryborchers-3/01e9-3/adyshimony-3/ghost-3/bshastry-3/rdoeffinger-3/ptoche-3/kouzhudong-3/Qix--3/zchrissirhcz-3/Liam89-3/syntheticpp-2/Garonenur-2/pcordes-2/jpflori-2/evoskuil-2/kwk-2/clementperon-2/tofutim-2/ZoeB-2/dandesousa-2/ENikS-2/sverx-2/RomeroMalaquias-2/ianhays-2/yangzhang-2/hjmallon-2/lygstate-2/michelboaventura-2/sylvestre-2/minhajakhterkhan199-2/jtattermusch-2/boxerab-2/kiyolee-2/yumetodo-2/haoxinyuan-2/simhos01-2/Dridi-2/noloader-2/rickertm-2/ksophocleous-2/fgsch-2/peter-gribanov-2/breakin-2/samuel-tranchet-2/wwp-2/jakirkham-2/levicki-2/jsoref-2/a-kulakov-2/Omega-Ariston-2/KalleOlaviNiemitalo-2/kenavolic-2/xavier2k6-2/okias-2/plo--2/kloczek-2/LanceAndersen-2/hrieke-2/Tricky1975-2/steveire-2/neurolabusc-2/sunny-shu-2/tpgxyz-2/Alanscut-2/kadler-2/timblechmann-2/harkue-2/paaguti-2/avoidik-2/peterbmckinley-2/wrowe-2/lekanteto-1/binki-1/dsagal-1/breser-1/davispuh-1/licquia-1/weltling-1/ch3cooli-1/adeseg-1/dimpase-1/sagamusix-1/jozefizso-1/Glyth-1/alanblevins-1/tstuefe-1/milgner-1/forderud-1/likema-1/abby-sergz-1/dgmz-1/Lectem-1/jmvdkolk98-1/yuslepukhin-1/vadmium-1/toddr-1/folays-1/jay-1/ingvagabund-1/daxtens-1/vbuslov-1/zbrad-1/ams-tschoening-1/leitao-1/JBlond-1/gnieboer-1/asfaque-alam-1/jorgehatccrma-1/strattist-1/l33ds-1/kymikoloco-1/leinadn-1/jcmartins-1/ChrisKitching-1/dacap-1/rdb-1/jkbonfield-1/tschw-1/BusyJay-1/miguelportilla-1/jonathonracz-1/dooglz-1/warmwaffles-1/jcadduono-1/cliffordwolf-1/xorz57-1/abucodonosor-1/rleigh-codelibre-1/theclashingfritz-1/akerl-1/jeremyjh-1/MilhouseVH-1/azelk-1/botanegg-1/wangdxnum1-1/Meoo-1/stilor-1/tztester-1/martingalvan-1/DanielaE-1/mfarrugi-1/alessandrodn-1/Duyj0109-1/iav-1/yurymik-1/vanillycpp-1/diizzyy-1/alexcohn-1/enh-1/sh1boot-1/AhmedX6-1/sshariff75-1/m-f-h-1/Jeklah-1/mykeels-1/Sav0966-1/umokk-1/orgads-1/silverqx-1/saxenasaurabh-1/mattgodbolt-1/JohanEngelen-1/JonasVautherin-1/pramenku-1/smee30-1/rurban-1/Lubak-1/terinjokes-1/srijs-1/itank-1/julian-klode-1/McNeight-1/johnb003-1/qingzhengzhuma-1/ras0219-msft-1/williampaiva-1/abdulbadii-1/topwizprogramming-1/stkruse-1/Strum355-1/breznak-1/mattparks-1/noahdav-1/hjred-1/Pzixel-1/zdenop-1/photopea-1/Jaxo-1/julianoes-1/sweatmonkey-1/miurahr-1/benslack19-1/ernstki-1/adam-azarchs-1/ltx2018-1/djarek-1/nh2-1/JL2210-1/rossburton-1/vemakereporter-1/coypoop-1/htuch-1/brlcad-1/kamronbatman-1/WildCard65-1/hikari-no-yume-1/Dor1s-1/0ric1-1/AleXoundOS-1/dmitry-lipetsk-1/simonis-1/tuliom-1/JuYanYan-1/MalcolmMielle-1/Yikun-1/antmak-1/madebr-1/DanHeidinga-1/Meithal-1/alexhultman-1/ironxu-1/PiotrSikora-1/bgermann-1/kfiros-1/ihsinme-1/ScatteredRay-1;tbeu-9/jaykrell-7/sebpop-6/poiru-5/syntheticpp-5/likema-5/praiskup-5/ksophocleous-5/vszakats-5/pzychotic-4/ProgramMax-4/jk3064-3/forderud-3/mtl1979-3/tofutim-3/scop-3/ghost-3/kiyolee-3/AraHaan-3/grooverdan-3/chris19782-3/clin1234-3/Adenilson-3/mscastanho-3/dankegel-3/broonie-2/willglynn-2/jwakely-2/abby-sergz-2/Fredrik89-2/delphij-2/osmanager-2/yangzhang-2/BlackDoomer-2/ZoeB-2/quatmax-2/sylvestre-2/stilor-2/jeking3-2/rurban-2/mathstuf-2/noahdav-2/orgads-2/nmoinvaz-2/wrowe-2/GerHobbelt-1/binki-1/qtip-1/dsagal-1/GregDomjan-1/takacsd-1/vlajos-1/akrylysov-1/paroga-1/msturgill-1/michelangelo-1/virmitio-1/monnerat-1/dietmarw-1/dgmz-1/dbarkar-1/georgy7-1/mattyclarkson-1/DanKonigsbach-1/danoli3-1/ojwb-1/vkrasnov-1/MelvinGr-1/Cyberunner23-1/ENikS-1/loganaden-1/zbrad-1/ehsan-1/abalib-1/afarbos-1/chraac-1/ams-tschoening-1/RomeroMalaquias-1/ValleyBell-1/gnieboer-1/kolomenkin-1/Qix--1/ChrisKitching-1/dacap-1/jkbonfield-1/OneSecure-1/rickertm-1/sergeycheban-1/yuslepukhin-1/qwertychouskie-1/JoeUX-1/lygstate-1/tklauser-1/chronoxor-1/chcg-1/vinniefalco-1/pdtoit-1/xpol-1/flememl-1/ashoksrinath-1/vookimedlo-1/TaleTN-1/rleigh-codelibre-1/paaguti-1/zonr-1/itsb-1/mmogilvi-1/psumbera-1/bachp-1/christoph-cullmann-1/LebedevRI-1/jcadduono-1/ab-acx-1/scobiej-1/csware-1/makdharma-1/alefallas-1/LouisStrous-1/sh1boot-1/simhos01-1/JeffBerman-1/rlishtaba-1/Dridi-1/eolivi-1/cnd-1/Sav0966-1/AntonyBlakey-1/dgobbi-1/fowles-1/MylesBorins-1/nigeltao-1/rcdailey-1/JohanEngelen-1/luzpaz-1/ash1day-1/breakin-1/vadz-1/oveilak-1/rc-upstream-1/angeleno-1/McNeight-1/Mizux-1/GyrosGeier-1/landfillbaby-1/tr1cks-1/malytomas-1/ClausKlein-1/rouault-1/sunnyap-1/Pzixel-1/mgoblue-1/Jaxo-1/MaEtUgR-1/gustafn-1/cryptomilk-1/CristiFati-1/dexterbg-1/vmiklos-1/miurahr-1/hlindberg-1/Ericson2314-1/siepkes-1/lufia-1/jsoref-1/a-kulakov-1/agrandville-1/rossburton-1/iii-i-1/vemakereporter-1/htuch-1/Omega-Ariston-1/disigma-1/karkador-1/WilliamHeaven-1/xnox-1/ssrobins-1/bshastry-1/racardoso-1/simonis-1/schultetwin1-1/stokito-1/jasmt-us-1/null77-1/NancyLi1013-1/lizan-1/eldiener-1/Sibras-1/hlewin-1/timblechmann-1/Alanscut-1/theresa-m-1/Meithal-1/Togtja-1/zhengjunling-1/zmodem-1/PiotrSikora-1/9EOR9-1/PatriosTheGreat-1/deepin-mozart-1/ihsinme-1/nicolas-cellier-aka-nice-1/WildCard65-1;madler-113/Adenilson-38/AraHaan-26/ProgramMax-24/tbeu-23/dankegel-18/sebpop-10/iii-i-9/praiskup-8/rcdailey-7/Neustradamus-7/jaykrell-7/rhuijben-6/vszakats-6/poiru-5/kolomenkin-5/mtl1979-5/nmoinvaz-5/mscastanho-5/mlt-4/jeking3-4/grooverdan-4/zhengjunling-4/broonie-3/wipkirill-3/auroraeosrose-3/lukasf-3/fowles-3/nigeltao-3/MaEtUgR-3/Mizux-3/bshastry-3/Qix--3/syntheticpp-2/DanKonigsbach-2/ZoeB-2/ENikS-2/RomeroMalaquias-2/yangzhang-2/hjmallon-2/JoeUX-2/vinniefalco-2/sylvestre-2/jtattermusch-2/LebedevRI-2/kiyolee-2/yumetodo-2/simhos01-2/Dridi-2/rickertm-2/ksophocleous-2/breakin-2/jsoref-2/a-kulakov-2/steveire-2/neurolabusc-2/kadler-2/timblechmann-2/avoidik-2/wrowe-2/binki-1/dsagal-1/breser-1/sagamusix-1/avdv-1/milgner-1/forderud-1/likema-1/abby-sergz-1/dgmz-1/Lectem-1/tofutim-1/vadmium-1/lygstate-1/zbrad-1/ams-tschoening-1/leitao-1/JBlond-1/gnieboer-1/asfaque-alam-1/jorgehatccrma-1/ChrisKitching-1/dacap-1/rdb-1/jkbonfield-1/tschw-1/jonathonracz-1/dooglz-1/warmwaffles-1/rleigh-codelibre-1/botanegg-1/henryborchers-1/Meoo-1/stilor-1/okias-1/martingalvan-1/DanielaE-1/zouzou123gen-1/mfarrugi-1/diizzyy-1/sh1boot-1/Sav0966-1/orgads-1/peter-gribanov-1/JohanEngelen-1/JonasVautherin-1/smee30-1/rurban-1/julian-klode-1/McNeight-1/johnb003-1/stkruse-1/mattparks-1/noahdav-1/KalleOlaviNiemitalo-1/levicki-1/Pzixel-1/Jaxo-1/julianoes-1/miurahr-1/ltx2018-1/djarek-1/nh2-1/JL2210-1/rossburton-1/kloczek-1/vemakereporter-1/htuch-1/WildCard65-1/Dor1s-1/simonis-1/tuliom-1/Yikun-1/antmak-1/madebr-1/DanHeidinga-1/harkue-1/PiotrSikora-1/andrewvaughanj-1/ihsinme-1/pmqs-1/ScatteredRay-1;Coeur-74/vszakats-45/asmaloney-15/nmoinvaz-13/chenxiaolong-11/juanii-11/okhowang-8/xwxbug-7/UncleAlbie-7/catlan-6/MacGritsch-6/jimpark-6/hsdk123-6/Timac-5/rusdevops-5/mstoicoi-5/evanmiller-5/mschmieder-5/GerbilSoft-5/willson-chen-5/timothytylee-4/dislimit-4/chrfle-4/chrdumont-4/kouzhudong-4/fcharlie-4/ffontaine-4/DaleLJefferson-3/StevenChristy-3/nadeemahd-3/dttrinh-3/ghost-3/rip-nsk-3/KangLin-3/akmistry-3/tamasszarka-3/ccawley2011-3/Iniesta8-3/gdubois-3/XX-Official-3/eiszapfen2000-3/Nekto89-3/EosPengwern-2/TermeHansen-2/zett42-2/jarheadSLO-2/tz-lom-2/yamaguchi-am-2/cosmy1-2/Agile86-2/praiskup-2/driquet-2/gluttony38-2/bartekkr-2/lzzy12-2/exavi-2/plo--2/MakarenkoPavel-2/rddesmond-2/Anton-V-K-2/BotellaA-2/xuchunmei000-2/ryandesign-2/michael-brade-2/zedxxx-2/triplef-2/dwmw2-2/bug22-2/ItsBasi-2/ptc-tgamper-2/NikoDelarich-2/carlocab-2/mrsergio-1/joaoe-1/koponomarenko-1/MoZhonghua-1/wangp-1/ajitpeter-1/martell-1/sopansharma27-1/paul-sh-1/0-wiz-0-1/kant-1/st0326s-1/abcjjy-1/LindleyF-1/woutervd-1/Pixmap-1/denisdemais-1/hduden-1/ethanwa-1/franiu-1/SLboat-1/abaumgaertner-1/SunMaungOo-1/JoergSchneiderSimon-1/marmelroy-1/magic-tech-1/TobiasWGDE-1/luciocosmo-1/senn412-1/matthew1471-1/avitebskiy-1/sergey-shambir-1/opsGavin-1/enefry-1/jlawton-1/dafanshu520-1/dbquarrel-1/Gauleiter-1/KermMartian-1/felselva-1/inequation-1/ooxi-1/RomeroMalaquias-1/emvivre-1/mati865-1/roussec-1/thtrummer-1/MinnieTheMoocher-1/cy99-1/gianlucabertani-1/Nethar-1/Anychnn-1/sakthicsk-1/tjelbert-1/sydmarf-1/GenesisBP-1/blvd20-1/tsxiaofang-1/mikecrowe-1/umberto-sonnino-1/qdbgw3ihnjw-1/Rseding91-1/jhudsonWA-1/nNullSpace-1/jthorniley-1/tonytheodore-1/guwangfeng-1/tumagonx-1/TheRealJokerMan-1/ismaell-1/jackson5sec-1/cleric-1/javValverde-1/photom-1/yingnierxiao-1/Alexpux-1/azure-pipelines[bot]-1/eliasts-1/laveux-1/tynewydd-1/puetzk-1/illwieckz-1/sukhchainn-1/ozelcan-1/xcorail-1/Caesarwsy-1/bcse-1/Mugsy323-1/telkamp-1/SleepySpaceDad-1/Neustradamus-1/hackoon-1/chmielot-1/tmtmazum-1/idezzzz-1/ridethepig-1/wanfustudio-1/stepankonrad-1/tanyaowei-1/zhouyang9967-1/eytanschulman-1/kloczek-1/IngwiePhoenix-1/sharkcz-1/Nelson-numerical-software-1/axnsan12-1/kimikage-1/Polynomial-C-1/MangaD-1/ls-philippe-casgrain-1/t0034514-1/ShvetsovAndrey-1/binlinrepo-1/VijayMay-1/saj281-1/supersv-1/ZChidori-1/tim-janik-1/iecmdev-1/najes-1/kdev0-1/halx99-1/wuanne15-1/madler-1/sinoru-1/ludekvodicka-1/annewu15-1/Leo-Neat-1/MatthieuMv-1/DkSuperMan-1/leha-bot-1/reyhan-sadak-1/karimhm-1/1277922976-1/joycepg-1/grzryc-1/thomasmfields-1/Yogurt4-1/yegorich-1/mabuchner-1/glanium-1/wzhengsen-1/ismailsunni-1/Grivus-1/lzh79-1/debendrat-1/pp771-1/Redfoxymoon-1/jfnaugusto-1/timgates42-1/Eswcvlad-1/ncook-hxgn-1/prateek9623-1;nmoinvaz-749/Coeur-128/vszakats-74/jimpark-15/chenxiaolong-14/asmaloney-14/MacGritsch-13/fcharlie-11/Neustradamus-10/juanii-9/illwieckz-9/willson-chen-9/okhowang-9/dttrinh-8/Timac-8/supersv-8/Eswcvlad-8/gvollant-8/lzzy12-7/zedxxx-7/luciocosmo-6/dafanshu520-6/tumagonx-6/Agile86-6/praiskup-6/pp771-6/fungos-5/magic-tech-5/xcorail-5/tehnick-5/bartekkr-5/IngwiePhoenix-5/axnsan12-5/triplef-5/eiszapfen2000-5/inequation-4/xwxbug-4/puetzk-4/kouzhudong-4/XX-Official-4/prateek9623-4/martell-3/woutervd-3/EosPengwern-3/Anychnn-3/endrift-3/chrfle-3/mstoicoi-3/akmistry-3/UncleAlbie-3/gluttony38-3/rddesmond-3/t0034514-3/ryandesign-3/glanium-3/ptc-tgamper-3/carlocab-3/Nekto89-3/StevenChristy-2/Jesonchang12-2/roussec-2/catlan-2/ghost-2/gianlucabertani-2/jhudsonWA-2/oleg-cherednik-2/sakthicsk-2/GerbilSoft-2/guwangfeng-2/jasontibbitts-2/laveux-2/ozelcan-2/chmielot-2/bstaint-2/ridethepig-2/wanfustudio-2/zhouyang9967-2/ccawley2011-2/binlinrepo-2/Iniesta8-2/BotellaA-2/najes-2/DkSuperMan-2/karimhm-2/hsdk123-2/ncook-hxgn-2/mrsergio-1/ajitpeter-1/st0326s-1/namar0x0309-1/LindleyF-1/franiu-1/reyhan-sadak-1/matthew1471-1/opsGavin-1/ooxi-1/zett42-1/thtrummer-1/cy99-1/chrdumont-1/Nethar-1/sydmarf-1/rusdevops-1/GenesisBP-1/evanmiller-1/yamaguchi-am-1/melsabagh-1/umberto-sonnino-1/qdbgw3ihnjw-1/nNullSpace-1/jthorniley-1/TheRealJokerMan-1/ismaell-1/jackson5sec-1/javValverde-1/tynewydd-1/sukhchainn-1/tamasszarka-1/bcse-1/Mugsy323-1/telkamp-1/stachenov-1/mschmieder-1/kloczek-1/lgtm-com[bot]-1/sharkcz-1/Nelson-numerical-software-1/MakarenkoPavel-1/kimikage-1/MangaD-1/Anton-V-K-1/iecmdev-1/kdev0-1/madler-1/sinoru-1/xuchunmei000-1/gdubois-1/MatthieuMv-1/dr-dba-1/SilenceWater-1/dwmw2-1/joycepg-1/jloqfjgk-1/codecov[bot]-1/thomasmfields-1/ffontaine-1/Andrey-N-1/mabuchner-1/ItsBasi-1/debendrat-1;Coeur-55/vszakats-35/asmaloney-10/juanii-9/chenxiaolong-7/UncleAlbie-7/Timac-5/mschmieder-5/GerbilSoft-5/nmoinvaz-5/rusdevops-4/ffontaine-4/okhowang-4/DaleLJefferson-3/nadeemahd-3/catlan-3/timothytylee-3/rip-nsk-3/ccawley2011-3/jimpark-3/eiszapfen2000-3/EosPengwern-2/MacGritsch-2/jarheadSLO-2/tz-lom-2/yamaguchi-am-2/chrfle-2/KangLin-2/driquet-2/xwxbug-2/akmistry-2/plo--2/gdubois-2/michael-brade-2/triplef-2/fcharlie-2/ptc-tgamper-2/joaoe-1/koponomarenko-1/wangp-1/StevenChristy-1/martell-1/0-wiz-0-1/kant-1/abcjjy-1/LindleyF-1/woutervd-1/franiu-1/SLboat-1/abaumgaertner-1/marmelroy-1/luciocosmo-1/senn412-1/matthew1471-1/avitebskiy-1/sergey-shambir-1/opsGavin-1/jlawton-1/TermeHansen-1/Gauleiter-1/KermMartian-1/inequation-1/RomeroMalaquias-1/zett42-1/emvivre-1/mati865-1/MinnieTheMoocher-1/mikecrowe-1/evanmiller-1/jhudsonWA-1/tonytheodore-1/cosmy1-1/photom-1/Alexpux-1/azure-pipelines[bot]-1/puetzk-1/xcorail-1/SleepySpaceDad-1/tmtmazum-1/tamasszarka-1/tanyaowei-1/zedxxx-1/axnsan12-1/MangaD-1/ls-philippe-casgrain-1/rddesmond-1/ShvetsovAndrey-1/kdev0-1/halx99-1/sinoru-1/xuchunmei000-1/Leo-Neat-1/willson-chen-1/hsdk123-1/leha-bot-1/dwmw2-1/joycepg-1/grzryc-1/yegorich-1/mabuchner-1/wzhengsen-1/ItsBasi-1/ismailsunni-1/Redfoxymoon-1/NikoDelarich-1/timgates42-1;nmoinvaz-272/Coeur-52/vszakats-25/Timac-8/juanii-8/fcharlie-7/asmaloney-5/xcorail-5/axnsan12-5/triplef-5/eiszapfen2000-5/inequation-4/gvollant-4/martell-3/woutervd-3/EosPengwern-3/UncleAlbie-3/zedxxx-3/willson-chen-3/ptc-tgamper-3/MacGritsch-2/jhudsonWA-2/GerbilSoft-2/chenxiaolong-2/akmistry-2/ccawley2011-2/okhowang-2/LindleyF-1/roussec-1/franiu-1/matthew1471-1/opsGavin-1/rusdevops-1/yamaguchi-am-1/chrfle-1/puetzk-1/mschmieder-1/lgtm-com[bot]-1/MangaD-1/kdev0-1/sinoru-1/hsdk123-1/jimpark-1/dwmw2-1/codecov[bot]-1/ffontaine-1/mabuchner-1/ItsBasi-1
autodl-community/autodl-irssi;203;18;116;97;15;14;autodl-community/autodl-irssi;18;18;116;97;15;14;116;97;15;14;m0021a/dashbad/astalush/Experien1985/plitter/NickHu/JesseJams/katiepea/bobobo1618/Pelllicer/NissimDE/grayshirt/phene/satcos/halo779/CochinoChingon/baz357/P4R4DiSi4C/Haxthausen/wseedbox/jeeger/RobinHoutevelts/happyda/notKuro/tctfox/Empornium/crjs/Sparticuz/edge33/BigEd01/ekk88d/userdocs/Suiziide/Turbo123T3/PaulBags/KyleSanderson/brettroyerr/Pingblue/pushrax/thebigmunch/TehZomB/pleasedontbecrap/GerardGarcia/jacobslusser/Ownsin/likemie/alexxm99/notb1ackhaz3/GunsAkimbo/titooo7/baderjasim/ghostserverd/netken83/flier56/l3uddz/goosar19/Lorenz1508/phiend7/fusk-l/igorm75/euri10/hardhouse/rahul0705/jimmy6008/johnchoi8/phihub/mcginty/KurtzPT/skiski456/From2750/ne0ark/sibte/walterdevos/xkaliber/yokod/randomessence/wicadmin/DJPolyBi/nonsense0/FuzijaCZ/zdeev/joshoram80/ardadem/PdxWolf/maran/k6Q28k5w5eWuRuuzTg9j7GrKCbjt7/WG47/mvastola/erathor82/feniu/renzzla/richard132/cwallace/ZeroMaki/bluasoar/i-am-eny0/skylinekiller/ocbbro/savyajha/maddogeat/Weyland/Ondjultomte/ghost/Nodens-/JordanWen/meskafonas/pyrodex/scr44tch/SSoft7/maphex/kevin335200/weaselBuddha/esran/jxer/Rid/XICavyIX;m0021a/astalush/madmax76/cainerwolf/Experien1985/horjulf/katiepea/Dan5477/bobobo1618/p5ycho/phene/satcos/baz357/Haxthausen/wseedbox/happyda/notojak/torrent329/Empornium/LOLobo21/reyder/Sparticuz/ashmandias/edge33/xelra/BigEd01/qrx/travikk/userdocs/ardrigh/PaulBags/KyleSanderson/Pingblue/thebigmunch/GerardGarcia/adampetrovic/alexxm99/LeCommonMan/notb1ackhaz3/GunsAkimbo/ThisGuyNeedsABeer/sorentorp/baderjasim/r000d/flier56/IceBear2k/Cyber-Surfer/l3uddz/goosar19/fusk-l/scottcase/euri10/hardhouse/rahul0705/johnchoi8/phihub/tasoss/KurtzPT/From2750/ne0ark/sibte/TuvixHosting/mrbeers2232/lisim/xkaliber/randomessence/root-host/wicadmin/SPDurkee/DJPolyBi/XICavyIX/zdeev/PdxWolf/mnechita/maran/k6Q28k5w5eWuRuuzTg9j7GrKCbjt7/mvastola/lushdog/fsamareanu/josha33/lun4r/koblack/Bakkra/ocbbro/MrSIfter/savyajha/fryfrog/Weyland/ghost/Nodens-/evilsephiroth/pyrodex/Ghent/icantfindacoolusername/Rid/DFDC/SteveMalso;alexxm99/userdocs/satcos/ardadem/thebigmunch/pyrodex/notb1ackhaz3/KurtzPT/ghost/skiski456/maran/netken83/Rid/jeeger/pushrax;alexxm99/thebigmunch/satcos/userdocs/ardrigh/pyrodex/notb1ackhaz3/ashmandias/ghost/maran/From2750/ne0ark/Rid/koblack;thebigmunch-36/ghost-12/ne0ark-10/Haxthausen-4/euri10-4/PaulBags-4/ocbbro-3/johnchoi8-3/randomessence-3/Pingblue-3/baz357-3/satcos-3/rahul0705-2/ZeroMaki-2/KyleSanderson-2/KurtzPT-2/fusk-l-2/From2750-2/Experien1985-2/pyrodex-2/Rid-2/skiski456-2/netken83-2/Weyland-1/PdxWolf-1/happyda-1/pushrax-1/TehZomB-1/richard132-1/xkaliber-1/brettroyerr-1/bobobo1618-1/igorm75-1/l3uddz-1/halo779-1/XICavyIX-1/edge33-1/JesseJams-1/FuzijaCZ-1/Sparticuz-1/NickHu-1/alexxm99-1/joshoram80-1/maphex-1/phene-1/GunsAkimbo-1/renzzla-1/Nodens--1/notKuro-1/WG47-1/RobinHoutevelts-1/wicadmin-1/Ondjultomte-1/sibte-1/CochinoChingon-1/plitter-1/GerardGarcia-1/hardhouse-1/Pelllicer-1/savyajha-1/mcginty-1/nonsense0-1/jacobslusser-1/BigEd01-1/meskafonas-1/m0021a-1/grayshirt-1/dashbad-1/feniu-1/maran-1/skylinekiller-1/cwallace-1/JordanWen-1/weaselBuddha-1/P4R4DiSi4C-1/pleasedontbecrap-1/yokod-1/likemie-1/i-am-eny0-1/crjs-1/Empornium-1/NissimDE-1/jxer-1/userdocs-1/k6Q28k5w5eWuRuuzTg9j7GrKCbjt7-1/katiepea-1/phihub-1/jeeger-1/maddogeat-1/wseedbox-1/walterdevos-1/ardadem-1/Turbo123T3-1/notb1ackhaz3-1/titooo7-1/mvastola-1/kevin335200-1/SSoft7-1/DJPolyBi-1/ekk88d-1/tctfox-1/Ownsin-1/flier56-1/ghostserverd-1/Lorenz1508-1/astalush-1/bluasoar-1/Suiziide-1/zdeev-1/jimmy6008-1/esran-1/goosar19-1/baderjasim-1/phiend7-1/scr44tch-1/erathor82-1;thebigmunch-238/ghost-31/ne0ark-15/Haxthausen-13/BigEd01-7/KyleSanderson-6/ashmandias-6/randomessence-5/Bakkra-5/flier56-5/johnchoi8-4/euri10-4/root-host-4/Weyland-3/Sparticuz-3/TuvixHosting-3/l3uddz-3/fryfrog-3/phihub-3/SteveMalso-3/mnechita-3/reyder-3/wseedbox-3/DJPolyBi-3/Rid-3/LOLobo21-3/astalush-3/madmax76-3/katiepea-3/PdxWolf-2/rahul0705-2/Ghent-2/savyajha-2/phene-2/wicadmin-2/hardhouse-2/torrent329-2/pyrodex-2/k6Q28k5w5eWuRuuzTg9j7GrKCbjt7-2/koblack-2/ThisGuyNeedsABeer-2/satcos-2/p5ycho-1/happyda-1/evilsephiroth-1/mrbeers2232-1/Cyber-Surfer-1/r000d-1/xkaliber-1/ocbbro-1/bobobo1618-1/Pingblue-1/XICavyIX-1/edge33-1/ardrigh-1/alexxm99-1/icantfindacoolusername-1/Nodens--1/sibte-1/GerardGarcia-1/GunsAkimbo-1/qrx-1/m0021a-1/PaulBags-1/maran-1/fusk-l-1/baz357-1/KurtzPT-1/Empornium-1/userdocs-1/DFDC-1/xelra-1/fsamareanu-1/LeCommonMan-1/tasoss-1/lushdog-1/lisim-1/notojak-1/horjulf-1/MrSIfter-1/IceBear2k-1/cainerwolf-1/travikk-1/notb1ackhaz3-1/From2750-1/Experien1985-1/mvastola-1/josha33-1/Dan5477-1/scottcase-1/lun4r-1/sorentorp-1/zdeev-1/adampetrovic-1/SPDurkee-1/goosar19-1/baderjasim-1;ghost-2/satcos-2/netken83-2/pushrax-1/thebigmunch-1/alexxm99-1/maran-1/KurtzPT-1/userdocs-1/jeeger-1/ardadem-1/notb1ackhaz3-1/pyrodex-1/Rid-1/skiski456-1;thebigmunch-17/Rid-3/ne0ark-2/ashmandias-2/ardrigh-1/alexxm99-1/maran-1/ghost-1/userdocs-1/notb1ackhaz3-1/From2750-1/pyrodex-1/koblack-1/satcos-1;thebigmunch-36/ghost-12/ne0ark-10/Haxthausen-4/euri10-4/PaulBags-4/ocbbro-3/johnchoi8-3/randomessence-3/Pingblue-3/baz357-3/satcos-3/rahul0705-2/ZeroMaki-2/KyleSanderson-2/KurtzPT-2/fusk-l-2/From2750-2/Experien1985-2/pyrodex-2/Rid-2/skiski456-2/netken83-2/Weyland-1/PdxWolf-1/happyda-1/pushrax-1/TehZomB-1/richard132-1/xkaliber-1/brettroyerr-1/bobobo1618-1/igorm75-1/l3uddz-1/halo779-1/XICavyIX-1/edge33-1/JesseJams-1/FuzijaCZ-1/Sparticuz-1/NickHu-1/alexxm99-1/joshoram80-1/maphex-1/phene-1/GunsAkimbo-1/renzzla-1/Nodens--1/notKuro-1/WG47-1/RobinHoutevelts-1/wicadmin-1/Ondjultomte-1/sibte-1/CochinoChingon-1/plitter-1/GerardGarcia-1/hardhouse-1/Pelllicer-1/savyajha-1/mcginty-1/nonsense0-1/jacobslusser-1/BigEd01-1/meskafonas-1/m0021a-1/grayshirt-1/dashbad-1/feniu-1/maran-1/skylinekiller-1/cwallace-1/JordanWen-1/weaselBuddha-1/P4R4DiSi4C-1/pleasedontbecrap-1/yokod-1/likemie-1/i-am-eny0-1/crjs-1/Empornium-1/NissimDE-1/jxer-1/userdocs-1/k6Q28k5w5eWuRuuzTg9j7GrKCbjt7-1/katiepea-1/phihub-1/jeeger-1/maddogeat-1/wseedbox-1/walterdevos-1/ardadem-1/Turbo123T3-1/notb1ackhaz3-1/titooo7-1/mvastola-1/kevin335200-1/SSoft7-1/DJPolyBi-1/ekk88d-1/tctfox-1/Ownsin-1/flier56-1/ghostserverd-1/Lorenz1508-1/astalush-1/bluasoar-1/Suiziide-1/zdeev-1/jimmy6008-1/esran-1/goosar19-1/baderjasim-1/phiend7-1/scr44tch-1/erathor82-1;thebigmunch-238/ghost-31/ne0ark-15/Haxthausen-13/BigEd01-7/KyleSanderson-6/ashmandias-6/randomessence-5/Bakkra-5/flier56-5/johnchoi8-4/euri10-4/root-host-4/Weyland-3/Sparticuz-3/TuvixHosting-3/l3uddz-3/fryfrog-3/phihub-3/SteveMalso-3/mnechita-3/reyder-3/wseedbox-3/DJPolyBi-3/Rid-3/LOLobo21-3/astalush-3/madmax76-3/katiepea-3/PdxWolf-2/rahul0705-2/Ghent-2/savyajha-2/phene-2/wicadmin-2/hardhouse-2/torrent329-2/pyrodex-2/k6Q28k5w5eWuRuuzTg9j7GrKCbjt7-2/koblack-2/ThisGuyNeedsABeer-2/satcos-2/p5ycho-1/happyda-1/evilsephiroth-1/mrbeers2232-1/Cyber-Surfer-1/r000d-1/xkaliber-1/ocbbro-1/bobobo1618-1/Pingblue-1/XICavyIX-1/edge33-1/ardrigh-1/alexxm99-1/icantfindacoolusername-1/Nodens--1/sibte-1/GerardGarcia-1/GunsAkimbo-1/qrx-1/m0021a-1/PaulBags-1/maran-1/fusk-l-1/baz357-1/KurtzPT-1/Empornium-1/userdocs-1/DFDC-1/xelra-1/fsamareanu-1/LeCommonMan-1/tasoss-1/lushdog-1/lisim-1/notojak-1/horjulf-1/MrSIfter-1/IceBear2k-1/cainerwolf-1/travikk-1/notb1ackhaz3-1/From2750-1/Experien1985-1/mvastola-1/josha33-1/Dan5477-1/scottcase-1/lun4r-1/sorentorp-1/zdeev-1/adampetrovic-1/SPDurkee-1/goosar19-1/baderjasim-1;ghost-2/satcos-2/netken83-2/pushrax-1/thebigmunch-1/alexxm99-1/maran-1/KurtzPT-1/userdocs-1/jeeger-1/ardadem-1/notb1ackhaz3-1/pyrodex-1/Rid-1/skiski456-1;thebigmunch-17/Rid-3/ne0ark-2/ashmandias-2/ardrigh-1/alexxm99-1/maran-1/ghost-1/userdocs-1/notb1ackhaz3-1/From2750-1/pyrodex-1/koblack-1/satcos-1
DrKLO/Telegram;300;300;295;312;295;312;Telegram-FOSS-Team/Telegram-FOSS;61;61;315;368;30;29;14;29;7;7;theel0ja/Bubu/Saylance/TheLastProject/23rd/xavihernandez/pirasalbe/JimmyS83/tchabaud/rexi1r/omkarnathsingh/ghost/conectapb/LichKing255;DrKLO/Bubu/Thisuu/giupardeb/conectapb/AleixDev/mvdan/ArmeF97/thermatk/g1hostsilvestre/AvverbioPronome/stefan-niedermann/davux/theel0ja/r4sas/Lesik/pedrxd/TameOfGroans/danialbehzadi/wp9015362/LichKing255/jomo/Walkman100/23rd/SafwatHalaby/notpushkin/Ecron/omkarnathsingh/ghost;theel0ja/Bubu/23rd/pirasalbe/JimmyS83/tchabaud/LichKing255;Bubu/giupardeb/thermatk/jomo/23rd/Ecron/ghost;xaxtix-9/ghost-8/NikitaZhelonkin-6/fduraibi-4/AlexGreg-3/tonsense-3/mscg82-3/yarons-3/raycloud-3/RobinvanderVliet-3/mokhtarabadi-3/softastur-3/SHi-ON-3/DanAlbert-3/4xes-3/markppv-3/PeterMX-3/Isira-Seneviratne-3/mdemierre-2/etty81-2/rubenlagus-2/michaellatman-2/ikicha-2/Vahn84-2/CBft9MFGIb0Xd-2/xavihernandez-2/jonan-2/gnufabio-2/woj-tek-2/pjrobertson-2/Bubu-2/jcarter3-2/aravindkanna-2/IOTON-2/MKRhere-2/NooAn-2/Nightprince-2/23rd-2/alexvasilkov-2/akbarazimifar-2/priamm-2/alabiaga-2/lesander-1/geertw-1/ga2arch-1/JuanLuM-1/vinsce-1/n1ckv-1/rrooij-1/timinator21-1/secuflag-1/lordao-1/jonasluthi-1/cmende-1/Techwolf12-1/evilsocket-1/Helltux-1/Nicuz-1/pierlauro-1/muena-1/fallenby-1/mklschreiber-1/smart2128-1/glecinilson-1/Otacon-1/sukso96100-1/LouisMT-1/unknowncatalan-1/ffflorian-1/xlazvegaz-1/pathmissing-1/rheeze-1/makiftutuncu-1/slp-1/nl5887-1/DrMonk-1/luzfcb-1/hendrikhofstadt-1/UriStri-1/yener90-1/yorlov-1/Hexaflexagon-1/Zarlok-1/Surfoo-1/tchabaud-1/jonnius-1/GrazianoCapelli-1/orgads-1/silvacpeterson-1/ruival-1/akurni-1/HawkiesZA-1/YvesBill-1/bluesveins-1/maxbruecken-1/JunioSouz-1/arsounet-1/panyingyun-1/jumoog-1/jchgc2741-1/bakavic-1/ShaiBer-1/Blackbel-1/DanielC1994-1/Unpublished-1/quintstoffers-1/CheatCoder-1/mingchuno-1/jackgu1988-1/B3rn475-1/ohjongin-1/adityacs-1/LipiLee-1/rafael81-1/nikita36078-1/angelsl-1/omarzd-1/alexeykudinkin-1/felalmeida-1/asdofindia-1/TiralucSan-1/Serya05-1/blakemccawe-1/msaratov-1/danielmartinez-1/LucaCorigliano-1/Z-Shang-1/tonghuix-1/dongfengweixiao-1/tsubus-1/dbt0210-1/chbaluch-1/Geobert-1/ClemensElflein-1/dminca-1/AlgMi-1/iwanderer-1/meeeeeeeeeeeeeee-1/kaushalendramishra-1/fansanelli-1/drakeet-1/Jav4d-1/flode-1/mrcasals-1/emados-1/Minty123-1/ebraminio-1/drzix-1/junyindev-1/rexi1r-1/ayhanyalcinsoy-1/sharath-green7-1/smtchahal-1/zeehio-1/andrew-kennedy-1/aprosvetova-1/MasterGroosha-1/spagy-1/m-damavandi-1/g55p-1/SidneyXu-1/iori57-1/fiftin-1/friederbluemle-1/tfoldi-1/kimiyazadeh-1/par6n-1/oky2abbas-1/conectapb-1/den-ligin-1/abcdeiko-1/PauloMigAlmeida-1/sajadpm-1/lxlcq-1/artjimlop-1/ivanchik77-1/segamza-1/ikaros02-1/vishnusadan-1/kepocnhh-1/armin-mohammadi-1/danielgomezrico-1/mwajeeh-1/pawelb0-1/ifarbod-1/v-soloviev-1/kolomboss-1/guillermomuntaner-1/twiceyuan-1/TheLastProject-1/JIy3AHKO-1/theel0ja-1/afeozzz-1/rosenpin-1/yi-jiayu-1/ferdi2005-1/bryant1410-1/GrenderG-1/ErickMaeda-1/JimmyS83-1/macsmac-1/rezanazeri-1/softkot-1/rkorzhenkov-1/39bit-1/pexcn-1/0631mohammad-1/joanbono-1/d0nn13-1/h4ck3rm1k3-1/igor-dyatlov-1/sn1p3r46-1/PeterDaveHello-1/Saylance-1/anuragvishwa-1/recoilme-1/CarlosOlivo-1/efcacar-1/MojtabaAkbariRazmgah-1/dkwiebe-1/fonix232-1/swapnil0709-1/eugeniobaglieri-1/myxobek-1/filipefilardi-1/imGurpreetSK-1/bartdeslagmulder-1/Rundik-1/ALIRESA-1/tzagim-1/gagarski-1/kranid-1/saeedhei-1/mahi78-1/kapv89-1/acran-1/berroteran-1/stupicode-1/har4s-1/richardfontana-1/AndrewLaneX-1/OrlovDiga-1/Jamesits-1/MarcAnt01-1/dariotodaro-1/TanayKarve-1/miladcoder-1/raJeev-M-1/abithenewb-1/L337CHU-1/satouriko-1/vmtrue-1/momt99-1/pdhung3012-1/dsuyashrai-1/wIc4qel-1/vijayereddy-1/DonnyLi-1/RezaAbedi261-1/ROOTBABU-1/AlexandrKozlovskiy-1/K1DV5-1/pankaj031197-1/hgraceb-1/janka102-1/JLLeitschuh-1/mehregan9000-1/mareevbk-1/bingfeizh-1/kawaiigamer-1/FaribaKhandani-1/kalmengr-1/MetalDroid-1/vilenkamalov-1/ojixzzz-1/singhDhanwant-1/pirasalbe-1/IO008-1/23-yo-designer-from-san-francisco-1/shalaga44-1/aerdnar-1/connordaniel-1/Rapsssito-1/JustMax10001001-1/silencetie-1/VarunPathak17-1/joshcoales-1/farazbern-1/LichKing255-1/omkarnathsingh-1/Soudini-1/shamil10031-1/suryagowda-1/Lwhoam-1/mbarashkov-1;DrKLO-120/Aokromes-22/AlexGreg-17/ghost-17/mscg82-14/RobinvanderVliet-14/dagroe-10/eppesuig-10/SHi-ON-10/ruival-9/rubenlagus-9/fylux-7/AUDI-A4-7/conectapb-7/jonasluthi-6/Unpublished-6/tjhorner-6/d-Rickyy-b-6/Akramjon1979-6/ArmeF97-6/geertw-5/hendrikhofstadt-5/stefan-niedermann-5/notpushkin-5/Ecron-5/mrvdb-4/AlisterAmo-4/AleixDev-4/yarons-4/wp9015362-4/auchri-4/fgallaire-4/ALi-Moslehi-4/jomo-4/joshsleeper-4/jcarter3-4/ADTC-4/3mph4515-4/theel0ja-4/wfjsw-4/blackisthesoul-4/carotkut94-4/alabiaga-4/teian-3/NielsdeBlaauw-3/lordao-3/mdemierre-3/unknowncatalan-3/mildsunrise-3/fduraibi-3/etty81-3/luzfcb-3/monsieurbecker-3/tchabaud-3/jonnius-3/pahnin-3/jackgu1988-3/garretyoder-3/midi-3/msaratov-3/iori57-3/friederbluemle-3/ziahot935-3/tfoldi-3/g1hostsilvestre-3/par6n-3/jlsjonas-3/davux-3/Bubu-3/abcdeiko-3/DanAlbert-3/thomasbreitbach-2/sjmulder-2/JuanLuM-2/themarioga-2/mlocati-2/DrMonk-2/HawkiesZA-2/bluesveins-2/pwd-github-2/quintstoffers-2/nguyer-2/B3rn475-2/Walkman100-2/nastys-2/Z-Shang-2/Vahn84-2/ansgarm-2/tsubus-2/danialbehzadi-2/ayhanyalcinsoy-2/zeehio-2/chtisgit-2/Royal2000H-2/jknigga-2/danog-2/danielgomezrico-2/jerry0816-2/Gabri1495-2/mimi89999-2/mvdan-2/zamber-2/laosb-2/Synk0-2/39bit-2/barreeeiroo-2/pexcn-2/javmarina-2/omkarnathsingh-2/efcacar-2/ArashParsayar-2/bartdeslagmulder-2/gagarski-2/xsslong-2/sinsongdev-2/taro-k-2/23rd-2/MarcAnt01-2/alissonlauffer-2/Rapsssito-2/LichKing255-2/lesander-1/koesie10-1/senden9-1/NickDaKing-1/FloEberle-1/telegram-messenger-1/oleh1374-1/jedie-1/maxee-1/cperrin88-1/lgoudriaan-1/ga2arch-1/vinsce-1/secuflag-1/SafwatHalaby-1/cmende-1/masewo-1/evilsocket-1/ManuelSchneid3r-1/JochemKuijpers-1/jumoog-1/grasshide-1/RomuloVitoi-1/lzandman-1/ffflorian-1/xlazvegaz-1/markuznw-1/chrstnwhlrt-1/tonsense-1/makiftutuncu-1/shaunidiot-1/BeefHazard-1/CannyDuck-1/Surfoo-1/thebergamo-1/amuelli-1/hostomsrd-1/suokunlong-1/panyingyun-1/ShaiBer-1/ZuzooVn-1/mledoze-1/TylerDEV-1/kevintanhongann-1/TameOfGroans-1/manimathma-1/raycloud-1/adityacs-1/jonan-1/LipiLee-1/tremby-1/thepaperpilot-1/AvverbioPronome-1/indrora-1/Pox1994-1/desick-1/DrFiz-1/kmvan-1/mrr010-1/JunnanZ-1/angelsl-1/asdofindia-1/frunc-1/blakemccawe-1/Lapayo-1/LucaCorigliano-1/Bikonja-1/pjrobertson-1/yazeed44-1/huxaiphaer-1/IgnasD-1/droidwithme-1/iwanderer-1/wadjeroudi-1/PSeitz-1/drakeet-1/srazi-1/abusarimhindi-1/boechatmichael-1/mjhaghparast-1/shen0-1/thutinao-1/MasterGroosha-1/vientodelbosque-1/spyexe-1/txus-1/emados-1/Minty123-1/ebraminio-1/zhufui-1/oky2abbas-1/marcoValkyriweb-1/ikaros02-1/gnufabio-1/sirmagid-1/albo94-1/vbolgov-1/Gollam-1/ShalbafZadeh-1/Giando-1/z3ntu-1/richin13-1/iM4hdi-1/stackprogramer-1/HosseinUsfi-1/me-azharahmed-1/meysamkp-1/lxlcq-1/similato-1/aravindkanna-1/pedram8400-1/MrMehdi-1/Molyakos-1/AryToNeX-1/jpventura-1/kolomboss-1/ifarbod-1/Navid61-1/ShadowJonathan-1/vn971-1/thermatk-1/leedoyle-1/pedrxd-1/fgaz-1/FabianLauer-1/NatiSD-1/nyuszika7h-1/bzzbzz7-1/tonghuix-1/zlodes-1/MKRhere-1/h4ck3rm1k3-1/igor-dyatlov-1/limdingwen-1/lapo-luchini-1/amirtanha1980-1/recoilme-1/bruninoit-1/ftyers-1/carstenhag-1/dkwiebe-1/unixandria-xda-1/fonix232-1/divadsn-1/parker-michael-1/123georgesteve-1/sidahmed-malaoui-1/sphinxy-1/avently-1/brownstic-1/agentsib-1/Lesik-1/Jahondor-1/tubasoft-1/mdan312-1/aabolfazl-1/Rave-Tian-1/team0NE-1/Amirhf1-1/BenCat07-1/maxram-1/eoris-1/iamdenchik-1/b3hroo2-1/AntonBoch1244-1/raJeev-M-1/r4sas-1/4xes-1/daneshcamp-1/giupardeb-1/Thisuu-1/AlexandrKozlovskiy-1/AleksandrRozhkov-1/shm-vadim-1/denis-skripnik-1/heyyviv-1/one909-1/DearRude-1/zerodwide-1/Mushebeq-1/skiezest-1/shalaga44-1/aerdnar-1/Isira-Seneviratne-1/priamm-1/andresribeiro-1/avarayr-1/farazbern-1/Catzoy-1/expoli-1/muslimlif-1;xaxtix-9/ghost-8/NikitaZhelonkin-6/fduraibi-4/AlexGreg-3/tonsense-3/mscg82-3/yarons-3/raycloud-3/RobinvanderVliet-3/mokhtarabadi-3/softastur-3/SHi-ON-3/DanAlbert-3/4xes-3/markppv-3/PeterMX-3/Isira-Seneviratne-3/mdemierre-2/etty81-2/rubenlagus-2/michaellatman-2/ikicha-2/Vahn84-2/CBft9MFGIb0Xd-2/xavihernandez-2/jonan-2/gnufabio-2/woj-tek-2/pjrobertson-2/Bubu-2/jcarter3-2/aravindkanna-2/IOTON-2/MKRhere-2/NooAn-2/Nightprince-2/23rd-2/alexvasilkov-2/akbarazimifar-2/priamm-2/alabiaga-2/lesander-1/geertw-1/ga2arch-1/JuanLuM-1/vinsce-1/n1ckv-1/rrooij-1/timinator21-1/secuflag-1/lordao-1/jonasluthi-1/cmende-1/Techwolf12-1/evilsocket-1/Helltux-1/Nicuz-1/pierlauro-1/muena-1/fallenby-1/mklschreiber-1/smart2128-1/glecinilson-1/Otacon-1/sukso96100-1/LouisMT-1/unknowncatalan-1/ffflorian-1/xlazvegaz-1/pathmissing-1/rheeze-1/makiftutuncu-1/slp-1/nl5887-1/DrMonk-1/luzfcb-1/hendrikhofstadt-1/UriStri-1/yener90-1/yorlov-1/Hexaflexagon-1/Zarlok-1/Surfoo-1/tchabaud-1/jonnius-1/GrazianoCapelli-1/orgads-1/silvacpeterson-1/ruival-1/akurni-1/HawkiesZA-1/YvesBill-1/bluesveins-1/maxbruecken-1/JunioSouz-1/arsounet-1/panyingyun-1/jumoog-1/jchgc2741-1/bakavic-1/ShaiBer-1/Blackbel-1/DanielC1994-1/Unpublished-1/quintstoffers-1/CheatCoder-1/mingchuno-1/jackgu1988-1/B3rn475-1/ohjongin-1/adityacs-1/LipiLee-1/rafael81-1/nikita36078-1/angelsl-1/omarzd-1/alexeykudinkin-1/felalmeida-1/asdofindia-1/TiralucSan-1/Serya05-1/blakemccawe-1/msaratov-1/danielmartinez-1/LucaCorigliano-1/Z-Shang-1/tonghuix-1/dongfengweixiao-1/tsubus-1/dbt0210-1/chbaluch-1/Geobert-1/ClemensElflein-1/dminca-1/AlgMi-1/iwanderer-1/meeeeeeeeeeeeeee-1/kaushalendramishra-1/fansanelli-1/drakeet-1/Jav4d-1/flode-1/mrcasals-1/emados-1/Minty123-1/ebraminio-1/drzix-1/junyindev-1/rexi1r-1/ayhanyalcinsoy-1/sharath-green7-1/smtchahal-1/zeehio-1/andrew-kennedy-1/aprosvetova-1/MasterGroosha-1/spagy-1/m-damavandi-1/g55p-1/SidneyXu-1/iori57-1/fiftin-1/friederbluemle-1/tfoldi-1/kimiyazadeh-1/par6n-1/oky2abbas-1/conectapb-1/den-ligin-1/abcdeiko-1/PauloMigAlmeida-1/sajadpm-1/lxlcq-1/artjimlop-1/ivanchik77-1/segamza-1/ikaros02-1/vishnusadan-1/kepocnhh-1/armin-mohammadi-1/danielgomezrico-1/mwajeeh-1/pawelb0-1/ifarbod-1/v-soloviev-1/kolomboss-1/guillermomuntaner-1/twiceyuan-1/TheLastProject-1/JIy3AHKO-1/theel0ja-1/afeozzz-1/rosenpin-1/yi-jiayu-1/ferdi2005-1/bryant1410-1/GrenderG-1/ErickMaeda-1/JimmyS83-1/macsmac-1/rezanazeri-1/softkot-1/rkorzhenkov-1/39bit-1/pexcn-1/0631mohammad-1/joanbono-1/d0nn13-1/h4ck3rm1k3-1/igor-dyatlov-1/sn1p3r46-1/PeterDaveHello-1/Saylance-1/anuragvishwa-1/recoilme-1/CarlosOlivo-1/efcacar-1/MojtabaAkbariRazmgah-1/dkwiebe-1/fonix232-1/swapnil0709-1/eugeniobaglieri-1/myxobek-1/filipefilardi-1/imGurpreetSK-1/bartdeslagmulder-1/Rundik-1/ALIRESA-1/tzagim-1/gagarski-1/kranid-1/saeedhei-1/mahi78-1/kapv89-1/acran-1/berroteran-1/stupicode-1/har4s-1/richardfontana-1/AndrewLaneX-1/OrlovDiga-1/Jamesits-1/MarcAnt01-1/dariotodaro-1/TanayKarve-1/miladcoder-1/raJeev-M-1/abithenewb-1/L337CHU-1/satouriko-1/vmtrue-1/momt99-1/pdhung3012-1/dsuyashrai-1/wIc4qel-1/vijayereddy-1/DonnyLi-1/RezaAbedi261-1/ROOTBABU-1/AlexandrKozlovskiy-1/K1DV5-1/pankaj031197-1/hgraceb-1/janka102-1/JLLeitschuh-1/mehregan9000-1/mareevbk-1/bingfeizh-1/kawaiigamer-1/FaribaKhandani-1/kalmengr-1/MetalDroid-1/vilenkamalov-1/ojixzzz-1/singhDhanwant-1/pirasalbe-1/IO008-1/23-yo-designer-from-san-francisco-1/shalaga44-1/aerdnar-1/connordaniel-1/Rapsssito-1/JustMax10001001-1/silencetie-1/VarunPathak17-1/joshcoales-1/farazbern-1/LichKing255-1/omkarnathsingh-1/Soudini-1/shamil10031-1/suryagowda-1/Lwhoam-1/mbarashkov-1;DrKLO-120/Aokromes-22/AlexGreg-17/ghost-17/mscg82-14/RobinvanderVliet-14/dagroe-10/eppesuig-10/SHi-ON-10/ruival-9/rubenlagus-9/fylux-7/AUDI-A4-7/conectapb-7/jonasluthi-6/Unpublished-6/tjhorner-6/d-Rickyy-b-6/Akramjon1979-6/ArmeF97-6/geertw-5/hendrikhofstadt-5/stefan-niedermann-5/notpushkin-5/Ecron-5/mrvdb-4/AlisterAmo-4/AleixDev-4/yarons-4/wp9015362-4/auchri-4/fgallaire-4/ALi-Moslehi-4/jomo-4/joshsleeper-4/jcarter3-4/ADTC-4/3mph4515-4/theel0ja-4/wfjsw-4/blackisthesoul-4/carotkut94-4/alabiaga-4/teian-3/NielsdeBlaauw-3/lordao-3/mdemierre-3/unknowncatalan-3/mildsunrise-3/fduraibi-3/etty81-3/luzfcb-3/monsieurbecker-3/tchabaud-3/jonnius-3/pahnin-3/jackgu1988-3/garretyoder-3/midi-3/msaratov-3/iori57-3/friederbluemle-3/ziahot935-3/tfoldi-3/g1hostsilvestre-3/par6n-3/jlsjonas-3/davux-3/Bubu-3/abcdeiko-3/DanAlbert-3/thomasbreitbach-2/sjmulder-2/JuanLuM-2/themarioga-2/mlocati-2/DrMonk-2/HawkiesZA-2/bluesveins-2/pwd-github-2/quintstoffers-2/nguyer-2/B3rn475-2/Walkman100-2/nastys-2/Z-Shang-2/Vahn84-2/ansgarm-2/tsubus-2/danialbehzadi-2/ayhanyalcinsoy-2/zeehio-2/chtisgit-2/Royal2000H-2/jknigga-2/danog-2/danielgomezrico-2/jerry0816-2/Gabri1495-2/mimi89999-2/mvdan-2/zamber-2/laosb-2/Synk0-2/39bit-2/barreeeiroo-2/pexcn-2/javmarina-2/omkarnathsingh-2/efcacar-2/ArashParsayar-2/bartdeslagmulder-2/gagarski-2/xsslong-2/sinsongdev-2/taro-k-2/23rd-2/MarcAnt01-2/alissonlauffer-2/Rapsssito-2/LichKing255-2/lesander-1/koesie10-1/senden9-1/NickDaKing-1/FloEberle-1/telegram-messenger-1/oleh1374-1/jedie-1/maxee-1/cperrin88-1/lgoudriaan-1/ga2arch-1/vinsce-1/secuflag-1/SafwatHalaby-1/cmende-1/masewo-1/evilsocket-1/ManuelSchneid3r-1/JochemKuijpers-1/jumoog-1/grasshide-1/RomuloVitoi-1/lzandman-1/ffflorian-1/xlazvegaz-1/markuznw-1/chrstnwhlrt-1/tonsense-1/makiftutuncu-1/shaunidiot-1/BeefHazard-1/CannyDuck-1/Surfoo-1/thebergamo-1/amuelli-1/hostomsrd-1/suokunlong-1/panyingyun-1/ShaiBer-1/ZuzooVn-1/mledoze-1/TylerDEV-1/kevintanhongann-1/TameOfGroans-1/manimathma-1/raycloud-1/adityacs-1/jonan-1/LipiLee-1/tremby-1/thepaperpilot-1/AvverbioPronome-1/indrora-1/Pox1994-1/desick-1/DrFiz-1/kmvan-1/mrr010-1/JunnanZ-1/angelsl-1/asdofindia-1/frunc-1/blakemccawe-1/Lapayo-1/LucaCorigliano-1/Bikonja-1/pjrobertson-1/yazeed44-1/huxaiphaer-1/IgnasD-1/droidwithme-1/iwanderer-1/wadjeroudi-1/PSeitz-1/drakeet-1/srazi-1/abusarimhindi-1/boechatmichael-1/mjhaghparast-1/shen0-1/thutinao-1/MasterGroosha-1/vientodelbosque-1/spyexe-1/txus-1/emados-1/Minty123-1/ebraminio-1/zhufui-1/oky2abbas-1/marcoValkyriweb-1/ikaros02-1/gnufabio-1/sirmagid-1/albo94-1/vbolgov-1/Gollam-1/ShalbafZadeh-1/Giando-1/z3ntu-1/richin13-1/iM4hdi-1/stackprogramer-1/HosseinUsfi-1/me-azharahmed-1/meysamkp-1/lxlcq-1/similato-1/aravindkanna-1/pedram8400-1/MrMehdi-1/Molyakos-1/AryToNeX-1/jpventura-1/kolomboss-1/ifarbod-1/Navid61-1/ShadowJonathan-1/vn971-1/thermatk-1/leedoyle-1/pedrxd-1/fgaz-1/FabianLauer-1/NatiSD-1/nyuszika7h-1/bzzbzz7-1/tonghuix-1/zlodes-1/MKRhere-1/h4ck3rm1k3-1/igor-dyatlov-1/limdingwen-1/lapo-luchini-1/amirtanha1980-1/recoilme-1/bruninoit-1/ftyers-1/carstenhag-1/dkwiebe-1/unixandria-xda-1/fonix232-1/divadsn-1/parker-michael-1/123georgesteve-1/sidahmed-malaoui-1/sphinxy-1/avently-1/brownstic-1/agentsib-1/Lesik-1/Jahondor-1/tubasoft-1/mdan312-1/aabolfazl-1/Rave-Tian-1/team0NE-1/Amirhf1-1/BenCat07-1/maxram-1/eoris-1/iamdenchik-1/b3hroo2-1/AntonBoch1244-1/raJeev-M-1/r4sas-1/4xes-1/daneshcamp-1/giupardeb-1/Thisuu-1/AlexandrKozlovskiy-1/AleksandrRozhkov-1/shm-vadim-1/denis-skripnik-1/heyyviv-1/one909-1/DearRude-1/zerodwide-1/Mushebeq-1/skiezest-1/shalaga44-1/aerdnar-1/Isira-Seneviratne-1/priamm-1/andresribeiro-1/avarayr-1/farazbern-1/Catzoy-1/expoli-1/muslimlif-1;Bubu-28/thermatk-18/ghost-11/DI555-11/grravity-8/stefan-niedermann-7/ArmeF97-6/PattyGeorgi-5/giupardeb-5/anupritaisno1-5/landry314-4/JimmyS83-4/danban359-4/theel0ja-4/omkarnathsingh-4/vdbhb59-4/vanitasvitae-4/xavihernandez-3/moshpirit-3/Robot8A-3/nickaein-3/c33s-3/Lesik-3/Porrumentzio-3/fcore117-3/jwalantsoneji-2/dalb8-2/geileszeuch-2/TheReverend403-2/haary-2/aphirst-2/Jeselnik-2/huyduongtu-2/opensrc1229-2/zobde33-2/mcagl-2/mvdan-2/howey-2/Salkin2-2/luiscruz-2/ghost1372-2/Reza-saeedi-2/ShalokShalom-2/maximgrafin-2/nicolasmaia-2/octoghost-2/emjeykm-2/Sudokamikaze-2/Massedil-2/etc0de-2/AnXh3L0-2/batzuli-2/RomanJos-2/PanderMusubi-2/shoukolate-2/mahdi1234-2/moriel5-2/Kwaskoff-2/theodoreippon-2/abate-2/xerus2000-2/Ahmad-Mustafaa-2/MadFatVlad-2/zetcamp-2/nekohasekai-2/LichKing255-2/puppykickr-2/TakuyaSama-2/JGjorgji-1/SafwatHalaby-1/tchabaud-1/aelmahmoudy-1/KelonZ-1/0xErnie-1/valerio-bozzolan-1/elmanytas-1/repsorp-1/ti-wa-1/sevan6-1/EibrielInv-1/TameOfGroans-1/w0rinal-1/petabyteboy-1/volnes-1/tremby-1/0-wHiTeHand-0-1/MauroMombelli-1/CarlitoBriganteNT-1/jomo-1/aurium-1/jlelse-1/telegra-1/Clevero-1/NeroBurner-1/Hajrieyan-1/Imarok-1/Peque-1/gothmog123-1/conectapb-1/Paviluf-1/SparkyCola-1/jusore-1/sengstrem-1/thutinao-1/Orbitkorbi-1/Techwolf-1/ashkufaraz-1/DavidJacobson-1/HosseinLamei-1/usman118591-1/veerarajuthuta-1/Elinvention-1/jinformatique-1/ymhuang0808-1/thilo-dual-1/brandsjek-1/cyleunggg-1/appendhc-1/ZJaume-1/JonnyTech-1/weisk-1/gooddeveloper2107-1/elouin-1/TheLastProject-1/haho16-1/WaqarAhmadAwan-1/mnirfan-1/blukhi99-1/nikunjparadva-1/blackisthesoul-1/saleemrashid-1/sp-1234-1/substanceof-1/eiszfuchs-1/zikalify-1/GijsTimmers-1/Nhoya-1/Pimmetje-1/kirantpatil-1/HamidVO-1/maximpashuk-1/Pwnulatr-1/masoud2v-1/gDanix-1/jsparber-1/shubhamhackz-1/TheKourosh-1/Hussamalsh-1/mahdiG-1/Saylance-1/danialbehzadi-1/lupo472-1/Agno94-1/kq01526-1/nefrin79-1/danjde-1/kokoko3k-1/nezorflame-1/herotux-1/susobaco-1/morteyxyz-1/l2dy-1/schemar-1/meadowhb-1/p4t0g3n0-1/jay2013-1/referi-1/lope-1/Lemmynjash-1/yvan-sraka-1/hotlittlewhitedog-1/DC7IA-1/agmemon10-1/AshotN-1/daltonfury42-1/9ary-1/Allanitomwesh-1/notpushkin-1/lanyla-1/yamatt-1/pwn0r-1/vn971-1/teod0r-1/enolp-1/mudlee-1/fadang123-1/vrone23-1/UMBRAGITHUB-1/maxkut-1/Self-Perfection-1/sjnhnp-1/Younes-L-1/cRaZy-bisCuiT-1/srhughes89-1/ryanhaining-1/seth100-1/elvecio-1/samoht0-1/tom-rade-1/beerisgood-1/M86xKC-1/dimqua-1/23rd-1/fugo-1/catfluoride-1/xerz-one-1/archi-dagac-1/kswt-1/Kyle2142-1/noplanman-1/FreeCitizin-1/hey-you-its-me-1/charan15923-1/markuskramerIgitt-1/A-Shahbazi-1/peerzadaaabid-1/Pika1998-1/minutesinch-1/iamxvbaba-1/random29-1/AbsurdlySuspicious-1/emv412-1/rexi1r-1/tleydxdy-1/MahmoudZaherDeveloper-1/stonerl-1/Brawaru-1/vk496-1/willempx-1/smnthermes-1/A2DNEW-1/nwildner-1/Armiixteryx-1/dueringa-1/mazimmer-1/igalic-1/trumpetradio-1/OllyFunkster-1/ChristianTacke-1/azat11-1/EmmanuelMess-1/dupuy-1/zhiweny1122-1/jeroen7s-1/Elfram-1/Bondarz-1/zetatechi-1/nermolov-1/tvdmitrii-1/MigaraMMG-1/Abdulaziz1525-1/paulusversluis-1/Thisuu-1/PandaFoss-1/totayma-1/Niwla23-1/mmrabbani-1/ahangarha-1/rgabbo-1/shuvashish76-1/verdulo-1/PassiSchoppi-1/ildar-1/majidnikpour-1/mrxx0-1/sebasarena-1/133794m3r-1/PEPERSO-1/chuacw-1/dickbacke-1/ksz16-1/yaomtc-1/pirasalbe-1/Nex8192-1/peyman86-1/helfio-1/mostafabayat-1/tosziro-1/DeusFigendi-1/kdrag0n-1/Dex94-1/dm17-1/Enrico204-1/chrisfahr-1/joeftiger-1/mecqor-1/ndr48291-1/Mahdi-1-1/msin87-1/test2a-1/chagai95-1/rondevous-1/reg4xp-1/IINSAII-1/aquaspy-1/theoden8-1/niteshjoshitilanesh-1/ilyapashuk-1/LimticRage-1/famewolf-1/codebam-1/erikhakansson-1/AlbahrawyAlalimi-1/roxananasoi-1/mmjoshi-1/Exilion666-1/duggalsu-1/jesshampshire-1/krebsyba-1/LibreFoss-1/sunnytoes-1/femto-code-1/zeus2021-1/NaytSeyd-1/Okijames-1;Bubu-330/thermatk-258/slp-107/DI555-52/ghost-51/stefan-niedermann-30/Ecron-29/ildar-26/Younes-L-22/r4sas-21/vanitasvitae-20/Peque-20/xavihernandez-18/anupritaisno1-17/c33s-17/moriel5-16/ArmeF97-15/landry314-14/Allanitomwesh-14/emjeykm-14/PanderMusubi-13/PattyGeorgi-12/SafwatHalaby-11/nickaein-11/vdbhb59-11/wp9015362-10/aphirst-10/JimmyS83-10/geileszeuch-9/danialbehzadi-9/Paviluf-8/beerisgood-8/Akronix-7/omkarnathsingh-7/Sudokamikaze-7/utack-7/giupardeb-7/jomo-7/grravity-7/TameOfGroans-6/Salkin2-6/ShalokShalom-6/Lesik-6/TakuyaSama-6/varistov-6/puppykickr-6/dalb8-5/sevan6-5/g1hostsilvestre-5/monojp-5/moshpirit-5/Mikaela-5/9ary-5/mirh-5/cRaZy-bisCuiT-5/etc0de-5/elvecio-5/MatiasConTilde-5/SebiderSushi-5/smnthermes-5/Ahmad-Mustafaa-5/rondevous-5/adalinesimonian-4/emunicio-4/NeroBurner-4/abate-4/opensrc1229-4/NiekGr-4/howey-4/shubhamhackz-4/tuxayo-4/n00bus-4/AnXh3L0-4/M86xKC-4/AbsurdlySuspicious-4/Self-Perfection-4/jugendhacker-4/fcore117-4/shoukolate-4/w0rinal-3/0nse-3/eevee-3/mvdan-3/mcagl-3/Turakar-3/vvrein-3/frazzmark-3/Roboe-3/SparkyCola-3/soleimanim-3/jinformatique-3/aurium-3/alifetrati-3/bbincybbaby-3/testbird-3/kirantpatil-3/vrone23-3/Saylance-3/kq01526-3/ZJaume-3/schemar-3/TacoTheDank-3/23rd-3/markuskramerIgitt-3/Pikari0-3/mahdi1234-3/fabmazz-3/PEPERSO-3/Enrico204-3/mohzart-3/CharString-2/AleixDev-2/KelonZ-2/oimis-2/Walkman100-2/petabyteboy-2/Zelgadis87-2/omyno-2/Cotopaxi42-2/Jeselnik-2/beljebuzz-2/jlelse-2/laclaro-2/DrKLO-2/Teleg-2/kaprat-2/aminography-2/flortsch-2/gooddeveloper2107-2/zobde33-2/mg-13-2/JonnyTech-2/guoxiaojun001-2/Pika1998-2/Crissov-2/jvschiavo-2/haho16-2/sp-1234-2/eiszfuchs-2/ghost1372-2/iteco-2/maximpashuk-2/Miepee-2/nefrin79-2/nezorflame-2/morteyxyz-2/Monirzadeh-2/GutHib-2/theel0ja-2/pwn0r-2/wyjek-2/Massedil-2/Mahdi-1-2/samoht0-2/nroach44-2/noplanman-2/tleydxdy-2/notpushkin-2/sobrus-2/A2DNEW-2/RomanJos-2/adityasubathu-2/azat11-2/catfluoride-2/jeroen7s-2/niansa-2/losuler-2/Thisuu-2/radasbona-2/sebasarena-2/ahangarha-2/lawson85-2/dickbacke-2/kojid0-2/samyak039-2/Porrumentzio-2/dm17-2/nekohasekai-2/LichKing255-2/roxananasoi-2/zk-pre-2/mmjoshi-2/Heretical-Anonymous-2/JGjorgji-1/jwalantsoneji-1/0xErnie-1/arm64-1/mcarlo95-1/fazlerabbi37-1/ti-wa-1/mikelglez-1/AvverbioPronome-1/muava12-1/EibrielInv-1/mikran-1/yurkobb-1/pheki-1/valerio-bozzolan-1/codingcreature-1/arielenter-1/coin001-1/haary-1/MauroMombelli-1/alirezaee47-1/conectapb-1/YtvwlD-1/Hajrieyan-1/0x1f415-1/bolshed-1/microks-1/sadegh-arfa-1/kapoorutd-1/sengstrem-1/mohammadyacn314-1/nextl00p-1/digidalla-1/SkyWheel-1/alexanderadam-1/Raltux-1/brainscript-1/vrillic-1/ManuelLR-1/pboesch-1/nachoparker-1/daedroza-1/FloGatt-1/luiscruz-1/Miaourt-1/Findus23-1/hosseinmoazami-1/Try64-1/thealpha-1/imran-samed-1/omegasoft7-1/cniamien-1/TonyLead-1/jagamypriera-1/s-kh-1/M3000j-1/mahdi899-1/TheLastProject-1/rbrito-1/adityasaky-1/kebbbnnn-1/oplarshad-1/blukhi99-1/mnirfan-1/nikunjparadva-1/arkhub-1/saleemrashid-1/hediehloo-1/shijilsmb-1/Nhoya-1/rfc2822-1/sandy-8925-1/ale5000-git-1/X-Ryl669-1/cauebs-1/xerz-one-1/Robot8A-1/masoud2v-1/gDanix-1/jsparber-1/susobaco-1/Reza-saeedi-1/lupo472-1/Mran-1/danjde-1/spanktastic2120-1/kokoko3k-1/abesty-1/herotux-1/Serkan-devel-1/meadowhb-1/Poussinou-1/nicolasmaia-1/referi-1/n8fr8-1/rasos-1/davux-1/giner-1/DC7IA-1/octoghost-1/UMBRAGITHUB-1/monsieurtanuki-1/ryanhaining-1/dimqua-1/jorgechurriana-1/rohantmp-1/nathyharumi-1/Pannuba-1/Grossdm-1/kswt-1/mohammadmirdar-1/ngodn-1/A-Shahbazi-1/Kyle2142-1/Hiboycubano-1/random29-1/andrew-ld-1/MahmoudZaherDeveloper-1/stonerl-1/remicmacs-1/Brawaru-1/bibz-1/daufinsyd-1/Armiixteryx-1/dueringa-1/CooleRnax-1/mamboalexm-1/mradermaxlol-1/chaptergy-1/danbrun-1/IzzySoft-1/licaon-kter-1/quazgar-1/JayDee696969-1/frknkrc44-1/EmmanuelMess-1/zhiweny1122-1/soredake-1/dic1911-1/ralmcruz-1/PoliNetwork-1/0x647262-1/Coronarius-1/mad73923-1/hamiltonrn-1/wiktorek140-1/damnfella-1/theodoreippon-1/PandaFoss-1/piemonkey-1/erayerdin-1/rahul975337-1/mmrabbani-1/verdulo-1/raskoln1k0v-1/IINSAII-1/GithubOwly-1/JnYoms-1/pedrxd-1/cewbdex-1/Nex8192-1/kaliangel-1/peyman86-1/hynet-mel-1/DeusFigendi-1/joeftiger-1/msin87-1/martinszy-1/Fogapod-1/e-edgren-1/theoden8-1/ilyapashuk-1/famewolf-1/trysten-1/codebam-1/enda5377-1/Flam3z-1/Fei1Yang-1/roxchgt-1/TheComputerGuy96-1/jesshampshire-1/mtaylor5907-1/femto-code-1/sschueller-1/CDanilo25-1;Bubu-11/thermatk-7/danban359-4/anupritaisno1-4/luiscruz-2/JimmyS83-2/maximgrafin-2/theel0ja-2/AnXh3L0-2/giupardeb-2/xerus2000-2/nekohasekai-2/tchabaud-1/aelmahmoudy-1/CarlitoBriganteNT-1/Jeselnik-1/howey-1/Sudokamikaze-1/l2dy-1/octoghost-1/vn971-1/23rd-1/noplanman-1/vk496-1/verdulo-1/pirasalbe-1/Nex8192-1/kdrag0n-1/LichKing255-1/krebsyba-1;Bubu-40/thermatk-35/slp-9/JimmyS83-5/Sudokamikaze-5/howey-4/Peque-3/23rd-3/varistov-3/PEPERSO-3/Ecron-2/Jeselnik-2/kirantpatil-2/ghost-2/noplanman-2/giupardeb-2/anupritaisno1-2/dalb8-1/jomo-1/c33s-1/daedroza-1/luiscruz-1/ildar-1/AnXh3L0-1/MatiasConTilde-1/verdulo-1/Nex8192-1/kaliangel-1/nekohasekai-1
