No;mainline_repo;closed_pr_ml;merged_pr_ml;variant_repo;closed_pr_vr;merged_pr_vr
1;HealthCatalyst/Fabric.Cashmere;757;706;WCF-Insurance/WCF-Cashmere;285;277
2;FredrikNoren/ungit;670;572;exsilium/mungit;4;4
3;ssbc/patchwork;572;458;Bit-Nation/BITNATION-Pangea;3;3
4;substance/texture;487;471;libero/texture;35;34
5;reactjs/react-rails;437;323;tb/react-rails-ujs;3;2
6;choojs/choo;396;260;heyitsmeuralex/nanochoo;3;3
7;roblox-ts/types;392;364;Validark/rbx-safe-types;28;27
8;vega/voyager;384;353;ajainarayanan/voyager;3;3
9;openlayers/closure-util;366;302;camptocamp/closure-util;43;29
10;mathquill/mathquill;360;247;pie-framework/mathquill;3;3
11;bitjourney/ci-npm-update;337;296;kogai/ci-npm-update;7;1
12;depcheck/depcheck;316;264;lijunle/depcheck-es6;76;70
13;dkelosky/jest-stare;313;287;bespoken/jest-stare;7;7
14;mashmatrix/react-lightning-design-system;271;180;SAManage/react-lightning-design-system;171;165
15;funkensturm/ember-local-storage;223;95;Mogball/ember-localforage;5;3
16;mikeric/rivets;219;156;benderTheCrime/tiny-rivets;15;15
17;project-colophon/app;217;16;telus/telus-colophon-app;16;13
18;i18next/i18next-node-fs-backend;210;26;sallar/i18next-sync-fs-backend;4;4
19;ykzts/node-xmlhttprequest;201;191;modulesio/window-xhr;11;9
20;NativeScript/nativescript-dev-appium;190;177;marcbuils/nativescript-dev-cucumber;5;5
21;nuxt-community/sentry-module;168;128;uniibu/sentry-module;4;3
22;bornfight/avro-to-typescript;156;26;chasdevs/avro-to-typescript;6;6
23;onechiporenko/ember-models-table;149;117;eNkru/ember-material-table;3;3
24;sandiiarov/use-popper;139;132;MediaMonksForks/use-popper;5;0
25;mocha-parallel/mocha-parallel-tests;133;103;macacajs/macaca-mocha-parallel-tests;3;3
26;intuit/semantic-release-slack;133;128;conechan/semantic-release-wxwork;3;3
27;intuit/semantic-release-slack;133;128;conechan/semantic-release-wxwork;3;3
28;bbc/react-transcript-editor;132;110;pietrop/react-transcript-editor;12;10
29;isa-group/oas-tools;132;103;par-mais-tecnologia/oas-tools;4;4
30;velesin/jasmine-jquery;131;72;badunk/js-fixtures;9;5
31;ToothlessGear/node-gcm;129;104;parse-community/node-gcm;8;8
32;Inkdpixels/log-fancy;123;111;bjornreppen/log-less-fancy;12;12
33;iCrawl/eslint-config-aqua;123;113;captainsalt/eslint-config-holo;12;10
34;collectionspace/cspace-ui.js;121;107;cspace-deployment/cspace-ui.js;52;44
35;gruntjs/grunt-contrib-jshint;121;37;jut-io/grunt-contrib-jshint-jsx;5;4
36;jdorn/json-editor;118;62;dmstr-forks/jdorn-json-editor;26;26
37;jdorn/json-editor;118;62;Syzygy24/y-jsoneditor;20;17
38;jedmao/eclint;115;65;slang800/editorconfig-tools;6;3
39;apache/couchdb-nano;113;95;cloudant-labs/cloudant-nano;15;15
40;andreruffert/rangeslider.js;112;80;mixer/rangeslider.js-mini;3;3
41;tlvince/make-coverage-badge;110;85;pamepeixinho/jest-coverage-badges;8;8
42;deprecate/generator-ember;109;85;thomasboyt/charcoal;8;5
43;jeffshaver/safe-app;106;94;pml984/safe-app;6;6
44;webpro/reveal-md;104;76;amahon/reveal-md;8;7
45;google/material-design-icons;102;33;jossef/material-design-icons-iconfont;12;11
46;WebDevStudios/generator-plugin-wp;96;79;jazzsequence/generator-hm-plugin;3;3
47;molleindustria/p5.play;95;84;code-dot-org/p5.play;48;47
48;taptapship/wiredep;95;44;IOKI/require-wiredep;21;21
49;posva/eslint-config-posva;91;84;TinyChief/eslint-config-tinychief;3;2
50;ccampbell/rainbow;86;52;justinfagnani/rainbow;7;5
51;inveniosoftware/invenio-search-js;83;72;drjova/invenio-search-js;5;2
52;davewasmer/ember-cli-rollbar;82;17;paulcwatts/ember-cli-rollbar;69;28
53;etienne-martin/device-detector-js;82;75;TrafficGuard/device-detector-js;15;13
54;borschik/borschik;80;67;hamosapience/borschik-webp;6;6
55;drazisil/junit-merge;80;67;bitcoder/cucumber-json-merge;4;4
56;semantic-release/gitlab-config;79;64;artemv/simple-semantic-config;9;8
57;bem/html-differ;78;69;markedjs/html-differ;58;50
58;angular-wizard/angular-wizard;78;41;meanhub/angular-wizard-stylish;6;6
59;geddski/grunt-release;77;16;dani8art/grunt-release-github;18;17
60;overture-stack/persona;75;55;kids-first/persona;5;5
61;balderdashy/waterline-adapter-tests;74;64;Atlantis-Software/offshore-adapter-tests;21;18
62;buehler/node-typescript-parser;73;63;streaka/typescript-parser-deluxe;5;4
63;kentcdodds/eslint-config-kentcdodds;72;65;ultrox/eslint-config-mavu;8;4
64;HubSpot/vex;72;41;bbatliner/vex;3;3
65;lindell/JsBarcode;71;60;wavded/io-barcode;5;4
66;hexojs/hexo-renderer-markdown-it;70;53;Abreto/hexo-renderer-markdown-it-katex;3;3
67;yarax/swagger-to-graphql;70;49;colinyoung/swagger-to-graphql;3;3
68;boclips/boclips-player;68;17;g787543/boclips-react-plyr;4;3
69;apache/cordova-node-xcode;67;46;NativeScript/nativescript-dev-xcode;13;12
70;SBoudrias/gulp-istanbul;67;43;cb1kenobi/gulp-babel-istanbul;6;4
71;gkjohnson/urdf-loaders;66;59;rapyuta-robotics/urdf-js;8;6
72;Automattic/i18n-calypso;65;55;pentatonicfunk/i18n-wp-plugin;18;0
73;CycloneDX/cyclonedx-node-module;65;30;AppThreat/cdxgen;9;7
74;elrumordelaluz/reactour;65;48;RobertGary1/reactour;5;5
75;MikeMcl/bignumber.js;64;32;innoying/browserify-bignum;3;2
76;MithrilJS/mithril-node-render;63;51;tlaziuk/mithril-render;11;11
77;andyet/json-rpc-ws;61;40;npenin/json-rpc-ws;210;1
78;UKHomeOffice/passports-form-controller;58;44;UKHomeOfficeForms/hof-form-controller;32;27
79;postcss/gulp-postcss;58;41;StartPolymer/gulp-html-postcss;30;27
80;UKHomeOffice/passports-frontend-toolkit;58;49;UKHomeOfficeForms/hof-frontend-toolkit;15;15
81;jed/authom;58;49;gilbert/authport;3;3
82;ember-fastboot/simple-dom;57;41;canjs/can-simple-dom;58;50
83;mozilla-frontend-infra/components;57;47;httpsOmkar/auth-react-component;5;5
84;autonomoussoftware/metronome-contracts-js;57;28;patidarmanoj10/metronome-contracts-js;3;3
85;rebassjs/grid;56;46;josepot/grid-styletr;3;2
86;boo1ean/casual;54;46;Klowner/casual-browserify;4;3
87;contentstack/gatsby-source-contentstack;53;37;berlitz-global/gatsby-source-contentstack;14;12
88;colorjs/get-svg-colors;53;12;snorpey/get-svg-colors-browser;13;7
89;ptarjan/node-cache;53;28;andyburke/tinycache;3;3
90;aigis-styleguide/aigis;52;45;cxq/aigis;5;5
91;cferdinandi/gumshoe;52;36;festicket/gumshoe;5;5
92;eggjs/eslint-config-egg;50;46;aladdin-add/eslint-config-ts;41;2
93;auth0/node-samlp;50;39;vrk-kpa/node-samlp;3;3
94;atlassian/better-ajv-errors;49;43;ext/better-ajv-errors;18;12
95;Kerumen/react-native-awesome-card-io;49;35;Skyscanner/react-native-awesome-card-io;6;6
96;FirebaseExtended/firebase-queue;48;39;kaliberjs/firebase-queue;18;5
97;balderdashy/waterline-sequel;48;36;appscot/waterline-sequel-orientdb;3;2
98;ronco/ember-cli-meta-tags;48;41;snewcomer/ember-cli-meta-data;3;3
99;AndrewKishino/sotez;48;36;KZen-networks/tezos-thresh-wallet;3;3
100;msiebuhr/node-statsd-client;47;32;uber/node-statsd-client;30;26
101;benhurott/react-native-masked-text;47;43;indigotech/react-masked-text;9;9
102;reasonml-community/bs-moment;46;40;greensync/bs-moment-timezone;4;3
103;mixonic/ember-cli-deprecation-workflow;46;38;atsao/ember-cli-deprecation-workflow-plus;4;4
104;htmllint/htmllint;46;35;YodasWs/htmllint;3;3
105;Jeff2Ma/postcss-lazysprite;46;32;jgbjs/postcss-lazysprite-miniprogram;3;3
106;dial-once/node-cache-manager-redis;44;32;ruguoapp/node-cache-manager-redis;6;4
107;jaredhanson/locomotive;44;27;drudge/locomotive;3;3
108;ResourcefulHumans/rheactor-server;43;29;RHeactorJS/server;24;10
109;MathieuLoutre/grunt-aws-s3;43;30;royra/grunt-aws-s3-gzip;3;2
110;Tabcorp/restify-cors-middleware;42;34;DatatracCorporation/restify-cors-middleware2;17;16
111;wix/react-native-controllers;42;11;aksonov/react-native-controllers;8;7
112;poetic/ember-cli-github-pages;42;40;IgorMinar/angular-cli-github-pages;3;0
113;browser-update/browser-update;41;28;regru/browser-update-cleaned-up;14;13
114;go-macaroon/js-macaroon;41;35;juju/js-macaroon;7;7
115;InfomediaLtd/angular2-materialize;40;29;Dakayl/angular2-materialize;3;3
116;Wizcorp/node-tomes;39;33;bjornstar/tomes;64;64
117;diegohaz/nod;38;37;rjchow/nod;343;38
118;repetere/periodicjs.ext.reactapp;38;31;digifi-io/periodicjs.ext.reactapp;130;128
119;mediacurrent/theme_generator_8;38;34;CodeKoalas/koality-drupal-theme-generator;12;9
120;hubot-scripts/hubot-business-cat;37;36;alaroche/hubot-emma-stone;3;3
121;turtlecoin/turtlecoin-utils;36;27;tylersisia/chimera-utils;39;1
122;heartsucker/node-deb;36;25;f-ld/node-deb;7;7
123;sivy/node-statsd;35;21;mrbar42/node-dogstatsd;14;9
124;bendrucker/hapi-raven;34;13;pagerinc/hapi-raven;14;13
125;instructure-react/react-tokeninput;34;21;laurelandwolf/react-tokeninput;6;6
126;brandingbrand/react-native-leanplum;32;28;gleephDamien/react-native-leanplum;10;7
127;deitch/activator;32;23;arkcore/activator;5;5
128;buildo/react-cookie-banner;32;28;Babylone-repo/react-cookie-banner;3;3
129;aceakash/project-name-generator;31;9;creately/namegen;8;8
130;SUI-Components/frontend-pre-commit-rules;31;26;SUI-Framework/sui-pre-commit-rules;7;7
131;validator/gulp-html;30;26;phanect/vnujs;61;24
132;conveyal/maven-semantic-release;30;25;NoxHarmonium/leiningen-semantic-release;27;1
133;KSDaemon/sails-hook-sequelize;30;10;malpercio/sails-hook-fireline;6;6
134;praveenvijayan/grunt-html-validation;29;27;vikash-bhardwaj/grunt-w3c-html-validation;9;8
135;mrDarcyMurphy/is;29;27;LoudBit/is-too;7;7
136;brendanashworth/generate-password;29;9;xama5/generate-password-browser;3;3
137;nDmitry/grunt-postcss;28;14;C-Lodder/grunt-postcss;36;29
138;ant-mini-program/mini-types;28;19;remaxjs/mini-types;5;2
139;randylien/generator-react-gulp-browserify;28;25;darklight721/generator-react-6;4;3
140;evothings/cordova-ble;28;22;liuxiaoy/cordova-plugin-bluetooth;4;4
141;blakeembrey/tslint-config-standard;28;21;acamica/tslint-config-acamica;3;0
142;cyclosproject/ng-openapi-gen;28;21;fllstx/ng-openapi-gen;3;3
143;rogerc/file-stream-rotator;28;12;forthedamn/faster-file-rotator;3;3
144;turtlecoin/turtlecoin-crypto;27;16;tylersisia/chimera-crypto;15;0
145;emgeee/gulp-standard;27;26;nebez/gulp-semistandard;3;3
146;sindresorhus/superb;27;12;boennemann/animals;3;2
147;gabidavila/react-usa-map;27;16;NCSAAthleticRecruiting/react-usa-map;3;3
148;otalk/jingle-media-session;26;17;xdumaine/jingle-media-session;11;9
149;GoogleChromeLabs/worker-plugin;26;22;andywer/threads-plugin;10;10
150;spite/THREE.MeshLine;26;18;ryanking1809/threejs-meshline;6;6
151;mreinstein/alexa-verifier;26;15;SahilDude89ss/alexa-verifier-with-proxy;3;3
152;Raathigesh/dazzle;25;20;ellie-couban/dazzle;17;17
153;prscX/react-native-app-tour;25;19;WCChimiiz/react-native-app-tour;5;5
154;ethanent/phin;25;7;pxjohnny/agent-phin;4;4
155;jamiebuilds/create-react-context;24;13;StringEpsilon/mini-create-react-context;263;48
156;kenwheeler/mcfly;24;17;jcperez-ch/flaxs;15;14
157;publicclass/express-partials;24;14;RandomEtc/ejs-locals;12;1
158;segmentio/metalsmith-markdown;24;12;mayo/metalsmith-markdownit;11;11
159;adriancarriger/semantic-commitlint;24;22;mixmaxhq/semantic-commitlint;8;8
160;kenwheeler/mcfly;24;17;FormidableLabs/biff;6;6
161;federicobond/solidity-parser-antlr;24;18;ConsenSys/solidity-parser-antlr;4;3
162;contributte/live-form-validation;24;14;kopecmi8/live-form-validation;3;3
163;TeamWertarbyte/material-ui-search-bar;23;15;filipvk/material-ui-search-bar;4;2
164;yoshuawuyts/es2020;23;15;ahdinosaur/es2040;3;3
165;mescroll/mescroll;22;9;mvpleung/mescroll;5;5
166;funsocietyirc/node-irc;21;5;MagicMarvMan/node-irc;25;5
167;mafintosh/protocol-buffers;21;17;ipfs/protons;10;8
168;harthur/replace;21;13;ALMaclaine/replace;7;7
169;Lainix/card-validator;21;21;DolceLemus/card-validator;5;5
170;mariiinda/gatsby-theme-recipes;21;20;westegg/gatsby-theme-recipes;5;4
171;MGrin/mgr-pdf-viewer-react;21;17;ansu5555/pdf-viewer-reactjs;5;4
172;chirag04/mail-listener2;21;15;Pranav-Dakshina/mail-listener2;4;2
173;andregardi/use-global-hook;21;15;nmccready/use-global-hook;3;3
174;williamkapke/ipp;20;10;sealsystems/node-ipp;69;47
175;broccolijs/broccoli-sane-watcher;20;17;ember-cli/broccoli-sane-watcher;64;46
176;creationix/node-gir;20;19;Place1/node-gir;17;14
177;synapse-wireless-labs/component-lab;20;15;islavi/ng2-component-lab;6;6
178;gaearon/react-document-title;20;13;Ambroos/react-nested-status;4;2
179;vorillaz/devicons;19;11;mirmat/iconsfordevs;53;53
180;amida-tech/blue-button-generate;19;16;DocuTAP/blue-button-generate;43;41
181;pinguinjkeke/react-native-wheel-datepicker;19;10;davidgovea/react-native-wheel-datepicker;15;13
182;techniq/mui-virtualized-table;19;16;128technology/mui-virtualized-table;5;4
183;bwindels/exif-parser;19;13;bpatrik/ts-exif-parser;5;4
184;fvdm/nodejs-piwik;19;11;sandfox/nodejs-piwik;4;4
185;samcday/node-stream-buffer;19;14;genrym/streamable-buffers;4;4
186;coreybutler/node-linux;19;17;PauloFerreira25/node-service-linux;3;3
187;martintajur/node-mysql-activerecord;18;14;kylefarris/node-querybuilder;14;8
188;Michaelvilleneuve/react-native-document-scanner;18;11;Woonivers/react-native-document-scanner;11;9
189;dbramwell/react-animate-on-scroll;18;13;articulate/react-animate-on-scroll;7;7
190;bevacqua/horsey;18;11;goguardian/horsey;4;4
191;iamchrismiller/grunt-casper;18;13;hudl/grunt-casper;3;2
192;handshake-org/hs-client;18;8;namebasehq/hs-client;3;2
193;AYapejian/node-red-contrib-home-assistant;17;12;Spartan-II-117/node-red-contrib-home-assistant-llat;30;29
194;dignifiedquire/pull-length-prefixed;17;12;alanshaw/it-length-prefixed;9;6
195;goloveychuk/tsruntime;17;12;efreeti/ts-runtime-reflection;7;6
196;thangngoc89/bs-ant-design;17;10;Enalmada/bs-ant-design;7;6
197;balderdashy/waterline-criteria;17;15;Atlantis-Software/offshore-criteria;5;4
198;ehynds/grunt-image-embed;17;13;Jpunt/grunt-css-url-rewrite;4;4
199;anvilresearch/modinha;17;16;camfou/modinha;4;4
200;Step7750/node-csgo-cdn;17;14;dvpusha/node-csgo-cdn;3;2
201;fshost/node-dir;17;16;AckerApple/path-reader;3;3
202;roccomuso/node-ads;17;12;PLCHome/node-ads-api;3;3
203;ricmoo/aes-js;16;8;andy128k/aes-es;58;6
204;prosociallearnEU/cf-nodejs-client;16;3;IBM-Cloud/cf-nodejs-client;31;27
205;ResourcefulHumans/rheactor-value-objects;16;13;RHeactorJS/value-objects;11;7
206;ResourcefulHumans/rheactor-event-store;16;13;RHeactorJS/event-store;11;5
207;jintoppy/protractor-html-screenshot-reporter;16;11;bcole/protractor-angular-screenshot-reporter;5;3
208;lagoshny/ngx-hal-client;16;16;tycoonm/ngx-hal-client;4;3
209;solid/oidc-op;16;13;interop-alliance/oidc-op;3;3
210;TourCMS/node-tourcms;16;14;alpeshvas/node-tourcms;3;3
211;endlessm/electron-installer-flatpak;15;13;malept/electron-installer-flatpak;32;30
212;konstantinzolotarev/sails-hook-adminpanel;15;12;dardalan/sails-hook-adminpanel;10;10
213;grommet/react-desc;15;10;jobbogamer/react-desc-spreadable;10;10
214;bpmn-io/bpmn-js-bpmnlint;15;8;process-engine/bpmn-js-bpmnlint;7;6
215;kurisutofu/sequelize-record;15;15;JamesJansson/sequelize-temporalize;6;6
216;a5mith/nodebb-plugin-youtube-lite;15;10;boomzillawtf/nodebb-plugin-youtube-embed;5;3
217;ForbesLindesay/run-browser;15;7;rtsao/run-browser-babel;4;4
218;reasonml-old/BetterErrors;15;13;esy-ocaml/BetterErrors;4;4
219;brackets-userland/brackets-eslint;15;15;quadre-code/quadre-eslint;3;3
220;fatbone008/imobile_for_javascript;14;14;iMobileforJavaScript/imobile_for_reactnative;23;23
221;limitd/limitdb;14;8;auth0/limitd-redis;22;19
222;gabriel-letarte/sails-arangodb;14;12;partoutx/sails-arangodb;8;8
223;steadyequipment/node-firestore-backup;14;12;willhlaw/node-firestore-backup-restore;8;5
224;chad3814/node-hashtable;14;7;anchorchat/node-hashtable;6;6
225;creativelive/hapi-ratelimit;14;9;cilindrox/hapi-ratelimiter;5;5
226;rakeshpai/pi-gpio;14;7;EyeDive/pi-gpio-js;5;4
227;tadas-s/isbnjs;14;14;inventaire/isbn3;5;4
228;tryggingamidstodin/node-jt400;14;9;cwg999/node-jt400;5;5
229;bit-docs/bit-docs-docjs-theme;14;13;stealjs/bit-docs-stealjs-theme;4;4
230;PeterStaev/nativescript-image-swipe;14;9;samtheprogram/nativescript-image-swipe;4;4
231;jsbin/loop-protect;14;8;ojeytonwilliams/loop-protect;4;4
232;geek/OAuth;14;7;MauriceButler/simple-oauth-server;3;3
233;segmentio/xml-parser;14;10;chrisbottin/xml-parser;3;2
234;substack/json-stable-stringify;13;2;epoberezkin/fast-json-stable-stringify;31;5
235;nickcolley/scrambo;13;12;Owstin/scrambo;19;16
236;excellenteasy/ios-icons;13;8;randytarampi/ios-icons;14;11
237;lloyd/node-toobusy;13;7;STRML/node-toobusy;13;7
238;TalkingData/iview-weapp;13;4;iview/iview-mpvue;12;12
239;pinguinjkeke/vue-local-storage;13;7;frasiek/vue-local-storage;7;7
240;zetter/react-crossword;13;8;guardian/react-crossword;6;6
241;jstrace/jstrace;13;7;v0lkan/kiraz;3;3
242;dominictarr/hashlru;13;13;node-modules/ylru;3;3
243;substack/json-stable-stringify;13;2;jimlloyd/json-stable-stringify;3;3
244;KamiKillertO/inquirer-select-directory;13;12;micalevisk/inquirer-fs-selector;3;2
245;xebia/VisualReview-protractor;13;10;rosen-group/VisualReview-protractor;3;3
246;wgltony/react-native-braintree-dropin-ui;13;8;BradyShober/react-native-braintree-dropin-ui;3;3
247;jkuri/ng-daterangepicker;12;4;kiwigrid/ngx-daterangepicker;12;12
248;afj176/generator-mongoose;12;10;vikz91/generator-restgoose;11;5
249;nfarina/homebridge-tesla;12;11;WonkiDonk/homebridge-jlr-incontrol;8;8
250;thelonious/kld-intersections;12;10;signavio/svg-intersections;7;7
251;dtolstyi/node-chromium;12;11;2do2go/node-chromium;7;6
252;deej81/ngx-croppie;12;6;meupatrocinio/ngx-croppie;4;4
253;vtrushin/json-to-ast;12;11;neuroo/json-ast;3;1
254;abdulkadirgenc/ng-wizard;12;8;sc0tt5/ng-wizard;3;3
255;jgillick/jira-changelog;12;9;falcucci/changelog-it;3;3
256;lukekarrys/organize-photos;12;11;brencon/organize-photos;3;3
257;alkawryk/tinderjs;11;6;tinderjs/tinderjs;26;18
258;lennym/i18n-future;11;8;UKHomeOffice/passports-i18n;15;15
259;anvilresearch/modinha-redis;11;9;camfou/modinha-redis;11;9
260;smore-inc/react-native-segment-io-analytics;11;8;tonyxiao/react-native-analytics;10;2
261;tadasr/react-native-iot-wifi;11;3;josectobar/react-native-iot-wifi;7;7
262;rkalis/truffle-plugin-verify;11;10;ejwessel/truffle-verify;6;6
263;skynet2/ngx-google-places-autocomplete;11;10;wiredviews/ngx-google-places-autocomplete;5;5
264;ivesdebruycker/maxcube;11;8;normen/maxcube2;5;5
265;dpopescu/ts-serializer;11;7;delete/ts-serializer;5;5
266;sindresorhus/auto-bind;11;6;housinghq/react-auto-bind;4;4
267;sguiheux/EventSource;11;11;nickofthyme/EventSource;4;4
268;callumacrae/gulp-w3cjs;11;7;center-key/gulp-w3c-html-validator;4;4
269;component/matches-selector;11;6;ForbesLindesay/matches-selector;3;2
270;mafintosh/node-gyp-install;11;9;cnpm/node-gyp-install;3;2
271;kiwiupover/ember-cli-deploy-asset-sizes;11;11;minichate/ember-cli-deploy-datadog-asset-sizes;3;3
272;grimen/node-env-file;11;7;markhicken/node-env-file-subst;3;3
273;haifeng2013/rollup-plugin-bundle-html;11;8;ThomZz/rollup-plugin-bundle-html-thomzz;3;1
274;vinodkumar8/react-native-month-selector;11;11;is343/react-native-swipeable-month-selector;3;3
275;shokai/hubot-rss-reader;10;8;halkeye/hubot-rss-reader;96;64
276;jrhubott/homebridge-homeseer;10;1;jvmahon/homebridge-homeseer;28;24
277;VladimirJarabica/splitster;10;8;kiwicom/splitster;25;24
278;cyraxx/node-pogo-protos;10;4;pogosandbox/node-pogo-protos;17;8
279;Merott/nativescript-pdf-view;10;5;madmas/nativescript-pdf-view;14;11
280;zephir/zephir-gulp-workflow;10;9;moritzjacobs/mj-gulp-workflow;14;12
281;roofstock/ember-cli-data-export;10;10;ahmetemrekilinc/ember-cli-data-export;10;1
282;magicismight/react-native-lazyload;10;5;soldotno/react-native-lazyload-deux;7;6
283;dominictarr/stream-combiner;10;8;substack/stream-combiner2;6;2
284;simianhacker/bunyan-elasticsearch;10;6;bloublou2014/bunyan-stream-elasticsearch;6;4
285;FrankyBoy/request-ntlm;10;5;matrus2/request-ntlm;5;3
286;freewil/express-form;10;6;provejs/provejs-express;4;4
287;Loghorn/ant-plus;10;7;gdoumen/ant-plus;4;3
288;Codesleuth/split-sms;10;8;daxko/split-sms;4;4
289;wcamarao/session.socket.io;10;6;eiriklv/session.socket.io;3;2
290;roofstock/ember-cli-data-export;10;10;pauln/ember-spreadsheet-export;3;1
291;FrankyBoy/request-ntlm;10;5;jehy/request-ntlm-lite;3;3
292;mddub/minimed-connect-to-nightscout;10;8;szymjaw/minimed-connect-to-nightscout;3;3
293;dmotz/natal;9;9;drapanjanas/re-natal;69;67
294;excellenteasy/ios-icon-resize;9;7;randytarampi/ios-icon-resize;21;16
295;352Media/mongoose-authorization;9;3;devcolor/mongoose-authz;20;16
296;excellenteasy/android-icons;9;6;randytarampi/android-icons;15;12
297;ResourcefulHumans/rheactor-models;9;7;RHeactorJS/models;10;5
298;skyrpex/vue-jsx-hot-loader;9;8;Leanplum/vue-jsx-hot-loader;7;7
299;vadimg/js_bintrees;9;6;canjs/can-binarytree;6;2
300;cycdpo/h5-audio-controls;9;9;cycjimmy/h5-audio-controls;6;6
301;tbranyen/salita;9;8;Xotic750/salita;3;3
302;Streampunk/naudiodon;9;8;auroraapi/node-portaudio;3;2
303;leandrob/saml20;9;7;phylp/saml20-maintained;3;3
304;aliyun/mns-nodejs-sdk;9;9;iftechio/mns-nodejs-sdk;3;3
305;thibaudcolas/jsonresume-theme-eloquent;8;3;asm0dey/jsonresume-theme-eloquent-ru;295;277
306;nRFCloud/bdd-feature-runner-aws;8;5;coderbyheart/bdd-feature-runner-aws;29;18
307;excellenteasy/ios-splash;8;6;randytarampi/ios-splash;15;12
308;ResourcefulHumans/rheactor-build-views;8;5;RHeactorJS/build-views;9;5
309;doubleswirve/quarterback;8;8;GovHawkDC/quarterback;8;8
310;heroku/kinesis;8;5;CoorpAcademy/kinesis;8;7
311;stdarg/tcp-port-used;8;6;oculus42/port-used;6;2
312;jfromaniello/express-unless;8;6;Swyftx/express-unless-and;5;5
313;codebox/moment-precise-range;8;6;mtscout6/moment-precise-range;4;3
314;tjanczuk/edge-sql;8;5;dsandor/edge-sql;4;4
315;brunch/react-brunch;8;8;banyan/react-coffee-brunch;3;3
316;EmergingTechnologyAdvisors/eslint-config-eta;8;7;cloudreach/eslint-config-cloudreach;3;3
317;michaelleeallen/jest-junit-reporter;8;6;kingatlas/jest-nunit-reporter;3;3
318;biosustain/potion-node;8;4;infarm/potion-node;3;3
319;Galeria-Kaufhof/gulp-galen;7;7;hypery2k/gulp-galenframework;397;64
320;excellenteasy/android-splash;7;5;randytarampi/android-splash;15;12
321;davidtheclark/stylelint-checkstyle-formatter;7;6;eddies/stylelint-junit-formatter;8;7
322;guillaumervls/connect-rethinkdb;7;3;llambda/session-rethinkdb;5;5
323;anvilresearch/connect-jwt;7;6;camfou/connect-jwt;4;3
324;KraigM/homebridge-wink;7;5;pdlove/homebridge-wink;4;4
325;noru/vue-resource-mock;7;6;giovanniorigins/vue-resource-mock-api;4;4
326;Mottie/javascript-number-formatter;7;6;j-/number-formatter;3;1
327;tejitak/react-state-animation;7;6;petermoresi/react-set-animate;3;3
328;JillElaine/jquery-idleTimeout;7;2;LinearSoft/jquery-idleTimeout-plus;3;2
329;Collaborne/paper-chip;7;5;fluidnext/paper-chip;3;2
330;santi8ago8/MercadoLibreNode;7;6;fredmarques/MercadoLibreNode;3;3
331;Xfaider48/node-csgotm-api;7;6;MattRh/node-csgotm-api;3;2
332;davidlinse/git-contributors.js;7;4;vweevers/contributors-from-git;3;1
333;jaredhanson/oauth2orize-device-code;6;5;zhaow-de/oauth2orize-device-code;43;0
334;jaredhanson/oauth2orize-device-code;6;5;zhaow-de/oauth2orize-device-code;43;0
335;vdw/HideSeek;6;4;maxwroc/HideSeek-Mod;32;23
336;nrigaudiere/yarn-recursive;6;6;softwareventures/yarn-recursive;32;24
337;egoist/testen;6;4;bevry/testen;30;0
338;koa-modules/i18n;6;5;strawbrary/koa-i18n-2;24;1
339;danroot/SAML2-metadata-config;6;5;compwright/passport-saml-metadata;21;18
340;mikhail-angelov/gulp-translations-from-spreadsheet;6;2;bookEU/node-translations-from-spreadsheet;11;11
341;juanfran/gulp-jade-inheritance;6;5;berstend/gulp-sass-inheritance;9;6
342;mhart/kinesis;6;2;heroku/kinesis;8;5
343;courajs/node-svn;6;5;crichmond1989/svn;8;6
344;xdissent/karma-chai;6;4;tubalmartin/karma-chai-sinon;7;2
345;pierremtb/easy-fit;6;5;jimmykane/fit-parser;6;6
346;gustf/js-levenshtein;6;2;43081j/js-levenshtein;6;4
347;2gis/node-rsvg;6;6;f3lang/node-rsvg-prebuilt;5;5
348;matteodem/orion-cli;6;5;mrauhu/orionx-cli;5;5
349;paolotremadio/homebridge-automation-chromecast;6;1;yotamtal/homebridge-control-chromecast;5;5
350;Shuangzuan/RCTRefreshControl;6;5;react-native-china/react-native-drop-refresh;3;3
351;dsebastien/modernWebDevBuild;6;3;edina/angular-build;3;3
352;markdalgleish/gulp-coveralls;5;2;kollavarsham/gulp-coveralls;87;69
353;xyluet/objection-table-name;5;5;JaneJeon/objection-table-name;85;79
354;djm158/pitt-cli;5;1;Choromanski/pitt-cli;76;0
355;ebusinessdirect/mws-simple;5;2;ericblade/mws-simple;72;67
356;jaredhanson/oauth2orize-fprm;5;5;zhaow-de/oauth2orize-fprm;43;0
357;webcc/cassandra-store;5;0;razvanz/cassandra-store;32;21
358;excellenteasy/ios-splash-generate;5;3;randytarampi/ios-splash-generate;21;16
359;ResourcefulHumans/rheactor-aws-lambda;5;4;RHeactorJS/aws-lambda;17;9
360;ksmithut/mongoose-role;5;2;gumlet/mongoose-rbac-plugin;15;0
361;coolaj86/isbnjs;5;4;tadas-s/isbnjs;14;14
362;stnvh/gulp-tinypng-compress;5;0;nymo/gulp-tinypng-extended;13;13
363;Deathspike/crunchyroll.js;5;0;Godzil/Crunchy;11;7
364;NicolasDeveloper/guid-typescript;5;4;ez-libs/ez-guid;11;11
365;jenseng/i18nliner-js;5;3;Download/i18nline;10;3
366;MadRabbit/express-yields;5;2;davidbanham/express-async-errors;9;6
367;valeriansaliou/node-fast-ratelimit;5;3;anchorchat/node-fast-ratelimit;7;7
368;featurist/karma-server-side;5;5;z-vr/karma-server-side;6;6
369;tinajs/wxml-loader;5;2;Jimexist/mini-program-xml-loader;6;6
370;Jimdo/serverless-dotenv;5;3;UnlyEd/serverless-env-copy-plugin;6;5
371;kevva/npm-conf;5;4;zkochan/npm-conf;5;4
372;siddharthkp/react-docgen-external-proptypes-handler;5;5;benjroy/react-docgen-imported-proptype-handler;5;5
373;bamlab/react-native-braintree-payments-drop-in;5;3;beqaweb/react-native-braintree-payments-drop-in;5;3
374;rendrjs/grunt-rendr-stitch;5;4;alexindigo/grunt-rendr-requirejs;4;4
375;postcss/postcss-focus;5;4;RoundingWellOS/postcss-hover;4;4
376;geremih/react-native-circular-action-menu;5;4;meteorinovasidigital/react-native-circular-action-menu;4;4
377;abarta/vue2-multi-uploader;5;3;updivision/vue2-multi-uploader;4;1
378;steffenmllr/node-red-contrib-sonoff-tasmota;5;4;EdgarM73/node-red-contrib-sonoff-tasmota;4;3
379;kevinschaul/depict;5;4;ajam/banquo;3;3
380;yanoosh/karma-sinon;5;2;levibuzolic/karma-sinon-ie;3;3
381;petrbela/karma-osx-reporter;5;4;bltavares/karma-notification-reporter;3;2
382;moonpyk/node-ntp-client;5;1;artem-russkikh/react-native-ntp-client;3;3
383;Epharmix/Toureiro;5;3;node-packages/Toureiro;3;2
384;DirtyDevWork/homebridge-daikin;4;1;cbrandlehner/homebridge-daikin-local;37;32
385;blackjk3/react-signature-pad;4;4;agilgur5/react-signature-canvas;17;3
386;paulyoung/jade-inheritance;4;3;adammockor/pug-inheritance;11;10
387;Jam3/msdf-bmfont;4;3;soimy/msdf-bmfont-xml;10;9
388;herumi/bls-wasm;4;1;ChainSafe/eth2-bls-wasm;10;7
389;jhurliman/homebridge-frontpoint;4;2;mkormendy/homebridge-node-alarm-dot-com;9;6
390;paulcuth/esp8266-cli;4;2;goliatone/node-esp;9;8
391;pitronalldak/rc-phone-input;4;2;join-com/rc-phone-input;9;6
392;orangecms/jest-meteor-stubs;4;0;tomscholz/meteor-jest-stubs;9;9
393;mival/csob_gateway;4;0;blabu-com/node-csobcz-gateway;9;9
394;NodeFly/nodefly-uvmon;4;2;chaosgame/edgeswim-uvmon;8;5
395;bunkat/pseudoloc;4;4;jacalata/pseudoloc;7;7
396;numinos1/embedable;4;2;deseretdigital/embeddable;7;7
397;rikkertkoppes/json2xls;4;2;ge-hall/json2xls;7;7
398;KualiCo/koa-pixie-proxy;4;3;sdd/koa2-pixie-proxy;5;5
399;kkemple/primus-webpack-plugin;4;3;newyork-anthonyng/primus-webpack-plugin;5;3
400;shettypuneeth/react-codepen-embed;4;3;htbkoo/ts-react-codepen-embed;5;5
401;markau/express-sanitizer;4;4;askhogan/express-sanitized;5;3
402;mulesoft-labs/ts-structure-parser;4;1;AbatapCompany/ts-structure-parser;5;5
403;Mr-Wallet/node-bitbucket-v2;4;4;kristianmandrup/bitbucket-api-v2;4;4
404;jcoglan/node-csprng;4;0;Favna/node-csprng;4;3
405;brijeshb42/kattappa;4;4;scrolltech/kattappa;4;4
406;jackmu95/idle-timeout;4;1;certsy/universal-idle-timeout;4;0
407;frikille/promised-xhr;4;4;cbargren/xhr-promise-redux;3;3
408;rotundasoftware/sass-css-stream;4;4;jsdf/less-css-stream;3;3
409;symphonyoss/symphony-node-binding;4;3;teleolabs/symphony-node-binding;3;3
410;elanic-tech/react-native-paytm;4;2;opsway/react-native-paytm;3;2
411;ikmolbo/vue2-leaflet-hotline;4;3;jurb/vue2-leaflet-heatmap;3;3
412;andreobriennz/skeleton-flexbox;3;2;44r0n/skeleton-styled;427;86
413;philippschulte/fastly-promises;3;2;adobe/fastly-native-promises;228;198
414;stephan83/download-github-release;3;2;terascope/fetch-github-release;131;122
415;porchdotcom/nock-back-mocha;3;2;teppeis/nock-back-mocha;65;62
416;amper5and/secrets.js;3;1;grempe/secrets.js;60;4
417;trustmaster/noflo-tester;3;1;noflo/noflo-wrapper;57;54
418;Quramy/graphql-decorator;3;1;indigotech/graphql-schema-decorator;51;45
419;DFFR-NT/dffrnt.api;3;0;eVectr/evectr.api;19;19
420;ForbesLindesay/matches-selector;3;2;Macil/matches-selector-ng;18;13
421;georgski/cordova-plugin-firebase-dynamiclinks;3;1;QDOOZ/cordova-plugin-firebase-offline;17;17
422;sorohan/stash-rest-api;3;0;markmssd/bitbucket-server-nodejs;14;13
423;wfortin/hg-auto-semver;3;1;coveo/hg-auto-semver;13;13
424;jortgies/homebridge-rademacher-blinds;3;1;bombadiltom/homebridge-rademacher-homepilot;13;12
425;daguej/node-proxywrap;3;1;findhit/proxywrap;12;9
426;ResourcefulHumans/rheactor-errors;3;3;RHeactorJS/errors;11;6
427;natevw/node-nrf;3;1;tessel/rf-nrf24;10;10
428;Felixls/node-red-contrib-tplink-smarthome;3;2;adreno369/node-red-contrib-tplink-iot;10;4
429;byteclubfr/js-hal;3;2;jpbochi/halberd;9;9
430;dijs/dhash;3;3;mgmtio/dhash-image;9;3
431;yargalot/Angular-HMR;3;3;vitaliy-bobrov/angular-hot-loader;9;9
432;Especializa/nativescript-ng-shadow;3;2;JoshDSommer/nativescript-ngx-shadow;8;8
433;wmhilton/cors-buster;3;2;isomorphic-git/cors-proxy;8;8
434;aribouius/react-themed;3;0;rentpath/react-themed;8;7
435;msloth/lgtv.js;3;2;hobbyquaker/lgtv2;7;6
436;domenic/pubit;3;1;YuzuJS/pubit-as-promised;7;5
437;ivesdebruycker/node-red-contrib-maxcube;3;2;maxill1/node-red-contrib-maxcube2;6;5
438;alchemycs/spheron;3;3;hybridgroup/spheron;5;4
439;nhitchins/nodebb-plugin-slack;3;2;pichalite/nodebb-plugin-slack-extended;5;4
440;voidberg/eslint-bamboo-formatter;3;2;adalbertoteixeira/jest-bamboo-formatter;5;5
441;titel-media/node-fetch;3;2;dollarshaveclub/node-fetch;5;5
442;carlo-colombo/grunt-angular-modules-graph;3;1;lucalanca/grunt-angular-architecture-graph;4;4
443;rricard/mongoose-fs;3;1;dlemon/mongoose-fs;4;3
444;karan3112/vue-awesome-form;3;2;pavitardua/vue-awesome-form;4;4
445;component/collection;3;0;Frapwings/fendjs-collection;3;3
446;viriciti/coffee-project;3;1;stofstik/coffee-project;3;3
447;troxler/vue-headful;3;0;VeryWow/vue-simple-headful;3;3
448;nanjingboy/nvmw;3;3;jchip/nvm;3;2
449;jnordberg/wsrpc;3;2;TechTeamer/wsrpc;3;3
450;st44100/gulp-styledown;3;2;PhilippeVay/gulp-styledown;3;3