No;mainline;variant;mainline_maintainer-details;variant_maintainers-details
1;rauchg/slackin;emedvedev/slackin-extended;Guillermo Rauch&rauchg@gmail.com&rauchg#4/Martin Hickey&martin.hickey@ie.ibm.com&hickeyma#2/Leo Lamprecht&mindrun@icloud.com&leo#2;Ed Medvedev&edward.medvedev@gmail.com&emedvedev#184/XhmikosR&xhmikosr@gmail.com&XhmikosR#9
2;neovim/neovim;smolck/uivonim;Jan Edmund Lazo&jan.lazo@mail.utoronto.ca&janlazo#50/Björn Linse&bjorn.linse@gmail.com&bfredl#16/TornaxO7&tornax07@gmail.com&vigoux#13/Matthieu Coudron&mcoudron@hotmail.com&teto#8/erw7&erw7.github@gmail.com&tjdevries#8;x&x@x.x&dependabot[bot]#61/Folyd&lyshuhow@gmail.com&dependabot[bot]#36/Wei Li&llwwns@gmail.com&smolck#16
3;NVIDIA/tacotron2;begeekmyfriend/tacotron2;Rafael Valle&rafaelvalle@nvidia.com&rafaelvalle#4;begeekmyfriend&begeekmyfriend@gmail.com&begeekmyfriend#5
4;fogleman/Minecraft;traverseda/pycraft;Michael Fogleman&fogleman@gmail.com&fogleman#4;Alex Davies&traverse.da@gmail.com&traverseda#42/Nitori (Sani)&nitori@chireiden.net&nitori#2
5;tensorflow/tensorflow;microsoft/tensorflow-directml;A. Unique TensorFlower&gardener@tensorflow.org&tensorflow-copybara#82/Rebecca Chen&rechen@google.com&copybara-service[bot]#10/Mihai Maruseac&mihai.maruseac@gmail.com&mihaimaruseac#3;Patrice Vignola&vignola.patrice@gmail.com&PatriceVignola#83/Justin Stoecker&justoeck@microsoft.com&jstoecker#44/Xiang Zhang&xianz@microsoft.com&zhangxiang1993#13/Jeff Bloomfield&jeffbloo@microsoft.com&jeffbloo#2/Dwayne Robinson&dwayner@microsoft.com&fdwr#1
6;bsnes-emu/bsnes;devinacker/bsnes-plus;David CARLIER&devnexen@gmail.com&Screwtapello#36/Kawa&kawaoneechan@gmail.com&Kawa-oneechan#4;Devin Acker&d@revenant1.net&devinacker#44
7;mantoni/eslint_d.js;josephfrazier/prettier_d;Maximilian Antoni&mail@maxantoni.de&mantoni#49/Aaron Jensen&aaronjensen@gmail.com&aaronjensen#1;Joseph Frazier&1212jtraceur@gmail.com&josephfrazier#47
8;typeorm/typeorm;denolib/typeorm;Umed Khudoiberdiev&pleerock.me@gmail.com&pleerock#106/Gaurav Sharma&gtpan77@gmail.com&AlexMesser#2/kononnable&kononnable@gmail.com&Kononnable#2/papb&papb1996@gmail.com&vlapo#1;uki00a&uki00a@gmail.com&uki00a#80
9;RealOrangeOne/react-native-mock;Root-App/react-native-mock-render;Jake Howard&git@theorangeone.net&RealOrangeOne#7;IsaacSmith13&Isaac13Smith@gmail.com&IsaacSmith13#4/Kyle Thompson&kyle@kylekthompson.com&kylekthompson#2/Jason Robinaugh&jason@joinroot.com&robinaugh#1
10;ChibiOS/ChibiOS;ArduPilot/ChibiOS;;Andrew Tridgell&andrew@tridgell.net&tridge#15
11;obsproject/obs-studio;CoSMoSoftware/OBS-studio-webrtc;Colin Edwards&colin@recursivepenguin.com&jp9000#58;Dr. Alex&alex.gouaillard@cosmosoftware.io&agouaillard-cosmo#26/ludocosmo&ludovic.roux@cosmosoftware.io&ludocosmo#3
12;iamchucky/PttChrome;robertabcd/PttChrome;;Robert Wang&robertabcd@gmail.com&robertabcd#28
13;ITRS-Group/system-addons-plugins-op5-check_vmware_api;BaldMansMojo/check_vmware_esx;Erik Sjöström&erikdsjostrom@gmail.com&erikdsjostrom#2/Jacob Hansen&jhansen@op5.com&jacobbaungard#1;
14;ntfreak/openocd;riscv/riscv-openocd;;Tim Newsome&tim@sifive.com&timsifive#221/Palmer Dabbelt&palmerdabbelt@google.com&palmer-dabbelt#28/Megan Wachs&megan@sifive.com&mwachs5#14/Greg Savin&greg.savin@sifive.com&SiFiveGregS#5/Andrew Waterman&andrew@sifive.com&aswaterman#1
15;WordPress/WordPress;ClassicPress/ClassicPress;;Sergey Biryukov&sergeybiryukov@git.wordpress.org&nylen#228/Pieter Bos&pieter@so-wp.com&senlin#23/Scott Bowler&scott.bowler@dcsworldwide.net&scottybo#2/Daniele Scasciafratte&mte90net@gmail.com&Mte90#1
