No;mainline_repo;closed_pr_ml;merged_pr_ml;variant_repo;closed_pr_vr;merged_pr_vr
1;rogerc/file-stream-rotator;28;12;forthedamn/faster-file-rotator;3;3
2;jfromaniello/express-unless;8;6;Swyftx/express-unless-and;5;5
3;tlvince/make-coverage-badge;110;85;pamepeixinho/jest-coverage-badges;8;8
4;st44100/gulp-styledown;3;2;PhilippeVay/gulp-styledown;3;3
5;zwerch/homebridge-blinds;8;6;hjdhjd/homebridge-blinds-cmd;90;70
6;ronco/ember-cli-meta-tags;48;41;snewcomer/ember-cli-meta-data;3;3
7;cssdream/cssgrace;6;5;fisker/cssgrace-lite;11;6
8;mixonic/ember-cli-deprecation-workflow;46;38;atsao/ember-cli-deprecation-workflow-plus;4;4
9;tryggingamidstodin/node-jt400;14;9;cwg999/node-jt400;5;5
10;funsocietyirc/node-irc;21;5;MagicMarvMan/node-irc;25;5
11;lukekarrys/organize-photos;12;11;brencon/organize-photos;3;3
12;gustf/js-levenshtein;6;2;43081j/js-levenshtein;6;4
13;react-native-community/react-native-google-analytics;16;14;brandingbrand/react-native-google-analytics;14;14
14;mddub/minimed-connect-to-nightscout;10;8;szymjaw/minimed-connect-to-nightscout;3;3
15;skyrpex/vue-jsx-hot-loader;9;8;Leanplum/vue-jsx-hot-loader;7;7
16;nuxt-community/sentry-module;168;128;uniibu/sentry-module;4;3
17;xebia/VisualReview-protractor;13;10;rosen-group/VisualReview-protractor;3;3
18;grommet/react-desc;15;10;jobbogamer/react-desc-spreadable;10;10
19;wgltony/react-native-braintree-dropin-ui;13;8;BradyShober/react-native-braintree-dropin-ui;3;3
20;tinajs/wxml-loader;5;2;Jimexist/mini-program-xml-loader;6;6
21;iCrawl/eslint-config-aqua;123;113;captainsalt/eslint-config-holo;12;10
22;isa-group/oas-tools;132;103;par-mais-tecnologia/oas-tools;4;4
23;Jeff2Ma/postcss-lazysprite;46;32;jgbjs/postcss-lazysprite-miniprogram;3;3
24;jfmdev/simple-spellchecker;15;12;JacobSamro/ngx-spellchecker;5;5
25;davidlinse/git-contributors.js;7;4;vweevers/contributors-from-git;3;1
26;gabidavila/react-usa-map;27;16;NCSAAthleticRecruiting/react-usa-map;3;3
27;drazisil/junit-merge;80;67;bitcoder/cucumber-json-merge;4;4
28;ksmithut/mongoose-role;5;2;gumlet/mongoose-rbac-plugin;15;0
29;Tabcorp/restify-cors-middleware;42;34;DatatracCorporation/restify-cors-middleware2;17;16
30;jaredhanson/oauth2orize-device-code;6;5;zhaow-de/oauth2orize-device-code;43;0
31;jaredhanson/oauth2orize-fprm;5;5;zhaow-de/oauth2orize-fprm;43;0
32;AndrewKishino/sotez;48;36;KZen-networks/tezos-thresh-wallet;3;3
33;conveyal/maven-semantic-release;30;25;NoxHarmonium/leiningen-semantic-release;27;1
34;infinum/emotion-normalize;12;11;flogy/emotion-tailwind-preflight;4;4
35;intuit/semantic-release-slack;133;128;conechan/semantic-release-wxwork;3;3
36;herumi/bls-wasm;4;1;ChainSafe/eth2-bls-wasm;10;7
37;VladimirJarabica/splitster;10;8;kiwicom/splitster;25;24
38;jsbin/loop-protect;14;8;ojeytonwilliams/loop-protect;4;4
39;Codesleuth/split-sms;10;8;daxko/split-sms;4;4
40;ikmolbo/vue2-leaflet-hotline;4;3;jurb/vue2-leaflet-heatmap;3;3
41;KIProtect/klaro;117;95;empreinte-digitale/orejime;16;13
42;titel-media/node-fetch;3;2;dollarshaveclub/node-fetch;5;5
43;excellenteasy/ios-splash-generate;5;3;randytarampi/ios-splash-generate;21;16
44;Jimdo/serverless-dotenv;5;3;UnlyEd/serverless-env-copy-plugin;6;5
45;jaredhanson/oauth2orize-device-code;6;5;zhaow-de/oauth2orize-device-code;43;0
46;steffenmllr/node-red-contrib-sonoff-tasmota;5;4;EdgarM73/node-red-contrib-sonoff-tasmota;4;3
47;intuit/semantic-release-slack;133;128;conechan/semantic-release-wxwork;3;3