No,mainline_repo,close_pr_ml,pr_ml,variant_repo,close_pr_vr,pr_vr
824, - ,1,apache/couchdb-fauxton,1145,459,pouchdb/pouchdb-fauxton,7,3
828, - ,2,numinos1/embedable,4,2,deseretdigital/embeddable,7,7
835, - ,3,alexnorton/transcript-editor,8,7,alexnorton/transcript-editor,8,7
837, - ,4,KraigM/homebridge-wink,7,5,pdlove/homebridge-wink,4,4
840, - ,5,noru/vue-resource-mock,7,6,giovanniorigins/vue-resource-mock-api,4,4
848, - ,6,aigis-styleguide/aigis,52,45,cxq/aigis,5,5
851, - ,7,stdarg/tcp-port-used,8,6,oculus42/port-used,6,2
857, - ,8,bendrucker/hapi-raven,34,13,pagerinc/hapi-raven,14,13
864, - ,9,wfortin/hg-auto-semver,3,1,coveo/hg-auto-semver,13,13
865, - ,10,vorillaz/devicons,19,11,mirmat/iconsfordevs,53,53
896, - ,11,scopsy/await-to-js,13,7,phra/await-to-ts,18,18
897, - ,12,jortgies/homebridge-rademacher-blinds,3,1,bombadiltom/homebridge-rademacher-homepilot,13,12
912, - ,13,jdorn/json-editor,118,62,Syzygy24/y-jsoneditor,20,17
913, - ,14,jdorn/json-editor,118,62,dmstr-forks/jdorn-json-editor,26,26
915, - ,15,santi8ago8/MercadoLibreNode,7,6,fredmarques/MercadoLibreNode,3,3
924, - ,16,MicrosoftDX/botauth,17,11,vora/botauth,8,8
931, - ,17,dbramwell/react-animate-on-scroll,18,13,articulate/react-animate-on-scroll,7,7
934, - ,18,jkuri/ng-daterangepicker,12,4,kiwigrid/ngx-daterangepicker,12,12
949, - ,19,mikhail-angelov/gulp-translations-from-spreadsheet,6,2,bookEU/node-translations-from-spreadsheet,11,11
951, - ,20,KSDaemon/sails-hook-sequelize,30,10,malpercio/sails-hook-fireline,6,6
958, - ,21,synapse-wireless-labs/component-lab,20,15,islavi/ng2-component-lab,6,6
963, - ,22,cyraxx/node-pogo-protos,10,4,pogosandbox/node-pogo-protos,17,8
966, - ,23,ResourcefulHumans/rheactor-value-objects,16,13,RHeactorJS/value-objects,11,7
967, - ,24,ResourcefulHumans/rheactor-models,9,7,RHeactorJS/models,10,5
968, - ,25,ResourcefulHumans/rheactor-aws-lambda,5,4,RHeactorJS/aws-lambda,17,9
970, - ,26,rebassjs/grid,56,46,josepot/grid-styletr,3,2
975, - ,27,fatbone008/imobile_for_javascript,14,14,iMobileforJavaScript/imobile_for_reactnative,23,23
985, - ,28,benhurott/react-native-masked-text,47,43,indigotech/react-masked-text,9,9
987, - ,29,MithrilJS/mithril-node-render,63,51,tlaziuk/mithril-render,11,11
990, - ,30,bwindels/exif-parser,19,13,bpatrik/ts-exif-parser,5,4
991, - ,31,segmentio/superagent-retry,13,8,luispabon/superagent-retry-delay,5,5
1004, - ,32,danroot/SAML2-metadata-config,6,5,compwright/passport-saml-metadata,21,18
1009, - ,33,ivesdebruycker/maxcube,11,8,normen/maxcube2,5,5
1012, - ,34,fshost/node-dir,17,16,AckerApple/path-reader,3,3
1021, - ,35,LightKone/antidote-rest-server,7,7,joaomlneto/antidote-rest-server,7,7
1026, - ,36,gajus/scalpel,4,2,aweary/rst-selector-parser,10,9
1028, - ,37,samcday/node-stream-buffer,19,14,genrym/streamable-buffers,4,4
1038, - ,38,bit-docs/bit-docs-docjs-theme,14,13,stealjs/bit-docs-stealjs-theme,4,4
1042, - ,39,vega/voyager,384,353,ajainarayanan/voyager,3,3
1071, - ,40,ResourcefulHumans/rheactor-event-store,16,13,RHeactorJS/event-store,11,5
1073, - ,41,gabriel-letarte/sails-arangodb,14,12,partoutx/sails-arangodb,8,8
1077, - ,42,ResourcefulHumans/rheactor-server,43,29,RHeactorJS/server,24,10
1084, - ,43,symphonyoss/symphony-node-binding,4,3,teleolabs/symphony-node-binding,3,3
1090, - ,44,mulesoft-labs/ts-structure-parser,4,1,AbatapCompany/ts-structure-parser,5,5
1093, - ,45,TeamWertarbyte/material-ui-search-bar,23,15,filipvk/material-ui-search-bar,4,2
1098, - ,46,andyet/json-rpc-ws,61,40,npenin/json-rpc-ws,210,1
1104, - ,47,zephir/zephir-gulp-workflow,10,9,moritzjacobs/mj-gulp-workflow,14,12
1122, - ,48,FredrikNoren/ungit,670,572,exsilium/mungit,4,4
1134, - ,49,reasonml-old/BetterErrors,15,13,esy-ocaml/BetterErrors,4,4
1137, - ,50,PeterStaev/nativescript-image-swipe,14,9,samtheprogram/nativescript-image-swipe,4,4
1156, - ,51,dtolstyi/node-chromium,12,11,2do2go/node-chromium,7,6
1159, - ,52,Epharmix/Toureiro,5,3,node-packages/Toureiro,3,2
1180, - ,53,steadyequipment/node-firestore-backup,14,12,willhlaw/node-firestore-backup-restore,8,5
1182, - ,54,jrhubott/homebridge-homeseer,10,1,jvmahon/homebridge-homeseer,28,24
1189, - ,55,funkensturm/ember-local-storage,223,95,Mogball/ember-localforage,5,3
1192, - ,56,kentcdodds/eslint-config-kentcdodds,72,65,ultrox/eslint-config-mavu,8,4
1202, - ,57,davewasmer/ember-cli-rollbar,82,17,paulcwatts/ember-cli-rollbar,69,28
1232, - ,58,brackets-userland/brackets-eslint,15,15,quadre-code/quadre-eslint,3,3
1245, - ,59,freewil/express-form,10,6,provejs/provejs-express,4,4
1262, - ,60,nimaeskandary/vaderSentiment-js,4,4,nimaeskandary/vaderSentiment-js,4,4
1263, - ,61,markdalgleish/gulp-coveralls,5,2,kollavarsham/gulp-coveralls,87,69
1265, - ,62,mschm/node-red-contrib-homekit,4,1,NRCHKB/node-red-contrib-homekit-bridged,136,106
1271, - ,63,williamkapke/ipp,20,10,sealsystems/node-ipp,69,47
1292, - ,64,pinguinjkeke/vue-local-storage,13,7,frasiek/vue-local-storage,7,7
1295, - ,65,CycloneDX/cyclonedx-node-module,65,30,AppThreat/cdxgen,9,7
1299, - ,66,Loghorn/ant-plus,10,7,gdoumen/ant-plus,4,3
1308, - ,67,ykzts/node-xmlhttprequest,201,191,modulesio/window-xhr,11,9
1320, - ,68,prscX/react-native-app-tour,25,19,WCChimiiz/react-native-app-tour,5,5
1328, - ,69,orangecms/jest-meteor-stubs,4,0,tomscholz/meteor-jest-stubs,9,9
1330, - ,70,troxler/vue-headful,3,0,VeryWow/vue-simple-headful,3,3
1332, - ,71,roofstock/ember-cli-data-export,10,10,ahmetemrekilinc/ember-cli-data-export,10,1
1333, - ,72,roofstock/ember-cli-data-export,10,10,pauln/ember-spreadsheet-export,3,1
1339, - ,73,Inkdpixels/log-fancy,123,111,bjornreppen/log-less-fancy,12,12
1368, - ,74,Xfaider48/node-csgotm-api,7,6,MattRh/node-csgotm-api,3,2
1374, - ,75,validator/gulp-html,30,26,phanect/vnujs,61,24
1390, - ,76,FrankyBoy/request-ntlm,10,5,jehy/request-ntlm-lite,3,3
1391, - ,77,FrankyBoy/request-ntlm,10,5,matrus2/request-ntlm,5,3
1394, - ,78,352Media/mongoose-authorization,9,3,devcolor/mongoose-authz,20,16
1421, - ,79,DFFR-NT/dffrnt.api,3,0,eVectr/evectr.api,19,19
1426, - ,80,PeterStaev/NativeScript-Grid-View,26,14,Akylas/nativescript-collectionview,6,5
1427, - ,81,triniwiz/nativescript-image-cache-it,13,13,Akylas/nativescript-image,12,10
1430, - ,82,buehler/node-typescript-parser,73,63,streaka/typescript-parser-deluxe,5,4
1440, - ,83,eggjs/eslint-config-egg,50,46,aladdin-add/eslint-config-ts,41,2
1445, - ,84,jgillick/jira-changelog,12,9,falcucci/changelog-it,3,3
1461, - ,85,limitd/limitdb,14,8,auth0/limitd-redis,22,19
1469, - ,86,roccomuso/node-ads,17,12,PLCHome/node-ads-api,3,3
1472, - ,87,egoist/testen,6,4,bevry/testen,30,0
1473, - ,88,TourCMS/node-tourcms,16,14,alpeshvas/node-tourcms,3,3
1489, - ,89,wmhilton/cors-buster,3,2,isomorphic-git/cors-proxy,8,8
1501, - ,90,EducationLink/vue-tel-input,55,35,yogakurniawan/vue-tel-input-vuetify,9,8
1509, - ,91,nickcolley/scrambo,13,12,Owstin/scrambo,19,16
1511, - ,92,thangngoc89/bs-ant-design,17,10,Enalmada/bs-ant-design,7,6
1519, - ,93,mediacurrent/theme_generator_8,38,34,CodeKoalas/koality-drupal-theme-generator,12,9
1525, - ,94,leandrob/saml20,9,7,phylp/saml20-maintained,3,3
1534, - ,95,DirtyDevWork/homebridge-daikin,4,1,cbrandlehner/homebridge-daikin-local,37,32
1538, - ,96,biosustain/potion-node,8,4,infarm/potion-node,3,3
1544, - ,97,ccampbell/rainbow,86,52,justinfagnani/rainbow,7,5
1550, - ,98,brijeshb42/kattappa,4,4,scrolltech/kattappa,4,4
1562, - ,99,courajs/node-svn,6,5,crichmond1989/svn,8,6
1566, - ,100,browser-update/browser-update,41,28,regru/browser-update-cleaned-up,14,13
1569, - ,101,thibaudcolas/jsonresume-theme-eloquent,8,3,asm0dey/jsonresume-theme-eloquent-ru,295,277
1571, - ,102,EddyVerbruggen/nativescript-bluetooth,33,18,Akylas/nativescript-bluetooth,5,4
1573, - ,103,yarax/swagger-to-graphql,70,49,colinyoung/swagger-to-graphql,3,3
1576, - ,104,callumacrae/gulp-w3cjs,11,7,center-key/gulp-w3c-html-validator,4,4
1601, - ,105,stephan83/download-github-release,3,2,terascope/fetch-github-release,131,122
1634, - ,106,vinodkumar8/react-native-month-selector,11,11,is343/react-native-swipeable-month-selector,3,3
1641, - ,107,rikkertkoppes/json2xls,4,2,ge-hall/json2xls,7,7
1642, - ,108,cferdinandi/gumshoe,52,36,festicket/gumshoe,5,5
1648, - ,109,contentstack/gatsby-source-contentstack,53,37,berlitz-global/gatsby-source-contentstack,14,12
1649, - ,110,HealthCatalyst/Fabric.Cashmere,757,706,WCF-Insurance/WCF-Cashmere,285,277
1650, - ,111,elanic-tech/react-native-paytm,4,2,opsway/react-native-paytm,3,2
1652, - ,112,nrigaudiere/yarn-recursive,6,6,softwareventures/yarn-recursive,32,24
1673, - ,113,ethanent/phin,25,7,pxjohnny/agent-phin,4,4
1681, - ,114,philippschulte/fastly-promises,3,2,adobe/fastly-native-promises,228,198
1693, - ,115,lennym/i18n-future,11,8,UKHomeOffice/passports-i18n,15,15
1697, - ,116,handshake-org/hs-client,18,8,namebasehq/hs-client,3,2
1698, - ,117,karan3112/vue-awesome-form,3,2,pavitardua/vue-awesome-form,4,4
1703, - ,118,reasonml-community/bs-moment,46,40,greensync/bs-moment-timezone,4,3
1715, - ,119,etienne-martin/device-detector-js,82,75,TrafficGuard/device-detector-js,15,13
1719, - ,120,RobinCK/vue-gallery,63,42,userforce/vue-gallery,13,13
1726, - ,121,jackmu95/idle-timeout,4,1,certsy/universal-idle-timeout,4,0
1729, - ,122,pierremtb/easy-fit,6,5,jimmykane/fit-parser,6,6
1733, - ,123,bpmn-io/bpmn-js-bpmnlint,15,8,process-engine/bpmn-js-bpmnlint,7,6
1734, - ,124,semantic-release/gitlab-config,79,64,artemv/simple-semantic-config,9,8
1738, - ,125,roblox-ts/types,392,364,Validark/rbx-safe-types,28,27
1739, - ,126,bamlab/react-native-braintree-payments-drop-in,5,3,beqaweb/react-native-braintree-payments-drop-in,5,3
1751, - ,127,nfarina/homebridge-tesla,12,11,WonkiDonk/homebridge-jlr-incontrol,8,8
1767, - ,128,aribouius/react-themed,3,0,rentpath/react-themed,8,7
1770, - ,129,mozilla-frontend-infra/components,57,47,httpsOmkar/auth-react-component,5,5
1773, - ,130,bornfight/avro-to-typescript,156,26,chasdevs/avro-to-typescript,6,6
1776, - ,131,brandingbrand/react-native-leanplum,32,28,gleephDamien/react-native-leanplum,10,7
1787, - ,132,mival/csob_gateway,4,0,blabu-com/node-csobcz-gateway,9,9
1799, - ,133,nRFCloud/bdd-feature-runner-aws,8,5,coderbyheart/bdd-feature-runner-aws,29,18
1809, - ,134,collectionspace/cspace-ui.js,121,107,cspace-deployment/cspace-ui.js,52,44
1825, - ,135,diegohaz/nod,38,37,rjchow/nod,343,38
1827, - ,136,paolotremadio/homebridge-automation-chromecast,6,1,yotamtal/homebridge-control-chromecast,5,5
1829, - ,137,GoogleChromeLabs/worker-plugin,26,22,andywer/threads-plugin,10,10
1832, - ,138,TalkingData/iview-weapp,13,4,iview/iview-mpvue,12,12
1836, - ,139,andregardi/use-global-hook,21,15,nmccready/use-global-hook,3,3
1837, - ,140,dpopescu/ts-serializer,11,7,delete/ts-serializer,5,5
1847, - ,141,nanjingboy/nvmw,3,3,jchip/nvm,3,2
1858, - ,142,MGrin/mgr-pdf-viewer-react,21,17,ansu5555/pdf-viewer-reactjs,5,4
1860, - ,143,NicolasDeveloper/guid-typescript,5,4,ez-libs/ez-guid,11,11
1862, - ,144,anvilresearch/modinha-redis,11,9,camfou/modinha-redis,11,9
1871, - ,145,project-colophon/app,217,16,telus/telus-colophon-app,16,13
1875, - ,146,IBM/carbon-components-angular,893,843,RocketSoftware/carbon-components-angular,5,5
1878, - ,147,carbon-design-system/carbon-components-vue,773,751,RocketSoftware/carbon-components-vue,6,5
1882, - ,148,repetere/periodicjs.ext.reactapp,38,31,digifi-io/periodicjs.ext.reactapp,130,128
1883, - ,149,wzpan/hexo-generator-search,18,17,jiangtj-lab/hexo-cake-local-search,7,7
1886, - ,150,shokai/hubot-rss-reader,10,8,halkeye/hubot-rss-reader,96,64
1909, - ,151,autonomoussoftware/metronome-contracts-js,57,28,patidarmanoj10/metronome-contracts-js,3,3
1914, - ,152,TriplyDB/YASGUI.YASQE,32,26,weso/YASHE,109,109
1930, - ,153,lagoshny/ngx-hal-client,16,16,tycoonm/ngx-hal-client,4,3
1936, - ,154,boclips/boclips-player,68,17,g787543/boclips-react-plyr,4,3
1940, - ,155,Michaelvilleneuve/react-native-document-scanner,18,11,Woonivers/react-native-document-scanner,11,9
1948, - ,156,gkjohnson/urdf-loaders,66,59,rapyuta-robotics/urdf-js,8,6
1954, - ,157,tadas-s/isbnjs,14,14,inventaire/isbn3,5,4
1962, - ,158,cycdpo/h5-audio-controls,9,9,cycjimmy/h5-audio-controls,6,6
1963, - ,159,dkelosky/jest-stare,313,287,bespoken/jest-stare,7,7
1972, - ,160,jnordberg/wsrpc,3,2,TechTeamer/wsrpc,3,3
1986, - ,161,cyclosproject/ng-openapi-gen,28,21,fllstx/ng-openapi-gen,3,3
1987, - ,162,tadasr/react-native-iot-wifi,11,3,josectobar/react-native-iot-wifi,7,7
1991, - ,163,rkalis/truffle-plugin-verify,11,10,ejwessel/truffle-verify,6,6
1993, - ,164,pinguinjkeke/react-native-wheel-datepicker,19,10,davidgovea/react-native-wheel-datepicker,15,13
1996, - ,165,substance/texture,487,471,libero/texture,35,34
2033, - ,166,alan-cooney/knex-data-api-client,3,1,markusahlstrand/knex-data-api-client,32,27
2040, - ,167,aliyun/mns-nodejs-sdk,9,9,iftechio/mns-nodejs-sdk,3,3
