No;mainline_repo;pr_no;created_at;closed_at;merged_at;repo_origin;repo_destin;pr_owner;no_commenters;pr_commenters;pr_comments
0;a5mith/nodebb-plugin-youtube-lite;8;2015-01-31T06:05:01Z;2015-04-07T01:02:08Z;2015-04-07T01:02:08Z;ainesophaur/nodebb-plugin-youtube-lite;a5mith/nodebb-plugin-youtube-lite;ainesophaur;1;drewdotpro;"Tested on v0.6.0 and working well.
"
