No;mainline_repo;pr_no;created_at;closed_at;merged_at;repo_origin;repo_destin;pr_owner;no_commenters;pr_commenters;pr_comments
5;angular-wizard/angular-wizard;141;2015-11-07T16:12:12Z;2015-11-12T16:39:07Z;2015-11-12T16:39:07Z;nathanIL/angular-wizard;angular-wizard/angular-wizard;nathanIL;1;nathanIL;"Type == Typo
"
8;angular-wizard/angular-wizard;68;2014-11-18T09:19:16Z;2015-11-12T16:39:36Z;2015-11-12T16:39:36Z;kaihenzler/angular-wizard;angular-wizard/angular-wizard;kaihenzler;1;internetzer;"exactly what I am missing
"
9;angular-wizard/angular-wizard;66;2014-11-17T19:58:24Z;2015-03-09T05:59:46Z;2015-03-09T05:59:46Z;Splaktar/angular-wizard;angular-wizard/angular-wizard;Splaktar;6;jacobscarter/Splaktar/Splaktar/Splaktar/Splaktar/jacobscarter;"@Splaktar thanks for your contributions, before merging your pull request I want to make sure that changing the version numbers of dependencies in Karma and package.json does not break anything. I'll let you know when I have a moment to test.
 OK, no problem. The tests all passed at the time, but that was a month ago.
 @jacobscarter merged with latest. Verified that tests are passing.
 I've enabled Travis-CI and fixed some issues that would break builds in Travis-CI. You can add this to the main repo with the following steps:
1. Add `[![Build Status](https://travis-ci.org/mgonto/angular-wizard.png)](https://travis-ci.org/mgonto/angular-wizard)` to the README.md just above the Donation buttons.
2. Have Martin enable the project in Travis-CI [here](https://travis-ci.org/mgonto/angular-wizard).

Currently it shows the project as never having a build.
 @jacobscarter did you forget about this? Is it still relavant? It seems like you just did some of this in your own commits. I thought I had demonstrated that the tests were passing.

Should I bother rebasing this?
 Sorry @Splaktar I will get to this as soon as possible, I have been wrapped up in some other project.

Thanks,
"
10;angular-wizard/angular-wizard;53;2014-09-19T11:06:08Z;2014-12-16T17:43:50Z;2014-12-16T17:43:50Z;morenoh149/angular-wizard;angular-wizard/angular-wizard;morenoh149;5;jacobscarter/morenoh149/jacobscarter/morenoh149/jacobscarter;"@morenoh149 Thank you for your contributions.  Many users who use angular-wizard implement it differently.  Anyone is welcome to change the styles to how they see fit.  We are just providing a baseline to start from.
 @jacobscarter I really disagree. I feel the change I made is basic enough and has better assumptions for where you would want the navigation to go. I agree we're only providing a baseline. But I feel this is a better baseline. Instead of positioning it `absolute` you allow the navigation bar to appear as normal in the DOM and we simply add some top padding so it doesn't cover the main area of the wizard.
 @morenoh149 Okay lets make the update.  Can you please either update your fork and send a new pull request or I can just add the style changes.  The package.json was updated on previous pull request, the changes you suggested were made plus some others were added. If you update your fork and resubmit pull then your build files will be correct and auto-merge will be possible making everything easier.  Thanks!
 @jacobscarter I'm merged against current master. Double check if I made any mistakes.
 Looks good
"
11;angular-wizard/angular-wizard;49;2014-09-19T09:28:22Z;2014-12-16T16:09:50Z;2014-12-16T16:09:50Z;morenoh149/angular-wizard;angular-wizard/angular-wizard;morenoh149;1;Igosuki;"I don't have core commit rights on the main repo but you should try to make one PR per feature. 2 PRs for a README update and one of them for a typo is very overkill.
"
12;angular-wizard/angular-wizard;39;2014-07-10T09:09:14Z;2014-07-10T21:01:53Z;2014-07-10T21:01:53Z;Kamshak/angular-wizard;angular-wizard/angular-wizard;Kamshak;1;mgonto;"Makes sense :).

Thanks!
"
13;angular-wizard/angular-wizard;30;2014-05-07T19:51:46Z;2014-05-08T01:44:48Z;2014-05-08T01:44:48Z;brendanstennett/angular-wizard;angular-wizard/angular-wizard;brendanstennett;1;mgonto;"Thanks for this :).

Merging!!

Cheers
"
14;angular-wizard/angular-wizard;27;2014-04-15T06:00:40Z;2014-04-25T18:50:37Z;2014-04-25T18:50:37Z;TylerLH/angular-wizard;angular-wizard/angular-wizard;TylerLH;2;TylerLH/mgonto;"Commit message should read wz-title, not wz-step. Whoops.
 Merging. Thanks for the contribution :D
"
15;angular-wizard/angular-wizard;26;2014-04-04T18:36:21Z;2014-04-04T18:38:59Z;2014-04-04T18:38:59Z;nan;angular-wizard/angular-wizard;prem-prakash;1;mgonto;"Forgot about it :).

Thanks!
"
16;angular-wizard/angular-wizard;25;2014-04-04T04:25:26Z;2014-05-23T17:28:45Z;2014-05-23T17:28:45Z;nan;angular-wizard/angular-wizard;cspinetta;9;cspinetta/cspinetta/Igosuki/mgonto/cspinetta/mgonto/cspinetta/cspinetta/mgonto;"Hi igosuki! Thanks for your response.
Interesting approach. I think that the validate-step attribute should be able to get an expression to evaluate, and not a function, as I have done. Then if there is a form within the wizard step, you should pass the $pristine and $valid properties as an expression to evaluate, otherwise, pass another expression to validate the step. Do you think I should change the validate-step attribute so that it can get an expression? Or do you have any other idea to propose?
About validateOnlyToAdvance, that's right, it must be evaluated as boolean expression. I'll fix that.
 @Igosuki !
I've reviewed my code and your fork, and I finally implemented the validation as you did. Also I've added two directive to solve my use case, validate-always (it's actually validate-only-to-advance with the inverted value), and undo-steps. The latter is to set as incomplete the steps when going backwards.
Sorry for my hasty response without reviewing well the code.
Tell me if you prefer to do your pull request and I remove mine, because it's finally your implementation.
 Hey Cristian sorry if I didn't get back to you in the meantime, this looks better, I'll take time to review later and maybe merge yours into mine and then make a PR 
 Hey,

First of all, thanks for the contribution :).

I really love the fact you've added tests :D:D you're my idol.

Regarding Validations, I thought in adding them but then desisted because I think it should depend on the user.

I mean if the user wants to add validations to the step, he can just add a form, add `ngModel` with required and then in the button which will have the `next` just add a `ngDisabled` with the condition for `form.$pristine || form.$invalid`. I don't think it should be in Angular Wizard's code since it can be done with plain angular and it keeps this simple.

What do you guys think about this?
 Martin,

Thanks for your response!! :)

Yes, the tests are the best whenever it's possible.

You're right, it should depend on the user. In my use case I needed to use
a single form that wraps all the steps. I also had to add my own template
in the wizard and change the step from this template, not from the next
button. I solved it calling the method goTo() defined within the scope of
wizard and passing the validations to the wizard. Maybe I should have
created a controller for the template to validate each step, then do the
step transitions from the service of the wizard, all within this controller.

Thanks for your comment and suggestion!
 Hey @cristianspinetta at least IMO it makes more sense to do that and have validations in your controller. I think the simpler angular-wizard is, the better.

If you're up to it, and you can push all the tests you did + custom template for step or wizard without validations, I'd merge it :).

THanks!!!!
 @mgonto ! Yes, of course. The main tests are for validations, so if I
remove the validations then I have to remove these tests, but I think that
I can keep some tests for basic functionality. In the next days I'll get
back to you.
 Hi @mgonto !

I let some tests to check the basic functionality of the wizard. So if you agree, you can merge it.
 Hey that's awesome :).

Thanks for the contribution!

Merging!
"
17;angular-wizard/angular-wizard;22;2014-03-28T14:43:55Z;2014-04-04T18:38:37Z;2014-04-04T18:38:37Z;esteinborn/angular-wizard;angular-wizard/angular-wizard;esteinborn;1;mgonto;"Thanks for the contribution! Merging!
"
18;angular-wizard/angular-wizard;21;2014-03-21T07:43:41Z;2014-04-04T18:38:19Z;2014-04-04T18:38:19Z;stevecd/angular-wizard;angular-wizard/angular-wizard;stevecd;2;ArnauAregall/mgonto;"+1
 All good :).

Thanks for the contribution!

Merging!
"
19;angular-wizard/angular-wizard;20;2014-03-21T05:45:21Z;2014-04-04T18:37:30Z;2014-04-04T18:37:30Z;raykin/angular-wizard;angular-wizard/angular-wizard;raykin;2;mgonto/mgonto;"Thanks for the contribución. 

I'll get back from vacations in a week and I'll merge it them

Thanks
—
Sent from Mailbox for iPad

On Fri, Mar 21, 2014 at 6:45 PM, raykin notifications@github.com wrote:

> You can merge this Pull Request by running:
>   git pull https://github.com/raykin/angular-wizard master
> Or you can view, comment on it, or merge it online at:
>   https://github.com/mgonto/angular-wizard/pull/20
> -- Commit Summary --
> - replace _.find with _.findWhere to make it compatible with underscore
>   -- File Changes --
>   M src/wizard.js (4)
>   -- Patch Links --
>   https://github.com/mgonto/angular-wizard/pull/20.patch
>   https://github.com/mgonto/angular-wizard/pull/20.diff
>   ---
>   Reply to this email directly or view it on GitHub:
>   https://github.com/mgonto/angular-wizard/pull/20
 Merging :) 
"
20;angular-wizard/angular-wizard;14;2014-02-27T14:13:32Z;2014-03-02T19:33:22Z;2014-03-02T19:33:22Z;nan;angular-wizard/angular-wizard;galiminus;2;bsr203/mgonto;"+1
 Seems good :).

Thanks for the PR.

Merging!
"
21;angular-wizard/angular-wizard;12;2014-02-24T15:52:57Z;2014-02-24T15:58:30Z;2014-02-24T15:58:30Z;nan;angular-wizard/angular-wizard;rtucker88;1;mgonto;"Thanks for the change :).

Merging!
"
22;angular-wizard/angular-wizard;10;2014-02-11T16:28:43Z;2014-02-11T16:31:09Z;2014-02-11T16:31:09Z;nan;angular-wizard/angular-wizard;starr0stealer;1;mgonto;"Thanks!

Merging!
"
23;angular-wizard/angular-wizard;3;2014-01-31T01:50:39Z;2014-01-31T14:19:01Z;2014-01-31T14:19:01Z;nan;angular-wizard/angular-wizard;tanepiper;5;mgonto/tanepiper/mgonto/tanepiper/mgonto;"Hey,

Thanks for the contribution!! I Someone had a similar problem on `restangular` but forgot about it until now :).

Can you change it in the `src` folder on the correct file? Then, by running grunt, it'll be propagated to `dist`. You should change both the name of the method on `wizardHandler.js` and change the name of where it's called on `wizard.js`.

Otherwise, I can change it, just let me know.

Thanks again for contributing! 
 No problem - I've updated it.  I've also fixed the issue where the function in wz-next was not being called.  $parse no longer works for this, you need to use $scope.$eval (as per http://stackoverflow.com/questions/12371159/how-to-get-evaluated-attributes-inside-a-custom-directive)
 @tanepiper thanks!

To be honest, I first used `$scope.$eval` and it wasn't working for me somehow so I switched to $parse.
 @mgonto It might be something that's changed in 1.2.x to work as intended again.  I couldn't get $parse working at all with my route controller.
 Thanks for the contribution!
"
