No;mainline_repo;pr_no;created_at;closed_at;merged_at;repo_origin;repo_destin;pr_owner;no_commenters;pr_commenters;pr_comments
0;anvilresearch/modinha-redis;11;2017-08-13T19:53:56Z;2017-08-13T20:41:14Z;2017-08-13T20:41:14Z;anvilresearch/modinha-redis;anvilresearch/modinha-redis;LegallyGeek;1;christiansmith;w00t! thanks!
1;anvilresearch/modinha-redis;10;2016-03-16T12:17:26Z;2016-03-23T23:06:08Z;2016-03-23T23:06:08Z;ikb42/modinha-redis;anvilresearch/modinha-redis;ikb42;1;christiansmith;"Good catch! Noticed this issue some time ago while migrating an older database to the latest code, but it somehow slipped through the cracks. Thanks for the PR!
"
