No;mainline_repo;pr_no;created_at;closed_at;merged_at;repo_origin;repo_destin;pr_owner;no_commenters;pr_commenters;pr_comments
17;balderdashy/waterline-sequel;11;2014-09-08T15:48:30Z;2014-09-15T21:50:57Z;2014-09-15T21:50:57Z;simplyb/waterline-sequel;balderdashy/waterline-sequel;simplyb;3;simplyb/particlebanana/simplyb;"@particlebanana This is a big deal for anyone using mysql or postgres with the latest sails.
 Let's make it explicit then instead of using type coercion tricks.

``` javascript
if(value === null || value === undefined) {
```
 Thanks @particlebanana I've updated the PR.
"
