No;mainline_repo;pr_no;created_at;closed_at;merged_at;repo_origin;repo_destin;pr_owner;no_commenters;pr_commenters;pr_comments
0;bendrucker/hapi-raven;29;2018-01-30T15:51:55Z;2018-01-31T16:04:09Z;2018-01-31T16:04:09Z;guischdi/hapi-raven;bendrucker/hapi-raven;guischdi;1;bendrucker;Cool, this looks good, thanks for touching it up. I'm still not sure about the use of `async`/`await` in the tests, looks like you may be swallowing errors. Those async functions will return rejected promises if something you `await` returns a rejected promise. You can swap in https://www.npmjs.com/package/blue-tape which handles promises returned from the callback to `test`. Should just mean changing the package.json and the `require`, it's otherwise a drop-in.
1;bendrucker/hapi-raven;27;2017-07-21T18:43:29Z;2017-07-21T18:54:58Z;2017-07-21T18:54:58Z;lancespeelmon/hapi-raven;bendrucker/hapi-raven;lancespeelmon;5;bendrucker/lancespeelmon/lancespeelmon/lancespeelmon/bendrucker;"What breaking changes were included in v2? Can you find a link? Well all the tests pass, so no breaking changes? 😄 Let me see if I can find a link... From what I can tell, the major semantic version did not include any breaking changes... 
https://github.com/getsentry/raven-node/blob/master/History.md I see, the change is more of a runtime behavior change, not API change:
* Be aware when upgrading: it is possible that with raven-node 2.0, your node process will shut down from exceptions where it previously did not
 Yeah to me that's enough reason for a breaking release here"
