No;mainline_repo;pr_no;created_at;closed_at;merged_at;repo_origin;repo_destin;pr_owner;no_commenters;pr_commenters;pr_comments
23;borschik/borschik;2;2013-05-07T20:34:36Z;2013-05-08T10:26:35Z;2013-05-08T10:26:35Z;tadatuta/borschik;borschik/borschik;tadatuta;2;gurugray/tadatuta;"я бы сосквашил и описал подробнее что сделано
 Это все-таки разные коммиты: один в технологию css, другой в модуль про фриз.

Ну и сделано там буквально то, что написано в коммит-мессаджах: один коммит экранирует обратные слеши в регекспе, второй реплейсит. Вынес этот же текст в описание пулл-реквеста.
"
