No;mainline_repo;pr_no;created_at;closed_at;merged_at;repo_origin;repo_destin;pr_owner;no_commenters;pr_commenters;pr_comments
13;buehler/node-typescript-parser;62;2018-04-04T11:25:36Z;2018-04-04T11:45:13Z;2018-04-04T11:45:13Z;buehler/node-typescript-parser;buehler/node-typescript-parser;buehler;1;codecov-io;"# [Codecov](https://codecov.io/gh/buehler/node-typescript-parser/pull/62?src=pr&el=h1) Report
> Merging [#62](https://codecov.io/gh/buehler/node-typescript-parser/pull/62?src=pr&el=desc) into [master](https://codecov.io/gh/buehler/node-typescript-parser/commit/3cf2a6cccd39b5560d564b6d0354c9b8497af69a?src=pr&el=desc) will **increase** coverage by `0.15%`.
> The diff coverage is `n/a`.

[![Impacted file tree graph](https://codecov.io/gh/buehler/node-typescript-parser/pull/62/graphs/tree.svg?src=pr&token=MED91wP2va&width=650&height=150)](https://codecov.io/gh/buehler/node-typescript-parser/pull/62?src=pr&el=tree)

```diff
@@            Coverage Diff             @@
##           master      #62      +/-   ##
==========================================
+ Coverage   89.32%   89.47%   +0.15%     
==========================================
  Files          62       63       +1     
  Lines         927      941      +14     
  Branches      182      184       +2     
==========================================
+ Hits          828      842      +14     
  Misses         92       92              
  Partials        7        7
```


| [Impacted Files](https://codecov.io/gh/buehler/node-typescript-parser/pull/62?src=pr&el=tree) | Coverage Δ | |
|---|---|---|
| [src/TypescriptParser.ts](https://codecov.io/gh/buehler/node-typescript-parser/pull/62/diff?src=pr&el=tree#diff-c3JjL1R5cGVzY3JpcHRQYXJzZXIudHM=) | `87.14% <ø> (+1.2%)` | :arrow_up: |
| [src/node-parser/traverse-ast.ts](https://codecov.io/gh/buehler/node-typescript-parser/pull/62/diff?src=pr&el=tree#diff-c3JjL25vZGUtcGFyc2VyL3RyYXZlcnNlLWFzdC50cw==) | `100% <ø> (ø)` | |
| [src/DeclarationIndex.ts](https://codecov.io/gh/buehler/node-typescript-parser/pull/62/diff?src=pr&el=tree#diff-c3JjL0RlY2xhcmF0aW9uSW5kZXgudHM=) | `83.75% <ø> (+0.1%)` | :arrow_up: |

------

[Continue to review full report at Codecov](https://codecov.io/gh/buehler/node-typescript-parser/pull/62?src=pr&el=continue).
> **Legend** - [Click here to learn more](https://docs.codecov.io/docs/codecov-delta)
> `Δ = absolute <relative> (impact)`, `ø = not affected`, `? = missing data`
> Powered by [Codecov](https://codecov.io/gh/buehler/node-typescript-parser/pull/62?src=pr&el=footer). Last update [3cf2a6c...dbef94d](https://codecov.io/gh/buehler/node-typescript-parser/pull/62?src=pr&el=lastupdated). Read the [comment docs](https://docs.codecov.io/docs/pull-request-comments).
"
14;buehler/node-typescript-parser;61;2018-04-04T11:18:58Z;2018-04-04T11:25:14Z;2018-04-04T11:25:14Z;buehler/node-typescript-parser;buehler/node-typescript-parser;buehler;1;codecov-io;"# [Codecov](https://codecov.io/gh/buehler/node-typescript-parser/pull/61?src=pr&el=h1) Report
> Merging [#61](https://codecov.io/gh/buehler/node-typescript-parser/pull/61?src=pr&el=desc) into [develop](https://codecov.io/gh/buehler/node-typescript-parser/commit/7ab7198fc37f33c3cb7a9c62263bb7ec569a1cee?src=pr&el=desc) will **increase** coverage by `0.01%`.
> The diff coverage is `n/a`.

[![Impacted file tree graph](https://codecov.io/gh/buehler/node-typescript-parser/pull/61/graphs/tree.svg?token=MED91wP2va&width=650&height=150&src=pr)](https://codecov.io/gh/buehler/node-typescript-parser/pull/61?src=pr&el=tree)

```diff
@@             Coverage Diff             @@
##           develop      #61      +/-   ##
===========================================
+ Coverage    89.46%   89.47%   +0.01%     
===========================================
  Files           63       63              
  Lines          940      941       +1     
  Branches       166      166              
===========================================
+ Hits           841      842       +1     
  Misses          92       92              
  Partials         7        7
```


| [Impacted Files](https://codecov.io/gh/buehler/node-typescript-parser/pull/61?src=pr&el=tree) | Coverage Δ | |
|---|---|---|
| [src/DeclarationIndex.ts](https://codecov.io/gh/buehler/node-typescript-parser/pull/61/diff?src=pr&el=tree#diff-c3JjL0RlY2xhcmF0aW9uSW5kZXgudHM=) | `83.75% <ø> (+0.1%)` | :arrow_up: |
| [src/TypescriptParser.ts](https://codecov.io/gh/buehler/node-typescript-parser/pull/61/diff?src=pr&el=tree#diff-c3JjL1R5cGVzY3JpcHRQYXJzZXIudHM=) | `87.14% <ø> (ø)` | :arrow_up: |
| [src/node-parser/traverse-ast.ts](https://codecov.io/gh/buehler/node-typescript-parser/pull/61/diff?src=pr&el=tree#diff-c3JjL25vZGUtcGFyc2VyL3RyYXZlcnNlLWFzdC50cw==) | `100% <ø> (ø)` | :arrow_up: |

------

[Continue to review full report at Codecov](https://codecov.io/gh/buehler/node-typescript-parser/pull/61?src=pr&el=continue).
> **Legend** - [Click here to learn more](https://docs.codecov.io/docs/codecov-delta)
> `Δ = absolute <relative> (impact)`, `ø = not affected`, `? = missing data`
> Powered by [Codecov](https://codecov.io/gh/buehler/node-typescript-parser/pull/61?src=pr&el=footer). Last update [7ab7198...fef3074](https://codecov.io/gh/buehler/node-typescript-parser/pull/61?src=pr&el=lastupdated). Read the [comment docs](https://docs.codecov.io/docs/pull-request-comments).
"
15;buehler/node-typescript-parser;58;2018-03-13T15:20:36Z;2018-04-04T11:03:23Z;2018-04-04T11:03:23Z;maennchen/node-typescript-parser;buehler/node-typescript-parser;maennchen;1;codecov-io;"# [Codecov](https://codecov.io/gh/buehler/node-typescript-parser/pull/58?src=pr&el=h1) Report
> Merging [#58](https://codecov.io/gh/buehler/node-typescript-parser/pull/58?src=pr&el=desc) into [develop](https://codecov.io/gh/buehler/node-typescript-parser/commit/3646355d544f3cc27bcd02e0f2dfe78d61316d70?src=pr&el=desc) will **increase** coverage by `0.04%`.
> The diff coverage is `100%`.

[![Impacted file tree graph](https://codecov.io/gh/buehler/node-typescript-parser/pull/58/graphs/tree.svg?token=MED91wP2va&src=pr&height=150&width=650)](https://codecov.io/gh/buehler/node-typescript-parser/pull/58?src=pr&el=tree)

```diff
@@             Coverage Diff             @@
##           develop      #58      +/-   ##
===========================================
+ Coverage    89.32%   89.36%   +0.04%     
===========================================
  Files           62       63       +1     
  Lines          927      940      +13     
  Branches       164      166       +2     
===========================================
+ Hits           828      840      +12     
- Misses          92       93       +1     
  Partials         7        7
```


| [Impacted Files](https://codecov.io/gh/buehler/node-typescript-parser/pull/58?src=pr&el=tree) | Coverage Δ | |
|---|---|---|
| [src/node-parser/traverse-ast.ts](https://codecov.io/gh/buehler/node-typescript-parser/pull/58/diff?src=pr&el=tree#diff-c3JjL25vZGUtcGFyc2VyL3RyYXZlcnNlLWFzdC50cw==) | `100% <100%> (ø)` | |
| [src/TypescriptParser.ts](https://codecov.io/gh/buehler/node-typescript-parser/pull/58/diff?src=pr&el=tree#diff-c3JjL1R5cGVzY3JpcHRQYXJzZXIudHM=) | `87.14% <100%> (+1.2%)` | :arrow_up: |
| [src/utilities/PathHelpers.ts](https://codecov.io/gh/buehler/node-typescript-parser/pull/58/diff?src=pr&el=tree#diff-c3JjL3V0aWxpdGllcy9QYXRoSGVscGVycy50cw==) | `91.66% <0%> (-8.34%)` | :arrow_down: |

------

[Continue to review full report at Codecov](https://codecov.io/gh/buehler/node-typescript-parser/pull/58?src=pr&el=continue).
> **Legend** - [Click here to learn more](https://docs.codecov.io/docs/codecov-delta)
> `Δ = absolute <relative> (impact)`, `ø = not affected`, `? = missing data`
> Powered by [Codecov](https://codecov.io/gh/buehler/node-typescript-parser/pull/58?src=pr&el=footer). Last update [3646355...1af5b46](https://codecov.io/gh/buehler/node-typescript-parser/pull/58?src=pr&el=lastupdated). Read the [comment docs](https://docs.codecov.io/docs/pull-request-comments).
"
16;buehler/node-typescript-parser;57;2018-03-11T04:27:14Z;2018-03-27T07:48:28Z;2018-03-27T07:48:28Z;nan;buehler/node-typescript-parser;rozzzly;1;codecov-io;"# [Codecov](https://codecov.io/gh/buehler/node-typescript-parser/pull/57?src=pr&el=h1) Report
> Merging [#57](https://codecov.io/gh/buehler/node-typescript-parser/pull/57?src=pr&el=desc) into [develop](https://codecov.io/gh/buehler/node-typescript-parser/commit/919947b1c585d4c54579866632603d675fbb1460?src=pr&el=desc) will **not change** coverage.
> The diff coverage is `n/a`.

[![Impacted file tree graph](https://codecov.io/gh/buehler/node-typescript-parser/pull/57/graphs/tree.svg?src=pr&width=650&token=MED91wP2va&height=150)](https://codecov.io/gh/buehler/node-typescript-parser/pull/57?src=pr&el=tree)

```diff
@@           Coverage Diff            @@
##           develop      #57   +/-   ##
========================================
  Coverage    89.32%   89.32%           
========================================
  Files           62       62           
  Lines          927      927           
  Branches       164      164           
========================================
  Hits           828      828           
  Misses          92       92           
  Partials         7        7
```



------

[Continue to review full report at Codecov](https://codecov.io/gh/buehler/node-typescript-parser/pull/57?src=pr&el=continue).
> **Legend** - [Click here to learn more](https://docs.codecov.io/docs/codecov-delta)
> `Δ = absolute <relative> (impact)`, `ø = not affected`, `? = missing data`
> Powered by [Codecov](https://codecov.io/gh/buehler/node-typescript-parser/pull/57?src=pr&el=footer). Last update [919947b...7ae85bf](https://codecov.io/gh/buehler/node-typescript-parser/pull/57?src=pr&el=lastupdated). Read the [comment docs](https://docs.codecov.io/docs/pull-request-comments).
"
17;buehler/node-typescript-parser;55;2018-03-09T10:51:54Z;2018-03-10T10:42:56Z;2018-03-10T10:42:56Z;buehler/node-typescript-parser;buehler/node-typescript-parser;greenkeeper[bot];1;codecov-io;"# [Codecov](https://codecov.io/gh/buehler/node-typescript-parser/pull/55?src=pr&el=h1) Report
> Merging [#55](https://codecov.io/gh/buehler/node-typescript-parser/pull/55?src=pr&el=desc) into [develop](https://codecov.io/gh/buehler/node-typescript-parser/commit/851513a5889639d538c0bd7d9cac249d159bb3c9?src=pr&el=desc) will **increase** coverage by `0.1%`.
> The diff coverage is `n/a`.

[![Impacted file tree graph](https://codecov.io/gh/buehler/node-typescript-parser/pull/55/graphs/tree.svg?width=650&src=pr&token=MED91wP2va&height=150)](https://codecov.io/gh/buehler/node-typescript-parser/pull/55?src=pr&el=tree)

```diff
@@            Coverage Diff             @@
##           develop      #55     +/-   ##
==========================================
+ Coverage    89.21%   89.32%   +0.1%     
==========================================
  Files           62       62             
  Lines          927      927             
  Branches       182      164     -18     
==========================================
+ Hits           827      828      +1     
+ Misses          93       92      -1     
  Partials         7        7
```


| [Impacted Files](https://codecov.io/gh/buehler/node-typescript-parser/pull/55?src=pr&el=tree) | Coverage Δ | |
|---|---|---|
| [src/utilities/PathHelpers.ts](https://codecov.io/gh/buehler/node-typescript-parser/pull/55/diff?src=pr&el=tree#diff-c3JjL3V0aWxpdGllcy9QYXRoSGVscGVycy50cw==) | `100% <0%> (+8.33%)` | :arrow_up: |

------

[Continue to review full report at Codecov](https://codecov.io/gh/buehler/node-typescript-parser/pull/55?src=pr&el=continue).
> **Legend** - [Click here to learn more](https://docs.codecov.io/docs/codecov-delta)
> `Δ = absolute <relative> (impact)`, `ø = not affected`, `? = missing data`
> Powered by [Codecov](https://codecov.io/gh/buehler/node-typescript-parser/pull/55?src=pr&el=footer). Last update [851513a...4ec821e](https://codecov.io/gh/buehler/node-typescript-parser/pull/55?src=pr&el=lastupdated). Read the [comment docs](https://docs.codecov.io/docs/pull-request-comments).
"
18;buehler/node-typescript-parser;54;2018-03-06T13:36:27Z;2018-03-06T13:40:48Z;2018-03-06T13:40:48Z;buehler/node-typescript-parser;buehler/node-typescript-parser;buehler;1;buehler;@shobhitg I had to revert the recursion. I updated the extension (typescript hero) and the indexing process took forever and never stopped indexing. There are some errors in the code.
19;buehler/node-typescript-parser;53;2018-03-05T08:28:35Z;2018-03-05T08:35:42Z;2018-03-05T08:35:42Z;buehler/node-typescript-parser;buehler/node-typescript-parser;buehler;1;codecov-io;"# [Codecov](https://codecov.io/gh/buehler/node-typescript-parser/pull/53?src=pr&el=h1) Report
> :exclamation: No coverage uploaded for pull request base (`master@ec573e6`). [Click here to learn what that means](https://docs.codecov.io/docs/error-reference#section-missing-base-commit).
> The diff coverage is `91.42%`.

[![Impacted file tree graph](https://codecov.io/gh/buehler/node-typescript-parser/pull/53/graphs/tree.svg?width=650&height=150&src=pr&token=MED91wP2va)](https://codecov.io/gh/buehler/node-typescript-parser/pull/53?src=pr&el=tree)

```diff
@@            Coverage Diff            @@
##             master      #53   +/-   ##
=========================================
  Coverage          ?   89.41%           
=========================================
  Files             ?       62           
  Lines             ?      935           
  Branches          ?      182           
=========================================
  Hits              ?      836           
  Misses            ?       92           
  Partials          ?        7
```


| [Impacted Files](https://codecov.io/gh/buehler/node-typescript-parser/pull/53?src=pr&el=tree) | Coverage Δ | |
|---|---|---|
| [test/testUtilities.ts](https://codecov.io/gh/buehler/node-typescript-parser/pull/53/diff?src=pr&el=tree#diff-dGVzdC90ZXN0VXRpbGl0aWVzLnRz) | `100% <ø> (ø)` | |
| [src/node-parser/class-parser.ts](https://codecov.io/gh/buehler/node-typescript-parser/pull/53/diff?src=pr&el=tree#diff-c3JjL25vZGUtcGFyc2VyL2NsYXNzLXBhcnNlci50cw==) | `85.91% <ø> (ø)` | |
| [src/resources/File.ts](https://codecov.io/gh/buehler/node-typescript-parser/pull/53/diff?src=pr&el=tree#diff-c3JjL3Jlc291cmNlcy9GaWxlLnRz) | `77.77% <0%> (ø)` | |
| [src/resources/Namespace.ts](https://codecov.io/gh/buehler/node-typescript-parser/pull/53/diff?src=pr&el=tree#diff-c3JjL3Jlc291cmNlcy9OYW1lc3BhY2UudHM=) | `47.05% <0%> (ø)` | |
| [src/code-generators/TypescriptGenerationOptions.ts](https://codecov.io/gh/buehler/node-typescript-parser/pull/53/diff?src=pr&el=tree#diff-c3JjL2NvZGUtZ2VuZXJhdG9ycy9UeXBlc2NyaXB0R2VuZXJhdGlvbk9wdGlvbnMudHM=) | `100% <100%> (ø)` | |
| [src/node-parser/export-parser.ts](https://codecov.io/gh/buehler/node-typescript-parser/pull/53/diff?src=pr&el=tree#diff-c3JjL25vZGUtcGFyc2VyL2V4cG9ydC1wYXJzZXIudHM=) | `97.05% <100%> (ø)` | |
| [src/TypescriptParser.ts](https://codecov.io/gh/buehler/node-typescript-parser/pull/53/diff?src=pr&el=tree#diff-c3JjL1R5cGVzY3JpcHRQYXJzZXIudHM=) | `87.5% <100%> (ø)` | |
| [src/resources/Module.ts](https://codecov.io/gh/buehler/node-typescript-parser/pull/53/diff?src=pr&el=tree#diff-c3JjL3Jlc291cmNlcy9Nb2R1bGUudHM=) | `76.47% <100%> (ø)` | |
| [...de-generators/typescript-generators/namedImport.ts](https://codecov.io/gh/buehler/node-typescript-parser/pull/53/diff?src=pr&el=tree#diff-c3JjL2NvZGUtZ2VuZXJhdG9ycy90eXBlc2NyaXB0LWdlbmVyYXRvcnMvbmFtZWRJbXBvcnQudHM=) | `90.19% <90%> (ø)` | |

------

[Continue to review full report at Codecov](https://codecov.io/gh/buehler/node-typescript-parser/pull/53?src=pr&el=continue).
> **Legend** - [Click here to learn more](https://docs.codecov.io/docs/codecov-delta)
> `Δ = absolute <relative> (impact)`, `ø = not affected`, `? = missing data`
> Powered by [Codecov](https://codecov.io/gh/buehler/node-typescript-parser/pull/53?src=pr&el=footer). Last update [ec573e6...7d35a16](https://codecov.io/gh/buehler/node-typescript-parser/pull/53?src=pr&el=lastupdated). Read the [comment docs](https://docs.codecov.io/docs/pull-request-comments).
"
20;buehler/node-typescript-parser;52;2018-03-05T08:18:24Z;2018-03-05T08:26:49Z;2018-03-05T08:26:49Z;buehler/node-typescript-parser;buehler/node-typescript-parser;buehler;1;codecov-io;"# [Codecov](https://codecov.io/gh/buehler/node-typescript-parser/pull/52?src=pr&el=h1) Report
> :exclamation: No coverage uploaded for pull request base (`develop@c0ee825`). [Click here to learn what that means](https://docs.codecov.io/docs/error-reference#section-missing-base-commit).
> The diff coverage is `84.61%`.

[![Impacted file tree graph](https://codecov.io/gh/buehler/node-typescript-parser/pull/52/graphs/tree.svg?width=650&src=pr&token=MED91wP2va&height=150)](https://codecov.io/gh/buehler/node-typescript-parser/pull/52?src=pr&el=tree)

```diff
@@            Coverage Diff             @@
##             develop      #52   +/-   ##
==========================================
  Coverage           ?   89.41%           
==========================================
  Files              ?       62           
  Lines              ?      935           
  Branches           ?      164           
==========================================
  Hits               ?      836           
  Misses             ?       92           
  Partials           ?        7
```


| [Impacted Files](https://codecov.io/gh/buehler/node-typescript-parser/pull/52?src=pr&el=tree) | Coverage Δ | |
|---|---|---|
| [src/node-parser/class-parser.ts](https://codecov.io/gh/buehler/node-typescript-parser/pull/52/diff?src=pr&el=tree#diff-c3JjL25vZGUtcGFyc2VyL2NsYXNzLXBhcnNlci50cw==) | `85.91% <ø> (ø)` | |
| [test/testUtilities.ts](https://codecov.io/gh/buehler/node-typescript-parser/pull/52/diff?src=pr&el=tree#diff-dGVzdC90ZXN0VXRpbGl0aWVzLnRz) | `100% <ø> (ø)` | |
| [src/resources/File.ts](https://codecov.io/gh/buehler/node-typescript-parser/pull/52/diff?src=pr&el=tree#diff-c3JjL3Jlc291cmNlcy9GaWxlLnRz) | `77.77% <0%> (ø)` | |
| [src/node-parser/export-parser.ts](https://codecov.io/gh/buehler/node-typescript-parser/pull/52/diff?src=pr&el=tree#diff-c3JjL25vZGUtcGFyc2VyL2V4cG9ydC1wYXJzZXIudHM=) | `97.05% <100%> (ø)` | |
| [...de-generators/typescript-generators/namedImport.ts](https://codecov.io/gh/buehler/node-typescript-parser/pull/52/diff?src=pr&el=tree#diff-c3JjL2NvZGUtZ2VuZXJhdG9ycy90eXBlc2NyaXB0LWdlbmVyYXRvcnMvbmFtZWRJbXBvcnQudHM=) | `90.19% <100%> (ø)` | |

------

[Continue to review full report at Codecov](https://codecov.io/gh/buehler/node-typescript-parser/pull/52?src=pr&el=continue).
> **Legend** - [Click here to learn more](https://docs.codecov.io/docs/codecov-delta)
> `Δ = absolute <relative> (impact)`, `ø = not affected`, `? = missing data`
> Powered by [Codecov](https://codecov.io/gh/buehler/node-typescript-parser/pull/52?src=pr&el=footer). Last update [c0ee825...6dbc1b7](https://codecov.io/gh/buehler/node-typescript-parser/pull/52?src=pr&el=lastupdated). Read the [comment docs](https://docs.codecov.io/docs/pull-request-comments).
"
21;buehler/node-typescript-parser;50;2018-02-06T06:08:22Z;2018-02-26T07:30:48Z;2018-02-26T07:30:48Z;shobhitg/node-typescript-parser;buehler/node-typescript-parser;shobhitg;9;shobhitg/shobhitg/buehler/shobhitg/buehler/shobhitg/shobhitg/shobhitg/shobhitg;"This change will provide code generation support from `typescript-parser`.
I will make another change in `typescript-hero` to use this facility.

But I am not sure how to push it in since I have another pending change request. Once `typescript-hero` consumes this change, this it will also fix buehler/typescript-hero/issues/358 To consume the change, we will release the parser and then we can update it in typescript hero. Afterwards the settings needs to be coded in TSH I think there are some inefficiencies in this file in general. There is some logic we are doing more an once.
I will take some time to re-think and refactor the code.
Also, I will keep buehler/typescript-hero/issues/397 in mind. Thank you so much 🙇 
I'm currently implementing tests for typescript hero. I have made some changes as per what I think are the best set of options.

But I am not very good with tests, I just updated them using the test script.

@buehler Please review and let me know if anything needs improvement, and also see if you can help with tests. Just FIY, the option `oneImportPerLineOnlyAfterThreshold` should be default in `ts-hero` as per legacy behavior. Option `strictlyOneImportPerLine` will take care of buehler/typescript-hero/issues/351 @buehler Can you please review this? Once we are settled with this change, then I would need to make a parallel ts-hero change to make it work with this commit, and once that is reviewed, both can go in together."
22;buehler/node-typescript-parser;44;2017-10-31T10:28:34Z;2017-10-31T12:25:15Z;2017-10-31T12:25:15Z;nan;buehler/node-typescript-parser;rossgardt;1;buehler;Thank you :-)
23;buehler/node-typescript-parser;38;2017-10-28T12:11:01Z;2017-10-28T12:26:24Z;2017-10-28T12:26:24Z;buehler/node-typescript-parser;buehler/node-typescript-parser;buehler;1;buehler;add to appveyor: skip_branch_with_pr: true
24;buehler/node-typescript-parser;37;2017-10-27T01:27:27Z;2017-10-28T11:56:55Z;2017-10-28T11:56:55Z;cspotcode/node-typescript-parser;buehler/node-typescript-parser;cspotcode;5;coveralls/coveralls/buehler/coveralls/coveralls;"
[![Coverage Status](https://coveralls.io/builds/13913637/badge)](https://coveralls.io/builds/13913637)

Coverage remained the same at 85.238% when pulling **6ed0caf358758b3716131d010b621b902ad4fb96 on cspotcode:fix-35** into **43ecda45f9e22b45f042f4e6625804ac82045933 on buehler:develop**.
 
[![Coverage Status](https://coveralls.io/builds/13913637/badge)](https://coveralls.io/builds/13913637)

Coverage remained the same at 85.238% when pulling **6ed0caf358758b3716131d010b621b902ad4fb96 on cspotcode:fix-35** into **43ecda45f9e22b45f042f4e6625804ac82045933 on buehler:develop**.
 So they did fix the #24 ? 
[![Coverage Status](https://coveralls.io/builds/13932633/badge)](https://coveralls.io/builds/13932633)

Coverage remained the same at 85.208% when pulling **3ca579ce736a7da602325ef9ab4d77be5a3299c4 on cspotcode:fix-35** into **0ea36f1372be4c26ce9d14c9e2961c5e17349f9e on buehler:develop**.
 
[![Coverage Status](https://coveralls.io/builds/13933202/badge)](https://coveralls.io/builds/13933202)

Coverage remained the same at 85.208% when pulling **6b165829fcda8a13f4f837c7fec43bf387f4b206 on cspotcode:fix-35** into **bf77662b45829afdeb7fae9230dfe5b1d821b743 on buehler:develop**.
"
25;buehler/node-typescript-parser;36;2017-10-27T01:09:47Z;2017-10-28T08:34:49Z;2017-10-28T08:34:49Z;cspotcode/node-typescript-parser;buehler/node-typescript-parser;cspotcode;3;coveralls/cspotcode/buehler;"
[![Coverage Status](https://coveralls.io/builds/13913506/badge)](https://coveralls.io/builds/13913506)

Coverage decreased (-0.03%) to 85.208% when pulling **882a14821cc5f3282d4f4cc763e387deddef94f3 on cspotcode:feature/windows-support** into **43ecda45f9e22b45f042f4e6625804ac82045933 on buehler:develop**.
 The decrease in code coverage is because there's an if-else block that runs one statement on Windows, the other on Linux and Mac. @cspotcode 
THANK YOU!

I wanted to do this for so long. But never got time for it. 🎉 "
26;buehler/node-typescript-parser;34;2017-10-26T11:16:29Z;2017-10-26T12:19:54Z;2017-10-26T12:19:54Z;buehler/node-typescript-parser;buehler/node-typescript-parser;buehler;3;coveralls/coveralls/coveralls;"
[![Coverage Status](https://coveralls.io/builds/13900231/badge)](https://coveralls.io/builds/13900231)

Coverage decreased (-0.8%) to 85.238% when pulling **43ecda45f9e22b45f042f4e6625804ac82045933 on develop** into **0a74747565a2dff289543728df3f9c44c3e0454d on master**.
 
[![Coverage Status](https://coveralls.io/builds/13900231/badge)](https://coveralls.io/builds/13900231)

Coverage decreased (-0.8%) to 85.238% when pulling **43ecda45f9e22b45f042f4e6625804ac82045933 on develop** into **0a74747565a2dff289543728df3f9c44c3e0454d on master**.
 
[![Coverage Status](https://coveralls.io/builds/13900268/badge)](https://coveralls.io/builds/13900268)

Coverage decreased (-0.8%) to 85.238% when pulling **43ecda45f9e22b45f042f4e6625804ac82045933 on develop** into **0a74747565a2dff289543728df3f9c44c3e0454d on master**.
"
27;buehler/node-typescript-parser;33;2017-10-19T08:33:02Z;2017-10-26T05:28:36Z;2017-10-26T05:28:36Z;shobhitg/node-typescript-parser;buehler/node-typescript-parser;shobhitg;6;shobhitg/shobhitg/shobhitg/shobhitg/buehler/shobhitg;"Can't figure out why some tests are failing. Only 1 test is failing now:

```
FAIL  test/TypescriptParser.spec.ts (21.628s)
  ● TypescriptParser › Specific sources › should parse generics in functions in classes correctly
    expect(value).toMatchSnapshot()
    
    Received value does not match stored snapshot 1.
    
    - Snapshot
    + Received
    
    @@ -4,25 +4,33 @@
            ""accessors"": Array [],
            ""end"": 144,
            ""isExported"": true,
            ""methods"": Array [
              MethodDeclaration {
    -           ""end"": 144,
    +           ""end"": 130,
                ""isAbstract"": false,
                ""name"": ""test"",
                ""parameters"": Array [],
                ""start"": 41,
                ""type"": undefined,
                ""variables"": Array [
                  VariableDeclaration {
    -               ""end"": 144,
    +               ""end"": 112,
                    ""isConst"": false,
                    ""isExported"": false,
                    ""name"": ""a"",
                    ""start"": 77,
                    ""type"": undefined,
                  },
    +             VariableDeclaration {
    +               ""end"": 109,
    +               ""isConst"": false,
    +               ""isExported"": false,
    +               ""name"": ""b"",
    +               ""start"": 96,
    +               ""type"": undefined,
    +             },
                ],
                ""visibility"": 2,
              },
            ],
            ""name"": ""TestClass"",
    @@ -38,10 +46,8 @@
        ""rootPath"": ""/"",
        ""start"": 0,
        ""usages"": Array [
          ""a"",
          ""T"",
    -     ""let"",
    -     undefined,
    -     """",
    +     ""b"",
        ],
      }
```

The code getting parsed is this:
```
export class TestClass {                 public test() {                     let a = <T>() => { let b = null; };                 }             }
```

Clearly the reason for failing is that old snapshot is just incorrect to begin with.
I will update it with the correct result. @buehler 

When possible, can you please review?

I really hope to see Typescript Hero's Organize Imports functionality work correctly soon.
And I believe this fix should do the trick.
Also, you would need to bump up dependency versioning and all that stuff. @buehler Not sure if you have seen this pull request. This definitely fixes the usage array in my repro as described in https://github.com/buehler/typescript-hero/issues/311 @shobhitg 
Can you rerun the build? It seems that coveralls did not report the code coverage, so I can't merge the request @buehler 

How again do I run coveralls?
I just push the commit and `travis` kicks in, but the `coveralls` does not."
28;buehler/node-typescript-parser;30;2017-10-03T05:52:42Z;2017-10-03T05:58:53Z;2017-10-03T05:58:53Z;buehler/node-typescript-parser;buehler/node-typescript-parser;buehler;3;coveralls/coveralls/coveralls;"
[![Coverage Status](https://coveralls.io/builds/13539118/badge)](https://coveralls.io/builds/13539118)

Coverage remained the same at 86.002% when pulling **eb537273cef0c2995e53e04c711c790447b55403 on fix/definitions** into **bf65a392651614b457239dc3721334d44d9c6817 on develop**.
 
[![Coverage Status](https://coveralls.io/builds/13539118/badge)](https://coveralls.io/builds/13539118)

Coverage remained the same at 86.002% when pulling **eb537273cef0c2995e53e04c711c790447b55403 on fix/definitions** into **bf65a392651614b457239dc3721334d44d9c6817 on develop**.
 
[![Coverage Status](https://coveralls.io/builds/13539118/badge)](https://coveralls.io/builds/13539118)

Coverage remained the same at 86.002% when pulling **eb537273cef0c2995e53e04c711c790447b55403 on fix/definitions** into **bf65a392651614b457239dc3721334d44d9c6817 on develop**.
"
29;buehler/node-typescript-parser;29;2017-10-03T05:29:44Z;2017-10-03T05:34:23Z;2017-10-03T05:34:23Z;buehler/node-typescript-parser;buehler/node-typescript-parser;buehler;2;coveralls/coveralls;"
[![Coverage Status](https://coveralls.io/builds/13538928/badge)](https://coveralls.io/builds/13538928)

Coverage increased (+0.8%) to 86.002% when pulling **bf65a392651614b457239dc3721334d44d9c6817 on develop** into **10ef4f782616667e97b024b75eee7111a09e684e on master**.
 
[![Coverage Status](https://coveralls.io/builds/13538945/badge)](https://coveralls.io/builds/13538945)

Coverage increased (+0.8%) to 86.002% when pulling **bf65a392651614b457239dc3721334d44d9c6817 on develop** into **10ef4f782616667e97b024b75eee7111a09e684e on master**.
"
30;buehler/node-typescript-parser;28;2017-10-02T15:28:19Z;2017-10-03T05:23:20Z;2017-10-03T05:23:20Z;buehler/node-typescript-parser;buehler/node-typescript-parser;buehler;6;coveralls/coveralls/coveralls/coveralls/coveralls/coveralls;"
[![Coverage Status](https://coveralls.io/builds/13528032/badge)](https://coveralls.io/builds/13528032)

Coverage increased (+0.6%) to 86.002% when pulling **49426198bf53abf6acb1e77ff774987fb4c35b2c on feat/property-accessors** into **40c6b69876f34979c45bb2bf4bd0ded462abb503 on develop**.
 
[![Coverage Status](https://coveralls.io/builds/13528032/badge)](https://coveralls.io/builds/13528032)

Coverage increased (+0.6%) to 86.002% when pulling **49426198bf53abf6acb1e77ff774987fb4c35b2c on feat/property-accessors** into **40c6b69876f34979c45bb2bf4bd0ded462abb503 on develop**.
 
[![Coverage Status](https://coveralls.io/builds/13528076/badge)](https://coveralls.io/builds/13528076)

Coverage increased (+0.6%) to 86.002% when pulling **49426198bf53abf6acb1e77ff774987fb4c35b2c on feat/property-accessors** into **40c6b69876f34979c45bb2bf4bd0ded462abb503 on develop**.
 
[![Coverage Status](https://coveralls.io/builds/13528229/badge)](https://coveralls.io/builds/13528229)

Coverage increased (+0.6%) to 86.002% when pulling **765be8acedfc5af61a9409c82584390e337f5e06 on feat/property-accessors** into **40c6b69876f34979c45bb2bf4bd0ded462abb503 on develop**.
 
[![Coverage Status](https://coveralls.io/builds/13528229/badge)](https://coveralls.io/builds/13528229)

Coverage increased (+0.6%) to 86.002% when pulling **765be8acedfc5af61a9409c82584390e337f5e06 on feat/property-accessors** into **40c6b69876f34979c45bb2bf4bd0ded462abb503 on develop**.
 
[![Coverage Status](https://coveralls.io/builds/13528229/badge)](https://coveralls.io/builds/13528229)

Coverage increased (+0.6%) to 86.002% when pulling **765be8acedfc5af61a9409c82584390e337f5e06 on feat/property-accessors** into **40c6b69876f34979c45bb2bf4bd0ded462abb503 on develop**.
"
31;buehler/node-typescript-parser;27;2017-10-02T07:15:05Z;2017-10-02T11:39:58Z;2017-10-02T11:39:58Z;buehler/node-typescript-parser;buehler/node-typescript-parser;buehler;3;coveralls/coveralls/coveralls;"
[![Coverage Status](https://coveralls.io/builds/13524269/badge)](https://coveralls.io/builds/13524269)

Coverage increased (+0.2%) to 85.436% when pulling **0c8894f293a09b054427701122c6d323510798e6 on feat/default-import-mixed-parsing** into **fac428714cf527ab03ec607237d804b256990044 on develop**.
 
[![Coverage Status](https://coveralls.io/builds/13524269/badge)](https://coveralls.io/builds/13524269)

Coverage increased (+0.2%) to 85.436% when pulling **0c8894f293a09b054427701122c6d323510798e6 on feat/default-import-mixed-parsing** into **fac428714cf527ab03ec607237d804b256990044 on develop**.
 
[![Coverage Status](https://coveralls.io/builds/13524269/badge)](https://coveralls.io/builds/13524269)

Coverage increased (+0.2%) to 85.436% when pulling **0c8894f293a09b054427701122c6d323510798e6 on feat/default-import-mixed-parsing** into **fac428714cf527ab03ec607237d804b256990044 on develop**.
"
32;buehler/node-typescript-parser;25;2017-09-22T14:08:42Z;2017-09-25T06:39:22Z;2017-09-25T06:39:22Z;buehler/node-typescript-parser;buehler/node-typescript-parser;greenkeeper[bot];2;coveralls/coveralls;"
[![Coverage Status](https://coveralls.io/builds/13389895/badge)](https://coveralls.io/builds/13389895)

Coverage remained the same at 85.195% when pulling **f99bbad09aac2f740c429538e3f717af34219f20 on greenkeeper/@types/jest-21.1.0** into **26cdcf1124aebdb511646d7578bff822b9113b64 on develop**.
 
[![Coverage Status](https://coveralls.io/builds/13389895/badge)](https://coveralls.io/builds/13389895)

Coverage remained the same at 85.195% when pulling **f99bbad09aac2f740c429538e3f717af34219f20 on greenkeeper/@types/jest-21.1.0** into **26cdcf1124aebdb511646d7578bff822b9113b64 on develop**.
"
33;buehler/node-typescript-parser;23;2017-09-19T16:05:26Z;2017-09-19T16:48:05Z;2017-09-19T16:48:05Z;buehler/node-typescript-parser;buehler/node-typescript-parser;buehler;4;coveralls/coveralls/coveralls/coveralls;"
[![Coverage Status](https://coveralls.io/builds/13338114/badge)](https://coveralls.io/builds/13338114)

Coverage decreased (-13.6%) to 71.602% when pulling **6202960a3390fe8f82bc1f8c0b78dc9f8ede861d on develop** into **15c2b1d33da6c2360fc59f400b456807a50740d9 on master**.
 
[![Coverage Status](https://coveralls.io/builds/13338075/badge)](https://coveralls.io/builds/13338075)

Coverage decreased (-13.6%) to 71.602% when pulling **6202960a3390fe8f82bc1f8c0b78dc9f8ede861d on develop** into **15c2b1d33da6c2360fc59f400b456807a50740d9 on master**.
 
[![Coverage Status](https://coveralls.io/builds/13338075/badge)](https://coveralls.io/builds/13338075)

Coverage decreased (-13.6%) to 71.602% when pulling **6202960a3390fe8f82bc1f8c0b78dc9f8ede861d on develop** into **15c2b1d33da6c2360fc59f400b456807a50740d9 on master**.
 
[![Coverage Status](https://coveralls.io/builds/13338765/badge)](https://coveralls.io/builds/13338765)

Coverage remained the same at 85.195% when pulling **26cdcf1124aebdb511646d7578bff822b9113b64 on develop** into **15c2b1d33da6c2360fc59f400b456807a50740d9 on master**.
"
34;buehler/node-typescript-parser;22;2017-09-19T15:59:05Z;2017-09-19T16:05:02Z;2017-09-19T16:05:02Z;buehler/node-typescript-parser;buehler/node-typescript-parser;buehler;1;coveralls;"
[![Coverage Status](https://coveralls.io/builds/13337958/badge)](https://coveralls.io/builds/13337958)

Coverage decreased (-13.6%) to 71.602% when pulling **2ee8edf985734f175871a27b7cfd84faa8cd5f40 on fix/parser-error** into **b61e1b5f4a6d617055a060cbed98d7febc8000f8 on develop**.
"
35;buehler/node-typescript-parser;21;2017-09-18T05:24:43Z;2017-09-18T05:31:46Z;2017-09-18T05:31:46Z;buehler/node-typescript-parser;buehler/node-typescript-parser;buehler;2;coveralls/coveralls;"
[![Coverage Status](https://coveralls.io/builds/13311279/badge)](https://coveralls.io/builds/13311279)

Coverage increased (+0.2%) to 85.195% when pulling **b61e1b5f4a6d617055a060cbed98d7febc8000f8 on develop** into **52974b6759f0f7cc7f0cb869f068cdb48e3a4f53 on master**.
 
[![Coverage Status](https://coveralls.io/builds/13311288/badge)](https://coveralls.io/builds/13311288)

Coverage increased (+0.2%) to 85.195% when pulling **b61e1b5f4a6d617055a060cbed98d7febc8000f8 on develop** into **52974b6759f0f7cc7f0cb869f068cdb48e3a4f53 on master**.
"
36;buehler/node-typescript-parser;20;2017-09-16T23:12:12Z;2017-09-17T17:18:03Z;2017-09-17T17:18:03Z;buehler/node-typescript-parser;buehler/node-typescript-parser;greenkeeper[bot];2;coveralls/coveralls;"
[![Coverage Status](https://coveralls.io/builds/13303423/badge)](https://coveralls.io/builds/13303423)

Coverage remained the same at 82.741% when pulling **609bb1a3a8d748f80190df544322d5a93fd5f3a5 on greenkeeper/semantic-release-8.0.0** into **5c9437a4db1f2e44d30815d1409e43e30f767a02 on develop**.
 
[![Coverage Status](https://coveralls.io/builds/13303423/badge)](https://coveralls.io/builds/13303423)

Coverage remained the same at 82.741% when pulling **609bb1a3a8d748f80190df544322d5a93fd5f3a5 on greenkeeper/semantic-release-8.0.0** into **5c9437a4db1f2e44d30815d1409e43e30f767a02 on develop**.
"
37;buehler/node-typescript-parser;19;2017-09-15T18:56:53Z;2017-09-16T11:14:04Z;2017-09-16T11:14:04Z;naeramarth7/node-typescript-parser;buehler/node-typescript-parser;naeramarth7;3;coveralls/coveralls/buehler;"
[![Coverage Status](https://coveralls.io/builds/13293368/badge)](https://coveralls.io/builds/13293368)

Coverage increased (+0.09%) to 82.741% when pulling **5eed11d81c907d6ce6c7c5a2c50a2ecb29535c60 on naeramarth7:bugfix/imports-ending-with-index** into **32470ff86b9afc536baf9da98024fe52daa5b64f on TypeScript-Heroes:develop**.
 
[![Coverage Status](https://coveralls.io/builds/13294072/badge)](https://coveralls.io/builds/13294072)

Coverage increased (+0.09%) to 82.741% when pulling **6c5a47af1387ada00d33c1f65c0f72a50ecda3aa on naeramarth7:bugfix/imports-ending-with-index** into **32470ff86b9afc536baf9da98024fe52daa5b64f on TypeScript-Heroes:develop**.
 Thank you!"
38;buehler/node-typescript-parser;18;2017-09-05T06:33:05Z;2017-09-08T08:13:25Z;2017-09-08T08:13:25Z;buehler/node-typescript-parser;buehler/node-typescript-parser;greenkeeper[bot];2;coveralls/coveralls;"
[![Coverage Status](https://coveralls.io/builds/13124252/badge)](https://coveralls.io/builds/13124252)

Coverage remained the same at 82.544% when pulling **5b6026e98e10667ec630bfaf48f2995454014d92 on greenkeeper/ts-jest-21.0.0** into **94a68e1fe24fe357b48f008e6a51f2b3ae578f25 on develop**.
 
[![Coverage Status](https://coveralls.io/builds/13124252/badge)](https://coveralls.io/builds/13124252)

Coverage remained the same at 82.544% when pulling **5b6026e98e10667ec630bfaf48f2995454014d92 on greenkeeper/ts-jest-21.0.0** into **94a68e1fe24fe357b48f008e6a51f2b3ae578f25 on develop**.
"
39;buehler/node-typescript-parser;17;2017-09-04T16:18:05Z;2017-09-08T08:19:40Z;2017-09-08T08:19:40Z;buehler/node-typescript-parser;buehler/node-typescript-parser;greenkeeper[bot];5;coveralls/greenkeeper[bot]/coveralls/coveralls/coveralls;"
[![Coverage Status](https://coveralls.io/builds/13118209/badge)](https://coveralls.io/builds/13118209)

Coverage increased (+0.1%) to 82.654% when pulling **0fa1d110b7c3ba35a4129e41294298d222f43253 on greenkeeper/jest-21.0.0** into **94a68e1fe24fe357b48f008e6a51f2b3ae578f25 on develop**.
 ## Version **21.0.1** just got published. 
[Update to this version instead 🚀](https://github.com/TypeScript-Heroes/node-typescript-parser/compare/greenkeeper%2Fjest-21.0.1?expand=1) 
 
[![Coverage Status](https://coveralls.io/builds/13181419/badge)](https://coveralls.io/builds/13181419)

Coverage increased (+0.1%) to 82.654% when pulling **4eeb2e3bfb8642f7c23b47b7503bfb4eeec5eb60 on greenkeeper/jest-21.0.0** into **c3b3cbef642b27f43d5f0d9604f136733ae2b60d on develop**.
 
[![Coverage Status](https://coveralls.io/builds/13181419/badge)](https://coveralls.io/builds/13181419)

Coverage increased (+0.1%) to 82.654% when pulling **4eeb2e3bfb8642f7c23b47b7503bfb4eeec5eb60 on greenkeeper/jest-21.0.0** into **c3b3cbef642b27f43d5f0d9604f136733ae2b60d on develop**.
 
[![Coverage Status](https://coveralls.io/builds/13181419/badge)](https://coveralls.io/builds/13181419)

Coverage increased (+0.1%) to 82.654% when pulling **4eeb2e3bfb8642f7c23b47b7503bfb4eeec5eb60 on greenkeeper/jest-21.0.0** into **c3b3cbef642b27f43d5f0d9604f136733ae2b60d on develop**.
"
40;buehler/node-typescript-parser;16;2017-09-02T05:16:30Z;2017-09-08T08:13:12Z;2017-09-08T08:13:12Z;asvetliakov/node-typescript-parser;buehler/node-typescript-parser;asvetliakov;3;coveralls/coveralls/buehler;"
[![Coverage Status](https://coveralls.io/builds/13098252/badge)](https://coveralls.io/builds/13098252)

Coverage increased (+2.5%) to 85.026% when pulling **c590547e3cd65952a8f1ca9f04d29781ecc48b69 on asvetliakov:master** into **eea9b4724c380b119c4289f478e765e560a24bd5 on TypeScript-Heroes:master**.
 
[![Coverage Status](https://coveralls.io/builds/13098252/badge)](https://coveralls.io/builds/13098252)

Coverage increased (+2.5%) to 85.026% when pulling **c590547e3cd65952a8f1ca9f04d29781ecc48b69 on asvetliakov:master** into **eea9b4724c380b119c4289f478e765e560a24bd5 on TypeScript-Heroes:master**.
 Thank you so much!"
41;buehler/node-typescript-parser;15;2017-08-16T05:42:12Z;2017-08-16T07:46:39Z;2017-08-16T07:46:39Z;buehler/node-typescript-parser;buehler/node-typescript-parser;greenkeeper[bot];2;coveralls/coveralls;"
[![Coverage Status](https://coveralls.io/builds/12853086/badge)](https://coveralls.io/builds/12853086)

Coverage remained the same at 82.544% when pulling **67b8ee8e7b9529d31fb0bf36ec8a27e514c6be3f on greenkeeper/semantic-release-7.0.1** into **694f29e78a5612f19c006a3c7fadd098af8b6780 on develop**.
 
[![Coverage Status](https://coveralls.io/builds/12853086/badge)](https://coveralls.io/builds/12853086)

Coverage remained the same at 82.544% when pulling **67b8ee8e7b9529d31fb0bf36ec8a27e514c6be3f on greenkeeper/semantic-release-7.0.1** into **694f29e78a5612f19c006a3c7fadd098af8b6780 on develop**.
"
42;buehler/node-typescript-parser;14;2017-08-09T15:09:26Z;2017-08-09T15:20:17Z;2017-08-09T15:20:17Z;buehler/node-typescript-parser;buehler/node-typescript-parser;buehler;3;coveralls/coveralls/coveralls;"
[![Coverage Status](https://coveralls.io/builds/12762440/badge)](https://coveralls.io/builds/12762440)

Coverage increased (+1.3%) to 82.544% when pulling **694f29e78a5612f19c006a3c7fadd098af8b6780 on develop** into **5a528a025f253845e5f73811efa81e9ee6192aee on master**.
 
[![Coverage Status](https://coveralls.io/builds/12762510/badge)](https://coveralls.io/builds/12762510)

Coverage increased (+1.3%) to 82.544% when pulling **694f29e78a5612f19c006a3c7fadd098af8b6780 on develop** into **5a528a025f253845e5f73811efa81e9ee6192aee on master**.
 
[![Coverage Status](https://coveralls.io/builds/12762510/badge)](https://coveralls.io/builds/12762510)

Coverage increased (+1.3%) to 82.544% when pulling **694f29e78a5612f19c006a3c7fadd098af8b6780 on develop** into **5a528a025f253845e5f73811efa81e9ee6192aee on master**.
"
43;buehler/node-typescript-parser;13;2017-08-09T14:55:47Z;2017-08-09T15:02:08Z;2017-08-09T15:02:08Z;buehler/node-typescript-parser;buehler/node-typescript-parser;buehler;1;coveralls;"
[![Coverage Status](https://coveralls.io/builds/12762189/badge)](https://coveralls.io/builds/12762189)

Coverage increased (+0.4%) to 82.544% when pulling **bd6ba9f14a64e10bca0ca0b24d2b6d0a328c3161 on feat/js-parsing** into **aefa0f8fd0bebffae8df0aa134a191f53a94c162 on develop**.
"
44;buehler/node-typescript-parser;12;2017-08-09T07:01:45Z;2017-08-09T07:10:54Z;2017-08-09T07:10:54Z;buehler/node-typescript-parser;buehler/node-typescript-parser;buehler;2;coveralls/coveralls;"
[![Coverage Status](https://coveralls.io/builds/12756037/badge)](https://coveralls.io/builds/12756037)

Coverage increased (+0.8%) to 82.146% when pulling **47ee901a1269fd8e1bb71c2741bcd875dbbb266a on fix/recognize-tsx-function-calls** into **f3ea09d033cfb62a3540991800baa379e3911df3 on develop**.
 
[![Coverage Status](https://coveralls.io/builds/12756063/badge)](https://coveralls.io/builds/12756063)

Coverage increased (+0.8%) to 82.146% when pulling **47ee901a1269fd8e1bb71c2741bcd875dbbb266a on fix/recognize-tsx-function-calls** into **f3ea09d033cfb62a3540991800baa379e3911df3 on develop**.
"
45;buehler/node-typescript-parser;11;2017-08-08T15:29:53Z;2017-08-08T15:42:56Z;2017-08-08T15:42:56Z;buehler/node-typescript-parser;buehler/node-typescript-parser;buehler;1;coveralls;"
[![Coverage Status](https://coveralls.io/builds/12744939/badge)](https://coveralls.io/builds/12744939)

Coverage increased (+0.08%) to 81.354% when pulling **bc3363f930815d73726e45fc9008be37813c4e19 on fix/empty-import-generation** into **5860f4a3d4452b8c662094ada516c2f5b692232e on develop**.
"
46;buehler/node-typescript-parser;10;2017-07-27T17:27:39Z;2017-07-28T08:07:19Z;2017-07-28T08:07:19Z;buehler/node-typescript-parser;buehler/node-typescript-parser;greenkeeper[bot];1;coveralls;"
[![Coverage Status](https://coveralls.io/builds/12580776/badge)](https://coveralls.io/builds/12580776)

Coverage remained the same at 81.272% when pulling **9d162d0b810fc70d9c68f68470b2bb986aad608e on greenkeeper/typedoc-0.8.0** into **d43ca86f0d5dc9d6cd9030630837e58bd94954e1 on develop**.
"
47;buehler/node-typescript-parser;9;2017-07-15T11:30:20Z;2017-07-15T11:44:00Z;2017-07-15T11:44:00Z;buehler/node-typescript-parser;buehler/node-typescript-parser;buehler;2;coveralls/coveralls;"
[![Coverage Status](https://coveralls.io/builds/12406956/badge)](https://coveralls.io/builds/12406956)

Coverage increased (+1.7%) to 81.272% when pulling **d43ca86f0d5dc9d6cd9030630837e58bd94954e1 on develop** into **ec54f6918eec501c12f00b1161a46ec3d0ceacc1 on master**.
 
[![Coverage Status](https://coveralls.io/builds/12406985/badge)](https://coveralls.io/builds/12406985)

Coverage increased (+1.7%) to 81.272% when pulling **d43ca86f0d5dc9d6cd9030630837e58bd94954e1 on develop** into **ec54f6918eec501c12f00b1161a46ec3d0ceacc1 on master**.
"
48;buehler/node-typescript-parser;8;2017-07-15T11:24:45Z;2017-07-15T11:30:00Z;2017-07-15T11:30:00Z;buehler/node-typescript-parser;buehler/node-typescript-parser;buehler;3;coveralls/coveralls/coveralls;"
[![Coverage Status](https://coveralls.io/builds/12406933/badge)](https://coveralls.io/builds/12406933)

Coverage increased (+1.4%) to 81.272% when pulling **9d3cf8dffd5615e22562f390213dfd519a3158c8 on fix/is-new-on-imports** into **06fc66a5d9ff989461c50f9d81e7dc0e5305c86f on develop**.
 
[![Coverage Status](https://coveralls.io/builds/12406933/badge)](https://coveralls.io/builds/12406933)

Coverage increased (+1.4%) to 81.272% when pulling **9d3cf8dffd5615e22562f390213dfd519a3158c8 on fix/is-new-on-imports** into **06fc66a5d9ff989461c50f9d81e7dc0e5305c86f on develop**.
 
[![Coverage Status](https://coveralls.io/builds/12406933/badge)](https://coveralls.io/builds/12406933)

Coverage increased (+1.4%) to 81.272% when pulling **9d3cf8dffd5615e22562f390213dfd519a3158c8 on fix/is-new-on-imports** into **06fc66a5d9ff989461c50f9d81e7dc0e5305c86f on develop**.
"
49;buehler/node-typescript-parser;7;2017-07-14T23:25:08Z;2017-07-14T23:29:27Z;2017-07-14T23:29:27Z;buehler/node-typescript-parser;buehler/node-typescript-parser;buehler;1;coveralls;"
[![Coverage Status](https://coveralls.io/builds/12404192/badge)](https://coveralls.io/builds/12404192)

Coverage increased (+0.3%) to 79.84% when pulling **c87edb37af2e2b6013b7bc8e3cb6539c115b0436 on feature/recognize-tsx-elements** into **360503e2b2eb623ebb3356c5831ff1d316809999 on develop**.
"
50;buehler/node-typescript-parser;5;2017-07-11T05:51:25Z;2017-07-11T05:58:01Z;2017-07-11T05:58:01Z;buehler/node-typescript-parser;buehler/node-typescript-parser;buehler;2;coveralls/coveralls;"
[![Coverage Status](https://coveralls.io/builds/12335454/badge)](https://coveralls.io/builds/12335454)

Coverage remained the same at 79.574% when pulling **360503e2b2eb623ebb3356c5831ff1d316809999 on develop** into **8c3751b48003efbb28aed82d3b83c74fe4ca3e3b on master**.
 
[![Coverage Status](https://coveralls.io/builds/12335477/badge)](https://coveralls.io/builds/12335477)

Coverage remained the same at 79.574% when pulling **360503e2b2eb623ebb3356c5831ff1d316809999 on develop** into **8c3751b48003efbb28aed82d3b83c74fe4ca3e3b on master**.
"
51;buehler/node-typescript-parser;4;2017-07-10T06:58:04Z;2017-07-10T07:14:26Z;2017-07-10T07:14:26Z;buehler/node-typescript-parser;buehler/node-typescript-parser;buehler;2;coveralls/coveralls;"
[![Coverage Status](https://coveralls.io/builds/12317876/badge)](https://coveralls.io/builds/12317876)

Coverage increased (+4.6%) to 79.574% when pulling **c075a66a0b2e3dbcc9cbeba6aed8e67f58531a04 on develop** into **3fcea1677051e6fa05369759355f1477be7c5727 on master**.
 
[![Coverage Status](https://coveralls.io/builds/12317876/badge)](https://coveralls.io/builds/12317876)

Coverage increased (+4.6%) to 79.574% when pulling **c075a66a0b2e3dbcc9cbeba6aed8e67f58531a04 on develop** into **3fcea1677051e6fa05369759355f1477be7c5727 on master**.
"
52;buehler/node-typescript-parser;3;2017-07-10T06:51:09Z;2017-07-10T06:57:33Z;2017-07-10T06:57:33Z;buehler/node-typescript-parser;buehler/node-typescript-parser;buehler;1;coveralls;"
[![Coverage Status](https://coveralls.io/builds/12317797/badge)](https://coveralls.io/builds/12317797)

Coverage remained the same at 79.574% when pulling **0715e46a912c805f3aaf7d66567f5e122b75c46d on chore/fix-semantic-release-notes** into **ec96b701f87d7ab8e65dbe77127ccb7217029e79 on develop**.
"
53;buehler/node-typescript-parser;2;2017-07-07T15:50:12Z;2017-07-07T16:02:24Z;2017-07-07T16:02:24Z;buehler/node-typescript-parser;buehler/node-typescript-parser;buehler;4;coveralls/coveralls/coveralls/coveralls;"
[![Coverage Status](https://coveralls.io/builds/12296757/badge)](https://coveralls.io/builds/12296757)

Coverage increased (+4.6%) to 79.574% when pulling **df13917974e8d174582c7b2fe188db8ec3dd6b74 on feature/delta-index** into **fae23f26f702f8f41d7b23c13aa45b89c5d21d36 on develop**.
 
[![Coverage Status](https://coveralls.io/builds/12296795/badge)](https://coveralls.io/builds/12296795)

Coverage increased (+4.6%) to 79.574% when pulling **df13917974e8d174582c7b2fe188db8ec3dd6b74 on feature/delta-index** into **fae23f26f702f8f41d7b23c13aa45b89c5d21d36 on develop**.
 
[![Coverage Status](https://coveralls.io/builds/12296795/badge)](https://coveralls.io/builds/12296795)

Coverage increased (+4.6%) to 79.574% when pulling **df13917974e8d174582c7b2fe188db8ec3dd6b74 on feature/delta-index** into **fae23f26f702f8f41d7b23c13aa45b89c5d21d36 on develop**.
 
[![Coverage Status](https://coveralls.io/builds/12296843/badge)](https://coveralls.io/builds/12296843)

Coverage increased (+4.6%) to 79.574% when pulling **721005ee58cf75b7adf29bff7659f98979c98bd9 on feature/delta-index** into **fae23f26f702f8f41d7b23c13aa45b89c5d21d36 on develop**.
"
54;buehler/node-typescript-parser;1;2017-07-06T06:09:57Z;2017-07-06T06:46:30Z;2017-07-06T06:46:30Z;buehler/node-typescript-parser;buehler/node-typescript-parser;greenkeeper[bot];3;coveralls/coveralls/coveralls;"
[![Coverage Status](https://coveralls.io/builds/12271098/badge)](https://coveralls.io/builds/12271098)

Coverage remained the same at 75.023% when pulling **7500704e8b1618a3e1ff4b8f660c8c464ed3d018 on greenkeeper/initial** into **2175ff62526087d1885a787006e396a3ffee3497 on develop**.
 
[![Coverage Status](https://coveralls.io/builds/12271098/badge)](https://coveralls.io/builds/12271098)

Coverage remained the same at 75.023% when pulling **7500704e8b1618a3e1ff4b8f660c8c464ed3d018 on greenkeeper/initial** into **2175ff62526087d1885a787006e396a3ffee3497 on develop**.
 
[![Coverage Status](https://coveralls.io/builds/12271150/badge)](https://coveralls.io/builds/12271150)

Coverage remained the same at 75.023% when pulling **d7a7fd9587ca283bc22b0f4835541d3f21d19851 on greenkeeper/initial** into **2175ff62526087d1885a787006e396a3ffee3497 on develop**.
"
