No;mainline_repo;pr_no;created_at;closed_at;merged_at;repo_origin;repo_destin;pr_owner;no_commenters;pr_commenters;pr_comments
0;Epharmix/Toureiro;17;2017-05-02T10:42:18Z;2017-05-02T14:08:44Z;2017-05-02T14:08:44Z;nan;Epharmix/Toureiro;FaHeymann;1;evanhuang8;Thanks, will merge
1;Epharmix/Toureiro;12;2016-12-02T02:24:19Z;2016-12-09T15:31:47Z;2016-12-09T15:31:47Z;alecl/Toureiro;Epharmix/Toureiro;alecl;3;alecl/alecl/evanhuang8;"Upgrade express and since jade is no longer updated moved to pug to address these:

```
$ nsp check --output json
[
  {
    ""id"": 48,
    ""updated_at"": ""2016-04-21T00:15:04.000Z"",
    ""created_at"": ""2015-10-24T17:58:34.232Z"",
    ""publish_date"": ""2015-10-24T21:01:32.155Z"",
    ""overview"": ""uglify-js is vulnerable to regular expression denial of service (ReDoS) when certain types of input is passed into .parse().\n\n\""The Regular expression Denial of Service (ReDoS) is a Denial of Service attack, that exploits the fact that most Regular Expression implementations may reach extreme situations that cause them to work very slowly (exponentially related to input size). An attacker can then cause a program using a Regular Expression to enter these extreme situations and then hang for a very long time.\"" [1]\n\n### Proof of Concept\n\n```\nvar u = require('uglify-js');\nvar genstr = function (len, chr) {\n    var result = \""\"";\n    for (i=0; i<=len; i++) {\n        result = result + chr;\n    }\n\n    return result;\n}\n\nu.parse(\""var a = \"" + genstr(process.argv[2], \""1\"") + \"".1ee7;\"");\n```\n\n### Results\n```\n$ time node test.js 10000\nreal\t0m1.091s\nuser\t0m1.047s\nsys\t0m0.039s\n\n$ time node test.js 80000\nreal\t0m6.486s\nuser\t0m6.229s\nsys\t0m0.094s\n```"",
    ""recommendation"": ""Update to version 2.6.0 or later"",
    ""cvss_vector"": ""CVSS:3.0/AV:N/AC:L/PR:N/UI:N/S:U/C:N/I:N/A:L"",
    ""cvss_score"": 5.3,
    ""module"": ""uglify-js"",
    ""version"": ""2.2.5"",
    ""vulnerable_versions"": ""<2.6.0"",
    ""patched_versions"": "">=2.6.0"",
    ""title"": ""Regular Expression Denial of Service"",
    ""path"": [
      ""nodejs-skeleton-project@1.0.0"",
      ""toureiro@0.2.12"",
      ""jade@1.11.0"",
      ""transformers@2.1.0"",
      ""uglify-js@2.2.5""
    ],
    ""advisory"": ""https://nodesecurity.io/advisories/48""
  },
  {
    ""id"": 39,
    ""updated_at"": ""2016-04-28T17:22:23.000Z"",
    ""created_at"": ""2015-10-17T19:41:46.382Z"",
    ""publish_date"": ""2015-08-24T19:29:10.000Z"",
    ""overview"": ""[Tom MacWright](https://github.com/mishoo/UglifyJS2/issues/751) discovered that UglifyJS versions 2.4.23 and earlier are affected by a vulnerability which allows a specially crafted Javascript file to have altered functionality after minification. This bug was [demonstrated](https://zyan.scripts.mit.edu/blog/backdooring-js/) by [Yan](https://twitter.com/bcrypt) to allow potentially malicious code to be hidden within secure code, activated by minification.\n\n\n### Details:\n\nIn Boolean algebra, DeMorgan's laws describe the relationships between conjunctions ( && ), disjunctions ( || ) and negations ( ! ).\nIn Javascript form, they state that:\n !(a && b) === (!a) || (!b)\n !(a || b) === (!a) && (!b)\n\nThe law does not hold true when one of the values is not a boolean however.\n\nVulnerable versions of UglifyJS do not account for this restriction, and erroneously apply the laws to a statement if it can be reduced in length by it.\n\nConsider this authentication function:\n\n```\nfunction isTokenValid(user) {\n    var timeLeft =\n        !!config && // config object exists\n        !!user.token && // user object has a token\n        !user.token.invalidated && // token is not explicitly invalidated\n        !config.uninitialized && // config is initialized\n        !config.ignoreTimestamps && // don't ignore timestamps\n        getTimeLeft(user.token.expiry); // > 0 if expiration is in the future\n\n    // The token must not be expired\n    return timeLeft > 0;\n}\n\nfunction getTimeLeft(expiry) {\n  return expiry - getSystemTime();\n}\n```\nWhen minified with a vulnerable version of UglifyJS, it will produce the following insecure output, where a token will never expire:\n\n( Formatted for readability )\n\n```\nfunction isTokenValid(user) {\n    var timeLeft = !(                       // negation\n        !config                             // config object does not exist\n        || !user.token                      // user object does not have a token\n        || user.token.invalidated           // token is explicitly invalidated\n        || config.uninitialized             // config isn't initialized\n        || config.ignoreTimestamps          // ignore timestamps\n        || !getTimeLeft(user.token.expiry)  // > 0 if expiration is in the future\n    );\n    return timeLeft > 0\n}\n\nfunction getTimeLeft(expiry) {\n    return expiry - getSystemTime()\n}\n```"",
    ""recommendation"": ""Upgrade UglifyJS to version >= 2.4.24."",
    ""cvss_vector"": ""CVSS:3.0/AV:N/AC:L/PR:N/UI:N/S:C/C:L/I:L/A:L"",
    ""cvss_score"": 8.3,
    ""module"": ""uglify-js"",
    ""version"": ""2.2.5"",
    ""vulnerable_versions"": ""<= 2.4.23"",
    ""patched_versions"": "">= 2.4.24"",
    ""title"": ""Incorrect Handling of Non-Boolean Comparisons During Minification"",
    ""path"": [
      ""nodejs-skeleton-project@1.0.0"",
      ""toureiro@0.2.12"",
      ""jade@1.11.0"",
      ""transformers@2.1.0"",
      ""uglify-js@2.2.5""
    ],
    ""advisory"": ""https://nodesecurity.io/advisories/39""
  },
  {
    ""id"": 106,
    ""updated_at"": ""2016-06-16T20:37:24.000Z"",
    ""created_at"": ""2016-05-04T16:34:12.000Z"",
    ""publish_date"": ""2016-06-16T17:36:06.000Z"",
    ""overview"": ""negotiator is an HTTP content negotiator for Node.js and is used by many modules and frameworks including Express and Koa.\n\nThe header for \""Accept-Language\"", when parsed by negotiator is vulnerable to Regular Expression Denial of Service via a specially crafted string. \n\nTimeline\n\n- April 29th 2016 - Initial report to maintainers\n- April 29th 2016 - Confirm receipt from maintainers\n- May 1st 2016 - Fix confirmed\n- May 5th 2016 - 0.6.1 published with fix\n- June 16th 2016 - Advisory published (delay was to coordinate fixes in upstream frameworks, Koa and Express)"",
    ""recommendation"": ""Upgrade to at least version 0.6.1\n\nExpress users should update to Express 4.14.0 or greater. If you want to see if you are using a vulnerable call,  a quick grep for the `acceptsLanguages` function call in your application will tell you if you are using this functionality."",
    ""cvss_vector"": ""CVSS:3.0/AV:N/AC:L/PR:N/UI:N/S:U/C:N/I:N/A:H"",
    ""cvss_score"": 7.5,
    ""module"": ""negotiator"",
    ""version"": ""0.5.3"",
    ""vulnerable_versions"": ""<= 0.6.0"",
    ""patched_versions"": "">= 0.6.1"",
    ""title"": ""Regular Expression Denial of Service"",
    ""path"": [
      ""nodejs-skeleton-project@1.0.0"",
      ""toureiro@0.2.12"",
      ""express@4.13.4"",
      ""accepts@1.2.13"",
      ""negotiator@0.5.3""
    ],
    ""advisory"": ""https://nodesecurity.io/advisories/106""
  }
]
``` @evanhuang8 these are pretty simple fixes and would be great to get merged into an updated package when you have a chance.  Will do"
