No;mainline_repo;pr_no;created_at;closed_at;merged_at;repo_origin;repo_destin;pr_owner;no_commenters;pr_commenters;pr_comments
0;freewil/express-form;24;2016-06-29T16:26:07Z;2016-06-30T17:30:40Z;2016-06-30T17:30:40Z;jareyes/express-form;freewil/express-form;jareyes;1;orobardet;"Hi, 

I got the exactly same issue after uprading to node 6 and express 4.13.
Was about to open an MR with the same patch until I saw yours, 

I second that MR.

Thanks!
"
1;freewil/express-form;13;2014-05-15T16:18:43Z;2014-05-22T17:35:52Z;2014-05-22T17:35:52Z;gimler/express-form;freewil/express-form;gimler;2;freewil/gimler;"If you could squash this into one commit, I'll merge it in.
 done
"
