No;mainline_repo;pr_no;created_at;closed_at;merged_at;repo_origin;repo_destin;pr_owner;no_commenters;pr_commenters;pr_comments
0;fshost/node-dir;32;2016-06-21T18:39:31Z;2016-06-28T07:56:53Z;2016-06-28T07:56:53Z;dnewcome/node-dir;fshost/node-dir;dnewcome;1;odino;"@fshost can we get this merged? :)
"
