No;mainline_repo;pr_no;created_at;closed_at;merged_at;repo_origin;repo_destin;pr_owner;no_commenters;pr_commenters;pr_comments
0;geremih/react-native-circular-action-menu;7;2018-03-17T02:39:55Z;2018-03-24T22:59:06Z;2018-03-24T22:59:06Z;jude-io/react-native-circular-action-menu;geremih/react-native-circular-action-menu;ollyfg;1;Biromain;Hi, Can you merge and release?
1;geremih/react-native-circular-action-menu;5;2017-10-31T13:44:07Z;2017-10-31T17:00:15Z;2017-10-31T17:00:14Z;damathryx/react-native-circular-action-menu;geremih/react-native-circular-action-menu;damathryx;2;geremih/damathryx;@damathryx Thanks for the PR! Can you update the README to reflect your change? sure!
2;geremih/react-native-circular-action-menu;1;2016-09-27T20:05:39Z;2016-09-27T21:10:31Z;2016-09-27T21:10:31Z;nan;geremih/react-native-circular-action-menu;Ajackster;4;geremih/Ajackster/geremih/geremih;"Hey @Ajackster, thanks for the appreciation and the pull request!

I would have expected for the `backdrop` prop to be used  for custom logic on the overlay. Is there any reason you chose against it?
 From my understanding, the `backdrop` prop is used to plug in your own custom component. I felt like it was extra steps for the job I needed to be done which was use the default overlay component and add in a quick function that would add functionality to the `reset()` function.
 Alright, sounds like it would be useful for others too. Do mind updating the README to reflect your change and then I'll merge it?
 Thanks a lot!
"
