No;mainline_repo;pr_no;created_at;closed_at;merged_at;repo_origin;repo_destin;pr_owner;no_commenters;pr_commenters;pr_comments
8;gruntjs/grunt-contrib-jshint;159;2014-04-02T06:25:53Z;2014-04-02T12:08:28Z;2014-04-02T12:08:28Z;nan;gruntjs/grunt-contrib-jshint;XhmikosR;1;jamesplease;"Thanks, @XhmikosR!
"
9;gruntjs/grunt-contrib-jshint;158;2014-04-02T06:18:10Z;2014-04-02T13:03:29Z;2014-04-02T13:03:29Z;nan;gruntjs/grunt-contrib-jshint;XhmikosR;2;jamesplease/XhmikosR;"@XhmikosR, I can't seem to find the changelog of 2.5 in my early-morning sleepiness. Do you know where they keep it? I just want to see if they're following semver.
 There wasn't one last time I checked... but you can do a git compare after 2.4.4 in the meantime.
"
10;gruntjs/grunt-contrib-jshint;150;2014-03-12T23:32:56Z;2014-03-13T00:03:56Z;2014-03-13T00:03:56Z;gruntjs/grunt-contrib-jshint;gruntjs/grunt-contrib-jshint;jamesplease;4;jamesplease/jamesplease/cthrax/cthrax;"@lcalvy, would you checkout this branch to see if it solves your issue? Looks like it resolved it for me.
 Also cc @cthrax @hLittle.

If I could get someone else to confirm that this fixes the issue it will be merged :)
 I just pulled this commit, it appears to fix the issue.
 Pulling ""*"" from npm is still broken though.
"
11;gruntjs/grunt-contrib-jshint;133;2014-01-15T22:03:20Z;2014-03-08T19:43:44Z;2014-03-08T19:43:44Z;nan;gruntjs/grunt-contrib-jshint;cgross;4;vladikoff/shama/sindresorhus/cgross;"Thanks for the pull request @cgross!
@shama thoughts on this?
 Yeah, that format looks good to me. I just see some nitpicky code formatting things I can take care of if merged.

I believe @cowboy came up with the current formatting, so pinging him here for any opinion on this.
 lgtm too

@cgross can you fix the merge conflict so we can get this merged?
 Sure thing.  Done.
"
