No;mainline_repo;pr_no;created_at;closed_at;merged_at;repo_origin;repo_destin;pr_owner;no_commenters;pr_commenters;pr_comments
5;hexojs/hexo-renderer-markdown-it;90;2019-10-28T05:19:57Z;2019-11-20T00:45:07Z;2019-11-20T00:45:07Z;curbengh/hexo-renderer-markdown-it;hexojs/hexo-renderer-markdown-it;curbengh;6;curbengh/curbengh/SukkaW/curbengh/tomap/curbengh;"Ready for review. `breaks` should be true by default, to be consistent with hexo-renderer-marked's [default](https://github.com/hexojs/hexo-renderer-marked/blob/9d3a38a9a84ecb90147c4c6575b5a9287a1c509b/index.js#L10). This change might break current users'. We should mention it in release notes.
 > This change might break current users'. We should mention it in release notes.

I intend to do a major bump (to v4) after this. I also mention the defaults in the readme. Maybe add in the doc the config to use to keep the current defaults <v4 > Maybe add in the doc the config to use to keep the current defaults <v4

I can mention in the release note. there were no defaults prior to v4, to keep the _defaults_, can specify key with no value,

``` yml
markdown:
  render:
  plugins:
  anchors:
```

I don't think it's necessary to put it in readme/wiki; by releasing a new version, we essentially drop support for prior versions."
6;hexojs/hexo-renderer-markdown-it;87;2019-09-11T05:28:34Z;2019-09-14T04:55:48Z;2019-09-14T04:55:48Z;hexojs/hexo-renderer-markdown-it;hexojs/hexo-renderer-markdown-it;dependabot-preview[bot];1;YoshinoriN;@dependabot rebase
7;hexojs/hexo-renderer-markdown-it;81;2019-07-27T08:38:01Z;2019-07-28T21:16:02Z;2019-07-28T21:16:02Z;curbengh/hexo-renderer-markdown-it;hexojs/hexo-renderer-markdown-it;curbengh;1;curbengh;rebased after https://github.com/hexojs/hexo-renderer-markdown-it/pull/79
8;hexojs/hexo-renderer-markdown-it;80;2019-07-15T05:56:24Z;2019-07-29T08:03:23Z;2019-07-29T08:03:23Z;hexojs/hexo-renderer-markdown-it;hexojs/hexo-renderer-markdown-it;dependabot-preview[bot];1;YoshinoriN;"@dependabot rebase
"
9;hexojs/hexo-renderer-markdown-it;79;2019-07-10T16:06:44Z;2019-07-27T08:47:11Z;2019-07-27T08:47:11Z;nan;hexojs/hexo-renderer-markdown-it;YoshinoriN;2;YoshinoriN/curbengh;Maybe we have to update gulp before this PR. gulp is being deprecated in https://github.com/hexojs/hexo-renderer-markdown-it/pull/81.
10;hexojs/hexo-renderer-markdown-it;78;2019-07-10T15:58:34Z;2019-07-30T01:52:13Z;2019-07-30T01:52:13Z;nan;hexojs/hexo-renderer-markdown-it;YoshinoriN;2;YoshinoriN/YoshinoriN;"Please do not merge. I will fix this PR. Done. I rebased to master & force-push.

```sh
$ npm publish --dry-run
npm notice
npm notice package: hexo-renderer-markdown-it@3.4.2
npm notice === Tarball Contents ===
npm notice 1.5kB package.json
npm notice 522B  index.js
npm notice 1.1kB LICENSE
npm notice 1.9kB README.md
npm notice 1.9kB lib/anchors.js
npm notice 670B  lib/renderer.js
npm notice === Tarball Details ===
npm notice name:          hexo-renderer-markdown-it
npm notice version:       3.4.2
npm notice package size:  3.2 kB
npm notice unpacked size: 7.6 kB
npm notice shasum:        03197a8df56ed0c4a942b7014fcdd1e5b50954e2
npm notice integrity:     sha512-bKhzgmvrsuoji[...]kOsCDbNmvRYhA==
npm notice total files:   6
npm notice
+ hexo-renderer-markdown-it@3.4.2
```"
11;hexojs/hexo-renderer-markdown-it;61;2018-11-22T12:50:35Z;2019-03-13T14:19:45Z;2019-03-13T14:19:45Z;hexojs/hexo-renderer-markdown-it;hexojs/hexo-renderer-markdown-it;dependabot-preview[bot];1;YoshinoriN;"It seems breaking change between 4.3.1 and 6.0.0 is only require mocha v4 & require node v6.
I think this PR can merge."
12;hexojs/hexo-renderer-markdown-it;60;2018-11-22T12:49:53Z;2019-01-13T07:49:40Z;2019-01-13T07:49:40Z;hexojs/hexo-renderer-markdown-it;hexojs/hexo-renderer-markdown-it;dependabot-preview[bot];1;tomap;@dependabot rebase
13;hexojs/hexo-renderer-markdown-it;52;2018-02-05T15:11:27Z;2018-02-13T21:13:29Z;2018-02-13T21:13:29Z;nan;hexojs/hexo-renderer-markdown-it;chawyehsu;2;chawyehsu/chawyehsu;@NoahDragon Please consider to take a review. Would you guys consider to merge the PR?
14;hexojs/hexo-renderer-markdown-it;28;2015-12-09T22:53:29Z;2015-12-13T16:18:23Z;2015-12-13T16:18:23Z;nan;hexojs/hexo-renderer-markdown-it;mshick;2;mshick/celsomiranda;"Added a test for new plugin def.
 Looks good. I'll merge it and once tested I'll publish the new version to NPM.
"
15;hexojs/hexo-renderer-markdown-it;4;2015-02-11T21:09:31Z;2015-02-12T00:32:46Z;2015-02-12T00:32:45Z;seoh/hexo-renderer-markdown-it;hexojs/hexo-renderer-markdown-it;seoh;1;celsomiranda;"Looks good to me. Going to merge.
"
