No;mainline_repo;pr_no;created_at;closed_at;merged_at;repo_origin;repo_destin;pr_owner;no_commenters;pr_commenters;pr_comments
2;instructure-react/react-tokeninput;10;2015-03-12T21:58:53Z;2015-03-12T22:26:02Z;2015-03-12T22:26:02Z;aaronshaf/react-tokeninput;instructure-react/react-tokeninput;aaronshaf;2;aaronshaf/brentropy;"@brentburg @thetalecrafter Your review, _por favor_.
 :+1: 
"
3;instructure-react/react-tokeninput;9;2015-03-06T23:38:14Z;2015-03-09T15:55:12Z;2015-03-09T15:55:12Z;instructure-react/react-tokeninput;instructure-react/react-tokeninput;aaronshaf;1;vanwagonet;"Looks good to me.
"
4;instructure-react/react-tokeninput;8;2015-02-09T22:29:55Z;2015-03-02T23:42:52Z;2015-03-02T23:42:52Z;mikenomitch/react-tokeninput;instructure-react/react-tokeninput;mikenomitch;3;aaronshaf/aaronshaf/brentropy;"+1

@brentburg, thoughts?
 @brentburg, I am going to merge this today if you don't have any objections
 :+1: Looks good to me.
"
