No;mainline_repo;pr_no;created_at;closed_at;merged_at;repo_origin;repo_destin;pr_owner;no_commenters;pr_commenters;pr_comments
1;jamiebuilds/create-react-context;14;2018-03-15T02:43:21Z;2018-03-15T04:40:01Z;2018-03-15T04:40:01Z;donavon/create-react-context;jamiebuilds/create-react-context;donavon;1;donavon;"![image](https://user-images.githubusercontent.com/887639/37441762-599694d6-27d9-11e8-95a4-e62a7ed7ad13.png)
"
2;jamiebuilds/create-react-context;13;2018-03-14T16:02:47Z;2018-03-15T00:33:27Z;2018-03-15T00:33:27Z;donavon/create-react-context;jamiebuilds/create-react-context;donavon;3;jrylan/donavon/jrylan;"I don't think it's redundant. If a library were using `create-react-context` but the top level project was using React > 16, then this line would allow the built-in React.createContext to be used and fall back to createReactContext. Isn't that what this line does? (i.e. you're doing it twice)

IMO, `implementation` should return just the implementation.  `index` should (and does) add the fallback from `React. createContext`.

https://github.com/jamiebuilds/create-react-context/blob/master/src/index.js#L5 @donavon aha! You are correct there. Sorry I missed that. Your change has my vote.... but I'm just an outsider and my vote doesn't count here."
3;jamiebuilds/create-react-context;11;2018-02-26T09:08:30Z;2018-02-26T21:27:09Z;2018-02-26T21:27:09Z;nan;jamiebuilds/create-react-context;iddan;4;jamiebuilds/iddan/iddan/iddan;"This is a polyfill of the React API, it will not be adding any additional API or making any changes This is part of the React API https://github.com/facebook/react/blob/29e8924c70856bef9b11e0c74a450140bfcce773/packages/react/src/ReactContext.js#L16
 Ready"
4;jamiebuilds/create-react-context;10;2018-02-19T11:40:34Z;2018-02-22T18:28:51Z;2018-02-22T18:28:51Z;Kilix/create-react-context;jamiebuilds/create-react-context;AugustinLF;3;jamiebuilds/AugustinLF/paul-phan;"That package is 2.5kb gzipped, I just created a new package for you, https://github.com/jamiebuilds/gud, could you use that instead? Done (I amended the commit), thanks for the new package! I think you should write your own unique id generator instead of using any library, also I saw the `gud` is very simple that you rewrite it inside of create-react-context code:
```
const key = '__global_unique_id__';
function createReactContext<T>(defaultValue: T): Context<T> {
 global[key] = (global[key] || 0) + 1;
  const contextProp = `__create-react-context-${global[key]}__`;
}

```"
5;jamiebuilds/create-react-context;7;2018-02-01T18:35:34Z;2018-02-01T21:49:51Z;2018-02-01T21:49:51Z;Andarist/create-react-context;jamiebuilds/create-react-context;Andarist;1;TrySound;Test?
6;jamiebuilds/create-react-context;3;2017-12-12T18:17:59Z;2017-12-15T05:53:28Z;2017-12-15T05:53:28Z;nanot1m/create-react-context;jamiebuilds/create-react-context;nanot1m;1;jamiebuilds;Right, thanks
7;jamiebuilds/create-react-context;1;2017-12-08T04:29:34Z;2017-12-08T06:11:34Z;2017-12-08T06:11:34Z;pksjce/create-react-context;jamiebuilds/create-react-context;pksjce;5;jamiebuilds/jamiebuilds/jamiebuilds/pksjce/jamiebuilds;"Can you add the bundle to `.gitignore` And the package-lock Also, could you update the prettier format/lint-staged config in `package.json` to include all your files and run `yarn format` over them? Done! I just added another example to show that more components can accept the context. 

What we really need is for an example that is able to bypass `shouldComponentUpdate` check. Will you be implementing that? > What we really need is for an example that is able to bypass shouldComponentUpdate check. Will you be implementing that?

Yeah I just added that in the latest version"
