No;mainline_repo;pr_no;created_at;closed_at;merged_at;repo_origin;repo_destin;pr_owner;no_commenters;pr_commenters;pr_comments
1;jgillick/jira-changelog;5;2018-02-16T21:30:03Z;2018-02-16T22:45:03Z;2018-02-16T22:45:03Z;jgillick/jira-changelog;jgillick/jira-changelog;jgillick;1;damrbaby;:clap: :clap: :clap:
2;jgillick/jira-changelog;4;2018-02-07T02:56:47Z;2018-10-09T14:24:55Z;2018-10-09T14:24:55Z;dassennato/jira-changelog;jgillick/jira-changelog;dassennato;2;connorsmallman/jgillick;@jgillick any chance you could merge this and publish? Sorry for the delay, I didn't notice this PR. Thank you @dassennato (and for the nudge @connorsmallman)
