No;mainline_repo;pr_no;created_at;closed_at;merged_at;repo_origin;repo_destin;pr_owner;no_commenters;pr_commenters;pr_comments
0;jstrace/jstrace;31;2014-04-29T21:41:26Z;2014-04-29T22:29:35Z;2014-04-29T22:29:35Z;juliangruber/jstrace;jstrace/jstrace;juliangruber;2;tj/juliangruber;"sweet looks good, I'm +1 for a heading
 _bump_
"
1;jstrace/jstrace;26;2014-04-28T14:59:30Z;2014-04-28T21:33:37Z;2014-04-28T21:33:37Z;juliangruber/jstrace;jstrace/jstrace;juliangruber;1;juliangruber;"...or the server could use the `stdio` event instead of adding a new `error` event
"
