No;mainline_repo;pr_no;created_at;closed_at;merged_at;repo_origin;repo_destin;pr_owner;no_commenters;pr_commenters;pr_comments
1;KraigM/homebridge-wink;52;2016-09-17T00:41:31Z;2016-10-17T00:06:50Z;2016-10-17T00:06:50Z;jedijashwa/homebridge-wink;KraigM/homebridge-wink;jedijashwa;2;schmittx/jedijashwa;"I'm new to JS and Homebridge, can similar updates be made to allow specific light bulbs (aka dimmer-type fan switches) to act as fans?
 It definitely can be done. The trick would be looking into how HomeKit and therefore Homebridge treats different fan speeds. I believe dimmers in Homebridge-wink use consumption to spoof percentages, and this could also be done to spoof levels of fans. It just may take a bit more trial and error.
"
2;KraigM/homebridge-wink;29;2016-01-21T15:55:22Z;2016-01-23T16:29:42Z;2016-01-23T16:29:42Z;nan;KraigM/homebridge-wink;pdlove;10;pdlove/techyowl/KraigM/pdlove/msroest/KraigM/techyowl/pdlove/KraigM/pdlove;"I added a few other options. Most notably the Window Shades.
I also added the ability to set the Garage Door to ""Low Security"" so Siri can Open and Close the garage door while the phone is locked if you acknowledge that's what you want and set the flag to true in the config file.
 @KraigM & @pdlove  I am ready to install this release as soon as it gets pushed to nam
 I've said it before and I will say it again, I strongly disagree with the ""low security"" option. Has any other homebridge plugin done that?
 @KraigM I don't mind removing that. The biggest thing on it is that it is very manual to enable and has some warnings in the code and probably shouldn't be on the help file. If we do yank it from here, let's also close the issue request on that so I'll quit thinking ""I need to get that in there to remove the issue"" :)
 I'm with @KraigM on this the seems like allowing that is a pretty big hole and will open people up to liability
 Yeah go ahead and remove that and I will close the other issue
 oh I didn't even notice the low security option. I was mainly wanting the color light support.
 Low Security has been removed and will not be approached again on this or any plugin I approach. If anyone really wants to have it work like that, feel free to run the code I did prior to the most recent commit, but don't blame me if you lose valuables!
 @pdlove I made a slight modification to your fix of the ""not responding problem"" ^.  Which is funny because I'm pretty sure we are back to almost exactly the same code we found that we thought was weird and ""fixed"".  Im actually thinking either I or someone else put that in there as a hack to be fixed later. Anywho, I changed it to at least wait until the request had officially been made to wink and capture any errors that may have happened.  Does that look good to you?
 That's great. So if it can't communicate with Wink then Siri will still error out. I'm good with it.
"
3;KraigM/homebridge-wink;20;2016-01-15T03:06:34Z;2016-01-16T17:09:39Z;2016-01-16T17:09:39Z;msroest/homebridge-wink;KraigM/homebridge-wink;msroest;1;pdlove;"Can this be done so it always includes the latest version? Maybe with "">0.1.0""?
"
4;KraigM/homebridge-wink;11;2016-01-05T06:10:22Z;2016-01-09T20:16:18Z;2016-01-09T20:16:18Z;nan;KraigM/homebridge-wink;pdlove;30;AppleTechy/pdlove/AppleTechy/KraigM/AppleTechy/pdlove/KraigM/pdlove/AppleTechy/AppleTechy/pdlove/KraigM/AppleTechy/AppleTechy/pdlove/KraigM/KraigM/KraigM/pdlove/pdlove/pdlove/KraigM/KraigM/pdlove/KraigM/pdlove/KraigM/pdlove/KraigM/KraigM;"@pdlove For garage door will it still pick up MYQ garage doors or only GoControl? Since we already have a plugin for the MYQ it might be easier for the user if there was a way to limit what brand garage door accessories showed up. This way there is less confusion on which is running through the Wink plugin and which is actually running directly to MYQ API. Thoughts?
 @AppleTechy It will use any garage door recognized by Wink because it communicates with Wink and not directly to the garage door. Personally, I use Wink to control my MyQ because I'm too lazy to install the API. Wink is my single source for control. I do have an update I need to do to fix an issue with the garage door not updating correctly. I can see about adding a configuration option to the config.json for MyQ suppression if that is desired.
 @pdlove I have noticed when using Wink there is a significant delay from when you send the command to when it starts to open the garage door vs when sending it directly from the MYQ app which is almost instant. To me the MYQ app is much quicker therefore more convenient to use. You should try and use the MYQ app and wink app to compare the time difference between the garage door starting to open because for you it might be much faster or on mine something might have gotten out of sync and is causing it to be so slow. Anyways I would love to hear if you also notice a major difference in speed between using the 2. I would love to possibly see some MYQ suppression that way I don't accidentally try and send the command via the Wink with the delay when I would prefer to send it via MYQ plugin. Thanks for all your hard work to make this plugin better!
 That might be related to the same issue I have with locks.  Which Im guessing has to do with the cloud api vs local api, hence #8.  Its just a guess but its my best guess.
 @KraigM This delay is noticeable when doing the tests through their respective mobile apps. Haven't done any testing using homebridge.
 I'm going to add two configuration options to the file. One will allow you to suppress devices by type and the other by name.
I experience a 5 second delay with using the wink app which is fine for me because I tap the button on my watch when I turn into my driveway and I have a very long driveway. I have known this delay to jump up to 30 seconds at times.
@KraigM The biggest issue with using the local API is that you have to severe the connection to the cloud since Wink updated and closed that hole.
 There is about a 7 second delay by the wink app itself on my lock
 @KraigM I have several changes I've made that finish up the device types outlined here and adds powerstrips, smoke alarms and by tomorrow will also include thermostats the requested window sensors. Is it possible for me to update this pull request or will I have to close it and start a new one? I'm also going to get the feature I just mentioned added in over the next few days.
Can I add new commits to this pull request or will I have to close it and open a new one?
 @pdlove  @KraigM I found one site that said you didn't have to serve the connection to the cloud but you needed a specific file but the article was from little over a year ago. The issue is everything so far I have seen is to get LAN API is to reset your Hub and then root it which would be a pain for some of us to re-add all of our devices back to the hub.
 @pdlove Will you be able to control Ge Outlink Smart Outlets in the new revision of the plugin?
 @AppleTechy Yes. The one I'm committing later this week also sets the In Use flag based on the power consumption and returns it as an outlet instead of a light.
 @pdlove you just have to push to the same branch and it should auto include them.  You can also add _[#11]_ to the beginning of you commit messages to ensure they show as being linked to this PR
 @pdlove Alright, thanks for all your work on this plugin!
 @pdlove you should create a Slack account on our team.  Make talking much easier rather than going back and forth on here.
 @AppleTechy On the LAN API, the update they did that bricked most of the hubs temporarily made the hub not easy to root. It has to be done now my soldering a serial connector on that connects to a Raspberry Pi or similar. 
No problem on the plugin work. I'm anxious to see it completed. I'm actually adding in a lot of the home bridge functions that I don't know that Apple even uses yet.
 @pdlove As far as code review, one initial note, why didn't you have them all inherit from a common class?

Also, why did you remove all the logging?
 @pdlove Also, why did you add name to the id.  If someone changes the display name of any device, HomeKit would see it as a completely new device and they would lose all configurations.
 @pdlove You also need to be sure to include fixes done in the main repo that are missing.  I think you got at least some of them, but just make sure you get them all.
 @KraigM Good point. That's something I did while testing because I was having trouble getting a unique ID at the time. I'll yank the name from it.
On the fixes, I'll double-check the commits from since I forked and make sure they're there. I thought I got everything, but it never hurts to go over it.

The only thing I was still having trouble with on this one was the fix on locks that polled for the update every few seconds until it changed. I've got my issues on that resolved now and have that as part of my next commit.
 I feel really good about the stability and completeness of my latest commit. Have a look and let me know if I failed to address any concerns.
 I'm going to submit a fix for the light color soon. Don't merge this into the branch until after that please.
 Ok Im going to look through your updates now
 @pdlove Are you just working on the lightbulb atm or do you have other framework changes you are working on and/or haven't pushed?  I have a thought on how to modularize it a little more that I was going to code real quick, but don't want to deal with a bunch of conflicts
 I just submitted to my fork the light fix. It's ""light"" on code changes.... sorry, couldn't help myself.
 /facepalm lol. Cool, Im going to have some changes shortly for you to look over.
 @KraigM I created another branch  on my fork that contains changes that allow devices to dynamically add to the home bridge implementation so that you don't have to reboot it when adding devices. It will also have the ability to remove devices removed from Wink. I'm trying to also find a way to simply disable the device from HomeKit when it isn't connected. For example, if the dumb switch is off on a GE Link light. I just can't figure out yet how to flag it as disabled. I'll get there.
I look forward to seeing your changes.
Once we have this perfect, I'm going to take the framework over to a smart things module.
 @pdlove What do you mean by a SmartThings module?
 @KraigM You know... not wink, but smart things... the samsung equivalent. I have both. The SmartThings hubs allows quicker reaction to motion detectors and changes, but I've got enough Wink stuff I can't just switch. :) The pain of technology. It's a separate project altogether. I just want to get the platform modularization right here first because I'm not very thrilled with what I've seen on other projects because they have a single huge index.js file which is left over from how home bridge was before they spun off the plugins.
 @pdlove Oh do you mean you want to similarly modularize the Smarthings homebridge module?
 @pdlove I just did a pretty massive restructure (going along with the separation you already did).  
- I created a new WinkAccessory base class
- Changed the inheritance to happen once, when loading each module
- Extracted the accessory specific methods in the platform to the WinkAccessory and changed all refs to theses methods to the accessory itself
- Extracted a lot of the setup code that the accessories shared into WinkAccessory

I pushed these changes in [[#11] Changed all the accessories to inherit from a newly extracted W…](https://github.com/KraigM/homebridge-wink/commit/196b2570ae176ed967ba8f7d7481850092c3cae0)
"
