No;mainline_repo;pr_no;created_at;closed_at;merged_at;repo_origin;repo_destin;pr_owner;no_commenters;pr_commenters;pr_comments
0;KualiCo/koa-pixie-proxy;3;2015-03-23T03:45:22Z;2015-03-23T03:49:43Z;2015-03-23T03:49:43Z;nan;KualiCo/koa-pixie-proxy;kudos;1;jergason;"whoops, thanks for that!
"
1;KualiCo/koa-pixie-proxy;2;2014-12-15T20:02:28Z;2014-12-15T21:51:41Z;2014-12-15T21:51:41Z;KualiCo/koa-pixie-proxy;KualiCo/koa-pixie-proxy;jergason;1;numso;":+1: Looks fantastic :ship: :it:
"
2;KualiCo/koa-pixie-proxy;1;2014-12-12T21:02:06Z;2014-12-12T21:06:25Z;2014-12-12T21:06:25Z;KualiCo/koa-pixie-proxy;KualiCo/koa-pixie-proxy;numso;1;jergason;"AMAZING.
"
