No;mainline_repo;pr_no;created_at;closed_at;merged_at;repo_origin;repo_destin;pr_owner;no_commenters;pr_commenters;pr_comments
9;MikeMcl/bignumber.js;26;2013-11-27T14:47:09Z;2013-11-28T10:25:50Z;2013-11-28T10:25:50Z;Frost/bignumber.js;MikeMcl/bignumber.js;Frost;3;MikeMcl/Frost/MikeMcl;"There are different views on this, for example, from a couple of weeks ago,

[""In an ideal world all modules on npm would include tests""](http://dailyjs.com/2013/11/07/client-modules-on-npm/) (Alex Young, author of _Node.js in Practice_)

but I agree that 6MB is quite a lot.

There is also the issue that the Travis CI build and the `npm test` in the _package.json_ which it uses, need the tests to be included in the package. _(Update: I don't think this is an issue as Travis gets the package from github not npm, so it should be fine. Also, the bignumber.js directory is about 4MB not 6MB.)_
 Generally, I accept that I won't be able to run tests unless I actually check out the code and run `npm install`. That is because most modules generally use some kind of test framework, which usually are listed as `devDependencies`, and as such aren't installed when just running `npm install module_name`.

And yes, 6MB is a lot, but it's not the worst I've seen.
 It may not be the _most_ you've seen, but I agree that it's far too much.

Thanks.
"
