No;mainline_repo;pr_no;created_at;closed_at;merged_at;repo_origin;repo_destin;pr_owner;no_commenters;pr_commenters;pr_comments
9;msiebuhr/node-statsd-client;38;2014-08-05T21:09:46Z;2014-08-24T12:45:21Z;2014-08-24T12:45:21Z;nan;msiebuhr/node-statsd-client;tpiron;1;msiebuhr;"Turned out Travis didn't like installing some of the packages we depend on in older versions.
"
