No;mainline_repo;pr_no;created_at;closed_at;merged_at;repo_origin;repo_destin;pr_owner;no_commenters;pr_commenters;pr_comments
3;Raathigesh/dazzle;37;2017-12-04T14:54:31Z;2018-01-04T11:45:34Z;2018-01-04T11:45:34Z;adrianocola/dazzle;Raathigesh/dazzle;adrianocola;1;Raathigesh;Thanks
4;Raathigesh/dazzle;36;2017-11-23T19:04:48Z;2018-01-04T11:46:31Z;2018-01-04T11:46:31Z;difelice/dazzle;Raathigesh/dazzle;difelice;1;codecov-io;"# [Codecov](https://codecov.io/gh/Raathigesh/dazzle/pull/36?src=pr&el=h1) Report
> Merging [#36](https://codecov.io/gh/Raathigesh/dazzle/pull/36?src=pr&el=desc) into [master](https://codecov.io/gh/Raathigesh/dazzle/commit/207a337d05c1b5810dd2f06d53c62f0388876c0b?src=pr&el=desc) will **not change** coverage.
> The diff coverage is `n/a`.

[![Impacted file tree graph](https://codecov.io/gh/Raathigesh/dazzle/pull/36/graphs/tree.svg?height=150&width=650&token=b8HZRRMLGp&src=pr)](https://codecov.io/gh/Raathigesh/dazzle/pull/36?src=pr&el=tree)

```diff
@@           Coverage Diff           @@
##           master      #36   +/-   ##
=======================================
  Coverage   83.75%   83.75%           
=======================================
  Files          11       11           
  Lines         394      394           
  Branches       46       46           
=======================================
  Hits          330      330           
  Misses         64       64
```


| [Impacted Files](https://codecov.io/gh/Raathigesh/dazzle/pull/36?src=pr&el=tree) | Coverage Δ | |
|---|---|---|
| [lib/components/Row.js](https://codecov.io/gh/Raathigesh/dazzle/pull/36?src=pr&el=tree#diff-bGliL2NvbXBvbmVudHMvUm93Lmpz) | `100% <ø> (ø)` | :arrow_up: |

------

[Continue to review full report at Codecov](https://codecov.io/gh/Raathigesh/dazzle/pull/36?src=pr&el=continue).
> **Legend** - [Click here to learn more](https://docs.codecov.io/docs/codecov-delta)
> `Δ = absolute <relative> (impact)`, `ø = not affected`, `? = missing data`
> Powered by [Codecov](https://codecov.io/gh/Raathigesh/dazzle/pull/36?src=pr&el=footer). Last update [207a337...757e93f](https://codecov.io/gh/Raathigesh/dazzle/pull/36?src=pr&el=lastupdated). Read the [comment docs](https://docs.codecov.io/docs/pull-request-comments).
"
8;Raathigesh/dazzle;25;2017-06-19T13:49:16Z;2017-06-25T10:50:28Z;2017-06-25T10:50:28Z;philmander/dazzle;Raathigesh/dazzle;philmander;2;codecov-io/Raathigesh;"# [Codecov](https://codecov.io/gh/Raathigesh/dazzle/pull/25?src=pr&el=h1) Report
> Merging [#25](https://codecov.io/gh/Raathigesh/dazzle/pull/25?src=pr&el=desc) into [master](https://codecov.io/gh/Raathigesh/dazzle/commit/b97b6f922f3dc13ebfbbee187208fee5f96767b8?src=pr&el=desc) will **decrease** coverage by `0.21%`.
> The diff coverage is `100%`.

[![Impacted file tree graph](https://codecov.io/gh/Raathigesh/dazzle/pull/25/graphs/tree.svg?src=pr&width=650&token=b8HZRRMLGp&height=150)](https://codecov.io/gh/Raathigesh/dazzle/pull/25?src=pr&el=tree)

```diff
@@            Coverage Diff             @@
##           master      #25      +/-   ##
==========================================
- Coverage   81.76%   81.55%   -0.22%     
==========================================
  Files          11       11              
  Lines         373      374       +1     
  Branches       45       46       +1     
==========================================
  Hits          305      305              
- Misses         68       69       +1
```


| [Impacted Files](https://codecov.io/gh/Raathigesh/dazzle/pull/25?src=pr&el=tree) | Coverage Δ | |
|---|---|---|
| [lib/components/WidgetFrame.js](https://codecov.io/gh/Raathigesh/dazzle/pull/25?src=pr&el=tree#diff-bGliL2NvbXBvbmVudHMvV2lkZ2V0RnJhbWUuanM=) | `68.86% <100%> (-0.66%)` | :arrow_down: |

------

[Continue to review full report at Codecov](https://codecov.io/gh/Raathigesh/dazzle/pull/25?src=pr&el=continue).
> **Legend** - [Click here to learn more](https://docs.codecov.io/docs/codecov-delta)
> `Δ = absolute <relative> (impact)`, `ø = not affected`, `? = missing data`
> Powered by [Codecov](https://codecov.io/gh/Raathigesh/dazzle/pull/25?src=pr&el=footer). Last update [b97b6f9...3161382](https://codecov.io/gh/Raathigesh/dazzle/pull/25?src=pr&el=lastupdated). Read the [comment docs](https://docs.codecov.io/docs/pull-request-comments).
 Nice! Will merge this by this week! Thank you!"
9;Raathigesh/dazzle;23;2017-05-30T16:22:43Z;2017-07-22T03:05:11Z;2017-07-22T03:05:11Z;nan;Raathigesh/dazzle;awitherspoon;1;codecov-io;"# [Codecov](https://codecov.io/gh/Raathigesh/dazzle/pull/23?src=pr&el=h1) Report
> Merging [#23](https://codecov.io/gh/Raathigesh/dazzle/pull/23?src=pr&el=desc) into [master](https://codecov.io/gh/Raathigesh/dazzle/commit/b97b6f922f3dc13ebfbbee187208fee5f96767b8?src=pr&el=desc) will **increase** coverage by `0.73%`.
> The diff coverage is `87.17%`.

[![Impacted file tree graph](https://codecov.io/gh/Raathigesh/dazzle/pull/23/graphs/tree.svg?src=pr&token=b8HZRRMLGp&width=650&height=150)](https://codecov.io/gh/Raathigesh/dazzle/pull/23?src=pr&el=tree)

```diff
@@            Coverage Diff            @@
##           master     #23      +/-   ##
=========================================
+ Coverage   81.76%   82.5%   +0.73%     
=========================================
  Files          11      11              
  Lines         373     400      +27     
  Branches       45      45              
=========================================
+ Hits          305     330      +25     
- Misses         68      70       +2
```


| [Impacted Files](https://codecov.io/gh/Raathigesh/dazzle/pull/23?src=pr&el=tree) | Coverage Δ | |
|---|---|---|
| [lib/util/index.js](https://codecov.io/gh/Raathigesh/dazzle/pull/23?src=pr&el=tree#diff-bGliL3V0aWwvaW5kZXguanM=) | `60% <ø> (ø)` | :arrow_up: |
| [lib/index.js](https://codecov.io/gh/Raathigesh/dazzle/pull/23?src=pr&el=tree#diff-bGliL2luZGV4Lmpz) | `0% <ø> (ø)` | :arrow_up: |
| [lib/components/LayoutRenderer.js](https://codecov.io/gh/Raathigesh/dazzle/pull/23?src=pr&el=tree#diff-bGliL2NvbXBvbmVudHMvTGF5b3V0UmVuZGVyZXIuanM=) | `97.05% <100%> (+0.39%)` | :arrow_up: |
| [lib/components/AddWidget.js](https://codecov.io/gh/Raathigesh/dazzle/pull/23?src=pr&el=tree#diff-bGliL2NvbXBvbmVudHMvQWRkV2lkZ2V0Lmpz) | `100% <100%> (ø)` | :arrow_up: |
| [lib/components/DefaultFrame.js](https://codecov.io/gh/Raathigesh/dazzle/pull/23?src=pr&el=tree#diff-bGliL2NvbXBvbmVudHMvRGVmYXVsdEZyYW1lLmpz) | `100% <100%> (ø)` | :arrow_up: |
| [lib/components/Dashboard.js](https://codecov.io/gh/Raathigesh/dazzle/pull/23?src=pr&el=tree#diff-bGliL2NvbXBvbmVudHMvRGFzaGJvYXJkLmpz) | `96.96% <100%> (+0.3%)` | :arrow_up: |
| [lib/components/Widgets.js](https://codecov.io/gh/Raathigesh/dazzle/pull/23?src=pr&el=tree#diff-bGliL2NvbXBvbmVudHMvV2lkZ2V0cy5qcw==) | `100% <100%> (ø)` | :arrow_up: |
| [lib/components/Row.js](https://codecov.io/gh/Raathigesh/dazzle/pull/23?src=pr&el=tree#diff-bGliL2NvbXBvbmVudHMvUm93Lmpz) | `100% <100%> (ø)` | :arrow_up: |
| [lib/components/WidgetFrame.js](https://codecov.io/gh/Raathigesh/dazzle/pull/23?src=pr&el=tree#diff-bGliL2NvbXBvbmVudHMvV2lkZ2V0RnJhbWUuanM=) | `68.8% <57.14%> (-0.72%)` | :arrow_down: |
| [lib/components/Column.js](https://codecov.io/gh/Raathigesh/dazzle/pull/23?src=pr&el=tree#diff-bGliL2NvbXBvbmVudHMvQ29sdW1uLmpz) | `83.13% <71.42%> (+0.63%)` | :arrow_up: |
| ... and [9 more](https://codecov.io/gh/Raathigesh/dazzle/pull/23?src=pr&el=tree-more) | |

------

[Continue to review full report at Codecov](https://codecov.io/gh/Raathigesh/dazzle/pull/23?src=pr&el=continue).
> **Legend** - [Click here to learn more](https://docs.codecov.io/docs/codecov-delta)
> `Δ = absolute <relative> (impact)`, `ø = not affected`, `? = missing data`
> Powered by [Codecov](https://codecov.io/gh/Raathigesh/dazzle/pull/23?src=pr&el=footer). Last update [b97b6f9...be0cc2a](https://codecov.io/gh/Raathigesh/dazzle/pull/23?src=pr&el=lastupdated). Read the [comment docs](https://docs.codecov.io/docs/pull-request-comments).
"
10;Raathigesh/dazzle;16;2017-03-31T00:24:28Z;2017-03-31T04:42:22Z;2017-03-31T04:42:22Z;xavier630/dazzle;Raathigesh/dazzle;xavier630;1;codecov-io;"# [Codecov](https://codecov.io/gh/Raathigesh/dazzle/pull/16?src=pr&el=h1) Report
> Merging [#16](https://codecov.io/gh/Raathigesh/dazzle/pull/16?src=pr&el=desc) into [master](https://codecov.io/gh/Raathigesh/dazzle/commit/f2d744aa1245e05ee82254cc4ee93093edcce07f?src=pr&el=desc) will **not change** coverage.
> The diff coverage is `n/a`.

[![Impacted file tree graph](https://codecov.io/gh/Raathigesh/dazzle/pull/16/graphs/tree.svg?height=150&width=650&token=b8HZRRMLGp&src=pr)](https://codecov.io/gh/Raathigesh/dazzle/pull/16?src=pr&el=tree)

```diff
@@           Coverage Diff           @@
##           master      #16   +/-   ##
=======================================
  Coverage   81.76%   81.76%           
=======================================
  Files          11       11           
  Lines         373      373           
  Branches       45       45           
=======================================
  Hits          305      305           
  Misses         68       68
```



------

[Continue to review full report at Codecov](https://codecov.io/gh/Raathigesh/dazzle/pull/16?src=pr&el=continue).
> **Legend** - [Click here to learn more](https://docs.codecov.io/docs/codecov-delta)
> `Δ = absolute <relative> (impact)`, `ø = not affected`, `? = missing data`
> Powered by [Codecov](https://codecov.io/gh/Raathigesh/dazzle/pull/16?src=pr&el=footer). Last update [f2d744a...2afb5e7](https://codecov.io/gh/Raathigesh/dazzle/pull/16?src=pr&el=lastupdated). Read the [comment docs](https://docs.codecov.io/docs/pull-request-comments)."
12;Raathigesh/dazzle;7;2016-09-13T20:36:11Z;2016-09-14T15:29:48Z;2016-09-14T15:29:48Z;nan;Raathigesh/dazzle;johncmckim;1;codecov-io;"## [Current coverage](https://codecov.io/gh/Raathigesh/Dazzle/pull/7?src=pr) is 81.55% (diff: 100%)

> Merging [#7](https://codecov.io/gh/Raathigesh/Dazzle/pull/7?src=pr) into [master](https://codecov.io/gh/Raathigesh/Dazzle/branch/master?src=pr) will decrease coverage by **0.19%**

``` diff
@@             master         #7   diff @@
==========================================
  Files            12         11     -1   
  Lines           389        374    -15   
  Methods          32         30     -2   
  Messages          0          0          
  Branches         43         45     +2   
==========================================
- Hits            318        305    -13   
+ Misses           71         69     -2   
  Partials          0          0          
```

> Powered by [Codecov](https://codecov.io?src=pr). Last update [0aed548...4b32993](https://codecov.io/gh/Raathigesh/Dazzle/compare/0aed5483adbd5907c9f1c97b232eda072d5bbcbf...4b329937c25a51e4dd42dc766bda7d3d5d69fb66?src=pr)
"
13;Raathigesh/dazzle;5;2016-06-19T13:53:41Z;2016-06-19T15:07:32Z;2016-06-19T15:07:32Z;elhay-av/Dazzle;Raathigesh/dazzle;elhay-av;1;codecov-io;"## [Current coverage](https://codecov.io/gh/Raathigesh/Dazzle/pull/5?src=pr) is **81.74%**

> No coverage report found for **master** at 73edb19.
> 
> Powered by [Codecov](https://codecov.io?src=pr). Last updated by [73edb19...c7eb16a](https://codecov.io/gh/Raathigesh/Dazzle/compare/73edb198a225dd9fbc27fd09e43c01bd0bf038a4...c7eb16a6f56137a2d62fdb2dd47a206be6e4bd8f)
"
