No;mainline_repo;pr_no;created_at;closed_at;merged_at;repo_origin;repo_destin;pr_owner;no_commenters;pr_commenters;pr_comments
0;rakeshpai/pi-gpio;34;2015-03-08T16:17:49Z;2015-04-03T07:28:44Z;2015-04-03T07:28:43Z;VipSaran/pi-gpio;rakeshpai/pi-gpio;VipSaran;9;jfriend00/VipSaran/jfriend00/VipSaran/jfriend00/VipSaran/lurch/bestander/jsavko;"This diff changes basic code formatting in ~50 places such that it is next to impossible to find what the functional change were to the code.  This would be a much better submission if the diff was only the functional changes.
 Fixed with commit https://github.com/VipSaran/pi-gpio/commit/2636804fd4657665558a43a035055048141c85d2 (reverted the whitespace changes).
 Finally found a way to see just the ""net"" diff: https://github.com/rakeshpai/pi-gpio/compare/master...VipSaran:master
 @jfriend00 you ""found the way"" becuse I added another commit to the pull request, just as I commented above.
 @VipSaran -  I know you added another commit.  But even then, neither one of your commits made it easy to see the ""net"" diff so I had to find a way to see a diff between two non-sequential versions on Github.  That's what I had to ""find"".  I'm not a github expert so you weren't making it easy to see the meaningful diff which is what I cared about - even with your additional commit.  When I found out how to do it, I thought I'd share so others could likewise just click on a link to see what functionally changed.
 You don't have to be an expert. Just open Pull Request / Files Changed tab and you see the **absolute** difference between the upstream and the fork:
![image](https://cloud.githubusercontent.com/assets/995948/6546839/ea1a7a70-c5c3-11e4-9e1d-d7e3a8c0e3fb.png)
 AFAIK you shouldn't ever need to use `/sys/devices/virtual/gpio` and you should always just use `/sys/class/gpio`, regardless of whether DeviceTree is being used or not?
As https://github.com/raspberrypi/linux/issues/791#issuecomment-73522636 explains.
 :+1: can this be merged please?
 This patch also makes it work with the Raspberry Pi 2 B.  I was testing it last night.
"
1;rakeshpai/pi-gpio;31;2014-12-23T09:06:01Z;2014-12-24T11:50:25Z;2014-12-24T11:50:25Z;nan;rakeshpai/pi-gpio;pierreprinetti;1;pierreprinetti;"woops. Some non-intended linting here.
"
2;rakeshpai/pi-gpio;5;2013-02-13T20:37:41Z;2014-04-09T12:28:45Z;2014-04-09T12:28:45Z;mcooley/pi-gpio;rakeshpai/pi-gpio;mcooley;4;StephanU/darkwisperer/mcooley/darkwisperer;"+1 :)
 @mcooley have you had a chance to write up a test? I plan to test this out on my PIs (gen 1 and 2 for compatibility) in the following couple weeks.
 I don't have access to a Pi at the moment, unfortunately, so I can't finish up the tests myself anytime soon. Any help would be appreciated.
 @mcooley  I will work on it in a couple weeks. I will let you  know how it goes.
"
