No;mainline_repo;pr_no;created_at;closed_at;merged_at;repo_origin;repo_destin;pr_owner;no_commenters;pr_commenters;pr_comments
0;rikkertkoppes/json2xls;2;2015-01-27T16:05:35Z;2015-12-04T08:48:16Z;2015-12-04T08:48:16Z;jlopezr/json2xls;rikkertkoppes/json2xls;jlopezr;1;rikkertkoppes;"Thanks! Will look into it later in fabruary
"
1;rikkertkoppes/json2xls;1;2013-12-27T19:24:36Z;2014-01-02T15:46:37Z;2014-01-02T15:46:37Z;nan;rikkertkoppes/json2xls;malog84;4;madmxg/malog84/rikkertkoppes/malog84;"Hello, And now fix docs with example (replace this code 
<code>var xls = json2xls(json);</code>
on <code>var xls = json2xls([json]);</code>)
 Hi @madmxg, I am not following you. This PR adds support for both arrays and objects as data source. Therefore I have updated the readme with examples of both.
Are you suggesting only an update of the readme and skip the support for objects as data source?
 Excellent addition. I'll probably merge that next year :) I'd like to verify tests and such. That said, I also plan to move the tests to travis. That way, I don't need to spend time to verify the tests.

Please hold on...
 Great!
"
