No;mainline_repo;pr_no;created_at;closed_at;merged_at;repo_origin;repo_destin;pr_owner;no_commenters;pr_commenters;pr_comments
1;rkalis/truffle-plugin-verify;19;2019-09-20T22:24:51Z;2019-10-16T00:52:57Z;2019-10-16T00:52:57Z;hubiinetwork/truffle-plugin-verify;rkalis/truffle-plugin-verify;jijordre;2;rkalis/rkalis;"I really like this idea, implementation looks great as well at first sight. Thanks for raising this PR. I'll check it out in more detail and merge it later this week. Hey @jijordre thanks again for raising this PR, I think it's a really cool addition. I did some testing today, and I found one small bug when doing

```bash
truffle run verify SimpleStorage@0x00..00 SimpleStorage --network rinkeby
```

i.e. when you're specifying an address first, and then want to use a default address again. I fixed this bug locally, and I made some more minor changes, but I can't push them directly to the PR. Could you change the PR to [allow edits from maintainers](https://help.github.com/en/articles/allowing-changes-to-a-pull-request-branch-created-from-a-fork), that should allow me to push to your fork directly."
2;rkalis/truffle-plugin-verify;9;2019-06-29T08:26:41Z;2019-06-29T08:28:05Z;2019-06-29T08:28:05Z;nan;rkalis/truffle-plugin-verify;vinceau;1;rkalis;Nice catch! Thanks for being alert 💪 
3;rkalis/truffle-plugin-verify;7;2019-06-26T23:53:46Z;2019-06-29T04:16:10Z;2019-06-29T04:16:10Z;nan;rkalis/truffle-plugin-verify;SeanJCasey;2;rkalis/rkalis;This is great! I will take some time this weekend to merge in this PR and PR #5 this weekend, and publish a new version. Took some time to merge it into the new changes that @vinceau added with #5, but I managed to merge the two together. Thanks for the contribution!
4;rkalis/truffle-plugin-verify;5;2019-06-20T02:11:45Z;2019-06-29T03:41:22Z;2019-06-29T03:41:22Z;nan;rkalis/truffle-plugin-verify;vinceau;2;rkalis/rkalis;Looks good overall, I can see the value in having this. I'm on a short holiday right now, so I will pick this back up next week. I've been busy catching up with work the last few days, and I leave for a conference again next Monday, so I'll do my best to get this merged in coming weekend. Thanks for the contribution!
5;rkalis/truffle-plugin-verify;3;2019-05-29T04:53:35Z;2019-05-29T04:55:16Z;2019-05-29T04:55:16Z;nan;rkalis/truffle-plugin-verify;vinceau;1;rkalis;Thanks for noticing and fixing this!
6;rkalis/truffle-plugin-verify;2;2019-05-21T15:43:53Z;2019-05-21T16:07:55Z;2019-05-21T16:07:55Z;tcoulter/truffle-plugin-verify;rkalis/truffle-plugin-verify;tcoulter;1;rkalis;This is great, thanks @tcoulter
7;rkalis/truffle-plugin-verify;1;2019-05-15T08:53:09Z;2019-05-17T01:12:23Z;2019-05-17T01:12:23Z;nan;rkalis/truffle-plugin-verify;vinceau;3;rkalis/vinceau/rkalis;"This is really awesome @vinceau! Huge thanks for picking this up. 🎉 

Did you test whether the flattened code that it produces is exactly the same as the one that ends up deployed on Etherscan? When I started this repo that was one of the concerns raised in [trufflesuite/truffle#564](https://github.com/trufflesuite/truffle/issues/564). > This is really awesome @vinceau! Huge thanks for picking this up. 🎉
> 
> Did you test whether the flattened code that it produces is exactly the same as the one that ends up deployed on Etherscan? When I started this repo that was one of the concerns raised in [trufflesuite/truffle#564](https://github.com/trufflesuite/truffle/issues/564).

Yes, we've been using this in production for over week now. We've only tested it on Kovan testnet but verification shouldn't differ between the networks. > > This is really awesome @vinceau! Huge thanks for picking this up. 🎉
> > Did you test whether the flattened code that it produces is exactly the same as the one that ends up deployed on Etherscan? When I started this repo that was one of the concerns raised in [trufflesuite/truffle#564](https://github.com/trufflesuite/truffle/issues/564).
> 
> Yes, we've been using this in production for over week now. We've only tested it on Kovan testnet but verification shouldn't differ between the networks.

That is awesome, looks great! I'll merge it in and publish a new release. 
Thanks for implementing this 💪 "
