No;mainline_repo;pr_no;created_at;closed_at;merged_at;repo_origin;repo_destin;pr_owner;no_commenters;pr_commenters;pr_comments
1;samcday/node-stream-buffer;32;2017-04-10T22:18:36Z;2017-05-13T04:11:28Z;2017-05-13T04:11:28Z;rmjohnson/node-stream-buffer;samcday/node-stream-buffer;rmjohnson;1;samcday;Thx!
2;samcday/node-stream-buffer;23;2015-11-12T08:04:32Z;2015-11-17T12:09:03Z;2015-11-17T12:09:03Z;nan;samcday/node-stream-buffer;ZhouHansen;1;samcday;"Thanks!
"
3;samcday/node-stream-buffer;20;2015-07-02T20:53:18Z;2015-11-17T11:25:05Z;2015-11-17T11:25:05Z;Runnable/node-stream-buffer;samcday/node-stream-buffer;Myztiq;1;samcday;":+1:

For some reason I never got notified about this PR ... sorry about that.
"
4;samcday/node-stream-buffer;18;2015-05-26T15:11:57Z;2015-05-28T08:58:32Z;2015-05-28T08:58:32Z;marsaud/node-stream-buffer;samcday/node-stream-buffer;marsaud;1;samcday;"Nice! Thanks :) I'll merge this now.

Let's make a deal though, if you write a couple of tests for this new behaviour I'll publish `2.2.0` ASAP :)
"
5;samcday/node-stream-buffer;11;2014-11-01T18:40:34Z;2014-11-10T02:20:00Z;2014-11-10T02:20:00Z;nan;samcday/node-stream-buffer;IonicaBizau;1;samcday;"Thanks!
"
6;samcday/node-stream-buffer;9;2014-10-06T18:45:21Z;2014-10-07T10:57:04Z;2014-10-07T10:57:03Z;nan;samcday/node-stream-buffer;RoboterHund;1;samcday;"Right you are! Thanks a lot :)
"
7;samcday/node-stream-buffer;8;2014-09-08T21:32:43Z;2014-09-09T02:13:34Z;2014-09-09T02:13:34Z;EvanOxfeld/node-stream-buffer;samcday/node-stream-buffer;EvanOxfeld;1;samcday;"@EvanOxfeld thanks for the README clarification :) In hindsight I should have pushed the new 0 frequency feature as a new major version, since it can break existing behaviour. According to semver, this is moderately forgivable in a `0.x.x` version series. I'll treat this as a learning exercise! :)

What I will do now is publish a 1.0.0 release, and be careful not to break backwards compatibility in future.

Regarding your request, would you mind opening a separate issue for that so we can track it properly?
"
8;samcday/node-stream-buffer;7;2014-09-05T08:52:26Z;2014-09-08T03:58:54Z;2014-09-08T03:58:54Z;sunib/node-stream-buffer;samcday/node-stream-buffer;sunib;1;samcday;"Looks great! Thanks for the contribution :)
"
