No;mainline_repo;pr_no;created_at;closed_at;merged_at;repo_origin;repo_destin;pr_owner;no_commenters;pr_commenters;pr_comments
0;santi8ago8/MercadoLibreNode;3;2016-04-28T12:24:32Z;2016-04-28T13:46:23Z;2016-04-28T13:46:23Z;sebad78/MercadoLibreNode;santi8ago8/MercadoLibreNode;sebad78;1;santi8ago8;"Mi error al no guardarlo.
"
1;santi8ago8/MercadoLibreNode;2;2014-04-15T22:05:08Z;2014-04-15T22:12:51Z;2014-04-15T22:12:51Z;nan;santi8ago8/MercadoLibreNode;armandohg;3;santi8ago8/armandohg/santi8ago8;"Lo probaste y te funcionó? 
 Asi es, ya lo probe.

Pero si puedes probarlo tu tambien antes de hacer merge, pues mejor.
 No tengo entorno de pruebas a mano, así que no puedo probarlo. Confío que funciona.
"
