No;mainline_repo;pr_no;created_at;closed_at;merged_at;repo_origin;repo_destin;pr_owner;no_commenters;pr_commenters;pr_comments
2;solid/oidc-op;16;2019-02-16T17:24:43Z;2019-03-15T00:29:48Z;2019-03-15T00:29:48Z;solid/oidc-op;solid/oidc-op;dmitrizagidulin;3;dmitrizagidulin/dmitrizagidulin/dmitrizagidulin;"This PR adds `defaultRsUri`, the default Resource Server URI as a parameter to the `BaseRequest` class. As discussed in https://github.com/solid/node-solid-server/issues/1082, this gives the ability to issue an AccessToken to the Resource Server, instead of to the RP client.

Ready for review. @cblakeley 
> should aud be an array and also include client_id in addition to defaultRsUri? 

Sure, I don't see why not. I'll add it.

> For an ID token, aud must include client_id, but is this a requirement for access tokens?

Hehe so the problem is - there's no specs for what an access token looks like, so we're on our own, to decide. Seems reasonable tho. @cblakeley ok, the AccessToken's `aud` claim now includes both the resource server uri and the `client_id`.

This should be ready to merge."
3;solid/oidc-op;12;2018-10-13T14:17:12Z;2018-10-15T20:18:37Z;2018-10-15T20:18:37Z;r-peck/oidc-op;solid/oidc-op;r-peck;1;r-peck;@dmitrizagidulin no problem! What is the process for getting this merged?
4;solid/oidc-op;11;2018-10-11T16:22:16Z;2018-11-20T21:36:47Z;2018-11-20T21:36:46Z;OpenLinkSoftware/oidc-op;solid/oidc-op;cblakeley;11;dmitrizagidulin/cblakeley/dmitrizagidulin/dmitrizagidulin/kidehen/cblakeley/kidehen/RubenVerborgh/cblakeley/RubenVerborgh/dmitrizagidulin;"@cblakeley - can you explain a little more what this PR is trying to do? It's not clear from the comments to PR #10. @dimitrizagidulin: Some explanation... I think there are two OIDC logout routines for Solid's OP:

* logout v1: oidc-auth-manager --> host_api.js#logout --> LogoutRequest#handle
* logout v2: oidc-op --> Provider#logout --> RPInitiatedLogoutRequest#handle

I gather logout v2 differs from logout v1 in basically one respect - it validates that any post_logout_redirect_uri, supplied by the RP with an RP-initiated logout request, was pre-registered with the OP. So logout v2 tightens up the OP's adherence to the OIDC spec. logout v1 doesn't check the supplied post_logout_redirect_uri.

At present, Solid uses logout v1, logout v2 isn't being used. This PR fixes logout v2 and https://github.com/solid/node-solid-server/pull/857 modifies Solid to use it. Without https://github.com/solid/node-solid-server/pull/857, /logout appears to bind directly to LogoutRequest#handle, so RPInitiatedLogoutRequest#handle wasn't being invoked.

A call to JWKSet.importKeys was needed to set cryptoKey, otherwise it wasn't set and validation of the id_token_hint failed.
 @cblakeley Great work on all of this in general, I apologize for any confusion. :) This is one of the hardest subsystems we have in Solid, and it certainly doesn't help that the logic is divided into like a half dozen repos. (still reviewing, stand by.) @dmitrizagidulin ,

""still reviewing, stand by""  after 11 days? 

/cc @RubenVerborgh @kjetilk @justinwb  Can this PR please be reviewed, so the fix can be finalized? OpenLink would like to get this revised RP-initiated logout code (which conforms more closely to the spec) into our OPL forks. Because the Solid team may change the implementation of this fix, we'd rather not merge the current implementation into our forks. We'd prefer to hold off until the finalized version is committed to the master Solid repos first, but we've been waiting a while now. (Work on logout related issues started back in June - we'd like to get this whole logout issue finished). 

Impact - OIDC clients will need to be modified to pre-register post_logout_redirect_uris. Any query string parameters currently included with the post_logout_redirect_uri may need to be encoded in the state parameter instead. @kjetilk ,

Please note this item, which relates to your pending release.

/cc @RubenVerborgh @justinwb @dmitrizagidulin  @cblakeley Is there any way you can explain for non-OIDC-experts what this is doing? Something along the lines of ""before this PR, xyz, after this PR, abc"".

The difficulty is that we don't know what ""RPInitiatedLogoutRequest fixes"" precisely means. What is the issue being fixed? I get that https://github.com/solid/oidc-op/pull/11#issuecomment-429031969 is an explanation, but some basic things aren't answered for me. Why is logout route v2 needed? (How) is it better than v1? Should v1 be dropped? @RubenVerborgh @dmitrizagidulin /cc @kidehen @smalinin: 

Before this PR:

* RP initiated logout requests were handled by LogoutRequest#handle (logout v1)
* logout v1 does the job (insofar as the RP session with the OP is destroyed) but it doesn't fully conform to the OIDC spec (https://openid.net/specs/openid-connect-session-1_0.html#RPLogout).
  * It doesn't require RPs to pre-register post-logout redirect URIs.
  * It doesn't validate any `post_logout_redirect_uri` supplied by the RP, by checking it was pre-registered.
  * The `post_logout_redirect_uri` could include arbitrary query string parameters (e.g. for maintaining state), whereas the spec only allows 3 specific parameters.
* Dmitri addressed the above conformance issues by implementing RPInitiatedLogoutRequest#handle (logout v2), but I found problems with RPInitiatedLogoutRequest:
  * The new code wasn't being invoked - the route binding for /logout appeared to me to be still bound to logout v1, not logout v2.
  * Some other bugs in RPInitiatedLogoutRequest

After this PR:

* logout v2 is bound to /logout and is invoked.
* The bugs in the implementation are fixed.
* The post logout redirect URI handling conforms to the spec.
  * The only query parameters allowed with the logout request are: `post_logout_redirect_uri`, `id_token_hint` and `state`.

Impact:

As mentioned previously above, OIDC clients will need to be modified to pre-register `post_logout_redirect_uris` as part of the OIDC RP registration. Any query string parameters currently included with the `post_logout_redirect_uri` may need to be encoded in the state parameter instead.

@dmitrizagidulin commented above that he thought some of my changes in this PR would need refactoring. I'm hoping the core Solid Team can address this. 

HTH Thanks a lot @cblakely, I indeed hope this is sufficient for the team. 👍 from me on this PR."
5;solid/oidc-op;9;2018-08-26T01:04:57Z;2018-08-29T00:08:35Z;2018-08-29T00:08:35Z;solid/oidc-op;solid/oidc-op;justinwb;1;RubenVerborgh;Approved, but we need package-lock.json to be updated before release, and so all dependencies have to be released first.
6;solid/oidc-op;7;2018-06-07T21:34:21Z;2018-09-07T02:29:01Z;2018-09-07T02:29:00Z;solid/oidc-op;solid/oidc-op;dmitrizagidulin;7;dmitrizagidulin/dmitrizagidulin/cblakeley/dmitrizagidulin/kjetilk/kjetilk/dmitrizagidulin;"This is a first pass at implementing a better Logout functionality on the server side. 
What this PR covers:
- Calls the host server's `logout()` (to clear any sessions or whatever)
- Validates `post_logout_redirect_uri` per the spec, and 302 redirects to it if present (along with the `state`)
- Requires `id_token_hint` to be present if `post_logout_redirect_uri` is given (since the token hint is the only way to validate the pre-registered redirect uri).
- Responds with a 204 No Content if no redirect uri is given

Things to do in the next iteration (and things to discuss):
- Doesn't prompt the user for consent to also log out of the home pod
- If no redirect uri is given by the RP client, should we redirect to a pod's default `/goodbye` uri or something? (Instead of just a 204 No Content)
- Possibly consider as a special case post-logout redirect uris if they're on the user's home pod?  Ok, changed it so that if no `post_logout_redirect_uri` is provided by the RP, it looks in the host/OP's defaults (to redirect to `/goodbye`, for example).

PR is mostly ready for review, needs a few more tests though. @dmitrizagidulin : Dmitri,please can you provide an ETA for when https://github.com/solid/oidc-op/pull/7 will be completed and released? 

Of the original pull requests raised by OpenLink 2-3 months ago relating to logout issues, several have been closed with unmerged commits. In these cases, the Solid team has chosen to open new issues and/or pull requests incorporating your own solutions to the base issues. I gather https://github.com/solid/oidc-op/pull/7 includes most or all of this work. We at OpenLink urgently need this PR closed so that we can sync our forks of the Solid repos and avoid the OpenLink forks diverging any further from the Solid masters. If you could see to this we'd be grateful.

/cc @kidehen @RubenVerborgh @smalinin hi @cblakeley,
i can’t speak officially for the solid team as a whole; on my end, it should be ready for the solid-server 5.0 release. Hi! We're having the meeting with @kidehen and we found that this PR should fix the logout problem without merging https://github.com/solid/solid-auth-client/pull/46 (because that PR fixes the problem in the wrong place). 

The problem has been that we haven't felt quite up to the task of reviewing this, so we figured that OpenLink would be better qualified to review it. So, @cblakeley could you please test and review this PR and report back? Make sure that you do not have https://github.com/solid/solid-auth-client/pull/46 running when you test this, since that would make it appear to log out, but it would be the wrong way. I see some conflicts here, but they seem to be mostly about the timeout. Should the timeout be in there, or not?  @kjetilk Thanks for the heads up. I've resolved the conflicts, should be fine now.

(Part of the confusion about the timeouts has to do with -- so this PR moves all the individual timeouts into a single Mocha-wide timeout in `mocha.opts`.)"
