No;mainline_repo;pr_no;created_at;closed_at;merged_at;repo_origin;repo_destin;pr_owner;no_commenters;pr_commenters;pr_comments
10;TeamWertarbyte/material-ui-search-bar;12;2017-08-15T12:39:29Z;2017-08-16T07:27:10Z;2017-08-16T07:27:10Z;nan;TeamWertarbyte/material-ui-search-bar;batazor;1;saschb2b;Thanks. Looks good
11;TeamWertarbyte/material-ui-search-bar;6;2017-06-25T17:29:17Z;2017-06-26T11:38:31Z;2017-06-26T11:38:31Z;bernalrs/material-ui-search-bar;TeamWertarbyte/material-ui-search-bar;bernalrs;2;saschb2b/bernalrs;"Thanks. Please remove the .editorconfig file and don't increase the version.
We increase it with np module to publish it to npm directly and create a tag.
Not every change is a version increase for us.

I like the getStyles function idea. Props specific style handling was quite ugly before. This slims it down. Done: for reference have a look at http://editorconfig.org/
Regards "
