No;mainline_repo;pr_no;created_at;closed_at;merged_at;repo_origin;repo_destin;pr_owner;no_commenters;pr_commenters;pr_comments
0;tjanczuk/edge-sql;6;2014-05-08T17:19:39Z;2014-06-13T18:01:46Z;2014-06-13T18:01:46Z;atifaziz/edge-sql;tjanczuk/edge-sql;atifaziz;1;tjanczuk;"Thanks!
"
1;tjanczuk/edge-sql;5;2014-05-07T09:17:16Z;2014-06-13T18:03:38Z;2014-06-13T18:03:38Z;atifaziz/edge-sql;tjanczuk/edge-sql;atifaziz;1;tjanczuk;"Thanks. What platform are you using edge-sql on?
"
2;tjanczuk/edge-sql;4;2013-12-18T20:41:46Z;2013-12-18T21:15:33Z;2013-12-18T21:15:33Z;jchannon/edge-sql;tjanczuk/edge-sql;jchannon;1;tjanczuk;"Thanks! 
"
3;tjanczuk/edge-sql;2;2013-11-15T03:17:58Z;2014-06-13T18:35:05Z;2014-06-13T18:35:05Z;nan;tjanczuk/edge-sql;mfcollins3;1;MattDrivenDev;":+1: 

@tjanczuk are there any plans to merge this at all? I'd like to make use of it - ideally through an official release :)
"
