No,mainline_repo,pr_no,created_at,merged_at,repo_origin_ml,repo_destin,pr_owner,no_commenters,pr_commenters,pr_comments
0,msimerson/safe-log-reader,28,2019-04-08T01:33:22Z,2019-04-08T07:02:39Z,msimerson/safe-log-reader,msimerson/safe-log-reader,msimerson,1,codecov[bot],"# [Codecov](https://codecov.io/gh/msimerson/safe-log-reader/pull/28?src=pr&el=h1) Report
> Merging [#28](https://codecov.io/gh/msimerson/safe-log-reader/pull/28?src=pr&el=desc) into [master](https://codecov.io/gh/msimerson/safe-log-reader/commit/a84b6092bbe0629ceeefa7652537e67fb00c1104?src=pr&el=desc) will **decrease** coverage by `3.1%`.
> The diff coverage is `85.06%`.

[![Impacted file tree graph](https://codecov.io/gh/msimerson/safe-log-reader/pull/28/graphs/tree.svg?width=650&token=ZGxfHuvPTL&height=150&src=pr)](https://codecov.io/gh/msimerson/safe-log-reader/pull/28?src=pr&el=tree)

```diff
@@            Coverage Diff             @@
##           master      #28      +/-   ##
==========================================
- Coverage   89.09%   85.99%   -3.11%     
==========================================
  Files           4        4              
  Lines         321      307      -14     
  Branches       78       79       +1     
==========================================
- Hits          286      264      -22     
- Misses         35       43       +8
```


| [Impacted Files](https://codecov.io/gh/msimerson/safe-log-reader/pull/28?src=pr&el=tree) | Coverage Δ | |
|---|---|---|
| [lib/line-splitter.js](https://codecov.io/gh/msimerson/safe-log-reader/pull/28/diff?src=pr&el=tree#diff-bGliL2xpbmUtc3BsaXR0ZXIuanM=) | `100% <100%> (ø)` | :arrow_up: |
| [index.js](https://codecov.io/gh/msimerson/safe-log-reader/pull/28/diff?src=pr&el=tree#diff-aW5kZXguanM=) | `84.03% <83.57%> (-4.26%)` | :arrow_down: |
| [lib/bookmark.js](https://codecov.io/gh/msimerson/safe-log-reader/pull/28/diff?src=pr&el=tree#diff-bGliL2Jvb2ttYXJrLmpz) | `85% <83.92%> (-0.72%)` | :arrow_down: |

------

[Continue to review full report at Codecov](https://codecov.io/gh/msimerson/safe-log-reader/pull/28?src=pr&el=continue).
> **Legend** - [Click here to learn more](https://docs.codecov.io/docs/codecov-delta)
> `Δ = absolute <relative> (impact)`, `ø = not affected`, `? = missing data`
> Powered by [Codecov](https://codecov.io/gh/msimerson/safe-log-reader/pull/28?src=pr&el=footer). Last update [a84b609...5ab3281](https://codecov.io/gh/msimerson/safe-log-reader/pull/28?src=pr&el=lastupdated). Read the [comment docs](https://docs.codecov.io/docs/pull-request-comments).
"
1,msimerson/safe-log-reader,27,2017-09-01T11:15:44Z,2019-04-07T23:40:04Z,TidamCo/safe-log-reader,msimerson/safe-log-reader,TidamCo,2,msimerson/codecov[bot],"There are conflicts so I can't merge this PR. If you rebase your master branch against msimerson/master it should resolve the problem. I can help if you need assistance there. # [Codecov](https://codecov.io/gh/msimerson/safe-log-reader/pull/27?src=pr&el=h1) Report
> :exclamation: No coverage uploaded for pull request base (`master@1842b56`). [Click here to learn what that means](https://docs.codecov.io/docs/error-reference#section-missing-base-commit).
> The diff coverage is `91.3%`.

[![Impacted file tree graph](https://codecov.io/gh/msimerson/safe-log-reader/pull/27/graphs/tree.svg?width=650&token=ZGxfHuvPTL&height=150&src=pr)](https://codecov.io/gh/msimerson/safe-log-reader/pull/27?src=pr&el=tree)

```diff
@@            Coverage Diff            @@
##             master      #27   +/-   ##
=========================================
  Coverage          ?   89.09%           
=========================================
  Files             ?        4           
  Lines             ?      321           
  Branches          ?       78           
=========================================
  Hits              ?      286           
  Misses            ?       35           
  Partials          ?        0
```


| [Impacted Files](https://codecov.io/gh/msimerson/safe-log-reader/pull/27?src=pr&el=tree) | Coverage Δ | |
|---|---|---|
| [lib/bookmark.js](https://codecov.io/gh/msimerson/safe-log-reader/pull/27/diff?src=pr&el=tree#diff-bGliL2Jvb2ttYXJrLmpz) | `85.71% <100%> (ø)` | |
| [index.js](https://codecov.io/gh/msimerson/safe-log-reader/pull/27/diff?src=pr&el=tree#diff-aW5kZXguanM=) | `88.28% <89.47%> (ø)` | |

------

[Continue to review full report at Codecov](https://codecov.io/gh/msimerson/safe-log-reader/pull/27?src=pr&el=continue).
> **Legend** - [Click here to learn more](https://docs.codecov.io/docs/codecov-delta)
> `Δ = absolute <relative> (impact)`, `ø = not affected`, `? = missing data`
> Powered by [Codecov](https://codecov.io/gh/msimerson/safe-log-reader/pull/27?src=pr&el=footer). Last update [1842b56...4518d3a](https://codecov.io/gh/msimerson/safe-log-reader/pull/27?src=pr&el=lastupdated). Read the [comment docs](https://docs.codecov.io/docs/pull-request-comments).
"
2,msimerson/safe-log-reader,25,2017-08-22T17:40:18Z,2017-08-22T17:48:20Z,msimerson/safe-log-reader,msimerson/safe-log-reader,msimerson,1,codecov-io,"# [Codecov](https://codecov.io/gh/msimerson/safe-log-reader/pull/25?src=pr&el=h1) Report
> Merging [#25](https://codecov.io/gh/msimerson/safe-log-reader/pull/25?src=pr&el=desc) into [master](https://codecov.io/gh/msimerson/safe-log-reader/commit/3abf3f748e72da752ce2db5a975f1c724ff560a1?src=pr&el=desc) will **decrease** coverage by `0.05%`.
> The diff coverage is `100%`.

[![Impacted file tree graph](https://codecov.io/gh/msimerson/safe-log-reader/pull/25/graphs/tree.svg?width=650&height=150&src=pr&token=9WQEnzt1Ff)](https://codecov.io/gh/msimerson/safe-log-reader/pull/25?src=pr&el=tree)

```diff
@@            Coverage Diff             @@
##           master      #25      +/-   ##
==========================================
- Coverage    90.7%   90.64%   -0.06%     
==========================================
  Files           4        4              
  Lines         312      310       -2     
  Branches       77       76       -1     
==========================================
- Hits          283      281       -2     
  Misses         29       29
```


| [Impacted Files](https://codecov.io/gh/msimerson/safe-log-reader/pull/25?src=pr&el=tree) | Coverage Δ | |
|---|---|---|
| [lib/logger.js](https://codecov.io/gh/msimerson/safe-log-reader/pull/25?src=pr&el=tree#diff-bGliL2xvZ2dlci5qcw==) | `100% <100%> (ø)` | :arrow_up: |

------

[Continue to review full report at Codecov](https://codecov.io/gh/msimerson/safe-log-reader/pull/25?src=pr&el=continue).
> **Legend** - [Click here to learn more](https://docs.codecov.io/docs/codecov-delta)
> `Δ = absolute <relative> (impact)`, `ø = not affected`, `? = missing data`
> Powered by [Codecov](https://codecov.io/gh/msimerson/safe-log-reader/pull/25?src=pr&el=footer). Last update [3abf3f7...58090f4](https://codecov.io/gh/msimerson/safe-log-reader/pull/25?src=pr&el=lastupdated). Read the [comment docs](https://docs.codecov.io/docs/pull-request-comments).
"
3,msimerson/safe-log-reader,24,2017-08-22T08:43:43Z,2017-08-22T17:35:06Z,TidamCo/safe-log-reader,msimerson/safe-log-reader,TidamCo,1,codecov-io,"# [Codecov](https://codecov.io/gh/msimerson/safe-log-reader/pull/24?src=pr&el=h1) Report
> Merging [#24](https://codecov.io/gh/msimerson/safe-log-reader/pull/24?src=pr&el=desc) into [master](https://codecov.io/gh/msimerson/safe-log-reader/commit/92344aeb3ba55a5fe6b6f41ac66ea57eade3fdc2?src=pr&el=desc) will **increase** coverage by `2.28%`.
> The diff coverage is `100%`.

[![Impacted file tree graph](https://codecov.io/gh/msimerson/safe-log-reader/pull/24/graphs/tree.svg?width=650&height=150&src=pr&token=9WQEnzt1Ff)](https://codecov.io/gh/msimerson/safe-log-reader/pull/24?src=pr&el=tree)

```diff
@@            Coverage Diff            @@
##           master     #24      +/-   ##
=========================================
+ Coverage   88.42%   90.7%   +2.28%     
=========================================
  Files           4       4              
  Lines         311     312       +1     
  Branches       77      77              
=========================================
+ Hits          275     283       +8     
+ Misses         36      29       -7
```


| [Impacted Files](https://codecov.io/gh/msimerson/safe-log-reader/pull/24?src=pr&el=tree) | Coverage Δ | |
|---|---|---|
| [index.js](https://codecov.io/gh/msimerson/safe-log-reader/pull/24?src=pr&el=tree#diff-aW5kZXguanM=) | `90.65% <100%> (+3.33%)` | :arrow_up: |

------

[Continue to review full report at Codecov](https://codecov.io/gh/msimerson/safe-log-reader/pull/24?src=pr&el=continue).
> **Legend** - [Click here to learn more](https://docs.codecov.io/docs/codecov-delta)
> `Δ = absolute <relative> (impact)`, `ø = not affected`, `? = missing data`
> Powered by [Codecov](https://codecov.io/gh/msimerson/safe-log-reader/pull/24?src=pr&el=footer). Last update [92344ae...21438b5](https://codecov.io/gh/msimerson/safe-log-reader/pull/24?src=pr&el=lastupdated). Read the [comment docs](https://docs.codecov.io/docs/pull-request-comments).
"
4,msimerson/safe-log-reader,23,2017-08-08T21:18:01Z,2017-08-08T21:44:38Z,msimerson/safe-log-reader,msimerson/safe-log-reader,msimerson,1,codecov-io,"# [Codecov](https://codecov.io/gh/msimerson/safe-log-reader/pull/23?src=pr&el=h1) Report
> :exclamation: No coverage uploaded for pull request base (`master@e81992a`). [Click here to learn what that means](https://docs.codecov.io/docs/error-reference#section-missing-base-commit).
> The diff coverage is `100%`.

[![Impacted file tree graph](https://codecov.io/gh/msimerson/safe-log-reader/pull/23/graphs/tree.svg?src=pr&width=650&token=9WQEnzt1Ff&height=150)](https://codecov.io/gh/msimerson/safe-log-reader/pull/23?src=pr&el=tree)

```diff
@@            Coverage Diff            @@
##             master      #23   +/-   ##
=========================================
  Coverage          ?   88.42%           
=========================================
  Files             ?        4           
  Lines             ?      311           
  Branches          ?       77           
=========================================
  Hits              ?      275           
  Misses            ?       36           
  Partials          ?        0
```


| [Impacted Files](https://codecov.io/gh/msimerson/safe-log-reader/pull/23?src=pr&el=tree) | Coverage Δ | |
|---|---|---|
| [index.js](https://codecov.io/gh/msimerson/safe-log-reader/pull/23?src=pr&el=tree#diff-aW5kZXguanM=) | `87.32% <100%> (ø)` | |

------

[Continue to review full report at Codecov](https://codecov.io/gh/msimerson/safe-log-reader/pull/23?src=pr&el=continue).
> **Legend** - [Click here to learn more](https://docs.codecov.io/docs/codecov-delta)
> `Δ = absolute <relative> (impact)`, `ø = not affected`, `? = missing data`
> Powered by [Codecov](https://codecov.io/gh/msimerson/safe-log-reader/pull/23?src=pr&el=footer). Last update [e81992a...61b1e93](https://codecov.io/gh/msimerson/safe-log-reader/pull/23?src=pr&el=lastupdated). Read the [comment docs](https://docs.codecov.io/docs/pull-request-comments).
"
5,msimerson/safe-log-reader,19,2016-09-17T05:42:32Z,2016-10-19T20:57:46Z,nan,msimerson/safe-log-reader,msimerson,1,codecov-io,"## [Current coverage](https://codecov.io/gh/DoubleCheck/safe-log-reader/pull/19?src=pr) is 88.42% (diff: 86.66%)

> Merging [#19](https://codecov.io/gh/DoubleCheck/safe-log-reader/pull/19?src=pr) into [master](https://codecov.io/gh/DoubleCheck/safe-log-reader/branch/master?src=pr) will increase coverage by **0.26%**

``` diff
@@             master        #19   diff @@
==========================================
  Files             4          4          
  Lines           304        311     +7   
  Methods          58         58          
  Messages          0          0          
  Branches         75         77     +2   
==========================================
+ Hits            268        275     +7   
  Misses           36         36          
  Partials          0          0          
```

> Powered by [Codecov](https://codecov.io?src=pr). Last update [03de84b...2860292](https://codecov.io/gh/DoubleCheck/safe-log-reader/compare/03de84b666d70bef729ce74bf247c80b32c26727...286029237468405af4f45e5ee542fc52f5de0fb0?src=pr)
"
6,msimerson/safe-log-reader,14,2016-07-20T17:40:15Z,2016-07-20T17:47:16Z,nan,msimerson/safe-log-reader,msimerson,1,codecov-io,"## [Current coverage](https://codecov.io/gh/DoubleCheck/safe-log-reader/pull/14?src=pr) is **88.44%**

> Merging [#14](https://codecov.io/gh/DoubleCheck/safe-log-reader/pull/14?src=pr) into [master](https://codecov.io/gh/DoubleCheck/safe-log-reader/branch/master?src=pr) will increase coverage by **0.03%**

``` diff
@@             master        #14   diff @@
==========================================
  Files             4          4          
  Lines           302        303     +1   
  Methods          58         58          
  Messages          0          0          
  Branches         74         75     +1   
==========================================
+ Hits            267        268     +1   
  Misses           35         35          
  Partials          0          0          
```

> Powered by [Codecov](https://codecov.io?src=pr). Last updated by [de090fa...72b876c](https://codecov.io/gh/DoubleCheck/safe-log-reader/compare/de090fa2e2c44b2f71db1249ef4e0d1194114803...72b876c93332630b030ab8ae8327e93a000e3588?src=pr)
"
7,msimerson/safe-log-reader,13,2016-07-20T13:22:38Z,2016-07-20T16:33:15Z,nan,msimerson/safe-log-reader,crazy-man,1,msimerson,"Thanks @crazy-man !
"
8,msimerson/safe-log-reader,8,2015-11-17T04:54:19Z,2015-11-17T05:09:02Z,nan,msimerson/safe-log-reader,msimerson,1,codecov-io,"## [Current coverage](https://codecov.io/github/DoubleCheck/safe-log-reader?ref=916b795fbcc9fb182400405d0a4b06c2f86c7b24) is `90.14%`

> Branch **#8** has no coverage reports uploaded yet.
> 
> No diff could be generated. No reports for `master` found.
> 
> Powered by [Codecov](https://codecov.io). Updated on successful CI builds.
"
9,msimerson/safe-log-reader,5,2015-09-28T04:39:38Z,2015-09-28T17:11:12Z,nan,msimerson/safe-log-reader,msimerson,2,jaredj/msimerson,"should I ignore the reduction in test coverage again?
 Your call. It's a worthy goal and something we definitely want to achieve, but you'll note that I didn't include it in the PR tests that `Require` a pass to merge.
"
