No;variant_repo;pr_no;created_at;closed_at;merged_at;repo_origin_ml;repo_destin;pr_owner;no_commenters;pr_commenters;pr_comments
0;43081j/js-levenshtein;6;2019-02-25T20:08:48Z;2019-02-25T21:40:59Z;2019-02-25T21:40:58Z;43081j/js-levenshtein;43081j/js-levenshtein;43081j;1;43081j;@stramel updated it , added badges and fixed perf part of readme
2;43081j/js-levenshtein;4;2019-02-21T18:13:30Z;2019-02-25T20:50:31Z;2019-02-25T20:50:31Z;stramel/js-levenshtein;43081j/js-levenshtein;stramel;1;43081j;"can you rebase this and take a look at the comments when you get chance @stramel 
ill pull it into the eslint plugin then so we can release."
3;43081j/js-levenshtein;3;2019-02-21T17:49:04Z;2019-02-25T10:34:32Z;;stramel/js-levenshtein;43081j/js-levenshtein;stramel;4;FredKSchott/stramel/FredKSchott/stramel;"Bah, I've seen this `@pika/types` issue before. If you run `npm install` a second time, it should fix it in your existing package lock file. I need to figure out the root issue there. @FredKSchott Seems like it only happens when `npm ci` command is ran. The root issue is that `@pika/types` isn't in your lockfile, so neither `ci` nor `install` will install it. Running `npm install` locally on an existing `package-lock.json`, and then committing that change has solved the issue for me in the past.

Edit: just tried quickly, and adding a second `npm install` step in travis should fix the issue as well. No idea why this is happening, I'll dig in asap.  Posted an issue on @pika/pack added some debugging info that is hopefully useful! https://github.com/pikapkg/pack/issues/23"
