No;variant_repo;pr_no;created_at;closed_at;merged_at;repo_origin_ml;repo_destin;pr_owner;no_commenters;pr_commenters;pr_comments
0;bltavares/karma-notification-reporter;3;2017-01-05T20:46:04Z;2017-01-09T15:51:51Z;2017-01-09T15:51:51Z;sneakypete81/karma-notification-reporter;bltavares/karma-notification-reporter;sneakypete81;3;bltavares/sneakypete81/bltavares;"Hi @sneakypete81, sorry for the delay. 

Would you mind changing the OSX code as well? I would be able to test, and it would come all in one merge as well.

Cheers! No problem, thanks for looking at this.

I've updated the OSX code, and also reduced clutter by only reporting skips if there are any. Thank you! That was a nice addition. Merging."
1;bltavares/karma-notification-reporter;2;2016-03-11T16:07:30Z;2016-04-27T18:05:45Z;;akrikos/karma-notification-reporter;bltavares/karma-notification-reporter;akrikos;5;bltavares/akrikos/bltavares/burabure/bltavares;"Hey @akrikos, thanks for the changes.

I don't have access to the project I used this module there. Have you tested the changes on older versions of npm as well?

Thanks for bumping the version as well (:
 I have not tested on an older client yet. I was hoping to get a coworker to test the change but no one bit on Friday afternoon. I'll try again early next week.
 I'll try to test this on the weekend, but if your coworker could provide some feedback before I'll happily merge this.

Thanks!
 We're using @akrikos's fork for our team and it solved the issue for us. @bltavares can we convince you to merge this and publish the new version to npm?
 Sure thing. I will do that. Thanks for the work @akrikos and for saying it is working fine @burabure 
"
2;bltavares/karma-notification-reporter;1;2015-11-01T03:46:21Z;2015-11-01T06:00:10Z;2015-11-01T06:00:10Z;rogeriochaves/karma-notification-reporter;bltavares/karma-notification-reporter;rogeriochaves;1;bltavares;"Thank you!
"
