No;variant_repo;pr_no;created_at;closed_at;merged_at;repo_origin_ml;repo_destin;pr_owner;no_commenters;pr_commenters;pr_comments
0;gilbert/authport;3;2016-10-11T20:03:01Z;2017-10-10T00:27:27Z;2017-10-10T00:27:27Z;charlieperson/authport;gilbert/authport;charlieperson;1;gilbert;Not sure how I missed this, thanks!
1;gilbert/authport;2;2016-08-23T16:57:07Z;2016-08-23T16:58:27Z;2016-08-23T16:58:27Z;ezcheung/authport;gilbert/authport;ezcheung;1;gilbert;"Thanks!
"
2;gilbert/authport;1;2016-08-16T20:05:49Z;2016-08-23T16:56:29Z;2016-08-23T16:56:29Z;syqs/authport;gilbert/authport;syqs;1;syqs;"apparently have nothing better to do
"
