No;variant_repo;pr_no;created_at;closed_at;merged_at;repo_origin_ml;repo_destin;pr_owner;no_commenters;pr_commenters;pr_comments
0;heyitsmeuralex/nanochoo;3;2018-08-30T08:21:20Z;2018-09-04T19:00:27Z;2018-09-04T19:00:27Z;goto-bus-stop/choo;nanaian/nanochoo;goto-bus-stop;1;nanaian;:heart:
2;heyitsmeuralex/nanochoo;1;2018-02-16T05:13:48Z;2018-02-16T08:29:10Z;2018-02-16T08:29:10Z;;nanaian/nanochoo;ungoldman;1;nanaian;Awesome, thanks for this.
