No;variant_repo;pr_no;created_at;closed_at;merged_at;repo_origin_ml;repo_destin;pr_owner;no_commenters;pr_commenters;pr_comments
1;hybridgroup/spheron;4;2014-11-17T19:13:19Z;2014-11-17T19:14:04Z;2014-11-17T19:14:04Z;hybridgroup/spheron;hybridgroup/spheron;stewart;1;deadprogram;":+1: 
"
2;hybridgroup/spheron;3;2014-04-11T01:56:41Z;2014-04-11T02:14:49Z;2014-04-11T02:14:49Z;hybridgroup/spheron;hybridgroup/spheron;edgarsilva;1;stewart;":+1: will be awesome to have actual locator data to play with. Thanks!
"
3;hybridgroup/spheron;2;2013-12-10T07:18:42Z;2013-12-11T01:43:08Z;2013-12-11T01:43:08Z;caleboller/spheron;hybridgroup/spheron;caleboller;2;caleboller/edgarsilva;"Hey Edgar, 

I've updated the code as you requested. I also made the callback optional so that it won't break any existing code. Thanks for the feedback!
 Looks good. Merging.
"
4;hybridgroup/spheron;1;2013-10-25T23:10:50Z;2013-10-26T01:07:20Z;2013-10-26T01:07:20Z;hybridgroup/spheron;hybridgroup/spheron;edgarsilva;1;deadprogram;":volcano: 
"
