No;variant_repo;pr_no;created_at;closed_at;merged_at;repo_origin_ml;repo_destin;pr_owner;no_commenters;pr_commenters;pr_comments
1;JoshDSommer/nativescript-ngx-shadow;11;2019-01-03T15:37:01Z;2019-01-04T15:51:28Z;2019-01-04T15:51:28Z;micflan/nativescript-ngx-shadow;JoshDSommer/nativescript-ngx-shadow;micflan;1;JoshDSommer;Awesome thank you @micflan!
2;JoshDSommer/nativescript-ngx-shadow;9;2018-11-14T13:23:14Z;2018-11-17T12:28:48Z;2018-11-17T12:28:48Z;edusperoni/nativescript-ngx-shadow;JoshDSommer/nativescript-ngx-shadow;edusperoni;2;edusperoni/JoshDSommer;I think this is pretty minor, provably just a patch. Perfomance gain should be very small (since loaded/unloaded will usually run outside angular's zone and won't trigger cd), the main thing this fixes is we don't have to put some `*ngIf`s around to make sure it doesn't break the listviews Sounds good, thanks again @edusperoni 
3;JoshDSommer/nativescript-ngx-shadow;8;2018-09-18T17:52:41Z;2018-10-05T00:42:39Z;2018-10-05T00:42:39Z;edusperoni/nativescript-ngx-shadow;JoshDSommer/nativescript-ngx-shadow;edusperoni;1;patrick-nurt;@TheOriginalJosh can this be merged?
5;JoshDSommer/nativescript-ngx-shadow;3;2018-07-10T16:22:16Z;2018-07-14T13:10:05Z;2018-07-14T13:10:05Z;edusperoni/nativescript-ngx-shadow;JoshDSommer/nativescript-ngx-shadow;edusperoni;1;edusperoni;@TheOriginalJosh I've tested it thoroughly, but I recommend you do the same in case I missed anything
