No;variant_repo;pr_no;created_at;closed_at;merged_at;repo_origin_ml;repo_destin;pr_owner;no_commenters;pr_commenters;pr_comments
2;laurelandwolf/react-tokeninput;4;2016-12-20T03:46:36Z;2017-01-05T19:40:05Z;2017-01-05T19:40:05Z;laurelandwolf/react-tokeninput;laurelandwolf/react-tokeninput;maiamachine;5;dbslone/maiamachine/maiamachine/qaiken/garronmichael;@maiamachine @garronmichael One other thing worth mentioning is in the last PR #3 the dependency for react was bumped to v15, we should probably downgrade the dependencies as well so that the version number can be bumped and used in our production application. @garronmichael @dbslone Please take another look at this.  I've updated this so that the combobox file takes in an optional inputKeydown object and then will combine it with a default map of keys using Object.assign().  If someone using this library wants to remove a default, they can pass in null for that key.  The library is already set up to do nothing if it doesn't find a valid value for a key. @garronmichael I removed the console log so should be good once @dbslone and @qaiken review @maiamachine I think we still need to downgrade the react dependency per @dbslone's comment @maiamachine We should bump the version number to `2.2.0` so the existing code on decoraid does not break. 
4;laurelandwolf/react-tokeninput;2;2016-05-24T23:59:17Z;2016-05-25T00:00:56Z;2016-05-25T00:00:56Z;laurelandwolf/react-tokeninput;laurelandwolf/react-tokeninput;michaelgraham;1;garronmichael;"👍 
"
