No;variant_repo;pr_no;created_at;closed_at;merged_at;repo_origin_ml;repo_destin;pr_owner;no_commenters;pr_commenters;pr_comments
1;mkormendy/homebridge-node-alarm-dot-com;44;2020-07-15T19:02:41Z;2020-07-15T23:18:45Z;2020-07-15T23:18:45Z;;node-alarm-dot-com/homebridge-node-alarm-dot-com;DMBlakeley;1;mkormendy;Whoops, sorry about that, thanks for catching.
3;mkormendy/homebridge-node-alarm-dot-com;38;2020-05-10T19:33:57Z;2020-05-11T18:13:52Z;;;node-alarm-dot-com/homebridge-node-alarm-dot-com;DMBlakeley;1;DMBlakeley;Hold on this merge as proposal results in fault during homebridge start.
4;mkormendy/homebridge-node-alarm-dot-com;36;2020-05-05T16:39:37Z;2020-05-08T01:32:14Z;2020-05-08T01:32:14Z;;node-alarm-dot-com/homebridge-node-alarm-dot-com;cap10morgan;7;DMBlakeley/cap10morgan/DMBlakeley/DMBlakeley/cap10morgan/DMBlakeley/mkormendy;"config.schema.json as proposed is not complete. ""armingModes"" is not included. Optional elements ""authTimeoutMinutes"" and ""pollTimeoutSeconds"" are also not included.

I am looking at implementing these elements. @DMBlakeley Yeah, I didn't intend to add all of them right away. You can still add them the usual way even with this. But feel free to add them yourself. It shouldn't block merging this, though, IMO. I recently submitted a config.schema.json implementation for `homebridge-awair` for consideration. When I did the Awair implementation, the interface picked up config values that already existed in config.json.  This was not the case with the `homebridge-node-alarm-dot-com` version.

Poking around a bit I found that ""platform"" in the config.json file needed to be `""platform"": ""AlarmDotCom""` rather than ""platform"": ""Alarmdotcom"" as stated in the `README.md` file. The first line of the schema file also needs to match (no spaces). These changes should probably be made also.

Also, can you clarify if  Arming Modes are required or optional? Further update ...

""platform"" in the config.json file and ""pluginAlias"" in the schema file need to match. As the README.md file states ""Alarmdotcom"" just change ""pluinAlias"" to match and all is good.

Also, do see that Arming Modes have default values and as a result are optional.
 > just change ""pluinAlias"" to match and all is good

Done. Did that end up being the only change needed? Yes, for the required parameters to work. I'm not ready to pull this into the main repo yet, I am waiting for one of the people I am testing the lights configuration to get back from being out of town and then I can test the changes I have made to fix that issue first before adding this. Plus there are a couple of other changes that need to be grouped with this implementation so it will be verified as working with Config UI X."
6;mkormendy/homebridge-node-alarm-dot-com;34;2020-04-13T16:58:53Z;2020-04-13T17:10:08Z;;dvalenzuela/homebridge-frontpoint;node-alarm-dot-com/homebridge-node-alarm-dot-com;dvalenzuela;1;mkormendy;I have these changes in a code update coming already.
