No;variant_repo;pr_no;created_at;closed_at;merged_at;repo_origin_ml;repo_destin;pr_owner;no_commenters;pr_commenters;pr_comments
0;mtscout6/moment-precise-range;6;2016-07-06T10:17:56Z;2016-07-06T18:40:22Z;2016-07-06T18:40:22Z;Reasonable-Solutions/moment-precise-range;mtscout6/moment-precise-range;Reasonable-Solutions;2;coveralls/mtscout6;"[![Coverage Status](https://coveralls.io/builds/6886407/badge)](https://coveralls.io/builds/6886407)

Coverage increased (+0.06%) to 98.333% when pulling **ca4d1d7a6646c6afa3dbb083d403a3fd071e9621 on CHedgren:master** into **1e3d6e9fb7e31b80844f365450bb3a6fb5f05cc8 on mtscout6:master**.
 LGTM
"
1;mtscout6/moment-precise-range;5;2016-03-24T12:12:31Z;2016-03-24T15:05:00Z;2016-03-24T15:05:00Z;psulek/moment-precise-range;mtscout6/moment-precise-range;psulek;2;coveralls/mtscout6;"[![Coverage Status](https://coveralls.io/builds/5533102/badge)](https://coveralls.io/builds/5533102)

Coverage increased (+0.03%) to 98.276% when pulling **80123fa04b02ebe3684386fa9b4efdbea8160b9d on psulek:master** into **bfd387e079a5620f12f1e6d72c96b177ce79b6e0 on mtscout6:master**.
 I like where you took it. Do you feel comfortable releasing this as 1.0.0 on npm? I'll add you as a collaborator to this repo and the npm package.
"
3;mtscout6/moment-precise-range;3;2015-07-02T16:27:50Z;2015-07-02T18:12:47Z;2015-07-02T18:12:47Z;LucioFranco/moment-precise-range;mtscout6/moment-precise-range;LucioFranco;1;mtscout6;"Good catch, thanks
"
