No;variant_repo;pr_no;created_at;closed_at;merged_at;repo_origin_ml;repo_destin;pr_owner;no_commenters;pr_commenters;pr_comments
0;Place1/node-gir;42;2018-06-03T05:34:21Z;2018-07-07T13:51:21Z;2018-07-07T13:51:21Z;Place1/node-gir;Place1/node-gir;Place1;1;Place1;"I'll merge this after integrating it with #41 
currently the tests sometimes segfault but i'm fairly sure it's due to the issue #41 solves"
1;Place1/node-gir;41;2018-06-01T18:54:40Z;2018-06-04T08:13:21Z;2018-06-04T08:13:21Z;backwards-rat-race/node-gir;Place1/node-gir;backwards-rat-race;7;Place1/backwards-rat-race/Place1/Place1/backwards-rat-race/Place1/backwards-rat-race;"hey thanks for the PR! All looks well.

I'm just trying to understand the solution a bit more in depth: if the values in the `prepared_js_classes` map no longer reset their memory when the destroyed, what's cleaning up this memory?

The other solution you showed seemed to do the opposite of this solution:

```
PreparedJsClasses::~PreparedJsClasses() {
    for(auto & kv : this->classes) {
        kv.second.Empty();
    }
    this->classes.clear();
}
```

I originally thought this fixed the problem because it was clearing the memory but then I had a closer look at the snippet you posted back in the issue

```
template <class T>
void PersistentBase<T>::Reset() {
  if (this->IsEmpty()) return;
  V8::DisposeGlobal(reinterpret_cast<internal::Object**>(this->val_));
  val_ = 0;
}
```

Did your first solution work because it marked the Persistent as empty so that the guard `this->IsEmpty()` resulted in an early return rather than letting the `reinterpret_cast` seg fault.

If so, was `reinterpret_cast<internal::Object**>(this->val_)` segfaulting because `this->val_` was free'd by glib/gtk somehow? Is that line of thought the reasoning behind [this comment](https://github.com/Place1/node-gir/pull/41/files#diff-772f489c7d0a32de3badbfbcb5fd200dR25) in your PR? Yeah exactly. I noticed when debugging that the memory was invalid after a call to `gtk.mainQuit` but not `process.exit`. Calling `.Empty` was stopping the cast from happening on the invalid memory. 

This changes in this PR stop that function being called at all by adding the custom trait. But this does actually mean that calling `process.exit` may cause memory leaks as it won't be doing the reset anymore even if the memory address is valid.

So might be best to go back to the drawing board for this one :(
  > But this does actually mean that calling process.exit may cause memory leaks as it won't be doing the reset anymore even if the memory address is valid

Yeah I'm thinking that too. That's a tough issue. Idk what particular things Gtk is cleaning up from under us. I was expecting that all the memory in that map should belong to node-gir but i suppose i'm wrong. to be honest though, there are tons of memory issues in node-gir right now, for example, where we create the GIRStructs we ref the struct info twice [1](https://github.com/Place1/node-gir/blob/f9642a2b2294691acf29222502cc57252236b867/src/types/struct.cpp#L64) [2](https://github.com/Place1/node-gir/blob/f9642a2b2294691acf29222502cc57252236b867/src/types/struct.cpp#L67), not sure why we do it twice. And we clearly don't unref anywhere so your solution isn't bad by comparison. Leaking memory on process.exit isn't the worst thing about this libs memory management :P

I'm still leaning towards merging this because it does fix the segfault and the segfault is making tests randomly fail. @Place1 I've added a commit to the pr to have a full wrapper around the Persistent Map as originally planned. This should fix the possibility of a memory leak on process.exit as the memory is still being cleaned up. And looking at the v8 documentation it appears this is probably the correct way to go about it;
> Where a Local handle only lives as long as the HandleScope in which it was allocated, a PersistentBase handle remains valid until it is explicitly disposed.

The new wrapper is a 'full' generic wrapper around the map, with the map itself being a private member. I prefer it this way with the map not being directly accessed, but don't know which way you'd prefer it to be implemented? :) I think this is good. I also like the full wrapper approach because we can reuse the abstraction for other object template caching.

Im happy to merge if you are :) Yeah I’m happy with it. As far as I can tell from the sparse v8 documentation it seems the correct way to go about it."
2;Place1/node-gir;39;2018-03-10T16:42:48Z;2018-03-23T04:37:23Z;2018-03-23T04:37:23Z;cedlemo/node-gir;Place1/node-gir;cedlemo;4;ewnd9/cedlemo/Place1/ewnd9;"Please run `$ npm run lint` for formatting @ewnd9 ,

done Want me to merge? I think every pull request is intended to be merged if not stated otherwise (e.g. failed state reproduction or work in progress).

By the way I've published a lot of automatically converted examples via codemod https://github.com/ewnd9/playground-gtk-javascript/tree/master/examples/universal-gtk-examples for my simple wrapper which combines `node-gir` with `cgjs` https://github.com/ewnd9/playground-gtk-javascript/blob/master/src/universal-gtk/index.js (it's a work in progress, I am going to add automatic report of failed ones when have time)"
3;Place1/node-gir;38;2018-02-19T13:57:27Z;2018-02-21T09:06:05Z;;clayrisser/node-gir;Place1/node-gir;clayrisser;2;ewnd9/clayrisser;"Is it not working for you (without full paths)? Shortcuts in npm scripts are available since a long time https://docs.npmjs.com/cli/run-script

> or example, if there is a devDependency on tap in your package, you should write:
> ""scripts"": {""test"": ""tap test/\*.js""}
> instead of
> ""scripts"": {""test"": ""node_modules/.bin/tap test/\*.js""}   

**update**: clarification I knew that was the case with yarn, but didn't know it worked with npm."
13;Place1/node-gir;17;2018-02-10T15:07:28Z;2018-02-11T02:21:40Z;;clayrisser/node-gir;Place1/node-gir;clayrisser;3;clayrisser/ewnd9/Place1;"This fixes issue #16  There is also an eslint plugin https://github.com/prettier/eslint-plugin-prettier although the project only contains cpp linting now  i'd be keen to add eslint with the plugin to be honest.
@jamrizzi would you like to update this PR to add eslint with the prettier plugin (as well as npm script for linting js code)."
14;Place1/node-gir;14;2018-01-23T00:17:21Z;2018-02-12T22:00:05Z;2018-02-12T22:00:05Z;ewnd9/node-gir;Place1/node-gir;ewnd9;13;Place1/Place1/ewnd9/ewnd9/Place1/ewnd9/Place1/Place1/ewnd9/Place1/ewnd9/Place1/ewnd9;"Hey thanks for this. I'm a bit strapped for time but i'll get to this.
 @ewnd9 if you allow maintainers to commit to this pull request I can make the changes @Place1 Sorry for keeping you waiting. Updated now.

> Would be good to create seperate setups for linux/mac/windows integration tests

I suppose there would be different cases, `keybinder` library is `x11` based for example.

> document what people need to install to run them

Not sure what the wording should be for documentation (a full list of dependencies and tested distros or just a reference to the CI config or something else?), so left just a command in README. FYI After forgotten rebase I see the following error in the main tests (introduced in https://github.com/Place1/node-gir/commit/768d369741abaca6c70c01fe180cd103f0b4d9fa)

```txt
 FAIL  __tests__/struct.test.js
  ● struct › constructors › can be constructed using properties object

    expect(received).toEqual(expected)
    
    Expected value to equal:
      10
    Received:
      0

      17 |       });
      18 |       expect(typeof(rectangle)).toEqual('object');
    > 19 |       expect(rectangle.width).toEqual(10);
      20 |       expect(rectangle.height).toEqual(20);
      21 |       expect(rectangle.x).toEqual(0);
      22 |       expect(rectangle.y).toEqual(-5);
      
      at Object.test (__tests__/struct.test.js:19:31)


 RUNS  __tests__/callbacks.test.js
*** Error in `node': free(): invalid pointer: 0x0000000002fccbb0 ***
======= Backtrace: =========
/lib/x86_64-linux-gnu/libc.so.6(+0x777e5)[0x7f53a6dd87e5]
/lib/x86_64-linux-gnu/libc.so.6(+0x8037a)[0x7f53a6de137a]
/lib/x86_64-linux-gnu/libc.so.6(cfree+0x4c)[0x7f53a6de553c]
/usr/lib/x86_64-linux-gnu/libgobject-2.0.so.0(g_boxed_free+0x13b)[0x7f53a46c1e6b]
/home/ewnd9/github/gtk-node/place1-node-gir/build/Release/girepository.node(_ZN3gir9GIRStructD2Ev+0x99)[0x7f53a4b51c69]
/home/ewnd9/github/gtk-node/place1-node-gir/build/Release/girepository.node(_ZN3gir9GIRStructD0Ev+0x11)[0x7f53a4b51cb1]
node(_ZN2v88internal13GlobalHandles31DispatchPendingPhantomCallbacksEb+0xee)[0xe7b61e]
node(_ZN2v88internal13GlobalHandles31PostGarbageCollectionProcessingENS0_16GarbageCollectorENS_15GCCallbackFlagsE+0x2a)[0xe7b88a]
node(_ZN2v88internal4Heap24PerformGarbageCollectionENS0_16GarbageCollectorENS_15GCCallbackFlagsE+0x2be)[0xea6c0e]
node(_ZN2v88internal4Heap14CollectGarbageENS0_15AllocationSpaceENS0_23GarbageCollectionReasonENS_15GCCallbackFlagsE+0x3a1)[0xea79e1]
node(_ZN2v88internal7Factory13NewFixedArrayEiNS0_13PretenureFlagE+0x4e)[0xe4b4de]
``` Good point. Perhaps it’s not worth automating the examples. We’d have so
many for different environments. Perhaps we can focus on unit tests and
examples.

On Mon, 29 Jan 2018 at 1:37 am, ewnd9 <notifications@github.com> wrote:

> FYI After forgotten rebase I see the following error in the main tests
> (introduced in 768d369
> <https://github.com/Place1/node-gir/commit/768d369741abaca6c70c01fe180cd103f0b4d9fa>
> )
>
>  FAIL  __tests__/struct.test.js
>   ● struct › constructors › can be constructed using properties object
>
>     expect(received).toEqual(expected)
>
>     Expected value to equal:
>       10
>     Received:
>       0
>
>       17 |       });
>       18 |       expect(typeof(rectangle)).toEqual('object');
>     > 19 |       expect(rectangle.width).toEqual(10);
>       20 |       expect(rectangle.height).toEqual(20);
>       21 |       expect(rectangle.x).toEqual(0);
>       22 |       expect(rectangle.y).toEqual(-5);
>
>       at Object.test (__tests__/struct.test.js:19:31)
>
>
>  RUNS  __tests__/callbacks.test.js
> *** Error in `node': free(): invalid pointer: 0x0000000002fccbb0 ***
> ======= Backtrace: =========
> /lib/x86_64-linux-gnu/libc.so.6(+0x777e5)[0x7f53a6dd87e5]
> /lib/x86_64-linux-gnu/libc.so.6(+0x8037a)[0x7f53a6de137a]
> /lib/x86_64-linux-gnu/libc.so.6(cfree+0x4c)[0x7f53a6de553c]
> /usr/lib/x86_64-linux-gnu/libgobject-2.0.so.0(g_boxed_free+0x13b)[0x7f53a46c1e6b]
> /home/ewnd9/github/gtk-node/place1-node-gir/build/Release/girepository.node(_ZN3gir9GIRStructD2Ev+0x99)[0x7f53a4b51c69]
> /home/ewnd9/github/gtk-node/place1-node-gir/build/Release/girepository.node(_ZN3gir9GIRStructD0Ev+0x11)[0x7f53a4b51cb1]
> node(_ZN2v88internal13GlobalHandles31DispatchPendingPhantomCallbacksEb+0xee)[0xe7b61e]
> node(_ZN2v88internal13GlobalHandles31PostGarbageCollectionProcessingENS0_16GarbageCollectorENS_15GCCallbackFlagsE+0x2a)[0xe7b88a]
> node(_ZN2v88internal4Heap24PerformGarbageCollectionENS0_16GarbageCollectorENS_15GCCallbackFlagsE+0x2be)[0xea6c0e]
> node(_ZN2v88internal4Heap14CollectGarbageENS0_15AllocationSpaceENS0_23GarbageCollectionReasonENS_15GCCallbackFlagsE+0x3a1)[0xea79e1]
> node(_ZN2v88internal7Factory13NewFixedArrayEiNS0_13PretenureFlagE+0x4e)[0xe4b4de]
>
> —
> You are receiving this because you were mentioned.
>
>
> Reply to this email directly, view it on GitHub
> <https://github.com/Place1/node-gir/pull/14#issuecomment-361067677>, or mute
> the thread
> <https://github.com/notifications/unsubscribe-auth/ALMBlqL5O0jCobgJefw4bZnvUmh1NrGbks5tPIYjgaJpZM4Ro3CD>
> .
>
 Automating isn't hard and one time task though, so I think it makes sense at least to start with basic examples for each platform for ensuring stability (right now there is only Linux/Debian).

With the separate builds it shouldn't bother too much. idk, doesn't feel like it's worth it because I want to avoid writing big examples with complicated setup requirements and runtimes. The test in question is essentially a unittest https://github.com/Place1/node-gir/blob/768d369741abaca6c70c01fe180cd103f0b4d9fa/src/closure.cpp#L35 for this function, but there are ways of achieving the same test with just GTK/GLib. I understand that integration tests are important but I'd rather achieve them without having them restricted to an environment. i've fixed this on master Yay, working for me :tada: What do you want me to do with this PR now? Discard all the changes except `examples/keybinder.js`? Yeah let’s keep the example for others to see 😀

On Mon, 29 Jan 2018 at 6:38 pm, ewnd9 <notifications@github.com> wrote:

> Yay, working for me 🎉 What do you want me to do with this PR now?
> Discard all the changes except examples/keybinder.js?
>
> —
> You are receiving this because you were mentioned.
>
>
> Reply to this email directly, view it on GitHub
> <https://github.com/Place1/node-gir/pull/14#issuecomment-361162469>, or mute
> the thread
> <https://github.com/notifications/unsubscribe-auth/ALMBlkl1l3RLdR7xOiYsI-y0JCq00Jzaks5tPXV1gaJpZM4Ro3CD>
> .
>
 @Place1 Updated are we happy to merge this in @ewnd9 ? Yep :+1:"
