No;variant_repo;pr_no;created_at;closed_at;merged_at;repo_origin_ml;repo_destin;pr_owner;no_commenters;pr_commenters;pr_comments
0;randytarampi/ios-splash-generate;28;2020-05-02T01:10:16Z;2020-05-02T21:44:12Z;;randytarampi/ios-splash-generate;randytarampi/ios-splash-generate;snyk-bot;2;pull-assistant[bot]/codeclimate[bot];"
<img align=""right"" src=""https://pullassistant.com/assets/score10.svg"" alt=""Score: 1.00""/>

Best reviewed:  **commit by commit** 
___
<details>
<summary>
Optimal code review plan 
<br/>
<br/>
</summary>
   
    
&nbsp;&nbsp;&nbsp;&nbsp;&nbsp;<a href=""https://github.com/randytarampi/ios-splash-generate/pull/28/commits/d26d2feacbd8065b9681e7c39c9c46573b4d9086"">fix: upgrade @randy.tarampi/generic-icon-splash-generate from 2.0.0 to...</a>
   
   
    
&nbsp;&nbsp;&nbsp;&nbsp;&nbsp;<a href=""https://github.com/randytarampi/ios-splash-generate/pull/28/commits/a36a81d0e3d3746d598fb0a5ed8bee9207e9b397"">fix: upgrade @randy.tarampi/generic-icon-splash-generate from 2.0.0 to...</a>
   
   
</details>

> Powered by [Pull Assistant](https://pullassistant.com). Last update [d26d2fe](https://github.com/randytarampi/ios-splash-generate/commit/d26d2feacbd8065b9681e7c39c9c46573b4d9086) ... [a36a81d](https://github.com/randytarampi/ios-splash-generate/commit/a36a81d0e3d3746d598fb0a5ed8bee9207e9b397). Read the [comment docs](https://pullassistant.com).
 Code Climate has analyzed commit a36a81d0 and detected **0 issues** on this pull request.

View more on [Code Climate](https://codeclimate.com/github/randytarampi/ios-splash-generate/pull/28).
"
1;randytarampi/ios-splash-generate;27;2020-05-01T01:11:40Z;2020-05-01T06:00:05Z;2020-05-01T06:00:04Z;randytarampi/ios-splash-generate;randytarampi/ios-splash-generate;snyk-bot;1;codeclimate[bot];"Code Climate has analyzed commit f7824f20 and detected **0 issues** on this pull request.

View more on [Code Climate](https://codeclimate.com/github/randytarampi/ios-splash-generate/pull/27).
"
2;randytarampi/ios-splash-generate;26;2020-04-29T01:19:55Z;2020-04-29T17:51:37Z;2020-04-29T17:51:37Z;randytarampi/ios-splash-generate;randytarampi/ios-splash-generate;snyk-bot;2;pull-assistant[bot]/codeclimate[bot];"
<img align=""right"" src=""https://pullassistant.com/assets/score10.svg"" alt=""Score: 1.00""/>

Best reviewed:  **commit by commit** 
___
<details>
<summary>
Optimal code review plan 
<br/>
<br/>
</summary>
   
    
&nbsp;&nbsp;&nbsp;&nbsp;&nbsp;<a href=""https://github.com/randytarampi/ios-splash-generate/pull/26/commits/08d143dfc924418a5d59e62f5f19f933dca9f43d"">fix: upgrade @semantic-release/changelog from 5.0.0 to 5.0.1</a>
   
   
    
&nbsp;&nbsp;&nbsp;&nbsp;&nbsp;<a href=""https://github.com/randytarampi/ios-splash-generate/pull/26/commits/04a78bd39ea6ee8af9dee8fab57c5f317a75357c"">fix: upgrade @semantic-release/changelog from 5.0.0 to 5.0.1</a>
   
   
</details>

> Powered by [Pull Assistant](https://pullassistant.com). Last update [08d143d](https://github.com/randytarampi/ios-splash-generate/commit/08d143dfc924418a5d59e62f5f19f933dca9f43d) ... [04a78bd](https://github.com/randytarampi/ios-splash-generate/commit/04a78bd39ea6ee8af9dee8fab57c5f317a75357c). Read the [comment docs](https://pullassistant.com).
 Code Climate has analyzed commit 04a78bd3 and detected **0 issues** on this pull request.

View more on [Code Climate](https://codeclimate.com/github/randytarampi/ios-splash-generate/pull/26).
"
3;randytarampi/ios-splash-generate;25;2020-04-29T01:19:49Z;2020-04-29T17:53:54Z;2020-04-29T17:53:54Z;randytarampi/ios-splash-generate;randytarampi/ios-splash-generate;snyk-bot;2;pull-assistant[bot]/codeclimate[bot];"
<img align=""right"" src=""https://pullassistant.com/assets/score10.svg"" alt=""Score: 1.00""/>

Best reviewed:  **commit by commit** 
___
<details>
<summary>
Optimal code review plan 
<br/>
<br/>
</summary>
   
    
&nbsp;&nbsp;&nbsp;&nbsp;&nbsp;<a href=""https://github.com/randytarampi/ios-splash-generate/pull/25/commits/91f8dc61fb18fe2ee1207b40469da693b1e56ee0"">fix: upgrade @randy.tarampi/ios-splash from 3.1.0 to 3.1.1</a>
   
   
    
&nbsp;&nbsp;&nbsp;&nbsp;&nbsp;<a href=""https://github.com/randytarampi/ios-splash-generate/pull/25/commits/a7853927ad6fd0dc6af889a8a96fcd303855bd72"">fix: upgrade @randy.tarampi/ios-splash from 3.1.0 to 3.1.1</a>
   
   
    
&nbsp;&nbsp;&nbsp;&nbsp;&nbsp;<a href=""https://github.com/randytarampi/ios-splash-generate/pull/25/commits/106ab49d37246099856fe0f40b1f76aaca15201a"">Merge branch &#39;master&#39; into snyk-upgrade-9dccd8c5e9f83e6cce95e7356dc988...</a>
   
   
</details>

> Powered by [Pull Assistant](https://pullassistant.com). Last update [91f8dc6](https://github.com/randytarampi/ios-splash-generate/commit/91f8dc61fb18fe2ee1207b40469da693b1e56ee0) ... [106ab49](https://github.com/randytarampi/ios-splash-generate/commit/106ab49d37246099856fe0f40b1f76aaca15201a). Read the [comment docs](https://pullassistant.com).
 Code Climate has analyzed commit a7853927 and detected **0 issues** on this pull request.

View more on [Code Climate](https://codeclimate.com/github/randytarampi/ios-splash-generate/pull/25).
"
4;randytarampi/ios-splash-generate;24;2020-04-29T01:19:42Z;2020-04-29T17:52:04Z;2020-04-29T17:52:04Z;randytarampi/ios-splash-generate;randytarampi/ios-splash-generate;snyk-bot;2;pull-assistant[bot]/codeclimate[bot];"
<img align=""right"" src=""https://pullassistant.com/assets/score10.svg"" alt=""Score: 1.00""/>

Best reviewed:  **commit by commit** 
___
<details>
<summary>
Optimal code review plan 
<br/>
<br/>
</summary>
   
    
&nbsp;&nbsp;&nbsp;&nbsp;&nbsp;<a href=""https://github.com/randytarampi/ios-splash-generate/pull/24/commits/74bfdb75c1b8ee6f554972b6aaaa164684d6ae4d"">fix: upgrade standard from 14.3.1 to 14.3.3</a>
   
   
    
&nbsp;&nbsp;&nbsp;&nbsp;&nbsp;<a href=""https://github.com/randytarampi/ios-splash-generate/pull/24/commits/04998c49c2cb85a8b529e36c254d9f4764b4e56e"">fix: upgrade standard from 14.3.1 to 14.3.3</a>
   
   
</details>

> Powered by [Pull Assistant](https://pullassistant.com). Last update [74bfdb7](https://github.com/randytarampi/ios-splash-generate/commit/74bfdb75c1b8ee6f554972b6aaaa164684d6ae4d) ... [04998c4](https://github.com/randytarampi/ios-splash-generate/commit/04998c49c2cb85a8b529e36c254d9f4764b4e56e). Read the [comment docs](https://pullassistant.com).
 Code Climate has analyzed commit 04998c49 and detected **0 issues** on this pull request.

View more on [Code Climate](https://codeclimate.com/github/randytarampi/ios-splash-generate/pull/24).
"
5;randytarampi/ios-splash-generate;23;2020-04-29T01:19:34Z;2020-04-29T17:51:53Z;2020-04-29T17:51:52Z;randytarampi/ios-splash-generate;randytarampi/ios-splash-generate;snyk-bot;2;pull-assistant[bot]/codeclimate[bot];"
<img align=""right"" src=""https://pullassistant.com/assets/score10.svg"" alt=""Score: 1.00""/>

Best reviewed:  **commit by commit** 
___
<details>
<summary>
Optimal code review plan 
<br/>
<br/>
</summary>
   
    
&nbsp;&nbsp;&nbsp;&nbsp;&nbsp;<a href=""https://github.com/randytarampi/ios-splash-generate/pull/23/commits/47a20de9304987a1f4004340ad5ccd28e1e21e3a"">fix: upgrade rimraf from 3.0.0 to 3.0.2</a>
   
   
    
&nbsp;&nbsp;&nbsp;&nbsp;&nbsp;<a href=""https://github.com/randytarampi/ios-splash-generate/pull/23/commits/9b0f9c7dd9ca715b161e6df02f25e71c26d3f3c4"">fix: upgrade rimraf from 3.0.0 to 3.0.2</a>
   
   
</details>

> Powered by [Pull Assistant](https://pullassistant.com). Last update [47a20de](https://github.com/randytarampi/ios-splash-generate/commit/47a20de9304987a1f4004340ad5ccd28e1e21e3a) ... [9b0f9c7](https://github.com/randytarampi/ios-splash-generate/commit/9b0f9c7dd9ca715b161e6df02f25e71c26d3f3c4). Read the [comment docs](https://pullassistant.com).
 Code Climate has analyzed commit 9b0f9c7d and detected **0 issues** on this pull request.

View more on [Code Climate](https://codeclimate.com/github/randytarampi/ios-splash-generate/pull/23).
"
6;randytarampi/ios-splash-generate;22;2020-04-29T01:19:28Z;2020-04-29T17:53:03Z;2020-04-29T17:53:03Z;randytarampi/ios-splash-generate;randytarampi/ios-splash-generate;snyk-bot;2;pull-assistant[bot]/codeclimate[bot];"
<img align=""right"" src=""https://pullassistant.com/assets/score10.svg"" alt=""Score: 1.00""/>

Best reviewed:  **commit by commit** 
___
<details>
<summary>
Optimal code review plan 
<br/>
<br/>
</summary>
   
    
&nbsp;&nbsp;&nbsp;&nbsp;&nbsp;<a href=""https://github.com/randytarampi/ios-splash-generate/pull/22/commits/e4cf7a55f126acaada9643587a0a7e9c7a4d7fa5"">fix: upgrade semantic-release from 17.0.0 to 17.0.7</a>
   
   
    
&nbsp;&nbsp;&nbsp;&nbsp;&nbsp;<a href=""https://github.com/randytarampi/ios-splash-generate/pull/22/commits/14498e234763dc276347a7fe6c8071a11585edb8"">fix: upgrade semantic-release from 17.0.0 to 17.0.7</a>
   
   
    
&nbsp;&nbsp;&nbsp;&nbsp;&nbsp;<a href=""https://github.com/randytarampi/ios-splash-generate/pull/22/commits/fe13fe3fa98af551c92a18d3ecc6fb7afeebb1c3"">Merge branch &#39;master&#39; into snyk-upgrade-489e06e2dd27bbb2bfaa2221e0ad75...</a>
   
   
</details>

> Powered by [Pull Assistant](https://pullassistant.com). Last update [e4cf7a5](https://github.com/randytarampi/ios-splash-generate/commit/e4cf7a55f126acaada9643587a0a7e9c7a4d7fa5) ... [fe13fe3](https://github.com/randytarampi/ios-splash-generate/commit/fe13fe3fa98af551c92a18d3ecc6fb7afeebb1c3). Read the [comment docs](https://pullassistant.com).
 Code Climate has analyzed commit 14498e23 and detected **0 issues** on this pull request.

View more on [Code Climate](https://codeclimate.com/github/randytarampi/ios-splash-generate/pull/22).
"
7;randytarampi/ios-splash-generate;21;2020-04-28T14:53:25Z;2020-04-29T17:36:30Z;2020-04-29T17:36:30Z;randytarampi/ios-splash-generate;randytarampi/ios-splash-generate;greenkeeper[bot];2;pull-assistant[bot]/codeclimate[bot];"
<img align=""right"" src=""https://pullassistant.com/assets/score10.svg"" alt=""Score: 1.00""/>

Best reviewed:  **commit by commit** 
___
<details>
<summary>
Optimal code review plan 
<br/>
<br/>
</summary>
   
    
&nbsp;&nbsp;&nbsp;&nbsp;&nbsp;<a href=""https://github.com/randytarampi/ios-splash-generate/pull/21/commits/dac4ef21ad23380016594286e91aaa22b59f0947"">chore(readme): remove Greenkeeper badge</a>
   
   
    
&nbsp;&nbsp;&nbsp;&nbsp;&nbsp;<a href=""https://github.com/randytarampi/ios-splash-generate/pull/21/commits/d28bb6e0b35a6c958c1c684e8c6ed4b46de316c3"">chore(package): remove Greenkeeper section</a>
   
   
</details>

> Powered by [Pull Assistant](https://pullassistant.com). Last update [dac4ef2](https://github.com/randytarampi/ios-splash-generate/commit/dac4ef21ad23380016594286e91aaa22b59f0947) ... [d28bb6e](https://github.com/randytarampi/ios-splash-generate/commit/d28bb6e0b35a6c958c1c684e8c6ed4b46de316c3). Read the [comment docs](https://pullassistant.com).
 Code Climate has analyzed commit d28bb6e0 and detected **0 issues** on this pull request.

View more on [Code Climate](https://codeclimate.com/github/randytarampi/ios-splash-generate/pull/21).
"
8;randytarampi/ios-splash-generate;20;2020-04-25T19:33:25Z;2020-04-25T21:07:00Z;2020-04-25T21:06:59Z;randytarampi/ios-splash-generate;randytarampi/ios-splash-generate;greenkeeper[bot];2;pull-assistant[bot]/codeclimate[bot];"
<img align=""right"" src=""https://pullassistant.com/assets/score10.svg"" alt=""Score: 1.00""/>

Best reviewed:  **commit by commit** 
___
<details>
<summary>
Optimal code review plan 
<br/>
<br/>
</summary>
   
    
&nbsp;&nbsp;&nbsp;&nbsp;&nbsp;<a href=""https://github.com/randytarampi/ios-splash-generate/pull/20/commits/d162644d036c5d63a947bfe6225b5376a2168f0b"">chore(greenkeeper): @randy.tarampi/generic-icon-splash-generate@2.0.0.</a>
   
   
    
&nbsp;&nbsp;&nbsp;&nbsp;&nbsp;<a href=""https://github.com/randytarampi/ios-splash-generate/pull/20/commits/17c25b17fd0bdf63a5c5052f74651f7a8aab2c2c"">chore(package): update lockfile package-lock.json</a>
   
   
</details>

> Powered by [Pull Assistant](https://pullassistant.com). Last update [d162644](https://github.com/randytarampi/ios-splash-generate/commit/d162644d036c5d63a947bfe6225b5376a2168f0b) ... [17c25b1](https://github.com/randytarampi/ios-splash-generate/commit/17c25b17fd0bdf63a5c5052f74651f7a8aab2c2c). Read the [comment docs](https://pullassistant.com).
 Code Climate has analyzed commit 17c25b17 and detected **0 issues** on this pull request.

View more on [Code Climate](https://codeclimate.com/github/randytarampi/ios-splash-generate/pull/20).
"
9;randytarampi/ios-splash-generate;19;2020-04-24T22:05:07Z;2020-04-25T16:49:05Z;2020-04-25T16:49:05Z;randytarampi/ios-splash-generate;randytarampi/ios-splash-generate;greenkeeper[bot];2;pull-assistant[bot]/codeclimate[bot];"
<img align=""right"" src=""https://pullassistant.com/assets/score10.svg"" alt=""Score: 1.00""/>

Best reviewed:  **commit by commit** 
___
<details>
<summary>
Optimal code review plan 
<br/>
<br/>
</summary>
   
    
&nbsp;&nbsp;&nbsp;&nbsp;&nbsp;<a href=""https://github.com/randytarampi/ios-splash-generate/pull/19/commits/166d03c42b24c6ad4028716485e9b1e01426295d"">chore(greenkeeper): tape@5.0.0.</a>
   
   
    
&nbsp;&nbsp;&nbsp;&nbsp;&nbsp;<a href=""https://github.com/randytarampi/ios-splash-generate/pull/19/commits/95ec0c017233ba83e2de6b96585b1d0d62e384c9"">chore(package): update lockfile package-lock.json</a>
   
   
</details>

> Powered by [Pull Assistant](https://pullassistant.com). Last update [166d03c](https://github.com/randytarampi/ios-splash-generate/commit/166d03c42b24c6ad4028716485e9b1e01426295d) ... [95ec0c0](https://github.com/randytarampi/ios-splash-generate/commit/95ec0c017233ba83e2de6b96585b1d0d62e384c9). Read the [comment docs](https://pullassistant.com).
 Code Climate has analyzed commit 95ec0c01 and detected **0 issues** on this pull request.

View more on [Code Climate](https://codeclimate.com/github/randytarampi/ios-splash-generate/pull/19).
"
10;randytarampi/ios-splash-generate;18;2020-04-19T20:23:55Z;2020-04-25T18:40:14Z;2020-04-25T18:40:14Z;randytarampi/ios-splash-generate;randytarampi/ios-splash-generate;randytarampi;2;pull-assistant[bot]/codeclimate[bot];"
<img align=""right"" src=""https://pullassistant.com/assets/score10.svg"" alt=""Score: 1.00""/>

Best reviewed:  **commit by commit** 
___
<details>
<summary>
Optimal code review plan 
<br/>
<br/>
</summary>
   
    
&nbsp;&nbsp;&nbsp;&nbsp;&nbsp;<a href=""https://github.com/randytarampi/ios-splash-generate/pull/18/commits/64004040829fda376213f845d8d417671521ee1f"">chore(greenkeeper): mkdirp@1.0.4.</a>
   
   
    
&nbsp;&nbsp;&nbsp;&nbsp;&nbsp;<a href=""https://github.com/randytarampi/ios-splash-generate/pull/18/commits/13767ccc5dd1a32a0be3c9918a8db1d74f18013e"">chore(package): update lockfile package-lock.json</a>
   
   
    
&nbsp;&nbsp;&nbsp;&nbsp;&nbsp;<a href=""https://github.com/randytarampi/ios-splash-generate/pull/18/commits/821084653030939995127dea1356c799f695930f"">chore(package): Fix tests for mkdirp@1.0.4.</a>
   
   
    
&nbsp;&nbsp;&nbsp;&nbsp;&nbsp;<a href=""https://github.com/randytarampi/ios-splash-generate/pull/18/commits/4fa04afcbe33a2614480777d766a274681d8c621"">Merge branch &#39;master&#39; into greenkeeper/mkdirp-1.0.4</a>
   
   
</details>

> Powered by [Pull Assistant](https://pullassistant.com). Last update [6400404](https://github.com/randytarampi/ios-splash-generate/commit/64004040829fda376213f845d8d417671521ee1f) ... [4fa04af](https://github.com/randytarampi/ios-splash-generate/commit/4fa04afcbe33a2614480777d766a274681d8c621). Read the [comment docs](https://pullassistant.com).
 Code Climate has analyzed commit 82108465 and detected **0 issues** on this pull request.

View more on [Code Climate](https://codeclimate.com/github/randytarampi/ios-splash-generate/pull/18).
"
11;randytarampi/ios-splash-generate;17;2020-03-11T23:36:46Z;2020-04-19T20:48:08Z;2020-04-19T20:48:08Z;randytarampi/ios-splash-generate;randytarampi/ios-splash-generate;snyk-bot;2;pull-assistant[bot]/codeclimate[bot];"
<img align=""right"" src=""https://pullassistant.com/assets/score10.svg"" alt=""Score: 1.00""/>

Best reviewed:  **commit by commit** 
___
<details>
<summary>
Optimal code review plan 
<br/>
<br/>
</summary>
   
    
&nbsp;&nbsp;&nbsp;&nbsp;&nbsp;<a href=""https://github.com/randytarampi/ios-splash-generate/pull/17/commits/e9d822f21f92d130c279c642e69e7643412aa9f0"">fix: package.json &amp; package-lock.json to reduce vulnerabilities</a>
   
   
</details>

> Powered by [Pull Assistant](https://pullassistant.com). Last update [e9d822f](https://github.com/randytarampi/ios-splash-generate/commit/e9d822f21f92d130c279c642e69e7643412aa9f0) ... [e9d822f](https://github.com/randytarampi/ios-splash-generate/commit/e9d822f21f92d130c279c642e69e7643412aa9f0). Read the [comment docs](https://pullassistant.com).
 Code Climate has analyzed commit e9d822f2 and detected **0 issues** on this pull request.

View more on [Code Climate](https://codeclimate.com/github/randytarampi/ios-splash-generate/pull/17).
"
12;randytarampi/ios-splash-generate;16;2020-01-27T23:09:25Z;2020-02-16T19:43:30Z;2020-02-16T19:43:29Z;randytarampi/ios-splash-generate;randytarampi/ios-splash-generate;greenkeeper[bot];2;pull-assistant[bot]/codeclimate[bot];"
<img align=""right"" src=""https://pullassistant.com/assets/score10.svg"" alt=""Score: 1.00""/>

Best reviewed:  **commit by commit** 
___
<details>
<summary>
Optimal code review plan 
<br/>
<br/>
</summary>
   
    
&nbsp;&nbsp;&nbsp;&nbsp;&nbsp;<a href=""https://github.com/randytarampi/ios-splash-generate/pull/16/commits/76929994dc4bb051c2065d5bda59e9e871aa65ea"">chore(greenkeeper): @semantic-release/changelog@5.0.0.</a>
   
   
    
&nbsp;&nbsp;&nbsp;&nbsp;&nbsp;<a href=""https://github.com/randytarampi/ios-splash-generate/pull/16/commits/5e5fb0cab7fad7bebb98d65ee1cf527eb751c505"">chore(package): update lockfile package-lock.json</a>
   
   
</details>

> Powered by [Pull Assistant](https://pullassistant.com). Last update [7692999](https://github.com/randytarampi/ios-splash-generate/commit/76929994dc4bb051c2065d5bda59e9e871aa65ea) ... [5e5fb0c](https://github.com/randytarampi/ios-splash-generate/commit/5e5fb0cab7fad7bebb98d65ee1cf527eb751c505). Read the [comment docs](https://pullassistant.com).
 Code Climate has analyzed commit 5e5fb0ca and detected **0 issues** on this pull request.

View more on [Code Climate](https://codeclimate.com/github/randytarampi/ios-splash-generate/pull/16).
"
13;randytarampi/ios-splash-generate;15;2020-01-27T22:30:41Z;2020-02-16T19:44:07Z;2020-02-16T19:44:07Z;randytarampi/ios-splash-generate;randytarampi/ios-splash-generate;greenkeeper[bot];2;pull-assistant[bot]/codeclimate[bot];"
<img align=""right"" src=""https://pullassistant.com/assets/score10.svg"" alt=""Score: 1.00""/>

Best reviewed:  **commit by commit** 
___
<details>
<summary>
Optimal code review plan 
<br/>
<br/>
</summary>
   
    
&nbsp;&nbsp;&nbsp;&nbsp;&nbsp;<a href=""https://github.com/randytarampi/ios-splash-generate/pull/15/commits/cf101e149fe8a3ab06564705eee270c310c36d2f"">chore(greenkeeper): @semantic-release/git@9.0.0.</a>
   
   
    
&nbsp;&nbsp;&nbsp;&nbsp;&nbsp;<a href=""https://github.com/randytarampi/ios-splash-generate/pull/15/commits/298d522c872e230f48a3da7fb6e9bde861d03ea8"">chore(package): update lockfile package-lock.json</a>
   
   
    
&nbsp;&nbsp;&nbsp;&nbsp;&nbsp;<a href=""https://github.com/randytarampi/ios-splash-generate/pull/15/commits/2b070f277f0a638135485c877bce1fff04da7da7"">Merge branch &#39;master&#39; into greenkeeper/@semantic-release/git-9.0.0</a>
   
   
</details>

> Powered by [Pull Assistant](https://pullassistant.com). Last update [cf101e1](https://github.com/randytarampi/ios-splash-generate/commit/cf101e149fe8a3ab06564705eee270c310c36d2f) ... [2b070f2](https://github.com/randytarampi/ios-splash-generate/commit/2b070f277f0a638135485c877bce1fff04da7da7). Read the [comment docs](https://pullassistant.com).
 Code Climate has analyzed commit 298d522c and detected **0 issues** on this pull request.

View more on [Code Climate](https://codeclimate.com/github/randytarampi/ios-splash-generate/pull/15).
"
14;randytarampi/ios-splash-generate;14;2020-01-27T21:48:15Z;2020-02-16T19:43:08Z;2020-02-16T19:43:08Z;randytarampi/ios-splash-generate;randytarampi/ios-splash-generate;greenkeeper[bot];5;pull-assistant[bot]/codeclimate[bot]/greenkeeper[bot]/greenkeeper[bot]/greenkeeper[bot];"
<img align=""right"" src=""https://pullassistant.com/assets/score10.svg"" alt=""Score: 1.00""/>

Best reviewed:  **commit by commit** 
___
<details>
<summary>
Optimal code review plan 
<br/>
<br/>
</summary>
   
    
&nbsp;&nbsp;&nbsp;&nbsp;&nbsp;<a href=""https://github.com/randytarampi/ios-splash-generate/pull/14/commits/548ca44661df8a2b3ac0ee3fe0eaa802e4496a95"">chore(greenkeeper): semantic-release@17.0.0.</a>
   
   
    
&nbsp;&nbsp;&nbsp;&nbsp;&nbsp;<a href=""https://github.com/randytarampi/ios-splash-generate/pull/14/commits/f3675acc09eda7d97eb5ff6eff340d49dbc2873a"">chore(package): update lockfile package-lock.json</a>
   
   
</details>

> Powered by [Pull Assistant](https://pullassistant.com). Last update [548ca44](https://github.com/randytarampi/ios-splash-generate/commit/548ca44661df8a2b3ac0ee3fe0eaa802e4496a95) ... [f3675ac](https://github.com/randytarampi/ios-splash-generate/commit/f3675acc09eda7d97eb5ff6eff340d49dbc2873a). Read the [comment docs](https://pullassistant.com).
 Code Climate has analyzed commit f3675acc and detected **0 issues** on this pull request.

View more on [Code Climate](https://codeclimate.com/github/randytarampi/ios-splash-generate/pull/14).
 - The `devDependency` [semantic-release](https://github.com/semantic-release/semantic-release) was updated from `16.0.4` to `17.0.1`.

[Update to this version instead 🚀](https://github.com/randytarampi/ios-splash-generate/compare/master...randytarampi:greenkeeper%2Fsemantic-release-17.0.1) 
 

<details>
<summary>Release Notes for v17.0.1</summary>

<h2><a href=""https://urls.greenkeeper.io/semantic-release/semantic-release/compare/v17.0.0...v17.0.1"">17.0.1</a> (2020-01-28)</h2>
<h3>Bug Fixes</h3>
<ul>
<li><strong>package:</strong> update @semantic-release/commit-analyzer to version 8.0.0 (<a href=""https://urls.greenkeeper.io/semantic-release/semantic-release/commit/45695b9183fa488f64e49e291b01c13b7f3319fb"">45695b9</a>)</li>
<li><strong>package:</strong> update @semantic-release/github to version 7.0.0 (<a href=""https://urls.greenkeeper.io/semantic-release/semantic-release/commit/c48bd3ac36561f137a7b7766c0308dd4e72cfad7"">c48bd3a</a>)</li>
<li><strong>package:</strong> update @semantic-release/npm to version 7.0.0 (<a href=""https://urls.greenkeeper.io/semantic-release/semantic-release/commit/f2b5826c0c57e32910f9257f932f51066a7f9421"">f2b5826</a>)</li>
<li><strong>package:</strong> update @semantic-release/release-notes-generator to version 9.0.0 (<a href=""https://urls.greenkeeper.io/semantic-release/semantic-release/commit/3c7b114eed8fc8b4d31e22c2dc69b7e8e6dca3cf"">3c7b114</a>)</li>
</ul>
</details>

<details>
<summary>Commits</summary>
<p>The new version differs by 6 commits.</p>
<ul>
<li><a href=""https://urls.greenkeeper.io/semantic-release/semantic-release/commit/45695b9183fa488f64e49e291b01c13b7f3319fb""><code>45695b9</code></a> <code>fix(package): update @semantic-release/commit-analyzer to version 8.0.0</code></li>
<li><a href=""https://urls.greenkeeper.io/semantic-release/semantic-release/commit/3c7b114eed8fc8b4d31e22c2dc69b7e8e6dca3cf""><code>3c7b114</code></a> <code>fix(package): update @semantic-release/release-notes-generator to version 9.0.0</code></li>
<li><a href=""https://urls.greenkeeper.io/semantic-release/semantic-release/commit/f2b5826c0c57e32910f9257f932f51066a7f9421""><code>f2b5826</code></a> <code>fix(package): update @semantic-release/npm to version 7.0.0</code></li>
<li><a href=""https://urls.greenkeeper.io/semantic-release/semantic-release/commit/c48bd3ac36561f137a7b7766c0308dd4e72cfad7""><code>c48bd3a</code></a> <code>fix(package): update @semantic-release/github to version 7.0.0</code></li>
<li><a href=""https://urls.greenkeeper.io/semantic-release/semantic-release/commit/bc97537c9771afe2477d8337ee9c4d5f382d33c9""><code>bc97537</code></a> <code>test: fix copy/paste typo in test titles</code></li>
<li><a href=""https://urls.greenkeeper.io/semantic-release/semantic-release/commit/c7e461dc1cce6cf3bdb625a7a44c834f225b3fd7""><code>c7e461d</code></a> <code>docs: add <code>@saithodev/semantic-release-gitea</code> to community plugins</code></li>
</ul>
<p>See the <a href=""https://urls.greenkeeper.io/semantic-release/semantic-release/compare/ef1b8a0b910b81070a600c8c772434ec345812dd...45695b9183fa488f64e49e291b01c13b7f3319fb"">full diff</a></p>
</details> - The `devDependency` [semantic-release](https://github.com/semantic-release/semantic-release) was updated from `16.0.4` to `17.0.2`.

[Update to this version instead 🚀](https://github.com/randytarampi/ios-splash-generate/compare/master...randytarampi:greenkeeper%2Fsemantic-release-17.0.2) - The `devDependency` [semantic-release](https://github.com/semantic-release/semantic-release) was updated from `16.0.4` to `17.0.3`.

[Update to this version instead 🚀](https://github.com/randytarampi/ios-splash-generate/compare/master...randytarampi:greenkeeper%2Fsemantic-release-17.0.3)"
15;randytarampi/ios-splash-generate;13;2020-01-24T20:34:55Z;2020-04-25T18:40:15Z;;randytarampi/ios-splash-generate;randytarampi/ios-splash-generate;greenkeeper[bot];6;pull-assistant[bot]/codeclimate[bot]/greenkeeper[bot]/greenkeeper[bot]/greenkeeper[bot]/greenkeeper[bot];"
<img align=""right"" src=""https://pullassistant.com/assets/score10.svg"" alt=""Score: 1.00""/>

Best reviewed:  **commit by commit** 
___
<details>
<summary>
Optimal code review plan 
<br/>
<br/>
</summary>
   
    
&nbsp;&nbsp;&nbsp;&nbsp;&nbsp;<a href=""https://github.com/randytarampi/ios-splash-generate/pull/13/commits/03b96050241ba6c059ae556e2077af83ff3d3309"">chore(greenkeeper): mkdirp@1.0.0.</a>
   
   
    
&nbsp;&nbsp;&nbsp;&nbsp;&nbsp;<a href=""https://github.com/randytarampi/ios-splash-generate/pull/13/commits/1611ec8cf1e2745ccf4fb0468e7948ddf4a348ff"">chore(package): update lockfile package-lock.json</a>
   
   
</details>

> Powered by [Pull Assistant](https://pullassistant.com). Last update [03b9605](https://github.com/randytarampi/ios-splash-generate/commit/03b96050241ba6c059ae556e2077af83ff3d3309) ... [1611ec8](https://github.com/randytarampi/ios-splash-generate/commit/1611ec8cf1e2745ccf4fb0468e7948ddf4a348ff). Read the [comment docs](https://pullassistant.com).
 Code Climate has analyzed commit 1611ec8c and detected **0 issues** on this pull request.

View more on [Code Climate](https://codeclimate.com/github/randytarampi/ios-splash-generate/pull/13).
 - The `devDependency` [mkdirp](https://github.com/isaacs/node-mkdirp) was updated from `0.5.1` to `1.0.1`.

[Update to this version instead 🚀](https://github.com/randytarampi/ios-splash-generate/compare/master...randytarampi:greenkeeper%2Fmkdirp-1.0.1) 
 

<details>
<summary>Commits</summary>
<p>The new version differs by 2 commits.</p>
<ul>
<li><a href=""https://urls.greenkeeper.io/isaacs/node-mkdirp/commit/ab8b7548c444aab9b883f83f23806a6ff641ed72""><code>ab8b754</code></a> <code>1.0.1</code></li>
<li><a href=""https://urls.greenkeeper.io/isaacs/node-mkdirp/commit/73f8f380b4dcf30da41a5fe54132037bece40589""><code>73f8f38</code></a> <code>add files list to package.json</code></li>
</ul>
<p>See the <a href=""https://urls.greenkeeper.io/isaacs/node-mkdirp/compare/1b64c7bdb6eb4d28ac4c019e19f9a93a8338c14d...ab8b7548c444aab9b883f83f23806a6ff641ed72"">full diff</a></p>
</details> - The `devDependency` [mkdirp](https://github.com/isaacs/node-mkdirp) was updated from `0.5.1` to `1.0.2`.

[Update to this version instead 🚀](https://github.com/randytarampi/ios-splash-generate/compare/master...randytarampi:greenkeeper%2Fmkdirp-1.0.2) - The `devDependency` [mkdirp](https://github.com/isaacs/node-mkdirp) was updated from `0.5.1` to `1.0.3`.

[Update to this version instead 🚀](https://github.com/randytarampi/ios-splash-generate/compare/master...randytarampi:greenkeeper%2Fmkdirp-1.0.3) - The `devDependency` [mkdirp](https://github.com/isaacs/node-mkdirp) was updated from `0.5.4` to `1.0.4`.

[Update to this version instead 🚀](https://github.com/randytarampi/ios-splash-generate/compare/master...randytarampi:greenkeeper%2Fmkdirp-1.0.4)"
16;randytarampi/ios-splash-generate;12;2020-01-09T21:02:42Z;2020-01-10T06:16:44Z;2020-01-10T06:16:44Z;randytarampi/ios-splash-generate;randytarampi/ios-splash-generate;greenkeeper[bot];2;pull-assistant[bot]/codeclimate[bot];"
<img align=""right"" src=""https://pullassistant.com/assets/score10.svg"" alt=""Score: 1.00""/>

Best reviewed:  **commit by commit** 
___
<details>
<summary>
Optimal code review plan 
<br/>
<br/>
</summary>
   
    
&nbsp;&nbsp;&nbsp;&nbsp;&nbsp;<a href=""https://github.com/randytarampi/ios-splash-generate/pull/12/commits/b4375b0325cef8e321528090f8a3776651f4a36d"">chore(package): update semantic-release to version 16.0.0</a>
   
   
    
&nbsp;&nbsp;&nbsp;&nbsp;&nbsp;<a href=""https://github.com/randytarampi/ios-splash-generate/pull/12/commits/8982f1dc86f4b7693ce5b1a3f35bb0c3eb879d76"">chore(package): update lockfile package-lock.json</a>
   
   
</details>

> Powered by [Pull Assistant](https://pullassistant.com). Last update [b4375b0](https://github.com/randytarampi/ios-splash-generate/commit/b4375b0325cef8e321528090f8a3776651f4a36d) ... [8982f1d](https://github.com/randytarampi/ios-splash-generate/commit/8982f1dc86f4b7693ce5b1a3f35bb0c3eb879d76). Read the [comment docs](https://pullassistant.com).
 Code Climate has analyzed commit 8982f1dc and detected **0 issues** on this pull request.

View more on [Code Climate](https://codeclimate.com/github/randytarampi/ios-splash-generate/pull/12).
"
17;randytarampi/ios-splash-generate;11;2019-08-14T18:34:55Z;2020-01-06T06:53:27Z;;randytarampi/ios-splash-generate;randytarampi/ios-splash-generate;greenkeeper[bot];1;codeclimate[bot];"Code Climate has analyzed commit 632297a6 and detected **0 issues** on this pull request.

View more on [Code Climate](https://codeclimate.com/github/randytarampi/ios-splash-generate/pull/11).
"
18;randytarampi/ios-splash-generate;9;2019-07-11T21:34:02Z;2020-01-06T06:53:26Z;;randytarampi/ios-splash-generate;randytarampi/ios-splash-generate;greenkeeper[bot];10;codeclimate[bot]/greenkeeper[bot]/greenkeeper[bot]/greenkeeper[bot]/greenkeeper[bot]/greenkeeper[bot]/greenkeeper[bot]/greenkeeper[bot]/greenkeeper[bot]/greenkeeper[bot];"Code Climate has analyzed commit 920dac35 and detected **0 issues** on this pull request.

View more on [Code Climate](https://codeclimate.com/github/randytarampi/ios-splash-generate/pull/9).
 - The `devDependency` [standard](https://github.com/standard/standard) was updated from `12.0.1` to `13.0.2`.

[Update to this version instead 🚀](https://github.com/randytarampi/ios-splash-generate/compare/master...randytarampi:greenkeeper%2Fstandard-13.0.2) 
 

<details>
<summary>Commits</summary>
<p>The new version differs by 7 commits.</p>
<ul>
<li><a href=""https://urls.greenkeeper.io/standard/standard/commit/9539d71e3a7ee42fbcd3f69cd9bcc21983d54592""><code>9539d71</code></a> <code>13.0.2</code></li>
<li><a href=""https://urls.greenkeeper.io/standard/standard/commit/9b9d0fc999003d8a328cc42303da697456f9aed2""><code>9b9d0fc</code></a> <code>changelog</code></li>
<li><a href=""https://urls.greenkeeper.io/standard/standard/commit/d1d0b7ad3c21364d0dbe9e4f624fc4cc0538fce9""><code>d1d0b7a</code></a> <code>Fix global installs: standard-engine@~11.0.1</code></li>
<li><a href=""https://urls.greenkeeper.io/standard/standard/commit/edce3f397e17803f3fd071fc5a121a870873ce06""><code>edce3f3</code></a> <code>Merge pull request #1323 from standard/greenkeeper/standard-engine-11.0.0</code></li>
<li><a href=""https://urls.greenkeeper.io/standard/standard/commit/2f3c712d728b4c151844f8ee0d7595b939ba45b3""><code>2f3c712</code></a> <code>fix tests for standard-engine 11</code></li>
<li><a href=""https://urls.greenkeeper.io/standard/standard/commit/ae04dbb9ed92a3332a4e40cad537c1c81fe86777""><code>ae04dbb</code></a> <code>Cleanup the readme</code></li>
<li><a href=""https://urls.greenkeeper.io/standard/standard/commit/0474066af00c505c388dff6700f3ff36f025ec19""><code>0474066</code></a> <code>fix(package): update standard-engine to version 11.0.0</code></li>
</ul>
<p>See the <a href=""https://urls.greenkeeper.io/standard/standard/compare/c713e2eae76e56d77829c0e06a77fdc8cd7cdc66...9539d71e3a7ee42fbcd3f69cd9bcc21983d54592"">full diff</a></p>
</details> - The `devDependency` [standard](https://github.com/standard/standard) was updated from `12.0.1` to `13.1.0`.

[Update to this version instead 🚀](https://github.com/randytarampi/ios-splash-generate/compare/master...randytarampi:greenkeeper%2Fstandard-13.1.0) - The `devDependency` [standard](https://github.com/standard/standard) was updated from `12.0.1` to `14.0.0`.

[Update to this version instead 🚀](https://github.com/randytarampi/ios-splash-generate/compare/master...randytarampi:greenkeeper%2Fstandard-14.0.0) - The `devDependency` [standard](https://github.com/standard/standard) was updated from `12.0.1` to `14.0.1`.

[Update to this version instead 🚀](https://github.com/randytarampi/ios-splash-generate/compare/master...randytarampi:greenkeeper%2Fstandard-14.0.1) - The `devDependency` [standard](https://github.com/standard/standard) was updated from `12.0.1` to `14.0.2`.

[Update to this version instead 🚀](https://github.com/randytarampi/ios-splash-generate/compare/master...randytarampi:greenkeeper%2Fstandard-14.0.2) - The `devDependency` [standard](https://github.com/standard/standard) was updated from `12.0.1` to `14.1.0`.

[Update to this version instead 🚀](https://github.com/randytarampi/ios-splash-generate/compare/master...randytarampi:greenkeeper%2Fstandard-14.1.0) - The `devDependency` [standard](https://github.com/standard/standard) was updated from `12.0.1` to `14.2.0`.

[Update to this version instead 🚀](https://github.com/randytarampi/ios-splash-generate/compare/master...randytarampi:greenkeeper%2Fstandard-14.2.0) - The `devDependency` [standard](https://github.com/standard/standard) was updated from `12.0.1` to `14.3.0`.

[Update to this version instead 🚀](https://github.com/randytarampi/ios-splash-generate/compare/master...randytarampi:greenkeeper%2Fstandard-14.3.0) - The `devDependency` [standard](https://github.com/standard/standard) was updated from `12.0.1` to `14.3.1`.

[Update to this version instead 🚀](https://github.com/randytarampi/ios-splash-generate/compare/master...randytarampi:greenkeeper%2Fstandard-14.3.1)"
19;randytarampi/ios-splash-generate;2;2019-03-10T23:38:32Z;2019-03-11T04:25:09Z;;randytarampi/ios-splash-generate;randytarampi/ios-splash-generate;snyk-bot;2;codeclimate[bot]/randytarampi;"Code Climate has analyzed commit f806c4e1 and detected **0 issues** on this pull request.

View more on [Code Climate](https://codeclimate.com/github/randytarampi/ios-splash-generate/pull/2).
 Closed in 596ea4335e9875e3813917ec673fa7e84d6bd7f7."
20;randytarampi/ios-splash-generate;1;2019-03-10T21:02:20Z;2019-03-11T01:50:17Z;2019-03-11T01:50:17Z;randytarampi/ios-splash-generate;randytarampi/ios-splash-generate;greenkeeper[bot];1;codeclimate[bot];"Code Climate has analyzed commit f3bc8aad and detected **0 issues** on this pull request.

View more on [Code Climate](https://codeclimate.com/github/randytarampi/ios-splash-generate/pull/1).
"
