No;variant_repo;pr_no;created_at;closed_at;merged_at;repo_origin_ml;repo_destin;pr_owner;no_commenters;pr_commenters;pr_comments
1;tb/react-rails-ujs;2;2017-03-23T21:06:40Z;2017-03-27T06:44:17Z;2017-03-27T06:44:17Z;tb/react-rails-ujs;tb/react-rails-ujs;tb;2;tb/LouisBrunner;"@LouisBrunner Can you please try:

    npm i --save tb/react-rails-ujs#allow-custom-render

I described usage in README.md but havent tried it. For some reason, I couldn't make it work with 
```js
const render = (component, props) => (
  <AppContainer><component {...props}/></AppContainer>
);
```
but this works
```js
const render = (component, props) => (
    React.createElement(AppContainer, {children: React.createElement(component, props)})
);
```

I also have ""issues"" where React-Hot-Reload works without the `AppContainer` wrapper, however your solution is optimal and works well. Thanks! :)"
