No;variant_repo;pr_no;created_at;closed_at;merged_at;repo_origin_ml;repo_destin;pr_owner;no_commenters;pr_commenters;pr_comments
0;tylersisia/chimera-crypto;19;2020-11-12T20:41:39Z;2020-11-19T03:12:24Z;;tylersisia/chimera-crypto;tylersisia/chimera-crypto;depfu[bot];1;depfu[bot];Closed in favor of #20.
1;tylersisia/chimera-crypto;17;2020-11-01T07:46:48Z;2020-11-12T20:41:43Z;;tylersisia/chimera-crypto;tylersisia/chimera-crypto;depfu[bot];1;depfu[bot];Closed in favor of #19.
2;tylersisia/chimera-crypto;16;2020-10-30T06:56:39Z;2020-11-01T07:46:51Z;;tylersisia/chimera-crypto;tylersisia/chimera-crypto;depfu[bot];1;depfu[bot];Closed in favor of #17.
4;tylersisia/chimera-crypto;12;2020-10-17T22:26:17Z;2020-11-04T00:11:38Z;;tylersisia/chimera-crypto;tylersisia/chimera-crypto;depfu[bot];1;depfu[bot];Closed in favor of #18.
5;tylersisia/chimera-crypto;11;2020-08-29T22:11:35Z;2020-10-17T22:26:21Z;;tylersisia/chimera-crypto;tylersisia/chimera-crypto;depfu[bot];1;depfu[bot];Closed in favor of #12.
6;tylersisia/chimera-crypto;10;2020-08-26T20:56:41Z;2020-08-29T22:11:38Z;;tylersisia/chimera-crypto;tylersisia/chimera-crypto;depfu[bot];1;depfu[bot];Closed in favor of #11.
7;tylersisia/chimera-crypto;9;2020-08-05T20:26:38Z;2020-08-26T20:56:44Z;;tylersisia/chimera-crypto;tylersisia/chimera-crypto;depfu[bot];1;depfu[bot];Closed in favor of #10.
8;tylersisia/chimera-crypto;8;2020-07-31T21:41:32Z;2020-08-05T20:26:41Z;;tylersisia/chimera-crypto;tylersisia/chimera-crypto;depfu[bot];1;depfu[bot];Closed in favor of #9.
9;tylersisia/chimera-crypto;7;2020-06-11T22:56:51Z;2020-07-31T21:41:36Z;;tylersisia/chimera-crypto;tylersisia/chimera-crypto;depfu[bot];1;depfu[bot];Closed in favor of #8.
11;tylersisia/chimera-crypto;4;2020-03-19T11:00:07Z;2020-04-27T07:41:26Z;;tylersisia/chimera-crypto;tylersisia/chimera-crypto;depfu[bot];1;depfu[bot];Closed in favor of #5.
12;tylersisia/chimera-crypto;3;2020-02-27T08:56:50Z;2020-03-19T11:00:11Z;;tylersisia/chimera-crypto;tylersisia/chimera-crypto;depfu[bot];1;depfu[bot];Closed in favor of #4.
13;tylersisia/chimera-crypto;2;2020-01-27T08:56:44Z;2020-02-27T08:56:53Z;;tylersisia/chimera-crypto;tylersisia/chimera-crypto;depfu[bot];1;depfu[bot];Closed in favor of #3.
14;tylersisia/chimera-crypto;1;2020-01-05T20:11:55Z;2020-01-27T08:56:47Z;;tylersisia/chimera-crypto;tylersisia/chimera-crypto;depfu[bot];1;depfu[bot];Closed in favor of #2.
