No;variant_repo;pr_no;created_at;closed_at;merged_at;repo_origin_ml;repo_destin;pr_owner;no_commenters;pr_commenters;pr_comments
5;xdumaine/jingle-media-session;6;2019-03-05T20:40:05Z;2019-03-07T19:38:01Z;2019-03-07T19:38:01Z;xdumaine/jingle-media-session;xdumaine/jingle-media-session;jensengar;1;jensengar;It looks like adapter is always shimming chrome. according to mdn, chrome doesn't support transceivers natively yet.
10;xdumaine/jingle-media-session;1;2016-06-20T19:18:50Z;2016-06-20T19:51:11Z;2016-06-20T19:51:11Z;xdumaine/jingle-media-session;xdumaine/jingle-media-session;xdumaine;1;jensengar;"Looks good to me
"
