No;variant_repo;pr_no;created_at;closed_at;merged_at;repo_origin_ml;repo_destin;pr_owner;no_commenters;pr_commenters;pr_comments
0;YuzuJS/pubit-as-promised;7;2015-01-16T19:19:32Z;2015-01-16T19:31:09Z;2015-01-16T19:31:09Z;donavon/pubit-as-promised;donavon/pubit-as-promised;pbouzakis;1;donavon;":+1: 
"
1;YuzuJS/pubit-as-promised;6;2015-01-04T01:38:34Z;2015-01-04T14:47:17Z;;donavon/pubit-as-promised;donavon/pubit-as-promised;donavon;2;donavon/donavon;"See my comments in skype. The use case is add-ins for StoreIt. A third party client that would like to publish a new event.
 Ok, now that I'm awake, I see what you mean. :goat:
"
2;YuzuJS/pubit-as-promised;5;2014-12-13T17:07:00Z;2014-12-13T18:32:43Z;2014-12-13T18:32:43Z;donavon/pubit-as-promised;donavon/pubit-as-promised;donavon;2;pbouzakis/donavon;":+1:  with `onMatch`
 Changed to `onMatch` and merging with `master`.
"
3;YuzuJS/pubit-as-promised;4;2014-11-24T15:33:56Z;2014-11-24T15:46:12Z;2014-11-24T15:46:12Z;donavon/pubit-as-promised;donavon/pubit-as-promised;donavon;1;pbouzakis;":cry: 

:+1: 
"
4;YuzuJS/pubit-as-promised;3;2014-11-24T15:33:09Z;2014-11-24T15:56:21Z;2014-11-24T15:56:21Z;donavon/pubit-as-promised;donavon/pubit-as-promised;donavon;2;pbouzakis/pbouzakis;":+1: Maybe
 Fine
"
5;YuzuJS/pubit-as-promised;2;2013-04-10T17:57:29Z;2013-04-11T14:12:13Z;2013-04-11T14:12:13Z;donavon/pubit-as-promised;donavon/pubit-as-promised;donavon;2;donavon/pbouzakis;"Third time's a charm? I think I have it this time. New test to show a subscriber returning a promise then delaying one second before resolving. Full backward compatibility PLUS easier to read code in Publisher.js. `publish.when` no longer supports async mode (isn't that what a promise is anyway?) nor onListenerError (uses rejected promise instead). Old publish still works with both.
 Looks great! Merge it!
"
6;YuzuJS/pubit-as-promised;1;2013-04-08T21:20:20Z;2013-04-10T17:58:23Z;;donavon/pubit-as-promised;donavon/pubit-as-promised;donavon;3;donavon/donavon/domenic;"Needed to split company with pubit (for WTF license reasons) and thus NobleJS/pubit-as-promised is born.
 This pull request is being abandoned and the entire promise thing is being re-thought out. It will come back better, stronger, faster than it was before. My goal is to make pubit-as-promised 100% backward compatible, passing all of the old tests. To do this, must promises (unfortunately) be opt-in on a per-publish basis. 
 Hmm what was wrong with it? How did it break backward compat? I thought just `Q.all()`ing the results and returning that was pretty reasonable.
"
