No;variant_repo;pr_no;created_at;closed_at;merged_at;repo_origin_ml;repo_destin;pr_owner;no_commenters;pr_commenters;pr_comments
3;zkochan/npm-conf;2;2020-07-01T23:22:59Z;2020-08-11T10:54:14Z;2020-08-11T10:54:14Z;EB-Forks/npm-conf;zkochan/npm-conf;ExE-Boss;1;zkochan;conflicts
4;zkochan/npm-conf;1;2019-03-05T18:18:08Z;2019-03-07T18:42:02Z;2019-03-07T18:42:02Z;SkReD/npm-conf;zkochan/npm-conf;SkReD;2;SkReD/zkochan;"Should i try to fix all that failed linter checks? no, ignore the linting issues
it fails in master already"
