No,mainline_repo,closed_pr_ml,merged_pr_ml,ml_all_pr_with_comments,ml_fork_pr_with_comments,ml_all_pr_comments,ml_fork_pr_comments,ml_travis_builds,ml_travis_pr_builds,ml_circle_builds,variant_repo,closed_pr_vr,merged_pr_vr,vr_all_pr_with_comments,vr_fork_pr_with_comments,vr_all_pr_comments,vr_fork_pr_comments,vr_travis_builds,vr_travis_pr_builds,vr_circle_builds,ml_build_server,vr_build_server
1,substance/texture,487,471,254,7,606,23,5324,1930,0,libero/texture,35,34,2,2,4,4,159,58,0,.travis.yml,.travis.yml
2,FredrikNoren/ungit,670,572,248,231,697,653,3064,2051,0,exsilium/mungit,4,4,1,0,1,0,25,5,0,.travis.yml/appveyor.yml,.travis.yml/appveyor.yml
3,vega/voyager,384,353,123,7,292,15,2933,1101,0,ajainarayanan/voyager,3,3,0,0,0,0,0,0,0,.travis.yml,.travis.yml
4,HealthCatalyst/Fabric.Cashmere,757,706,202,170,492,415,2801,1561,0,WCF-Insurance/WCF-Cashmere,285,277,10,2,10,2,1165,426,0,.travis.yml,.travis.yml
5,dkelosky/jest-stare,313,287,244,15,269,30,2800,1105,2312,bespoken/jest-stare,7,7,2,0,2,0,66,18,0,.circleci/.travis.yml/azure-pipelines.yml,.circleci/.travis.yml/azure-pipelines.yml
6,choojs/choo,396,260,163,90,366,186,1877,725,0,heyitsmeuralex/nanochoo,3,3,2,2,2,2,0,0,0,.travis.yml,.travis.yml
7,eggjs/eslint-config-egg,50,46,28,8,97,40,1725,107,0,aladdin-add/eslint-config-ts,41,2,29,0,29,0,208,47,0,.travis.yml/appveyor.yml,.travis.yml/appveyor.yml
8,reactjs/react-rails,437,323,231,209,816,772,1725,1021,0,tb/react-rails-ujs,3,2,1,0,2,0,0,0,0,.rubocop.yml/.travis.yml,nan
9,depcheck/depcheck,316,264,245,180,551,446,1526,859,0,lijunle/depcheck-es6,76,70,4,4,18,18,545,109,0,.travis.yml,nan
10,openlayers/closure-util,366,302,53,53,122,122,1233,523,0,camptocamp/closure-util,43,29,8,1,16,1,132,40,0,.travis.yml,.travis.yml
11,mashmatrix/react-lightning-design-system,271,180,69,19,117,53,1121,495,491,SAManage/react-lightning-design-system,171,165,1,0,1,0,0,0,0,.circleci/.travis.yml,.travis.yml
12,isa-group/oas-tools,132,103,87,30,117,44,1121,172,0,par-mais-tecnologia/oas-tools,4,4,0,0,0,0,0,0,0,.travis.yml,.travis.yml
13,ResourcefulHumans/rheactor-server,43,29,2,0,15,0,1094,59,0,RHeactorJS/server,24,10,12,0,28,0,184,36,0,.travis.yml,.travis.yml
14,collectionspace/cspace-ui.js,121,107,98,97,165,164,1059,237,0,cspace-deployment/cspace-ui.js,52,44,3,3,6,6,0,0,0,.travis.yml,.travis.yml
15,bem/html-differ,78,69,40,7,182,30,995,275,0,markedjs/html-differ,58,50,4,3,17,15,23,7,0,.travis.yml,nan
16,roblox-ts/types,392,364,8,5,12,7,989,3,0,Validark/rbx-safe-types,28,27,0,0,0,0,0,0,0,nan,nan
17,funkensturm/ember-local-storage,223,95,28,24,60,48,962,539,0,Mogball/ember-localforage,5,3,1,1,2,2,0,0,0,.travis.yml,.travis.yml
18,bbc/react-transcript-editor,132,110,44,14,112,32,959,371,0,pietrop/react-transcript-editor,12,10,1,0,20,0,0,0,0,.travis.yml,.travis.yml
19,onechiporenko/ember-models-table,149,117,34,24,54,44,899,297,0,eNkru/ember-material-table,3,3,0,0,0,0,0,0,0,nan,.travis.yml
20,jeffshaver/safe-app,106,94,17,0,38,0,893,280,0,pml984/safe-app,6,6,0,0,0,0,0,0,0,.travis.yml,.travis.yml
21,ssbc/patchwork,572,458,280,113,911,321,870,424,0,Bit-Nation/BITNATION-Pangea,3,3,0,0,0,0,0,0,0,.travis.yml,nan
22,Inkdpixels/log-fancy,123,111,2,0,3,0,731,235,0,bjornreppen/log-less-fancy,12,12,0,0,0,0,50,15,0,.travis.yml,.travis.yml
23,lindell/JsBarcode,71,60,13,13,39,39,706,122,0,wavded/io-barcode,5,4,1,1,2,2,0,0,0,.travis.yml/docker-compose.yml,nan
24,jedmao/eclint,115,65,60,11,86,21,636,224,0,slang800/editorconfig-tools,6,3,2,2,5,5,0,0,0,.travis.yml,.travis.yml
25,ResourcefulHumans/rheactor-event-store,16,13,2,0,2,0,554,27,0,RHeactorJS/event-store,11,5,5,0,10,0,66,12,0,.travis.yml,.travis.yml
26,autonomoussoftware/metronome-contracts-js,57,28,3,3,6,6,535,73,0,patidarmanoj10/metronome-contracts-js,3,3,0,0,0,0,0,0,0,.travis.yml,.travis.yml
27,buehler/node-typescript-parser,73,63,55,10,120,37,528,136,0,streaka/typescript-parser-deluxe,5,4,0,0,0,0,0,0,0,.appveyor.yml/.travis.yml,.appveyor.yml/.travis.yml
28,ember-fastboot/simple-dom,57,41,10,5,29,10,514,104,0,canjs/can-simple-dom,58,50,12,1,25,2,337,87,0,.travis.yml,.travis.yml
29,ResourcefulHumans/rheactor-value-objects,16,13,1,0,2,0,503,27,0,RHeactorJS/value-objects,11,7,5,0,7,0,67,17,0,.travis.yml,.travis.yml
30,borschik/borschik,80,67,24,11,55,24,499,151,0,hamosapience/borschik-webp,6,6,1,0,2,0,0,0,0,.travis.yml,.travis.yml
31,jaredhanson/locomotive,44,27,15,15,46,46,492,62,0,drudge/locomotive,3,3,1,0,1,0,22,2,0,.travis.yml,.travis.yml
32,gkjohnson/urdf-loaders,66,59,16,11,57,47,485,133,0,rapyuta-robotics/urdf-js,8,6,0,0,0,0,76,12,0,nan,.travis.yml
33,i18next/i18next-node-fs-backend,210,26,8,7,19,18,475,213,0,sallar/i18next-sync-fs-backend,4,4,3,2,7,4,14,3,0,.travis.yml,.travis.yml
34,WebDevStudios/generator-plugin-wp,96,79,15,10,32,23,471,134,0,jazzsequence/generator-hm-plugin,3,3,1,1,4,4,49,5,0,.travis.yml,.travis.yml
35,andyet/json-rpc-ws,61,40,10,1,27,3,469,75,0,npenin/json-rpc-ws,210,1,141,0,157,0,425,209,0,.travis.yml,.travis.yml
36,semantic-release/gitlab-config,79,64,14,0,19,0,455,78,0,artemv/simple-semantic-config,9,8,1,0,1,0,86,19,0,nan,.travis.yml
37,ResourcefulHumans/rheactor-models,9,7,2,0,4,0,428,17,0,RHeactorJS/models,10,5,5,0,10,0,76,16,0,.travis.yml,.travis.yml
38,ResourcefulHumans/rheactor-build-views,8,5,0,0,0,0,426,15,0,RHeactorJS/build-views,9,5,4,0,7,0,48,11,0,.travis.yml,.travis.yml
39,deprecate/generator-ember,109,85,50,50,205,205,424,200,0,thomasboyt/charcoal,8,5,2,2,4,4,0,0,0,.travis.yml,nan
40,htmllint/htmllint,46,35,26,25,60,58,399,73,0,YodasWs/htmllint,3,3,0,0,0,0,0,0,0,.travis.yml,.travis.yml
41,apache/couchdb-nano,113,95,33,22,65,39,392,187,0,cloudant-labs/cloudant-nano,15,15,1,0,1,0,53,30,0,.travis.yml,.travis.yml
42,AndrewKishino/sotez,48,36,1,1,2,2,388,100,2,KZen-networks/tezos-thresh-wallet,3,3,0,0,0,0,0,0,0,.documentation.yml/.travis.yml,.travis.yml
43,auth0/node-samlp,50,39,11,10,30,28,369,180,0,vrk-kpa/node-samlp,3,3,0,0,0,0,0,0,0,.travis.yml,.travis.yml
44,Jeff2Ma/postcss-lazysprite,46,32,3,0,4,0,361,32,0,jgbjs/postcss-lazysprite-miniprogram,3,3,0,0,0,0,6,3,0,.travis.yml/appveyor.yml,.travis.yml/appveyor.yml
45,UKHomeOffice/passports-form-controller,58,44,25,2,135,31,354,118,0,UKHomeOfficeForms/hof-form-controller,32,27,13,0,30,0,191,63,0,.travis.yml,.travis.yml
46,tlvince/make-coverage-badge,110,85,2,2,3,3,351,132,0,pamepeixinho/jest-coverage-badges,8,8,0,0,0,0,0,0,5,.travis.yml,nan
47,balderdashy/waterline-adapter-tests,74,64,44,31,147,121,350,113,0,Atlantis-Software/offshore-adapter-tests,21,18,0,0,0,0,131,68,0,.travis.yml/docker-compose.yml,.travis.yml/docker-compose.yml
48,turtlecoin/turtlecoin-utils,36,27,8,8,14,14,346,37,0,tylersisia/chimera-utils,39,1,27,0,27,0,0,0,0,nan,.travis.yml
49,prosociallearnEU/cf-nodejs-client,16,3,0,0,0,0,343,29,0,IBM-Cloud/cf-nodejs-client,31,27,5,4,12,11,270,109,35,.travis.yml,.travis.yml/appveyor.yml
50,SBoudrias/gulp-istanbul,67,43,29,28,74,70,338,118,0,cb1kenobi/gulp-babel-istanbul,6,4,4,4,10,10,0,0,0,.travis.yml,.travis.yml
51,heartsucker/node-deb,36,25,17,15,32,29,337,34,0,f-ld/node-deb,7,7,0,0,0,0,0,0,0,.travis.yml,nan
52,ResourcefulHumans/rheactor-errors,3,3,1,0,2,0,335,11,0,RHeactorJS/errors,11,6,5,0,10,0,65,16,0,.travis.yml,.travis.yml
53,taptapship/wiredep,95,44,29,26,78,68,335,149,0,IOKI/require-wiredep,21,21,0,0,0,0,0,0,0,.travis.yml,.travis.yml
54,ResourcefulHumans/rheactor-aws-lambda,5,4,1,0,2,0,331,13,0,RHeactorJS/aws-lambda,17,9,7,0,22,0,178,33,0,.travis.yml,.travis.yml
55,diegohaz/nod,38,37,32,3,35,5,329,42,0,rjchow/nod,343,38,216,0,216,0,0,0,477,.travis.yml,.circleci
56,UKHomeOffice/passports-frontend-toolkit,58,49,28,1,102,4,324,99,0,UKHomeOfficeForms/hof-frontend-toolkit,15,15,3,0,4,0,82,22,0,.travis.yml,.travis.yml
57,rebassjs/grid,56,46,18,16,55,53,320,108,0,josepot/grid-styletr,3,2,0,0,0,0,0,0,0,.travis.yml,.travis.yml
58,andreruffert/rangeslider.js,112,80,9,5,19,12,319,112,0,mixer/rangeslider.js-mini,3,3,2,0,3,0,0,0,0,.travis.yml,nan
59,inveniosoftware/invenio-search-js,83,72,32,31,89,82,316,182,0,drjova/invenio-search-js,5,2,2,2,13,13,254,45,0,nan,.travis.yml
60,mozilla-frontend-infra/components,57,47,15,15,54,54,301,122,0,httpsOmkar/auth-react-component,5,5,0,0,0,0,40,9,0,.travis.yml,.travis.yml
61,gruntjs/grunt-contrib-jshint,121,37,12,9,20,13,298,145,0,jut-io/grunt-contrib-jshint-jsx,5,4,5,3,10,7,11,2,0,nan,.travis.yml/appveyor.yml
62,biosustain/potion-node,8,4,2,1,4,2,294,12,0,infarm/potion-node,3,3,0,0,0,0,0,0,0,.travis.yml,.travis.yml
63,InfomediaLtd/angular2-materialize,40,29,11,11,26,26,292,70,0,Dakayl/angular2-materialize,3,3,0,0,0,0,0,0,0,.travis.yml,.travis.yml
64,amida-tech/blue-button-generate,19,16,8,1,14,1,291,29,0,DocuTAP/blue-button-generate,43,41,4,0,4,0,0,0,153,.travis.yml,.circleci
65,ronco/ember-cli-meta-tags,48,41,18,15,42,25,282,125,0,snewcomer/ember-cli-meta-data,3,3,0,0,0,0,0,0,0,.travis.yml,.travis.yml
66,MithrilJS/mithril-node-render,63,51,13,13,24,24,272,116,0,tlaziuk/mithril-render,11,11,7,0,14,0,839,28,0,.travis.yml,.travis.yml
67,dsebastien/modernWebDevBuild,6,3,0,0,0,0,255,175,0,edina/angular-build,3,3,0,0,0,0,0,0,0,.travis.yml,.travis.yml
68,MikeMcl/bignumber.js,64,32,10,10,27,27,253,85,0,innoying/browserify-bignum,3,2,0,0,0,0,0,0,0,.travis.yml,nan
69,excellenteasy/ios-icons,13,8,0,0,0,0,251,22,0,randytarampi/ios-icons,14,11,13,0,39,0,127,16,0,.travis.yml,.travis.yml
70,hexojs/hexo-renderer-markdown-it,70,53,16,11,26,21,249,60,0,Abreto/hexo-renderer-markdown-it-katex,3,3,0,0,0,0,1,0,0,travis.yml,.travis.yml
71,blakeembrey/tslint-config-standard,28,21,10,8,20,16,249,40,0,acamica/tslint-config-acamica,3,0,0,0,0,0,0,0,0,.travis.yml,.travis.yml
72,postcss/gulp-postcss,58,41,20,18,63,60,242,104,0,StartPolymer/gulp-html-postcss,30,27,16,7,31,15,114,39,73,.travis.yml,.circleci/.travis.yml
73,federicobond/solidity-parser-antlr,24,18,10,9,25,19,241,55,0,ConsenSys/solidity-parser-antlr,4,3,4,4,7,7,38,10,0,.travis.yml,.travis.yml
74,excellenteasy/ios-icon-resize,9,7,2,1,4,3,239,27,0,randytarampi/ios-icon-resize,21,16,21,0,57,0,185,27,0,.travis.yml,.travis.yml
75,reasonml-community/bs-moment,46,40,29,18,61,46,237,81,0,greensync/bs-moment-timezone,4,3,1,0,1,0,112,3,0,.travis.yml,.travis.yml
76,fvdm/nodejs-piwik,19,11,4,3,4,3,237,0,57,sandfox/nodejs-piwik,4,4,1,1,1,1,0,0,0,.travis.yml,.travis.yml
77,molleindustria/p5.play,95,84,57,56,151,149,232,151,0,code-dot-org/p5.play,48,47,21,0,52,0,310,104,0,.travis.yml,.travis.yml
78,contributte/live-form-validation,24,14,4,4,7,7,226,22,0,kopecmi8/live-form-validation,3,3,0,0,0,0,0,0,0,.travis.yml,.travis.yml
79,yarax/swagger-to-graphql,70,49,23,20,51,45,225,83,0,colinyoung/swagger-to-graphql,3,3,0,0,0,0,0,0,0,.travis.yml,.travis.yml
80,msiebuhr/node-statsd-client,47,32,10,10,23,23,224,66,0,uber/node-statsd-client,30,26,24,0,58,0,0,0,0,.travis.yml,nan
81,mafintosh/protocol-buffers,21,17,6,6,13,13,220,44,0,ipfs/protons,10,8,6,3,21,9,87,33,0,.travis.yml,.travis.yml
82,KamiKillertO/inquirer-select-directory,13,12,3,0,6,0,220,35,0,micalevisk/inquirer-fs-selector,3,2,0,0,0,0,0,0,0,.travis.yml/appveyor.yml,nan
83,excellenteasy/android-icons,9,6,0,0,0,0,216,15,0,randytarampi/android-icons,15,12,14,0,37,0,136,17,0,.travis.yml,.travis.yml
84,davewasmer/ember-cli-rollbar,82,17,10,10,32,32,215,102,0,paulcwatts/ember-cli-rollbar,69,28,30,1,93,3,328,94,0,.travis.yml,.travis.yml
85,kentcdodds/eslint-config-kentcdodds,72,65,7,7,29,29,212,78,0,ultrox/eslint-config-mavu,8,4,0,0,0,0,56,26,0,nan,.travis.yml
86,boo1ean/casual,54,46,20,20,37,37,211,88,0,Klowner/casual-browserify,4,3,3,3,8,8,42,6,0,.travis.yml,.travis.yml
87,mreinstein/alexa-verifier,26,15,5,4,11,9,208,37,0,SahilDude89ss/alexa-verifier-with-proxy,3,3,0,0,0,0,0,0,0,.travis.yml,.travis.yml
88,excellenteasy/ios-splash-generate,5,3,0,0,0,0,201,11,0,randytarampi/ios-splash-generate,21,16,21,0,54,0,179,24,0,.travis.yml,.travis.yml
89,excellenteasy/ios-splash,8,6,1,1,1,1,197,13,0,randytarampi/ios-splash,15,12,14,0,38,0,130,17,0,.travis.yml,.travis.yml
90,FirebaseExtended/firebase-queue,48,39,35,5,103,16,191,67,0,kaliberjs/firebase-queue,18,5,17,0,67,0,339,18,0,.travis.yml,.travis.yml
91,MathieuLoutre/grunt-aws-s3,43,30,14,14,23,23,190,56,0,royra/grunt-aws-s3-gzip,3,2,1,1,1,1,0,0,0,.travis.yml,.travis.yml
92,PeterStaev/nativescript-image-swipe,14,9,3,3,9,9,190,39,0,samtheprogram/nativescript-image-swipe,4,4,0,0,0,0,0,0,0,.travis.yml,.travis.yml
93,excellenteasy/android-splash,7,5,0,0,0,0,189,12,0,randytarampi/android-splash,15,12,14,0,41,0,129,17,0,.travis.yml,.travis.yml
94,shokai/hubot-rss-reader,10,8,5,5,6,6,185,6,34,halkeye/hubot-rss-reader,96,64,24,0,30,0,0,0,0,circle.yml,circle.yml
95,mixonic/ember-cli-deprecation-workflow,46,38,8,8,18,18,184,85,0,atsao/ember-cli-deprecation-workflow-plus,4,4,0,0,0,0,0,0,0,.travis.yml,.travis.yml
96,KSDaemon/sails-hook-sequelize,30,10,6,5,13,12,183,59,0,malpercio/sails-hook-fireline,6,6,0,0,0,0,64,18,0,.travis.yml,.travis.yml
97,mocha-parallel/mocha-parallel-tests,133,103,12,10,23,21,181,180,0,macacajs/macaca-mocha-parallel-tests,3,3,0,0,0,0,2,0,0,.travis.yml/appveyor.yml,.travis.yml/appveyor.yml
98,velesin/jasmine-jquery,131,72,16,16,31,31,179,84,0,badunk/js-fixtures,9,5,6,6,20,20,0,0,0,.travis.yml,nan
99,funsocietyirc/node-irc,21,5,1,1,3,3,177,29,0,MagicMarvMan/node-irc,25,5,10,0,11,0,71,31,0,.travis.yml,.travis.yml
100,vtrushin/json-to-ast,12,11,0,0,0,0,176,18,0,neuroo/json-ast,3,1,0,0,0,0,22,2,0,.travis.yml,.travis.yml
101,brackets-userland/brackets-eslint,15,15,3,2,11,8,173,20,0,quadre-code/quadre-eslint,3,3,0,0,0,0,27,3,0,.travis.yml,.travis.yml
102,balderdashy/waterline-sequel,48,36,18,13,73,62,170,69,132,appscot/waterline-sequel-orientdb,3,2,1,1,2,2,0,0,0,.travis.yml/circle.yml,nan
103,bendrucker/hapi-raven,34,13,2,2,6,6,169,43,0,pagerinc/hapi-raven,14,13,3,3,4,4,59,24,19,.travis.yml,.travis.yml
104,apache/cordova-node-xcode,67,46,21,16,71,63,169,105,0,NativeScript/nativescript-dev-xcode,13,12,2,0,2,0,54,15,0,nan,.travis.yml
105,TeamWertarbyte/material-ui-search-bar,23,15,12,12,16,16,169,43,0,filipvk/material-ui-search-bar,4,2,0,0,0,0,0,0,0,.travis.yml,.travis.yml
106,Wizcorp/node-tomes,39,33,20,20,38,38,161,101,0,bjornstar/tomes,64,64,1,0,1,0,175,36,0,.travis.yml,.travis.yml
107,turtlecoin/turtlecoin-crypto,27,16,3,2,4,3,160,17,0,tylersisia/chimera-crypto,15,0,13,0,13,0,0,0,0,nan,.appveyor.yml/.travis.yml
108,hubot-scripts/hubot-business-cat,37,36,6,5,11,8,152,45,0,alaroche/hubot-emma-stone,3,3,0,0,0,0,0,0,0,.travis.yml,.travis.yml
109,instructure-react/react-tokeninput,34,21,5,4,8,7,143,57,0,laurelandwolf/react-tokeninput,6,6,2,0,6,0,0,0,0,.travis.yml,.travis.yml
110,conveyal/maven-semantic-release,30,25,8,4,17,8,140,44,0,NoxHarmonium/leiningen-semantic-release,27,1,21,0,29,0,0,0,270,.travis.yml,.circleci
111,iCrawl/eslint-config-aqua,123,113,0,0,0,0,136,23,0,captainsalt/eslint-config-holo,12,10,2,0,2,0,0,0,0,nan,nan
112,colorjs/get-svg-colors,53,12,1,1,2,2,132,59,0,snorpey/get-svg-colors-browser,13,7,11,0,77,0,255,14,0,.travis.yml,.travis.yml
113,dbramwell/react-animate-on-scroll,18,13,4,4,13,13,132,43,0,articulate/react-animate-on-scroll,7,7,5,0,8,0,0,0,0,.travis.yml,.travis.yml
114,Collaborne/paper-chip,7,5,0,0,0,0,128,18,0,fluidnext/paper-chip,3,2,0,0,0,0,0,0,11,.travis.yml,.circleci
115,cferdinandi/gumshoe,52,36,5,5,15,15,128,47,0,festicket/gumshoe,5,5,0,0,0,0,0,0,0,.travis.yml,.travis.yml
116,Raathigesh/dazzle,25,20,14,14,26,26,128,37,0,ellie-couban/dazzle,17,17,0,0,0,0,0,0,0,.travis.yml,.travis.yml
117,Tabcorp/restify-cors-middleware,42,34,21,13,48,35,122,47,0,DatatracCorporation/restify-cors-middleware2,17,16,2,2,2,2,38,11,0,.travis.yml,.travis.yml
118,yoshuawuyts/es2020,23,15,5,2,5,2,122,27,0,ahdinosaur/es2040,3,3,1,0,1,0,0,0,0,.travis.yml,.travis.yml
119,solid/oidc-op,16,13,7,2,25,12,121,41,0,interop-alliance/oidc-op,3,3,0,0,0,0,21,6,0,.travis.yml,.travis.yml
120,iamchrismiller/grunt-casper,18,13,2,2,2,2,121,31,76,hudl/grunt-casper,3,2,1,0,1,0,0,0,0,.travis.yml,.travis.yml
121,randylien/generator-react-gulp-browserify,28,25,3,3,3,3,119,33,0,darklight721/generator-react-6,4,3,1,1,1,1,29,4,0,.travis.yml,.travis.yml
122,brendanashworth/generate-password,29,9,8,1,8,1,119,57,0,xama5/generate-password-browser,3,3,0,0,0,0,17,5,0,.travis.yml,.travis.yml
123,ethanent/phin,25,7,1,1,1,1,118,34,0,pxjohnny/agent-phin,4,4,0,0,0,0,0,0,0,.travis.yml,.travis.yml
124,nDmitry/grunt-postcss,28,14,3,3,3,3,117,44,0,C-Lodder/grunt-postcss,36,29,11,4,23,9,64,13,0,.travis.yml,nan
125,GoogleChromeLabs/worker-plugin,26,22,12,10,32,30,117,53,0,andywer/threads-plugin,10,10,2,2,3,3,0,0,0,nan,.travis.yml
126,limitd/limitdb,14,8,1,0,1,0,114,30,0,auth0/limitd-redis,22,19,3,0,5,0,188,47,0,.travis.yml,.travis.yml
127,praveenvijayan/grunt-html-validation,29,27,7,7,7,7,111,52,0,vikash-bhardwaj/grunt-w3c-html-validation,9,8,3,3,6,6,0,0,0,.travis.yml,.travis.yml
128,goloveychuk/tsruntime,17,12,3,3,5,5,110,20,0,efreeti/ts-runtime-reflection,7,6,0,0,0,0,28,7,0,.travis.yml,.travis.yml
129,valeriansaliou/node-fast-ratelimit,5,3,2,2,5,5,110,6,0,anchorchat/node-fast-ratelimit,7,7,0,0,0,0,0,0,0,nan,.travis.yml
130,freewil/express-form,10,6,2,2,3,3,109,21,0,provejs/provejs-express,4,4,0,0,0,0,0,0,0,.travis.yml,nan
131,thibaudcolas/jsonresume-theme-eloquent,8,3,1,1,3,3,106,5,0,asm0dey/jsonresume-theme-eloquent-ru,295,277,141,0,153,0,915,311,0,.travis.yml,.travis.yml
132,angular-wizard/angular-wizard,78,41,24,23,56,55,105,67,0,meanhub/angular-wizard-stylish,6,6,0,0,0,0,0,0,0,.travis.yml,.travis.yml
133,davidlinse/git-contributors.js,7,4,0,0,0,0,102,9,0,vweevers/contributors-from-git,3,1,1,0,9,0,41,4,0,.travis.yml,.travis.yml
134,grommet/react-desc,15,10,4,3,4,3,102,20,0,jobbogamer/react-desc-spreadable,10,10,0,0,0,0,0,0,0,.travis.yml,nan
135,brandingbrand/react-native-leanplum,32,28,3,3,7,7,100,51,0,gleephDamien/react-native-leanplum,10,7,0,0,0,0,136,39,0,.travis.yml,.travis.yml
136,validator/gulp-html,30,26,12,7,14,9,97,32,0,phanect/vnujs,61,24,33,0,33,0,0,0,0,nan,nan
137,CycloneDX/cyclonedx-node-module,65,30,13,10,24,20,95,30,0,AppThreat/cdxgen,9,7,0,0,0,0,0,0,0,nan,nan
138,lloyd/node-toobusy,13,7,3,3,9,9,94,64,0,STRML/node-toobusy,13,7,8,8,15,15,65,32,0,.travis.yml,.travis.yml
139,repetere/periodicjs.ext.reactapp,38,31,1,0,1,0,94,23,0,digifi-io/periodicjs.ext.reactapp,130,128,0,0,0,0,0,0,0,.travis.yml,.travis.yml
140,Codesleuth/split-sms,10,8,3,1,3,1,94,23,0,daxko/split-sms,4,4,0,0,0,0,0,0,0,.travis.yml,.travis.yml
141,lukekarrys/organize-photos,12,11,1,0,2,0,91,15,0,brencon/organize-photos,3,3,0,0,0,0,19,3,0,.travis.yml,.travis.yml
142,bornfight/avro-to-typescript,156,26,3,2,10,3,90,33,0,chasdevs/avro-to-typescript,6,6,1,1,2,2,0,0,0,nan,nan
143,emgeee/gulp-standard,27,26,9,9,10,10,89,34,0,nebez/gulp-semistandard,3,3,2,2,2,2,24,7,0,.travis.yml,.travis.yml
144,aliyun/mns-nodejs-sdk,9,9,8,4,8,4,89,12,0,iftechio/mns-nodejs-sdk,3,3,1,0,2,0,0,0,0,.travis.yml,nan
145,sindresorhus/superb,27,12,2,2,2,2,88,6,0,boennemann/animals,3,2,2,2,2,2,42,7,0,nan,.travis.yml
146,dignifiedquire/pull-length-prefixed,17,12,6,4,14,11,87,35,51,alanshaw/it-length-prefixed,9,6,4,3,4,3,52,19,0,.circleci/.travis.yml,.travis.yml
147,samcday/node-stream-buffer,19,14,9,9,9,9,84,30,0,genrym/streamable-buffers,4,4,0,0,0,0,87,10,0,.travis.yml,.travis.yml
148,rogerc/file-stream-rotator,28,12,3,3,8,8,83,38,0,forthedamn/faster-file-rotator,3,3,0,0,0,0,0,0,0,.travis.yml,.travis.yml
149,dtolstyi/node-chromium,12,11,8,8,21,21,81,33,0,2do2go/node-chromium,7,6,5,5,15,15,49,29,0,.travis.yml,.travis.yml
150,tadas-s/isbnjs,14,14,1,1,1,1,81,23,0,inventaire/isbn3,5,4,3,3,6,6,0,0,0,.travis.yml,nan
151,callumacrae/gulp-w3cjs,11,7,7,5,25,22,79,23,0,center-key/gulp-w3c-html-validator,4,4,0,0,0,0,72,4,0,.travis.yml,.travis.yml
152,Mottie/javascript-number-formatter,7,6,4,4,8,8,78,14,0,j-/number-formatter,3,1,2,2,3,3,12,3,0,.travis.yml,.travis.yml
153,sivy/node-statsd,35,21,8,8,52,52,75,49,0,mrbar42/node-dogstatsd,14,9,6,6,15,15,0,0,0,.travis.yml,.travis.yml
154,jrhubott/homebridge-homeseer,10,1,0,0,0,0,75,68,0,jvmahon/homebridge-homeseer,28,24,1,0,1,0,0,0,0,nan,nan
155,ykzts/node-xmlhttprequest,201,191,7,1,7,1,74,25,0,modulesio/window-xhr,11,9,0,0,0,0,0,0,0,nan,.travis.yml
156,gabidavila/react-usa-map,27,16,6,6,17,17,73,38,0,NCSAAthleticRecruiting/react-usa-map,3,3,0,0,0,0,0,0,0,.travis.yml,.travis.yml
157,nickcolley/scrambo,13,12,3,3,9,9,73,15,0,Owstin/scrambo,19,16,5,5,5,5,0,0,0,.travis.yml,nan
158,balderdashy/waterline-criteria,17,15,4,3,10,7,72,16,0,Atlantis-Software/offshore-criteria,5,4,0,0,0,0,20,10,0,.travis.yml,.travis.yml
159,ptarjan/node-cache,53,28,11,11,27,27,71,54,0,andyburke/tinycache,3,3,1,1,1,1,31,1,0,.travis.yml,.travis.yml
160,dpopescu/ts-serializer,11,7,0,0,0,0,71,16,0,delete/ts-serializer,5,5,0,0,0,0,15,3,0,.travis.yml,.travis.yml
161,geddski/grunt-release,77,16,8,8,21,21,70,35,0,dani8art/grunt-release-github,18,17,1,1,1,1,226,24,0,.travis.yml,.travis.yml
162,mulesoft-labs/ts-structure-parser,4,1,1,0,1,0,68,6,0,AbatapCompany/ts-structure-parser,5,5,0,0,0,0,54,8,0,.travis.yml,.travis.yml
163,koa-modules/i18n,6,5,3,3,3,3,66,12,0,strawbrary/koa-i18n-2,24,1,1,1,1,1,131,23,0,.travis.yml,.travis.yml
164,stnvh/gulp-tinypng-compress,5,0,0,0,0,0,66,7,0,nymo/gulp-tinypng-extended,13,13,3,3,6,6,68,20,0,.travis.yml,.travis.yml
165,lennym/i18n-future,11,8,2,1,4,2,65,13,0,UKHomeOffice/passports-i18n,15,15,0,0,0,0,22,22,0,.travis.yml,.travis.yml
166,bpmn-io/bpmn-js-bpmnlint,15,8,2,1,5,4,65,16,0,process-engine/bpmn-js-bpmnlint,7,6,0,0,0,0,0,0,0,.travis.yml,nan
167,endlessm/electron-installer-flatpak,15,13,5,2,9,5,64,23,0,malept/electron-installer-flatpak,32,30,20,1,21,1,130,60,0,.travis.yml,nan
168,kevva/npm-conf,5,4,3,2,9,8,63,29,0,zkochan/npm-conf,5,4,2,2,3,3,49,8,0,.travis.yml,.travis.yml
169,mafintosh/node-gyp-install,11,9,5,5,13,13,63,21,0,cnpm/node-gyp-install,3,2,3,2,5,4,16,5,0,.travis.yml,.travis.yml
170,jenseng/i18nliner-js,5,3,3,3,4,4,61,8,0,Download/i18nline,10,3,5,0,19,0,194,17,0,.travis.yml,.travis.yml
171,jsbin/loop-protect,14,8,2,2,2,2,57,21,0,ojeytonwilliams/loop-protect,4,4,0,0,0,0,31,11,0,.travis.yml,.travis.yml
172,grimen/node-env-file,11,7,0,0,0,0,57,17,0,markhicken/node-env-file-subst,3,3,0,0,0,0,0,0,0,.travis.yml,.travis.yml
173,publicclass/express-partials,24,14,6,6,12,12,55,29,0,RandomEtc/ejs-locals,12,1,6,6,23,23,0,0,0,.travis.yml,nan
174,jnordberg/wsrpc,3,2,2,2,2,2,54,11,0,TechTeamer/wsrpc,3,3,0,0,0,0,57,5,0,.travis.yml,.travis.yml
175,dial-once/node-cache-manager-redis,44,32,17,10,88,46,54,6,175,ruguoapp/node-cache-manager-redis,6,4,4,1,5,1,0,0,0,nan,wercker.yml
176,postcss/postcss-focus,5,4,0,0,0,0,53,8,0,RoundingWellOS/postcss-hover,4,4,2,2,2,2,16,5,0,.travis.yml,.travis.yml
177,mhart/kinesis,6,2,2,2,2,2,53,12,0,heroku/kinesis,8,5,4,1,5,2,0,0,0,.travis.yml,.travis.yml
178,afj176/generator-mongoose,12,10,1,1,1,1,48,14,0,vikz91/generator-restgoose,11,5,4,0,4,0,108,15,0,.travis.yml,.travis.yml
179,gustf/js-levenshtein,6,2,2,2,3,3,48,13,0,43081j/js-levenshtein,6,4,3,2,6,5,55,37,0,.travis.yml,.travis.yml
180,vadimg/js_bintrees,9,6,1,1,2,2,48,22,0,canjs/can-binarytree,6,2,1,0,1,0,50,13,0,.travis.yml,.travis.yml
181,chad3814/node-hashtable,14,7,3,3,10,10,48,13,0,anchorchat/node-hashtable,6,6,0,0,0,0,0,0,0,.travis.yml,.travis.yml
182,jamiebuilds/create-react-context,24,13,8,8,24,24,48,0,0,StringEpsilon/mini-create-react-context,263,48,169,1,170,2,0,0,0,.travis.yml,nan
183,EmergingTechnologyAdvisors/eslint-config-eta,8,7,0,0,0,0,46,12,0,cloudreach/eslint-config-cloudreach,3,3,0,0,0,0,0,0,0,nan,.travis.yml
184,google/material-design-icons,102,33,18,14,56,42,46,17,0,jossef/material-design-icons-iconfont,12,11,4,4,8,8,0,0,0,nan,nan
185,ksmithut/mongoose-role,5,2,1,1,1,1,43,7,0,gumlet/mongoose-rbac-plugin,15,0,15,0,15,0,52,16,0,.travis.yml,.travis.yml
186,sindresorhus/auto-bind,11,6,0,0,0,0,43,12,0,housinghq/react-auto-bind,4,4,1,1,1,1,30,14,0,nan,.travis.yml
187,juanfran/gulp-jade-inheritance,6,5,1,1,1,1,41,9,0,berstend/gulp-sass-inheritance,9,6,4,1,21,4,91,13,0,.travis.yml,.travis.yml
188,markau/express-sanitizer,4,4,3,3,6,6,41,5,0,askhogan/express-sanitized,5,3,0,0,0,0,0,0,0,.travis.yml,.travis.yml
189,philippschulte/fastly-promises,3,2,2,2,3,3,40,20,0,adobe/fastly-native-promises,228,198,211,5,349,10,0,0,1065,.travis.yml,.circleci
190,broccolijs/broccoli-sane-watcher,20,17,8,8,17,17,39,7,0,ember-cli/broccoli-sane-watcher,64,46,14,0,16,0,178,88,0,.travis.yml,.travis.yml
191,352Media/mongoose-authorization,9,3,1,1,18,18,39,31,0,devcolor/mongoose-authz,20,16,7,6,16,15,58,17,0,.travis.yml,.travis.yml
192,herumi/bls-wasm,4,1,1,1,1,1,38,1,0,ChainSafe/eth2-bls-wasm,10,7,2,0,3,0,71,26,0,.travis.yml,.travis.yml
193,cycdpo/h5-audio-controls,9,9,0,0,0,0,38,9,0,cycjimmy/h5-audio-controls,6,6,0,0,0,0,63,7,0,.travis.yml,.travis.yml
194,anvilresearch/modinha,17,16,4,0,4,0,37,7,0,camfou/modinha,4,4,0,0,0,0,11,1,0,.travis.yml,nan
195,rricard/mongoose-fs,3,1,1,1,12,12,36,18,0,dlemon/mongoose-fs,4,3,0,0,0,0,45,7,0,.travis.yml,.travis.yml
196,moonpyk/node-ntp-client,5,1,1,1,1,1,35,15,0,artem-russkikh/react-native-ntp-client,3,3,2,1,5,2,15,3,0,.travis.yml,.travis.yml
197,Especializa/nativescript-ng-shadow,3,2,1,1,2,2,33,4,0,JoshDSommer/nativescript-ngx-shadow,8,8,4,4,5,5,0,0,0,.travis.yml,nan
198,jaredhanson/oauth2orize-device-code,6,5,1,1,1,1,32,1,0,zhaow-de/oauth2orize-device-code,43,0,35,0,43,0,111,52,0,.travis.yml,.travis.yml
199,jaredhanson/oauth2orize-device-code,6,5,1,1,1,1,32,1,0,zhaow-de/oauth2orize-device-code,43,0,35,0,43,0,111,52,0,.travis.yml,.travis.yml
200,davidtheclark/stylelint-checkstyle-formatter,7,6,4,4,6,6,32,17,0,eddies/stylelint-junit-formatter,8,7,2,2,4,4,37,6,0,.travis.yml,.travis.yml
201,Quramy/graphql-decorator,3,1,0,0,0,0,31,5,0,indigotech/graphql-schema-decorator,51,45,7,6,14,12,309,109,0,.travis.yml,.travis.yml
202,kurisutofu/sequelize-record,15,15,0,0,0,0,31,9,0,JamesJansson/sequelize-temporalize,6,6,0,0,0,0,137,8,0,.travis.yml,.travis.yml
203,2gis/node-rsvg,6,6,5,4,14,13,31,0,0,f3lang/node-rsvg-prebuilt,5,5,1,1,1,1,115,1,0,.travis.yml,.travis.yml/appveyor.yml
204,creativelive/hapi-ratelimit,14,9,2,2,5,5,31,18,0,cilindrox/hapi-ratelimiter,5,5,0,0,0,0,57,20,0,.travis.yml,.travis.yml
205,stephan83/download-github-release,3,2,2,2,2,2,30,6,0,terascope/fetch-github-release,131,122,8,0,12,0,322,173,0,.travis.yml,.travis.yml
206,rikkertkoppes/json2xls,4,2,2,2,5,5,30,20,0,ge-hall/json2xls,7,7,0,0,0,0,144,7,0,.travis.yml,.travis.yml
207,Epharmix/Toureiro,5,3,2,2,4,4,30,11,0,node-packages/Toureiro,3,2,0,0,0,0,35,0,0,.travis.yml,.travis.yml
208,mikhail-angelov/gulp-translations-from-spreadsheet,6,2,2,2,4,4,29,13,0,bookEU/node-translations-from-spreadsheet,11,11,0,0,0,0,0,0,0,.travis.yml,.travis.yml
209,michaelleeallen/jest-junit-reporter,8,6,4,4,16,16,28,11,0,kingatlas/jest-nunit-reporter,3,3,1,1,8,8,25,6,0,.travis.yml,.travis.yml
210,anvilresearch/connect-jwt,7,6,2,0,3,0,26,7,0,camfou/connect-jwt,4,3,0,0,0,0,39,7,0,.travis.yml,nan
211,featurist/karma-server-side,5,5,2,2,5,5,26,7,0,z-vr/karma-server-side,6,6,0,0,0,0,0,0,0,.travis.yml,nan
212,markdalgleish/gulp-coveralls,5,2,2,2,2,2,25,12,0,kollavarsham/gulp-coveralls,87,69,64,0,90,0,289,89,0,.travis.yml,.travis.yml
213,jaredhanson/oauth2orize-fprm,5,5,4,4,5,5,25,8,0,zhaow-de/oauth2orize-fprm,43,0,30,0,40,0,110,51,0,.travis.yml,.travis.yml
214,wcamarao/session.socket.io,10,6,3,3,6,6,25,5,0,eiriklv/session.socket.io,3,2,2,2,11,11,0,0,0,.travis.yml,.travis.yml
215,skyrpex/vue-jsx-hot-loader,9,8,2,2,2,2,25,1,0,Leanplum/vue-jsx-hot-loader,7,7,0,0,0,0,0,0,0,.travis.yml,.travis.yml
216,Galeria-Kaufhof/gulp-galen,7,7,2,2,3,3,23,12,0,hypery2k/gulp-galenframework,397,64,233,1,270,1,1497,451,0,.travis.yml,.travis.yml/appveyor.yml
217,geek/OAuth,14,7,0,0,0,0,22,3,0,MauriceButler/simple-oauth-server,3,3,0,0,0,0,0,0,0,.travis.yml,nan
218,wmhilton/cors-buster,3,2,0,0,0,0,21,4,0,isomorphic-git/cors-proxy,8,8,1,1,19,19,30,7,0,.travis.yml,azure-pipelines.yml
219,aribouius/react-themed,3,0,0,0,0,0,21,3,0,rentpath/react-themed,8,7,1,0,1,0,0,0,0,.travis.yml,.travis.yml
220,kiwiupover/ember-cli-deploy-asset-sizes,11,11,4,4,5,5,19,9,0,minichate/ember-cli-deploy-datadog-asset-sizes,3,3,1,1,1,1,0,0,0,.travis.yml,.travis.yml
221,titel-media/node-fetch,3,2,2,1,4,3,19,4,0,dollarshaveclub/node-fetch,5,5,1,1,2,2,0,0,0,.travis.yml,nan
222,anvilresearch/modinha-redis,11,9,2,1,2,1,17,2,0,camfou/modinha-redis,11,9,0,0,0,0,31,7,0,.travis.yml,nan
223,deitch/activator,32,23,12,12,27,27,16,8,0,arkcore/activator,5,5,1,1,2,2,0,0,0,.travis.yml,nan
224,byteclubfr/js-hal,3,2,1,1,1,1,14,4,0,jpbochi/halberd,9,9,3,2,8,6,66,22,0,.travis.yml,.travis.yml
225,djm158/pitt-cli,5,1,0,0,0,0,13,0,0,Choromanski/pitt-cli,76,0,59,0,59,0,175,87,0,.travis.yml,.travis.yml
226,substack/json-stable-stringify,13,2,1,1,2,2,13,0,0,epoberezkin/fast-json-stable-stringify,31,5,29,6,61,16,112,62,0,.travis.yml,.travis.yml
227,substack/json-stable-stringify,13,2,1,1,2,2,13,0,0,jimlloyd/json-stable-stringify,3,3,0,0,0,0,20,4,0,.travis.yml,.travis.yml
228,leandrob/saml20,9,7,2,2,3,3,10,4,0,phylp/saml20-maintained,3,3,2,2,2,2,107,4,0,nan,.travis.yml
229,tryggingamidstodin/node-jt400,14,9,5,5,11,11,10,3,3,cwg999/node-jt400,5,5,0,0,0,0,0,0,0,.travis.yml,nan
230,trustmaster/noflo-tester,3,1,1,1,1,1,8,0,0,noflo/noflo-wrapper,57,54,2,0,5,0,101,11,0,.travis.yml,nan
231,noru/vue-resource-mock,7,6,1,1,1,1,8,3,0,giovanniorigins/vue-resource-mock-api,4,4,0,0,0,0,0,0,0,.travis.yml,nan
232,otalk/jingle-media-session,26,17,11,6,21,15,7,7,0,xdumaine/jingle-media-session,11,9,2,0,2,0,0,0,0,.travis.yml,nan
233,vorillaz/devicons,19,11,1,1,1,1,6,0,0,mirmat/iconsfordevs,53,53,0,0,0,0,0,0,0,nan,nan
234,dijs/dhash,3,3,1,1,1,1,5,1,0,mgmtio/dhash-image,9,3,3,2,9,8,0,0,0,.travis.yml,.travis.yml
235,xebia/VisualReview-protractor,13,10,5,5,12,12,5,0,0,rosen-group/VisualReview-protractor,3,3,0,0,0,0,0,0,0,nan,nan
236,andreobriennz/skeleton-flexbox,3,2,0,0,0,0,0,0,0,44r0n/skeleton-styled,427,86,216,2,217,3,1054,454,0,nan,.travis.yml
237,ebusinessdirect/mws-simple,5,2,0,0,0,0,0,0,0,ericblade/mws-simple,72,67,48,1,70,9,545,87,0,nan,.travis.yml
238,nrigaudiere/yarn-recursive,6,6,0,0,0,0,0,0,0,softwareventures/yarn-recursive,32,24,2,1,2,1,382,31,0,nan,nan
239,martintajur/node-mysql-activerecord,18,14,2,2,5,5,0,0,0,kylefarris/node-querybuilder,14,8,6,6,13,13,198,23,0,nan,.travis.yml
240,Deathspike/crunchyroll.js,5,0,0,0,0,0,0,0,0,Godzil/Crunchy,11,7,8,7,22,21,188,19,0,nan,.travis.yml
241,danroot/SAML2-metadata-config,6,5,0,0,0,0,0,0,0,compwright/passport-saml-metadata,21,18,10,3,35,4,183,22,0,nan,.travis.yml
242,Jam3/msdf-bmfont,4,3,0,0,0,0,0,0,0,soimy/msdf-bmfont-xml,10,9,2,2,4,4,179,17,0,nan,.travis.yml
243,NicolasDeveloper/guid-typescript,5,4,2,2,2,2,0,0,0,ez-libs/ez-guid,11,11,0,0,0,0,160,58,0,nan,.travis.yml
244,ricmoo/aes-js,16,8,5,5,12,12,0,0,0,andy128k/aes-es,58,6,45,0,45,0,151,65,0,nan,nan
245,KualiCo/koa-pixie-proxy,4,3,3,1,3,1,0,0,0,sdd/koa2-pixie-proxy,5,5,2,0,14,0,143,14,0,nan,.travis.yml
246,nRFCloud/bdd-feature-runner-aws,8,5,0,0,0,0,0,0,0,coderbyheart/bdd-feature-runner-aws,29,18,10,0,21,0,135,5,0,nan,nan
247,stdarg/tcp-port-used,8,6,3,1,7,1,0,0,0,oculus42/port-used,6,2,2,0,9,0,132,8,0,nan,.travis.yml
248,cyraxx/node-pogo-protos,10,4,2,2,19,19,0,0,0,pogosandbox/node-pogo-protos,17,8,7,7,14,14,110,80,0,nan,.travis.yml
249,jdorn/json-editor,118,62,7,4,24,17,0,0,0,Syzygy24/y-jsoneditor,20,17,6,6,9,9,92,44,0,nan,.travis.yml
250,andregardi/use-global-hook,21,15,6,6,15,15,0,0,0,nmccready/use-global-hook,3,3,0,0,0,0,88,3,0,nan,.travis.yml
251,DirtyDevWork/homebridge-daikin,4,1,0,0,0,0,0,0,0,cbrandlehner/homebridge-daikin-local,37,32,7,5,10,8,85,24,0,nan,nan
252,egoist/testen,6,4,0,0,0,0,0,0,115,bevry/testen,30,0,30,0,38,0,84,25,0,nan,.travis.yml
253,coolaj86/isbnjs,5,4,2,1,4,3,0,0,0,tadas-s/isbnjs,14,14,1,1,1,1,81,23,0,nan,.travis.yml
254,webcc/cassandra-store,5,0,0,0,0,0,0,0,0,razvanz/cassandra-store,32,21,2,1,6,1,77,10,0,nan,.travis.yml
255,blackjk3/react-signature-pad,4,4,1,1,1,1,0,0,0,agilgur5/react-signature-canvas,17,3,10,8,42,35,70,12,0,nan,.travis.yml
256,sorohan/stash-rest-api,3,0,0,0,0,0,0,0,0,markmssd/bitbucket-server-nodejs,14,13,4,4,7,7,69,13,0,nan,.travis.yml
257,yargalot/Angular-HMR,3,3,0,0,0,0,0,0,0,vitaliy-bobrov/angular-hot-loader,9,9,4,4,4,4,66,11,0,nan,.travis.yml
258,paulyoung/jade-inheritance,4,3,2,2,6,6,0,0,0,adammockor/pug-inheritance,11,10,4,4,24,24,60,20,0,nan,.travis.yml
259,heroku/kinesis,8,5,3,0,3,0,0,0,0,CoorpAcademy/kinesis,8,7,4,0,6,0,55,10,0,.travis.yml,.travis.yml
260,simianhacker/bunyan-elasticsearch,10,6,3,3,6,6,0,0,0,bloublou2014/bunyan-stream-elasticsearch,6,4,1,1,1,1,55,15,0,nan,.travis.yml
261,Merott/nativescript-pdf-view,10,5,2,2,4,4,0,0,0,madmas/nativescript-pdf-view,14,11,3,3,9,9,53,14,0,nan,.travis.yml
262,carlo-colombo/grunt-angular-modules-graph,3,1,0,0,0,0,0,0,0,lucalanca/grunt-angular-architecture-graph,4,4,2,2,3,3,47,8,0,nan,.travis.yml
263,MadRabbit/express-yields,5,2,1,1,6,6,0,0,0,davidbanham/express-async-errors,9,6,6,5,15,14,44,16,0,nan,.travis.yml
264,dominictarr/hashlru,13,13,6,4,21,14,0,0,0,node-modules/ylru,3,3,3,0,11,0,40,9,0,.travis.yml,.travis.yml/appveyor.yml
265,segmentio/metalsmith-markdown,24,12,2,2,6,6,0,0,0,mayo/metalsmith-markdownit,11,11,5,5,7,7,39,17,0,nan,.travis.yml
266,synapse-wireless-labs/component-lab,20,15,2,2,4,4,0,0,0,islavi/ng2-component-lab,6,6,0,0,0,0,38,6,0,nan,.travis.yml
267,siddharthkp/react-docgen-external-proptypes-handler,5,5,2,2,6,6,0,0,0,benjroy/react-docgen-imported-proptype-handler,5,5,0,0,0,0,35,11,0,nan,.travis.yml
268,fshost/node-dir,17,16,1,1,1,1,0,0,0,AckerApple/path-reader,3,3,0,0,0,0,33,3,0,.travis.yml,.appveyor.yml/.travis.yml
269,NodeFly/nodefly-uvmon,4,2,1,0,1,0,0,0,0,chaosgame/edgeswim-uvmon,8,5,6,1,9,1,33,15,0,nan,.travis.yml
270,roofstock/ember-cli-data-export,10,10,3,3,4,4,0,0,0,ahmetemrekilinc/ember-cli-data-export,10,1,0,0,0,0,32,21,0,.travis.yml,.travis.yml
271,segmentio/xml-parser,14,10,3,3,12,12,0,0,0,chrisbottin/xml-parser,3,2,0,0,0,0,32,3,0,nan,.travis.yml
272,lagoshny/ngx-hal-client,16,16,2,2,7,7,0,0,0,tycoonm/ngx-hal-client,4,3,0,0,0,0,30,8,0,nan,.travis.yml
273,bwindels/exif-parser,19,13,6,6,11,11,0,0,0,bpatrik/ts-exif-parser,5,4,4,4,7,7,29,11,0,nan,.travis.yml
274,Loghorn/ant-plus,10,7,3,2,4,3,0,0,0,gdoumen/ant-plus,4,3,0,0,0,0,29,3,0,nan,nan
275,mival/csob_gateway,4,0,0,0,0,0,0,0,0,blabu-com/node-csobcz-gateway,9,9,0,0,0,0,27,6,0,nan,.travis.yml
276,tinajs/wxml-loader,5,2,1,1,2,2,0,0,0,Jimexist/mini-program-xml-loader,6,6,0,0,0,0,26,5,0,.circleci/.travis.yml/appveyor.yml,.travis.yml
277,mikeric/rivets,219,156,71,64,167,139,0,0,0,benderTheCrime/tiny-rivets,15,15,0,0,0,0,26,6,0,nan,.travis.yml
278,msloth/lgtv.js,3,2,1,1,1,1,0,0,0,hobbyquaker/lgtv2,7,6,3,3,5,5,26,4,0,nan,.travis.yml
279,kenwheeler/mcfly,24,17,9,9,18,18,0,0,0,jcperez-ch/flaxs,15,14,3,2,3,2,23,7,0,nan,.travis.yml
280,tbranyen/salita,9,8,4,4,12,12,0,0,0,Xotic750/salita,3,3,0,0,0,0,18,1,0,nan,.travis.yml
281,codebox/moment-precise-range,8,6,1,1,1,1,0,0,0,mtscout6/moment-precise-range,4,3,3,3,5,5,18,4,0,nan,.travis.yml
282,FrankyBoy/request-ntlm,10,5,2,2,3,3,0,0,0,jehy/request-ntlm-lite,3,3,0,0,0,0,16,3,0,.travis.yml,.travis.yml
283,techniq/mui-virtualized-table,19,16,3,3,12,12,0,0,0,128technology/mui-virtualized-table,5,4,0,0,0,0,16,1,0,nan,.travis.yml
284,component/collection,3,0,0,0,0,0,0,0,0,Frapwings/fendjs-collection,3,3,0,0,0,0,16,3,0,nan,.travis.yml
285,shettypuneeth/react-codepen-embed,4,3,1,1,1,1,0,0,0,htbkoo/ts-react-codepen-embed,5,5,0,0,0,0,12,4,0,nan,.travis.yml
286,FrankyBoy/request-ntlm,10,5,2,2,3,3,0,0,0,matrus2/request-ntlm,5,3,1,1,1,1,3,1,0,.travis.yml,.travis.yml
287,dmotz/natal,9,9,2,2,6,6,0,0,0,drapanjanas/re-natal,69,67,16,15,44,42,2,1,0,nan,nan
288,ToothlessGear/node-gcm,129,104,69,56,226,196,0,0,0,parse-community/node-gcm,8,8,0,0,0,0,1,0,0,nan,nan
289,intuit/semantic-release-slack,133,128,0,0,0,0,0,0,2135,conechan/semantic-release-wxwork,3,3,0,0,0,0,0,0,36,.circleci,.circleci
290,intuit/semantic-release-slack,133,128,0,0,0,0,0,0,2135,conechan/semantic-release-wxwork,3,3,0,0,0,0,0,0,36,.circleci,.circleci
291,etienne-martin/device-detector-js,82,75,21,2,32,7,0,0,471,TrafficGuard/device-detector-js,15,13,0,0,0,0,0,0,0,.circleci,.circleci
292,drazisil/junit-merge,80,67,20,0,24,0,0,0,721,bitcoder/cucumber-json-merge,4,4,0,0,0,0,0,0,103,.circleci,.circleci
293,mddub/minimed-connect-to-nightscout,10,8,6,5,13,12,0,0,53,szymjaw/minimed-connect-to-nightscout,3,3,0,0,0,0,0,0,0,.circleci,.circleci
294,xyluet/objection-table-name,5,5,0,0,0,0,0,0,12,JaneJeon/objection-table-name,85,79,35,0,36,0,0,0,190,.circleci,.circleci/
295,adriancarriger/semantic-commitlint,24,22,1,1,1,1,0,0,72,mixmaxhq/semantic-commitlint,8,8,1,0,1,0,0,0,0,.circleci,nan
296,zetter/react-crossword,13,8,0,0,0,0,0,0,0,guardian/react-crossword,6,6,0,0,0,0,0,0,0,.sass-lint.yml,.sass-lint.yml
297,creationix/node-gir,20,19,2,2,5,5,0,0,0,Place1/node-gir,17,14,6,5,30,29,0,0,384,.travis.yml,.circleci
298,poetic/ember-cli-github-pages,42,40,15,15,33,33,0,0,0,IgorMinar/angular-cli-github-pages,3,0,1,1,3,3,0,0,0,.travis.yml,.travis.yml
299,browser-update/browser-update,41,28,7,7,10,10,0,0,0,regru/browser-update-cleaned-up,14,13,3,0,4,0,0,0,0,.travis.yml,.travis.yml
300,mediacurrent/theme_generator_8,38,34,1,1,1,1,0,0,0,CodeKoalas/koality-drupal-theme-generator,12,9,1,0,1,0,0,0,0,.travis.yml,.travis.yml
301,dominictarr/stream-combiner,10,8,3,3,3,3,0,0,0,substack/stream-combiner2,6,2,1,1,7,7,0,0,0,.travis.yml,.travis.yml
302,roofstock/ember-cli-data-export,10,10,3,3,4,4,0,0,0,pauln/ember-spreadsheet-export,3,1,1,1,2,2,0,0,0,.travis.yml,.travis.yml
303,bunkat/pseudoloc,4,4,0,0,0,0,0,0,0,jacalata/pseudoloc,7,7,5,5,8,8,0,0,0,.travis.yml,.travis.yml
304,alchemycs/spheron,3,3,2,2,3,3,0,0,0,hybridgroup/spheron,5,4,4,1,5,2,0,0,0,.travis.yml,.travis.yml
305,bitjourney/ci-npm-update,337,296,3,2,5,4,0,0,1613,kogai/ci-npm-update,7,1,0,0,0,0,0,0,0,circle.yml,build-circleci/circle.yml
306,Jimdo/serverless-dotenv,5,3,0,0,0,0,0,0,34,UnlyEd/serverless-env-copy-plugin,6,5,1,1,3,3,0,0,0,circle.yml,nan
307,project-colophon/app,217,16,2,0,3,0,0,0,1250,telus/telus-colophon-app,16,13,3,0,8,0,0,0,0,circle.yml,circle.yml
308,posva/eslint-config-posva,91,84,0,0,0,0,0,0,371,TinyChief/eslint-config-tinychief,3,2,1,0,1,0,0,0,7,circle.yml,circle.yml
309,Automattic/i18n-calypso,65,55,37,5,92,6,0,0,281,pentatonicfunk/i18n-wp-plugin,18,0,12,0,12,0,0,0,41,circle.yml,circle.yml
310,pinguinjkeke/vue-local-storage,13,7,5,5,11,11,0,0,33,frasiek/vue-local-storage,7,7,0,0,0,0,0,0,0,circle.yml,circle.yml
311,mathquill/mathquill,360,247,160,68,418,198,0,0,545,pie-framework/mathquill,3,3,0,0,0,0,0,0,0,circle.yml/mkdocs.yml,circle.yml/mkdocs.yml
312,overture-stack/persona,75,55,9,0,18,0,0,0,395,kids-first/persona,5,5,1,0,1,0,0,0,0,docker-compose.yml,.circleci/docker-compose.yml
313,thelonious/kld-intersections,12,10,10,10,31,31,0,0,0,signavio/svg-intersections,7,7,2,2,4,4,0,0,0,nan,nan
314,pinguinjkeke/react-native-wheel-datepicker,19,10,5,5,7,7,0,0,0,davidgovea/react-native-wheel-datepicker,15,13,9,2,10,3,0,0,105,nan,.circleci
315,Michaelvilleneuve/react-native-document-scanner,18,11,7,6,13,6,0,0,0,Woonivers/react-native-document-scanner,11,9,3,2,5,3,0,0,57,nan,.circleci
316,porchdotcom/nock-back-mocha,3,2,1,1,2,2,0,0,0,teppeis/nock-back-mocha,65,62,0,0,0,0,0,0,866,nan,.circleci
317,ForbesLindesay/matches-selector,3,2,1,1,7,7,0,0,0,Macil/matches-selector-ng,18,13,3,0,3,0,0,0,274,nan,.circleci
318,buildo/react-cookie-banner,32,28,15,9,32,21,0,0,0,Babylone-repo/react-cookie-banner,3,3,1,0,1,0,0,0,0,nan,.drone.yml
319,daguej/node-proxywrap,3,1,1,1,2,2,0,0,0,findhit/proxywrap,12,9,9,9,37,37,0,0,0,nan,.travis.yml
320,domenic/pubit,3,1,0,0,0,0,0,0,0,YuzuJS/pubit-as-promised,7,5,7,0,13,0,0,0,0,nan,.travis.yml
321,courajs/node-svn,6,5,3,3,5,5,0,0,0,crichmond1989/svn,8,6,2,0,2,0,0,0,67,nan,azure-pipelines.yml
322,tejitak/react-state-animation,7,6,0,0,0,0,0,0,0,petermoresi/react-set-animate,3,3,0,0,0,0,0,0,99,nan,circle.yml
323,aigis-styleguide/aigis,52,45,10,6,16,10,0,0,142,cxq/aigis,5,5,0,0,0,0,0,0,0,nan,nan
324,NativeScript/nativescript-dev-appium,190,177,39,9,74,16,0,0,0,marcbuils/nativescript-dev-cucumber,5,5,0,0,0,0,0,0,0,nan,nan
325,nuxt-community/sentry-module,168,128,108,39,243,124,0,0,854,uniibu/sentry-module,4,3,0,0,0,0,0,0,0,nan,nan
326,sandiiarov/use-popper,139,132,0,0,0,0,0,0,0,MediaMonksForks/use-popper,5,0,5,0,5,0,0,0,0,nan,nan
327,jdorn/json-editor,118,62,7,4,24,17,0,0,0,dmstr-forks/jdorn-json-editor,26,26,1,1,1,1,0,0,0,nan,nan
328,webpro/reveal-md,104,76,31,31,83,83,0,0,0,amahon/reveal-md,8,7,0,0,0,0,0,0,0,nan,nan
329,ccampbell/rainbow,86,52,22,22,57,57,0,0,0,justinfagnani/rainbow,7,5,2,2,2,2,0,0,0,nan,nan
330,HubSpot/vex,72,41,28,25,85,77,0,0,0,bbatliner/vex,3,3,2,2,2,2,0,0,0,nan,nan
331,boclips/boclips-player,68,17,3,0,3,0,0,0,0,g787543/boclips-react-plyr,4,3,0,0,0,0,0,0,1,nan,nan
332,elrumordelaluz/reactour,65,48,24,24,48,48,0,0,0,RobertGary1/reactour,5,5,0,0,0,0,0,0,0,nan,nan
333,jed/authom,58,49,7,7,14,14,0,0,0,gilbert/authport,3,3,3,3,3,3,0,0,0,nan,nan
334,contentstack/gatsby-source-contentstack,53,37,10,8,17,13,0,0,0,berlitz-global/gatsby-source-contentstack,14,12,1,0,1,0,0,0,0,nan,nan
335,atlassian/better-ajv-errors,49,43,24,9,40,16,0,0,72,ext/better-ajv-errors,18,12,9,0,9,0,0,0,0,nan,nan
336,Kerumen/react-native-awesome-card-io,49,35,15,14,41,33,0,0,0,Skyscanner/react-native-awesome-card-io,6,6,3,1,5,1,0,0,0,nan,nan
337,benhurott/react-native-masked-text,47,43,2,2,3,3,0,0,0,indigotech/react-masked-text,9,9,0,0,0,0,0,0,0,nan,nan
338,wix/react-native-controllers,42,11,0,0,0,0,0,0,0,aksonov/react-native-controllers,8,7,0,0,0,0,0,0,0,nan,nan
339,go-macaroon/js-macaroon,41,35,10,10,16,16,0,0,0,juju/js-macaroon,7,7,5,5,6,6,0,0,0,nan,nan
340,aceakash/project-name-generator,31,9,3,3,5,5,0,0,12,creately/namegen,8,8,1,0,1,0,0,0,0,nan,nan
341,SUI-Components/frontend-pre-commit-rules,31,26,15,2,26,3,0,0,0,SUI-Framework/sui-pre-commit-rules,7,7,7,0,12,0,0,0,0,nan,nan
342,mrDarcyMurphy/is,29,27,1,0,1,0,0,0,1,LoudBit/is-too,7,7,2,0,2,0,0,0,11,nan,nan
343,ant-mini-program/mini-types,28,19,3,2,4,3,0,0,0,remaxjs/mini-types,5,2,0,0,0,0,0,0,0,nan,nan
344,evothings/cordova-ble,28,22,4,4,4,4,0,0,0,liuxiaoy/cordova-plugin-bluetooth,4,4,0,0,0,0,0,0,0,nan,nan
345,cyclosproject/ng-openapi-gen,28,21,9,9,22,22,0,0,0,fllstx/ng-openapi-gen,3,3,2,0,2,0,0,0,0,nan,nan
346,spite/THREE.MeshLine,26,18,9,9,29,29,0,0,0,ryanking1809/threejs-meshline,6,6,1,1,1,1,0,0,0,nan,nan
347,prscX/react-native-app-tour,25,19,15,15,23,23,0,0,0,WCChimiiz/react-native-app-tour,5,5,0,0,0,0,0,0,0,nan,nan
348,kenwheeler/mcfly,24,17,9,9,18,18,0,0,0,FormidableLabs/biff,6,6,4,0,47,0,0,0,0,nan,nan
349,mescroll/mescroll,22,9,4,4,6,6,0,0,0,mvpleung/mescroll,5,5,0,0,0,0,0,0,0,nan,nan
350,harthur/replace,21,13,2,2,5,5,0,0,0,ALMaclaine/replace,7,7,3,3,4,4,0,0,0,nan,nan
351,Lainix/card-validator,21,21,0,0,0,0,0,0,0,DolceLemus/card-validator,5,5,0,0,0,0,0,0,0,nan,nan
352,mariiinda/gatsby-theme-recipes,21,20,0,0,0,0,0,0,0,westegg/gatsby-theme-recipes,5,4,0,0,0,0,0,0,5,nan,nan
353,MGrin/mgr-pdf-viewer-react,21,17,2,2,2,2,0,0,0,ansu5555/pdf-viewer-reactjs,5,4,2,2,2,2,0,0,0,nan,nan
354,chirag04/mail-listener2,21,15,5,5,6,6,0,0,0,Pranav-Dakshina/mail-listener2,4,2,2,1,4,3,0,0,0,nan,nan
355,williamkapke/ipp,20,10,5,5,12,12,0,0,0,sealsystems/node-ipp,69,47,44,3,55,5,0,0,265,nan,nan
356,gaearon/react-document-title,20,13,5,5,30,30,0,0,0,Ambroos/react-nested-status,4,2,2,2,2,2,0,0,0,nan,nan
357,coreybutler/node-linux,19,17,5,5,12,12,0,0,0,PauloFerreira25/node-service-linux,3,3,0,0,0,0,0,0,0,nan,nan
358,bevacqua/horsey,18,11,4,4,14,14,0,0,0,goguardian/horsey,4,4,0,0,0,0,0,0,0,nan,nan
359,handshake-org/hs-client,18,8,4,4,9,9,0,0,0,namebasehq/hs-client,3,2,0,0,0,0,0,0,0,nan,nan
360,AYapejian/node-red-contrib-home-assistant,17,12,3,3,11,11,0,0,0,Spartan-II-117/node-red-contrib-home-assistant-llat,30,29,8,7,12,11,0,0,0,nan,nan
361,thangngoc89/bs-ant-design,17,10,4,4,6,6,0,0,0,Enalmada/bs-ant-design,7,6,4,4,15,15,0,0,0,nan,nan
362,ehynds/grunt-image-embed,17,13,4,4,10,10,0,0,0,Jpunt/grunt-css-url-rewrite,4,4,0,0,0,0,0,0,0,nan,nan
363,Step7750/node-csgo-cdn,17,14,2,2,4,4,0,0,0,dvpusha/node-csgo-cdn,3,2,0,0,0,0,0,0,0,nan,nan
364,roccomuso/node-ads,17,12,6,6,10,10,0,0,0,PLCHome/node-ads-api,3,3,1,1,1,1,0,0,0,nan,nan
365,jintoppy/protractor-html-screenshot-reporter,16,11,2,2,2,2,0,0,0,bcole/protractor-angular-screenshot-reporter,5,3,0,0,0,0,0,0,0,nan,nan
366,TourCMS/node-tourcms,16,14,1,0,1,0,0,0,0,alpeshvas/node-tourcms,3,3,0,0,0,0,0,0,0,nan,nan
367,konstantinzolotarev/sails-hook-adminpanel,15,12,4,4,4,4,0,0,0,dardalan/sails-hook-adminpanel,10,10,0,0,0,0,0,0,0,nan,nan
368,a5mith/nodebb-plugin-youtube-lite,15,10,1,1,1,1,0,0,0,boomzillawtf/nodebb-plugin-youtube-embed,5,3,0,0,0,0,0,0,0,nan,nan
369,ForbesLindesay/run-browser,15,7,6,6,21,21,0,0,0,rtsao/run-browser-babel,4,4,1,1,1,1,0,0,0,nan,nan
370,reasonml-old/BetterErrors,15,13,2,2,2,2,0,0,0,esy-ocaml/BetterErrors,4,4,1,1,3,3,0,0,0,nan,nan
371,fatbone008/imobile_for_javascript,14,14,0,0,0,0,0,0,0,iMobileforJavaScript/imobile_for_reactnative,23,23,0,0,0,0,0,0,0,nan,nan
372,gabriel-letarte/sails-arangodb,14,12,5,5,29,29,0,0,0,partoutx/sails-arangodb,8,8,0,0,0,0,0,0,0,nan,nan
373,steadyequipment/node-firestore-backup,14,12,7,7,17,17,0,0,0,willhlaw/node-firestore-backup-restore,8,5,4,3,10,9,0,0,0,nan,nan
374,rakeshpai/pi-gpio,14,7,3,3,14,14,0,0,0,EyeDive/pi-gpio-js,5,4,0,0,0,0,0,0,0,nan,nan
375,bit-docs/bit-docs-docjs-theme,14,13,2,0,2,0,0,0,0,stealjs/bit-docs-stealjs-theme,4,4,1,0,1,0,0,0,0,nan,nan
376,TalkingData/iview-weapp,13,4,0,0,0,0,0,0,0,iview/iview-mpvue,12,12,0,0,0,0,0,0,0,nan,nan
377,jstrace/jstrace,13,7,2,2,3,3,0,0,0,v0lkan/kiraz,3,3,0,0,0,0,0,0,0,nan,nan
378,wgltony/react-native-braintree-dropin-ui,13,8,0,0,0,0,0,0,0,BradyShober/react-native-braintree-dropin-ui,3,3,0,0,0,0,0,0,0,nan,nan
379,jkuri/ng-daterangepicker,12,4,2,2,2,2,0,0,0,kiwigrid/ngx-daterangepicker,12,12,1,0,1,0,0,0,0,nan,nan
380,nfarina/homebridge-tesla,12,11,7,7,27,27,0,0,0,WonkiDonk/homebridge-jlr-incontrol,8,8,0,0,0,0,0,0,0,nan,nan
381,deej81/ngx-croppie,12,6,4,4,10,10,0,0,0,meupatrocinio/ngx-croppie,4,4,0,0,0,0,0,0,0,nan,nan
382,abdulkadirgenc/ng-wizard,12,8,0,0,0,0,0,0,0,sc0tt5/ng-wizard,3,3,0,0,0,0,0,0,0,nan,nan
383,jgillick/jira-changelog,12,9,3,2,6,5,0,0,0,falcucci/changelog-it,3,3,0,0,0,0,0,0,0,nan,nan
384,alkawryk/tinderjs,11,6,3,3,6,6,0,0,0,tinderjs/tinderjs,26,18,8,8,8,8,0,0,0,nan,nan
385,smore-inc/react-native-segment-io-analytics,11,8,3,2,3,2,0,0,0,tonyxiao/react-native-analytics,10,2,8,8,15,15,0,0,0,nan,nan
386,tadasr/react-native-iot-wifi,11,3,1,1,9,9,0,0,0,josectobar/react-native-iot-wifi,7,7,0,0,0,0,0,0,0,nan,nan
387,rkalis/truffle-plugin-verify,11,10,8,8,18,18,0,0,0,ejwessel/truffle-verify,6,6,0,0,0,0,0,0,0,nan,nan
388,skynet2/ngx-google-places-autocomplete,11,10,2,2,2,2,0,0,0,wiredviews/ngx-google-places-autocomplete,5,5,0,0,0,0,0,0,0,nan,nan
389,ivesdebruycker/maxcube,11,8,5,5,6,6,0,0,0,normen/maxcube2,5,5,2,2,2,2,0,0,0,nan,nan
390,sguiheux/EventSource,11,11,0,0,0,0,0,0,0,nickofthyme/EventSource,4,4,0,0,0,0,0,0,0,nan,nan
391,component/matches-selector,11,6,1,1,7,7,0,0,0,ForbesLindesay/matches-selector,3,2,1,1,7,7,0,0,0,nan,nan
392,haifeng2013/rollup-plugin-bundle-html,11,8,3,3,3,3,0,0,0,ThomZz/rollup-plugin-bundle-html-thomzz,3,1,2,2,8,8,0,0,0,nan,nan
393,vinodkumar8/react-native-month-selector,11,11,3,3,13,13,0,0,0,is343/react-native-swipeable-month-selector,3,3,0,0,0,0,0,0,0,nan,nan
394,VladimirJarabica/splitster,10,8,0,0,0,0,0,0,0,kiwicom/splitster,25,24,0,0,0,0,0,0,0,nan,nan
395,zephir/zephir-gulp-workflow,10,9,2,2,3,3,0,0,0,moritzjacobs/mj-gulp-workflow,14,12,1,1,1,1,0,0,0,nan,nan
396,magicismight/react-native-lazyload,10,5,1,1,2,2,0,0,0,soldotno/react-native-lazyload-deux,7,6,0,0,0,0,0,0,0,nan,nan
397,Streampunk/naudiodon,9,8,0,0,0,0,0,0,0,auroraapi/node-portaudio,3,2,2,2,3,3,0,0,0,nan,nan
398,doubleswirve/quarterback,8,8,0,0,0,0,0,0,0,GovHawkDC/quarterback,8,8,0,0,0,0,0,0,0,nan,nan
399,jfromaniello/express-unless,8,6,4,4,9,9,0,0,0,Swyftx/express-unless-and,5,5,0,0,0,0,0,0,0,nan,nan
400,tjanczuk/edge-sql,8,5,4,4,4,4,0,0,0,dsandor/edge-sql,4,4,0,0,0,0,0,0,0,nan,nan
401,brunch/react-brunch,8,8,2,2,2,2,0,0,0,banyan/react-coffee-brunch,3,3,2,2,3,3,0,0,0,nan,nan
402,guillaumervls/connect-rethinkdb,7,3,1,1,1,1,0,0,0,llambda/session-rethinkdb,5,5,1,1,1,1,0,0,0,nan,nan
403,KraigM/homebridge-wink,7,5,5,5,52,52,0,0,0,pdlove/homebridge-wink,4,4,1,1,1,1,0,0,0,nan,nan
404,JillElaine/jquery-idleTimeout,7,2,2,2,2,2,0,0,0,LinearSoft/jquery-idleTimeout-plus,3,2,0,0,0,0,0,0,0,nan,nan
405,santi8ago8/MercadoLibreNode,7,6,2,2,4,4,0,0,0,fredmarques/MercadoLibreNode,3,3,2,0,2,0,0,0,0,nan,nan
406,Xfaider48/node-csgotm-api,7,6,4,4,13,13,0,0,0,MattRh/node-csgotm-api,3,2,0,0,0,0,0,0,0,nan,nan
407,vdw/HideSeek,6,4,0,0,0,0,0,0,0,maxwroc/HideSeek-Mod,32,23,6,0,6,0,0,0,0,nan,nan
408,xdissent/karma-chai,6,4,0,0,0,0,0,0,0,tubalmartin/karma-chai-sinon,7,2,3,3,4,4,0,0,0,nan,nan
409,pierremtb/easy-fit,6,5,1,1,1,1,0,0,0,jimmykane/fit-parser,6,6,2,2,3,3,0,0,0,nan,nan
410,matteodem/orion-cli,6,5,3,3,5,5,0,0,0,mrauhu/orionx-cli,5,5,0,0,0,0,0,0,0,nan,nan
411,paolotremadio/homebridge-automation-chromecast,6,1,1,1,1,1,0,0,0,yotamtal/homebridge-control-chromecast,5,5,0,0,0,0,0,0,0,nan,nan
412,Shuangzuan/RCTRefreshControl,6,5,2,2,8,8,0,0,0,react-native-china/react-native-drop-refresh,3,3,0,0,0,0,0,0,0,nan,nan
413,bamlab/react-native-braintree-payments-drop-in,5,3,0,0,0,0,0,0,0,beqaweb/react-native-braintree-payments-drop-in,5,3,0,0,0,0,0,0,0,nan,nan
414,rendrjs/grunt-rendr-stitch,5,4,3,3,5,5,0,0,0,alexindigo/grunt-rendr-requirejs,4,4,1,1,1,1,0,0,0,nan,nan
415,geremih/react-native-circular-action-menu,5,4,3,3,7,7,0,0,0,meteorinovasidigital/react-native-circular-action-menu,4,4,1,1,1,1,0,0,0,nan,nan
416,abarta/vue2-multi-uploader,5,3,1,1,1,1,0,0,0,updivision/vue2-multi-uploader,4,1,0,0,0,0,0,0,0,nan,nan
417,steffenmllr/node-red-contrib-sonoff-tasmota,5,4,3,3,3,3,0,0,0,EdgarM73/node-red-contrib-sonoff-tasmota,4,3,2,2,5,5,0,0,0,nan,nan
418,kevinschaul/depict,5,4,0,0,0,0,0,0,0,ajam/banquo,3,3,0,0,0,0,0,0,0,nan,nan
419,yanoosh/karma-sinon,5,2,0,0,0,0,0,0,0,levibuzolic/karma-sinon-ie,3,3,0,0,0,0,0,0,0,nan,nan
420,petrbela/karma-osx-reporter,5,4,1,1,1,1,0,0,0,bltavares/karma-notification-reporter,3,2,3,3,9,9,0,0,0,nan,nan
421,jhurliman/homebridge-frontpoint,4,2,2,2,2,2,0,0,0,mkormendy/homebridge-node-alarm-dot-com,9,6,4,4,10,10,0,0,0,nan,nan
422,paulcuth/esp8266-cli,4,2,1,1,1,1,0,0,0,goliatone/node-esp,9,8,1,1,1,1,0,0,0,nan,nan
423,pitronalldak/rc-phone-input,4,2,0,0,0,0,0,0,0,join-com/rc-phone-input,9,6,2,0,2,0,0,0,0,nan,nan
424,orangecms/jest-meteor-stubs,4,0,0,0,0,0,0,0,0,tomscholz/meteor-jest-stubs,9,9,3,3,8,8,0,0,0,nan,nan
425,numinos1/embedable,4,2,0,0,0,0,0,0,0,deseretdigital/embeddable,7,7,0,0,0,0,0,0,0,nan,nan
426,kkemple/primus-webpack-plugin,4,3,3,3,3,3,0,0,0,newyork-anthonyng/primus-webpack-plugin,5,3,1,1,2,2,0,0,0,nan,nan
427,Mr-Wallet/node-bitbucket-v2,4,4,0,0,0,0,0,0,0,kristianmandrup/bitbucket-api-v2,4,4,1,1,1,1,0,0,0,nan,nan
428,jcoglan/node-csprng,4,0,0,0,0,0,0,0,0,Favna/node-csprng,4,3,0,0,0,0,0,0,18,nan,nan
429,brijeshb42/kattappa,4,4,0,0,0,0,0,0,0,scrolltech/kattappa,4,4,1,0,1,0,0,0,0,nan,nan
430,jackmu95/idle-timeout,4,1,0,0,0,0,0,0,0,certsy/universal-idle-timeout,4,0,0,0,0,0,0,0,0,nan,nan
431,frikille/promised-xhr,4,4,0,0,0,0,0,0,0,cbargren/xhr-promise-redux,3,3,0,0,0,0,0,0,0,nan,nan
432,rotundasoftware/sass-css-stream,4,4,2,2,7,7,0,0,0,jsdf/less-css-stream,3,3,2,2,5,5,0,0,0,nan,nan
433,symphonyoss/symphony-node-binding,4,3,2,1,3,2,0,0,0,teleolabs/symphony-node-binding,3,3,0,0,0,0,0,0,0,nan,nan
434,elanic-tech/react-native-paytm,4,2,1,1,1,1,0,0,0,opsway/react-native-paytm,3,2,0,0,0,0,0,0,0,nan,nan
435,ikmolbo/vue2-leaflet-hotline,4,3,0,0,0,0,0,0,0,jurb/vue2-leaflet-heatmap,3,3,0,0,0,0,0,0,0,nan,nan
436,amper5and/secrets.js,3,1,0,0,0,0,0,0,0,grempe/secrets.js,60,4,43,0,43,0,0,0,0,nan,nan
437,DFFR-NT/dffrnt.api,3,0,0,0,0,0,0,0,0,eVectr/evectr.api,19,19,0,0,0,0,0,0,0,nan,nan
438,georgski/cordova-plugin-firebase-dynamiclinks,3,1,0,0,0,0,0,0,0,QDOOZ/cordova-plugin-firebase-offline,17,17,3,0,4,0,0,0,0,nan,nan
439,wfortin/hg-auto-semver,3,1,0,0,0,0,0,0,0,coveo/hg-auto-semver,13,13,1,0,1,0,0,0,0,nan,nan
440,jortgies/homebridge-rademacher-blinds,3,1,0,0,0,0,0,0,0,bombadiltom/homebridge-rademacher-homepilot,13,12,3,3,3,3,0,0,0,nan,nan
441,natevw/node-nrf,3,1,0,0,0,0,0,0,0,tessel/rf-nrf24,10,10,2,2,3,3,0,0,0,nan,nan
442,Felixls/node-red-contrib-tplink-smarthome,3,2,0,0,0,0,0,0,0,adreno369/node-red-contrib-tplink-iot,10,4,4,0,4,0,0,0,0,nan,nan
443,ivesdebruycker/node-red-contrib-maxcube,3,2,0,0,0,0,0,0,0,maxill1/node-red-contrib-maxcube2,6,5,1,1,1,1,0,0,0,nan,nan
444,nhitchins/nodebb-plugin-slack,3,2,0,0,0,0,0,0,0,pichalite/nodebb-plugin-slack-extended,5,4,0,0,0,0,0,0,0,nan,nan
445,voidberg/eslint-bamboo-formatter,3,2,1,1,1,1,0,0,0,adalbertoteixeira/jest-bamboo-formatter,5,5,1,1,5,5,0,0,0,nan,nan
446,karan3112/vue-awesome-form,3,2,0,0,0,0,0,0,0,pavitardua/vue-awesome-form,4,4,0,0,0,0,0,0,0,nan,nan
447,viriciti/coffee-project,3,1,0,0,0,0,0,0,0,stofstik/coffee-project,3,3,0,0,0,0,0,0,0,nan,nan
448,troxler/vue-headful,3,0,0,0,0,0,0,0,0,VeryWow/vue-simple-headful,3,3,0,0,0,0,0,0,0,nan,nan
449,nanjingboy/nvmw,3,3,0,0,0,0,0,0,0,jchip/nvm,3,2,0,0,0,0,0,0,0,nan,nan
450,st44100/gulp-styledown,3,2,0,0,0,0,0,0,4,PhilippeVay/gulp-styledown,3,3,0,0,0,0,0,0,0,nan,nan
