No;mainline_repo;pr_no;created_at;closed_at;merged_at;repo_origin;repo_destin;pr_owner;no_commenters;pr_commenters;pr_comments
0;coolaj86/isbnjs;10;2016-05-15T07:23:51Z;2016-05-15T07:26:38Z;2016-05-15T07:26:38Z;coolaj86/isbnjs;coolaj86/isbnjs;taitems;1;taitems;"Ideally this shouldn't be self merged, but for the sake of getting on Bower and doing some testing I'm going to have to.
"
