No;mainline_repo;pr_no;created_at;closed_at;merged_at;repo_origin;repo_destin;pr_owner;no_commenters;pr_commenters;pr_comments
0;lindell/JsBarcode;236;2018-04-05T16:18:01Z;2018-04-11T03:52:07Z;2018-04-11T03:52:07Z;SanichKotikov/JsBarcode;lindell/JsBarcode;SanichKotikov;4;SanichKotikov/lindell/SanichKotikov/lindell;"Thx. Also, updated `barcode-building.json` just now. Things does then also have to be updated in the readme and in the gh-pages branch since the ITF14 file is now removed

https://github.com/lindell/JsBarcode/blob/gh-pages/index.html#L210
http://lindell.me/JsBarcode @lindell I updated Readme & gh-pages https://github.com/lindell/JsBarcode/pull/238 Merge whenever :)"
1;lindell/JsBarcode;233;2018-03-30T13:57:39Z;2018-03-30T15:14:28Z;2018-03-30T15:14:28Z;SanichKotikov/JsBarcode;lindell/JsBarcode;SanichKotikov;1;SanichKotikov;https://github.com/lindell/JsBarcode/issues/164
2;lindell/JsBarcode;226;2018-03-03T19:56:33Z;2018-03-29T18:04:42Z;2018-03-29T18:04:42Z;SanichKotikov/JsBarcode;lindell/JsBarcode;SanichKotikov;6;SanichKotikov/SanichKotikov/lindell/lindell/lindell/lindell;"Looks like we have a problem with `publish-release` module in CI @lindell hi. Any comments/suggestions? Sorry, I've been a little open source burned out lately. I'm currently on vacation but will try to take care of things once I'm home (and not jetlagged) in a couple of days  I will take a look at what made travis fail Created a PR in publish-release to fix the issue. If it is not merged soon we can revert to an older version.

https://github.com/remixz/publish-release/pull/35 But feel free to merge this branch whenever you want 😄 "
3;lindell/JsBarcode;210;2017-12-14T06:11:16Z;2018-02-10T14:05:19Z;2018-02-10T14:05:19Z;kaka-go/JsBarcode;lindell/JsBarcode;kaka-go;5;kaka-go/kaka-go/SanichKotikov/SanichKotikov/lindell;"Here is an example ""B0C"" which generated by another barcode generator.

https://racoindustries.com/barcodegenerator/1d/codabar/
![createbarcode](https://user-images.githubusercontent.com/1153810/33978196-e2800d8e-e0e1-11e7-83ef-c31017038716.gif)

JsBarcode
![b0c](https://user-images.githubusercontent.com/1153810/33978361-abdef118-e0e2-11e7-8f2d-7c6324053574.png)

```javascript
JsBarcode(""#barcode"", ""B0C"", {
        format: ""codabar"",
        width: 4,
        height: 50,
        displayValue: false
      });
```

 #209 reported the sample problem Hi, thanks for your pr. I'll try to investigate the issue. But I'm not sure I can do it soon... the end of a year. Tested in several different generators and I can confirm that this is a valid changes. @edward9145 great job, txh! @lindell I suppose we should merge it, what do you think? Does indeed look good. 

Thank you very much for the PR 😄 "
4;lindell/JsBarcode;173;2017-07-08T07:38:22Z;2017-07-08T15:32:29Z;2017-07-08T15:32:29Z;SanichKotikov/JsBarcode;lindell/JsBarcode;SanichKotikov;2;lindell/SanichKotikov;"LGTM :) Merge when you feel like it.

Btw, is TapeScript is something new? 😉  > TapeScript

Ha ha, thanks for paying attention 👍 "
5;lindell/JsBarcode;166;2017-06-27T22:30:50Z;2017-07-03T08:00:48Z;2017-07-03T08:00:48Z;SanichKotikov/JsBarcode;lindell/JsBarcode;SanichKotikov;5;lindell/SanichKotikov/lindell/SanichKotikov/lindell;I will take a look at this when I come home from work today :) But seems good :) During working on this pr, I found a bug in auto detection of type (A/B/C). There are several cases when it starts from wrong type. I think it should be fixed first. I'll try to fix it. LGTM 🙂 Merge if you feel ready @lindell should I merge it? Go for it :) 
6;lindell/JsBarcode;156;2017-05-26T13:58:41Z;2017-05-26T15:41:54Z;2017-05-26T15:41:54Z;machty/JsBarcode;lindell/JsBarcode;machty;1;lindell;"Look really good 😄 Will just have to test to scan some barcodes generated by it but will merge as fast a I can after that :)

Thanks for the contribution!"
7;lindell/JsBarcode;150;2017-05-13T14:05:54Z;2017-05-16T19:24:06Z;2017-05-16T19:24:06Z;SanichKotikov/JsBarcode;lindell/JsBarcode;SanichKotikov;5;SanichKotikov/lindell/SanichKotikov/lindell/SanichKotikov;"Also I'm not sure about deleting of `InvalidStartCharacterException` When looking at it overall it looks excellent :) The constants.js file was very much needed to keep the file more readable and clean.

I will have to take a closer look at all part of the implementation thou. I will see when I have time for that, hopefully tonight, otherwise in the coming days. I've tested this code as I mentioned before. Works fine for me :)
Also I thinking about implement `quiet zone` for Code128, but as another PR later. If you mean what I think you mean with quite zone it should not be needed for every single barcode type. The margin option (left/right) can be used for this. I fixed all your comments and removed WIP."
8;lindell/JsBarcode;100;2016-09-16T21:55:40Z;2016-09-18T08:23:50Z;2016-09-18T08:23:50Z;grahamb/JsBarcode;lindell/JsBarcode;grahamb;3;lindell/grahamb/grahamb;"Is empty string allowedin Codabar? (Just start and end code)
 I doubt an empty string would be allowed. I'll add a test for it.
 OK, I've fixed up the regexes and added a couple of additional tests.
"
9;lindell/JsBarcode;65;2016-04-20T08:14:50Z;2016-04-20T13:47:01Z;2016-04-20T13:47:01Z;jwrb/JsBarcode;lindell/JsBarcode;jwrb;3;jwrb/lindell/lindell;"I knew this would have a build error. I wasn't on my main dev machine. 
 The fail was not your fault. It worked in everything except one instance where travis just did not want to build at all. 

Gonna take a look at this later
 Forced travis to rebuild and now the tests succeed
"
10;lindell/JsBarcode;61;2016-04-03T11:19:55Z;2016-04-03T12:01:19Z;2016-04-03T12:01:19Z;shawninder/JsBarcode;lindell/JsBarcode;shawninder;2;coveralls/lindell;"[![Coverage Status](https://coveralls.io/builds/5643839/badge)](https://coveralls.io/builds/5643839)

Coverage remained the same at 96.309% when pulling **2ac026dee07ef00140c492d1aa255a0b1230a785 on shawninder:master** into **840fc4ef60ace62c2924647e636052ed8fc5e100 on lindell:master**.
 Thanks for the commits :smile: Did not know that it was undefined behavior to leave it out. Merging it.
"
11;lindell/JsBarcode;52;2016-03-19T13:32:46Z;2016-03-19T16:20:53Z;2016-03-19T16:20:53Z;PitPik/JsBarcode;lindell/JsBarcode;PitPik;1;coveralls;"[![Coverage Status](https://coveralls.io/builds/5476186/badge)](https://coveralls.io/builds/5476186)

Coverage decreased (-0.1%) to 96.406% when pulling **3eb4d47d7a12de4f46dce35bfedb4b426b69cdd9 on PitPik:patch-1** into **6a6748bf7c31ca148c6edf2883b5e29f8a107340 on lindell:master**.
"
