No;mainline_repo;pr_no;created_at;closed_at;merged_at;repo_origin;repo_destin;pr_owner;no_commenters;pr_commenters;pr_comments
0;mafintosh/protocol-buffers;77;2018-07-23T16:07:25Z;2018-09-18T14:09:06Z;2018-09-18T14:09:06Z;cwalther/protocol-buffers;mafintosh/protocol-buffers;cwalther;2;mafintosh/cwalther;Cool stuff! Added a minor comment :) Changed the function name to `protobuf.toJS()`. I left the file name because its exported function was already named `compile()` before.
1;mafintosh/protocol-buffers;75;2018-02-15T14:40:37Z;2018-02-15T15:58:00Z;2018-02-15T15:58:00Z;soyuka/protocol-buffers;mafintosh/protocol-buffers;soyuka;2;soyuka/mafintosh;"I've made a small test on the output, should I add it?

```shell
node bin.js test/test.proto -o test/output.js
```

```javascript
var test = require('./test/output')

var buf = test.Defaults.encode({foo1: test.FOO.A, foos: [test.FOO.B]})

console.log(buf)

var dec = test.Defaults.decode(buf)

console.log(dec)
``` @soyuka let me add a way to test the compiled protobuf against all our current tests instead :)"
