No;mainline_repo;pr_no;created_at;closed_at;merged_at;repo_origin;repo_destin;pr_owner;no_commenters;pr_commenters;pr_comments
0;reasonml-community/bs-moment;63;2020-07-17T06:12:05Z;2020-07-17T09:58:05Z;2020-07-17T09:58:05Z;reasonml-community/bs-moment;reasonml-community/bs-moment;dependabot[bot];1;TravisBuddy;"Hey @dependabot[bot],  
Your changes look good to me!

<a href=""https:&#x2F;&#x2F;travis-ci.org&#x2F;reasonml-community&#x2F;bs-moment&#x2F;builds&#x2F;709053449"">View build log</a>

###### TravisBuddy Request Identifier: cbc47920-c7f4-11ea-ab6f-3547fdb4f9a3
"
1;reasonml-community/bs-moment;62;2020-06-12T03:44:59Z;2020-06-12T03:47:38Z;2020-06-12T03:47:38Z;reasonml-community/bs-moment;reasonml-community/bs-moment;Jimexist;1;TravisBuddy;"Hey @Jimexist,  
Your changes look good to me!

<a href=""https:&#x2F;&#x2F;travis-ci.org&#x2F;reasonml-community&#x2F;bs-moment&#x2F;builds&#x2F;697481195"">View build log</a>

###### TravisBuddy Request Identifier: 6c08fb60-ac5f-11ea-a7dd-93c9ffbfb007
"
2;reasonml-community/bs-moment;61;2020-06-12T03:42:24Z;2020-06-12T03:52:17Z;2020-06-12T03:52:17Z;reasonml-community/bs-moment;reasonml-community/bs-moment;Jimexist;2;TravisBuddy/TravisBuddy;"Hey @Jimexist,
Something went wrong with the build.

TravisCI finished with status `errored`, which means the build failed because of something unrelated to the tests, such as a problem with a dependency or the build process itself.

<a href=""https:&#x2F;&#x2F;travis-ci.org&#x2F;reasonml-community&#x2F;bs-moment&#x2F;builds&#x2F;697480833"">View build log</a>

###### TravisBuddy Request Identifier: 14d893f0-ac5f-11ea-a7dd-93c9ffbfb007
 Hey @Jimexist,  
Your changes look good to me!

<a href=""https:&#x2F;&#x2F;travis-ci.org&#x2F;reasonml-community&#x2F;bs-moment&#x2F;builds&#x2F;697481609"">View build log</a>

###### TravisBuddy Request Identifier: 052a2f30-ac60-11ea-a7dd-93c9ffbfb007
"
3;reasonml-community/bs-moment;60;2020-06-11T21:31:23Z;2020-06-12T03:33:30Z;2020-06-12T03:33:30Z;idkjs/bs-moment;reasonml-community/bs-moment;idkjs;1;TravisBuddy;"Hey @idkjs,  
Your changes look good to me!

<a href=""https:&#x2F;&#x2F;travis-ci.org&#x2F;reasonml-community&#x2F;bs-moment&#x2F;builds&#x2F;697399681"">View build log</a>

###### TravisBuddy Request Identifier: 1fe58c50-ac2b-11ea-a7dd-93c9ffbfb007
"
4;reasonml-community/bs-moment;59;2020-03-15T04:53:33Z;2020-04-09T03:34:32Z;2020-04-09T03:34:32Z;reasonml-community/bs-moment;reasonml-community/bs-moment;dependabot[bot];1;TravisBuddy;"Hey @dependabot[bot],  
Your changes look good to me!

<a href=""https:&#x2F;&#x2F;travis-ci.org&#x2F;reasonml-community&#x2F;bs-moment&#x2F;builds&#x2F;662608182"">View build log</a>

###### TravisBuddy Request Identifier: 4c70fa90-6679-11ea-8677-1d37064b33a6
"
5;reasonml-community/bs-moment;57;2019-12-16T07:36:12Z;2019-12-18T16:08:58Z;2019-12-18T16:08:58Z;reasonml-community/bs-moment;reasonml-community/bs-moment;dependabot[bot];1;TravisBuddy;"Hey @dependabot[bot],  
Your changes look good to me!

<a href=""https:&#x2F;&#x2F;travis-ci.org&#x2F;reasonml-community&#x2F;bs-moment&#x2F;builds&#x2F;625551049"">View build log</a>

###### TravisBuddy Request Identifier: a43e7dd0-1fd7-11ea-ba47-7f442aed9c1e
"
6;reasonml-community/bs-moment;51;2019-10-29T14:13:21Z;2019-10-31T01:29:44Z;2019-10-31T01:29:44Z;reasonml-community/bs-moment;reasonml-community/bs-moment;dependabot[bot];2;TravisBuddy/TravisBuddy;"Hey @dependabot[bot],  
Your changes look good to me!

<a href=""https:&#x2F;&#x2F;travis-ci.org&#x2F;reasonml-community&#x2F;bs-moment&#x2F;builds&#x2F;604468963"">View build log</a>

###### TravisBuddy Request Identifier: ff202920-fa56-11e9-97f1-ff8640b58534
 Hey @dependabot[bot],  
Your changes look good to me!

<a href=""https:&#x2F;&#x2F;travis-ci.org&#x2F;reasonml-community&#x2F;bs-moment&#x2F;builds&#x2F;605289914"">View build log</a>

###### TravisBuddy Request Identifier: cf1f9cb0-fb7d-11e9-94d3-31634e859ee1
"
7;reasonml-community/bs-moment;50;2019-10-28T16:45:05Z;2019-10-31T01:24:16Z;2019-10-31T01:24:16Z;baransu/bs-moment;reasonml-community/bs-moment;baransu;1;TravisBuddy;"Hey @baransu,  
Your changes look good to me!

<a href=""https:&#x2F;&#x2F;travis-ci.org&#x2F;reasonml-community&#x2F;bs-moment&#x2F;builds&#x2F;604003650"">View build log</a>

###### TravisBuddy Request Identifier: 8f4e43c0-f9a2-11e9-93c5-f3e7c8487984
"
8;reasonml-community/bs-moment;49;2019-08-04T16:04:23Z;2019-11-05T08:23:54Z;2019-11-05T08:23:54Z;ryb73/bs-moment;reasonml-community/bs-moment;ryb73;3;TravisBuddy/TravisBuddy/TravisBuddy;"Hey @ryb73,  
Your changes look good to me!

<a href=""https:&#x2F;&#x2F;travis-ci.org&#x2F;reasonml-community&#x2F;bs-moment&#x2F;builds&#x2F;567573297"">View build log</a>

###### TravisBuddy Request Identifier: d6f65a00-b6d1-11e9-8323-0bd1c9242337
 Hey @ryb73,  
Your changes look good to me!

<a href=""https:&#x2F;&#x2F;travis-ci.org&#x2F;reasonml-community&#x2F;bs-moment&#x2F;builds&#x2F;605289984"">View build log</a>

###### TravisBuddy Request Identifier: fe3dd660-fb7d-11e9-94d3-31634e859ee1
 Hey @ryb73,  
Your changes look good to me!

<a href=""https:&#x2F;&#x2F;travis-ci.org&#x2F;reasonml-community&#x2F;bs-moment&#x2F;builds&#x2F;605291330"">View build log</a>

###### TravisBuddy Request Identifier: afa49cd0-fb7f-11e9-94d3-31634e859ee1
"
9;reasonml-community/bs-moment;48;2019-07-26T15:26:39Z;2019-07-29T12:59:43Z;2019-07-29T12:59:43Z;martyn1111/bs-moment;reasonml-community/bs-moment;martyn1111;1;TravisBuddy;"Hey @martyn1111,  
Your changes look good to me!

<a href=""https:&#x2F;&#x2F;travis-ci.org&#x2F;reasonml-community&#x2F;bs-moment&#x2F;builds&#x2F;564068487"">View build log</a>

###### TravisBuddy Request Identifier: 146ff450-afba-11e9-83c1-65c58ed3b4ac
"
10;reasonml-community/bs-moment;44;2019-02-13T17:59:05Z;2019-02-17T07:13:36Z;2019-02-17T07:13:36Z;kamilkuz/bs-moment;reasonml-community/bs-moment;kamilkuz;3;TravisBuddy/TravisBuddy/TravisBuddy;"Hey @kamilkuz,  
Your changes look good to me!

<a href=""https:&#x2F;&#x2F;travis-ci.org&#x2F;reasonml-community&#x2F;bs-moment&#x2F;builds&#x2F;492830132"">View build log</a>

###### TravisBuddy Request Identifier: 94052090-2fb9-11e9-8adc-611d691b9f44
 Hey @kamilkuz,  
Your changes look good to me!

<a href=""https:&#x2F;&#x2F;travis-ci.org&#x2F;reasonml-community&#x2F;bs-moment&#x2F;builds&#x2F;493399108"">View build log</a>

###### TravisBuddy Request Identifier: 29193d40-308e-11e9-82e9-4fe4dc49fea2
 Hey @kamilkuz,  
Your changes look good to me!

<a href=""https:&#x2F;&#x2F;travis-ci.org&#x2F;reasonml-community&#x2F;bs-moment&#x2F;builds&#x2F;493405434"">View build log</a>

###### TravisBuddy Request Identifier: ef8c0ba0-308f-11e9-82e9-4fe4dc49fea2
"
11;reasonml-community/bs-moment;43;2019-02-13T04:02:15Z;2019-02-13T06:06:24Z;2019-02-13T06:06:24Z;reasonml-community/bs-moment;reasonml-community/bs-moment;Jimexist;3;TravisBuddy/TravisBuddy/TravisBuddy;"Hey @Jimexist,
Something went wrong with the build.

TravisCI finished with status `errored`, which means the build failed because of something unrelated to the tests, such as a problem with a dependency or the build process itself.

<a href=""https:&#x2F;&#x2F;travis-ci.org&#x2F;reasonml-community&#x2F;bs-moment&#x2F;builds&#x2F;492520169"">View build log</a>

###### TravisBuddy Request Identifier: 701c5800-2f47-11e9-9ea4-33062c9ac3a7
 Hey @Jimexist,  
Your changes look good to me!

<a href=""https:&#x2F;&#x2F;travis-ci.org&#x2F;reasonml-community&#x2F;bs-moment&#x2F;builds&#x2F;492529677"">View build log</a>

###### TravisBuddy Request Identifier: be450330-2f4a-11e9-9ea4-33062c9ac3a7
 Hey @Jimexist,  
Your changes look good to me!

<a href=""https:&#x2F;&#x2F;travis-ci.org&#x2F;reasonml-community&#x2F;bs-moment&#x2F;builds&#x2F;492529929"">View build log</a>

###### TravisBuddy Request Identifier: a76493f0-2f4b-11e9-9ea4-33062c9ac3a7
"
12;reasonml-community/bs-moment;41;2019-02-09T14:55:52Z;2019-02-13T03:59:12Z;2019-02-13T03:59:12Z;kamilkuz/bs-moment;reasonml-community/bs-moment;kamilkuz;3;TravisBuddy/TravisBuddy/TravisBuddy;"Hey @kamilkuz,  
Your changes look good to me!

<a href=""https:&#x2F;&#x2F;travis-ci.org&#x2F;reasonml-community&#x2F;bs-moment&#x2F;builds&#x2F;490972087"">View build log</a>

###### TravisBuddy Request Identifier: ede729a0-2c7b-11e9-b3d3-256864349aa7
 Hey @kamilkuz,  
Your changes look good to me!

<a href=""https:&#x2F;&#x2F;travis-ci.org&#x2F;reasonml-community&#x2F;bs-moment&#x2F;builds&#x2F;490974849"">View build log</a>

###### TravisBuddy Request Identifier: 6071b6b0-2c7d-11e9-b3d3-256864349aa7
 Hey @kamilkuz,  
Your changes look good to me!

<a href=""https:&#x2F;&#x2F;travis-ci.org&#x2F;reasonml-community&#x2F;bs-moment&#x2F;builds&#x2F;491780437"">View build log</a>

###### TravisBuddy Request Identifier: e67177c0-2e2e-11e9-93d2-519d0ef52680
"
15;reasonml-community/bs-moment;38;2019-01-03T16:48:10Z;2019-06-09T03:28:12Z;2019-06-09T03:28:12Z;DCKT/bs-moment;reasonml-community/bs-moment;DCKT;7;TravisBuddy/Jimexist/TravisBuddy/TravisBuddy/TravisBuddy/TravisBuddy/TravisBuddy;"Hey @DCKT,  
Your changes look good to me!

<a href=""https:&#x2F;&#x2F;travis-ci.org&#x2F;reasonml-community&#x2F;bs-moment&#x2F;builds&#x2F;474936793"">View build log</a>

###### TravisBuddy Request Identifier: 832ff080-0f78-11e9-94bf-8f8f7f7b1f8e
 @DCKT could you rebase first? Hey @DCKT,  
Your changes look good to me!

<a href=""https:&#x2F;&#x2F;travis-ci.org&#x2F;reasonml-community&#x2F;bs-moment&#x2F;builds&#x2F;485326256"">View build log</a>

###### TravisBuddy Request Identifier: e50c81f0-22e8-11e9-8cbe-2be867955b2f
 Hey @DCKT,  
Your changes look good to me!

<a href=""https:&#x2F;&#x2F;travis-ci.org&#x2F;reasonml-community&#x2F;bs-moment&#x2F;builds&#x2F;492520162"">View build log</a>

###### TravisBuddy Request Identifier: dff396d0-2f46-11e9-9ea4-33062c9ac3a7
 Hey @DCKT,  
Your changes look good to me!

<a href=""https:&#x2F;&#x2F;travis-ci.org&#x2F;reasonml-community&#x2F;bs-moment&#x2F;builds&#x2F;492613361"">View build log</a>

###### TravisBuddy Request Identifier: af82e120-2f75-11e9-8adc-611d691b9f44
 Hey @DCKT,  
Your changes look good to me!

<a href=""https:&#x2F;&#x2F;travis-ci.org&#x2F;reasonml-community&#x2F;bs-moment&#x2F;builds&#x2F;541795514"">View build log</a>

###### TravisBuddy Request Identifier: 349cd330-87a4-11e9-a2c3-13ee52ff072b
 Hey @DCKT,  
Your changes look good to me!

<a href=""https:&#x2F;&#x2F;travis-ci.org&#x2F;reasonml-community&#x2F;bs-moment&#x2F;builds&#x2F;543079859"">View build log</a>

###### TravisBuddy Request Identifier: 7d8af760-89c6-11e9-b893-2559eff97ce8
"
