No;mainline_repo;pr_no;created_at;closed_at;merged_at;repo_origin;repo_destin;pr_owner;no_commenters;pr_commenters;pr_comments
0;thelonious/kld-intersections;41;2019-05-11T14:53:05Z;2019-05-11T20:53:55Z;2019-05-11T20:53:55Z;brettz9/svg-intersections;thelonious/kld-intersections;brettz9;1;thelonious;I do appreciate all of these fixes. I haven't looked through the latest JSDoc site, so I easy for me to miss things like default values like what you just added.
1;thelonious/kld-intersections;40;2019-05-11T00:52:02Z;2019-05-11T04:28:46Z;2019-05-11T04:28:46Z;brettz9/svg-intersections;thelonious/kld-intersections;brettz9;2;brettz9/thelonious;Btw, if you ever add `@example` tags within the code, ash-nazg can lint that too (just as this PR adds for Markdown files' JavaScript blocks)... Thanks for the fixes. BTW, what's the rational for `querySelector` vs `getElementById`?
2;thelonious/kld-intersections;39;2019-05-11T00:28:17Z;2019-05-11T00:47:05Z;2019-05-11T00:47:05Z;brettz9/svg-intersections;thelonious/kld-intersections;brettz9;1;thelonious;Turtles all the way down
3;thelonious/kld-intersections;38;2019-05-07T08:23:34Z;2019-05-07T17:16:34Z;2019-05-07T17:16:34Z;brettz9/svg-intersections;thelonious/kld-intersections;brettz9;1;thelonious;Nice! I always enjoy removing code :)
4;thelonious/kld-intersections;37;2019-05-05T04:35:28Z;2019-05-06T03:02:01Z;2019-05-06T03:02:01Z;brettz9/svg-intersections;thelonious/kld-intersections;brettz9;6;thelonious/thelonious/thelonious/thelonious/brettz9/thelonious;"Just an FYI that it might take a day or two before I get back to you on this. I'm thinking about applying the steps in your commits to a lesser module of mine to get a better feel of the final result. That being said, it's looking good to me. I do have one question, however. Will it be required to fully-qualify types in JSDoc?. For example:

```
 *  @param {module:kld-intersections.Point2D} p3
 *  @returns {module:kld-intersections.IntersectionArgs}
```

The `Point2D` reference wasn't too surprising, but the `IntersectionArgs` reference was. I would expect JSDoc to be able to resolve all types within the module. It would be nice to be able to use the bare type without the module prefix...lots of typing I've ported these changes over to [kld-transform-parser](https://github.com/thelonious/kld-transform-parser/tree/development). If you have a minute, can you have a look if I'm following your process correctly? Everything seems to be linting, doc'ing, and running correctly. If everything looks good there, then I think we'll be good to go here too.

Note that I included the `esm` module so I can run test scripts (in the scratch folder) via `node -r esm <script-name>`. That works really well. I noticed that I can't run tests with `npm run test`. I'm running node v10.15.3 To clarify, I'm trying this in the other repos I'm converting...haven't tried in this repo yet Re: npm test, that was due to a typo in your `.babelrc` files (though I'm not sure why @babel/register needs to pick up the file and/or the preset-env to support module parsing, but it apparently does). Fixed in the two PRs (kld-path-parser and kld-transform-parser).

Re: esm, sure. If you prefer that to @babel/register, you might be able to change the test calls to `mocha --require esm` and drop the @babel/register devDep (and maybe the @babel/core I recall was also needed by @babel/register), though you'd need to test to confirm. But FWIW, you can also use @babel/register for your scratchpad files, e.g., `node -r @babel/register <script-name>`.

Re: fully qualified types, IIRC, in this repo, it wasn't all working correctly for some reason, though maybe some types were ok or maybe it was due to some other reason--I can't recall.  Yes, jsdoc does seem to be able to resolve types without the module prefix in at least some cases, but I'm not sure whether it is necessary to have it for the sake of certain relationships, e.g., when re-exporting the same content and when you wish to indicate this.  FYI, there is a fresh new issue by the creator of jsdoc to improve on modules: https://github.com/jsdoc/jsdoc/issues/1645 . (FWIW, I came across this issue through https://github.com/jsdoc/jsdoc/issues/1533 which was asking for avoiding repeating all of the module paths within a module.) Typescript's approach is to use a kind of `import` statement within the jsdoc statements, making for an intuitive approach which it seems jsdoc might adopt. Re: `.babelrc`, Yes, I frequently swap `el` and `le`. I've merged those requests and can confirm that I'm able to run tests now.

Re: esm, I don't have a preference. I often put test scripts into a `scratch` folder. I exclude those from linting and docs. I also add a shebang and make them executable for my convenience. I noticed I wasn't able to run those from a shell, but using `#!/usr/bin/env node -r esm` along with the esm module fixed that. Is there an equivalent I can use with the babel setup?

Re: JSDoc, OK, I'll just have to live with it for now. Back in the day, we had created scriptdoc to try and clean up these sorts of things, but, as we know, JSDoc won :)

I've merged all of the other PRs from the other repos and will merge this now.

Cheers!
"
5;thelonious/kld-intersections;36;2019-05-05T00:59:36Z;2019-05-05T02:23:21Z;2019-05-05T02:23:21Z;brettz9/svg-intersections;thelonious/kld-intersections;brettz9;2;brettz9/thelonious;"I figured I'd push this one out before tackling the Rollup... If this is ok... I wouldn't worry about the functions jsdoc ends up documenting as ""global"" as I can document them as belonging to the given module rather than being globals, but this will be easier to do at the same time as Rollup.

 Sweet! FWIW, I'm also porting these changes over to the kld-affine and kld-polynomial modules, modules on which this module depends."
6;thelonious/kld-intersections;34;2019-05-04T01:31:47Z;2019-05-05T00:17:02Z;2019-05-05T00:17:02Z;brettz9/svg-intersections;thelonious/kld-intersections;brettz9;15;brettz9/thelonious/brettz9/brettz9/thelonious/thelonious/thelonious/brettz9/brettz9/brettz9/brettz9/thelonious/brettz9/brettz9/thelonious;"I've just now added an additional commit re: Markdown linting... Darn. And I thought I was being proactive. I'll give your `.eslintrc.js` file a try to see how it effects things. I'm having trouble with merges I guess it may be easier to apply your changes on top of mine as there will be many changes required... Re: merges, I'm a big fan of Sourcetree if you are open to GUIs... I ended up grabbing your `eslintrc.js` file and tried it out on a new branch. It took a while to get all of the required node modules (didn't install automatically for some reason, so I'm sure I was doing something wrong). Phew...1500+ problems.

- I'd like to stay with double-quotes. I have my reasons and their purely subjective
- I agree with removing extra spaces. That was just a thing I did back in 2004
- This would be a good time to drop `var` for `let` and `const`. I think that would remove all the ""move vars to top of scope"" errors as well
- I'm definitely in agreement with `===` vs `==`. I did not understand the nuance back in 2004
- I know this is non-standard, but I prefer `else {` on their own lines for multiple subjective reasons. That's a hang over influence from Perl.
- Hmm, use object destructuring for `var length = points.length`?
- for-of would be nice to use
- Regarding JSDoc errors, I can't get to their site. Is this still the preferred way to document JS?
- I'm on the fence regarding camelcase...doesn't seem worth changing right now

How would you suggest fixing imports?

 FWIW, here's the list of errors/warnings I am seeing (37 in total):

- @mysticatea/block-scoped-var
- block-scoped-var
- brace-style
- camelcase
- comma-dangle
- comma-spacing
- eqeqeq
- eslint-comments/no-unused-disable
- import/newline-after-import
- import/order
- jsdoc/check-param-names
- jsdoc/check-tag-names
- jsdoc/check-types
- jsdoc/require-param
- jsdoc/require-returns
- jsdoc/valid-types
- no-array-constructor
- no-eq-null
- no-labels
- no-lonely-if
- no-mixed-requires
- no-sequences
- no-shadow
- no-unused-expressions
- no-var
- node/no-deprecated-api
- node/no-unpublished-require
- node/shebang
- object-curly-spacing
- padded-blocks
- prefer-const
- prefer-destructuring
- require-jsdoc
- semi-spacing
- space-in-parens
- unicorn/no-for-loop
- vars-on-top

I'll have to look at samples of each. Is there a way to `--fix` only certain errors? Or does one simply edit the `.eslintrc.js` to reduce it to the set of interest? nm on my `--fix` question...I just RTFM :) Regarding double-quotes, and `else` brace style, I've applied your preferences. It should be a lot easier to see the diffs in this PR now.

Regarding `===` vs `==`, I made an exception for the `Intersection.js` file as I am not as familiar with the code to be able to correctly apply it (e.g., these operators [deal differently](https://developer.mozilla.org/en-US/docs/Web/JavaScript/Equality_comparisons_and_sameness) with `NaN` and `+0` vs. `-0`, so I think I'd need to ask you to change them if you wanted to change them). Similarly, I didn't bother with changing camel case in that particular file, nor did I change your use of labels (e.g., to break/continue).

As far as object destructuring for `var length = points.length`, the reason I did `const {length: len} = points` is because the `no-shadow` rule is on, and `window.length` is a [global](https://developer.mozilla.org/en-US/docs/Web/JavaScript/Equality_comparisons_and_sameness) which `length` would be shadowing. I also renamed `test` inside of a file for this reason (since I followed your change to move `env: ""mocha""` to the whole project rather than overriding the test files only, and this environment defines `test` as a global).

Regarding JSDoc, it is still the preferred way, though the project does not seem to be maintained on a very aggressive schedule. However, Typescript has become very popular, but because it subsumes much of JSDoc anyways, unless you determine to start using their non-standard syntax, you will be compatible with Typescript anyways, with a few exceptions: https://github.com/Microsoft/TypeScript/wiki/JSDoc-support-in-JavaScript .

Regarding the annoying lack of rule-specific `--fix`, I'd just temporarily change the config file to be a single rule. :)

I'd recommend taking a look at the diffs here on Github as the changes are now not so many. I'm happy to rebase to incorporate your preferences as I can. As far as imports--and this is the reason I didn't indicate ""commonjs"" on this PR or remove the `""sourceType"": ""module""` from `parserOptions`--my intention for the next proposed PR would be to convert source to ES modules and use Rollup to convert this to UMD (so as to continue working in Node or older browsers) and to provide a bundled ESM distribution (so modern browsers, e.g., for demos, could have the convenience of being able to use ESM modules directly with your library, avoiding polluting their HTML with extra script tags or having the unexplained ""magic"" (in the context of their JavaScript files) of not knowing from where certain globals are coming). Rollup is by far the easiest and most well-documented solution. Webpack has some added features, but it is not as friendly to use, and it also doesn't yet support providing an ESM distribution. Besides, Rollup has been recommended for libraries and Webpack for applications. Rollup also has plugins which can handle things like commonjs imports, and Babel (so we could add even more ES6 in source while working in older browsers--e.g., ES6 classes). These changes look great. If you're able to resolve the merge conflicts, I'd be happy to merge these in. If not, I can take a pass on that.

I do have to say that the `var length = points.length` changes to destructured assignment looks odd to me, but maybe that will motivate me to use better variables names in their place. Also, there was at least one spot where the code could switch to for-of to drop the need for that temporary variable.

Thanks for the clarification on JSDoc.

I'll have to read up on UMD, ESM, etc.
 I've caught the case where for-of can be used and in merging I also did the following:

1. Add missing ""use strict"" directives
2. Remove rules redundant with config
3. Apply `no-multi-spaces` and enforce current style of `arrow-parens` being only as needed
4. Disable `space-infix-ops` only for Intersection file
5. Remove temporary variables made redundant with destructuring

As far as a replacement for `var length = points.length`, we can turn the global of ""length"" off, and just allow that one if you prefer (or rename but do not restructure, e.g., `const len = points.length;`). Or, though I'm not sure of what effect this may have on performance, one could refactor to avoid lengths and just use array extras like `forEach` (including `i` within its callback). Lastly, one could use Array `entries` with the pattern, `for (const [i, a1] of points.entries())`, though one might need the proposed Babel PR for the latter. Btw, I could submit a PR for the Rollup if you like, but it'd be nice to know if you were ok forgoing the current `module.exports` style of some files in favor of `export` as I believe bundlers if not JS engines can intelligently ignore the unimported code. @brettz9, thanks so much for all of this work. It feels really good to see this code (and module) getting modernized.

This all looks great. If a Rollup PR isn't too involved for you, that sounds great. I need to see what all is involved with that, particularly with whatever code generation/processing that needs to be done. Of course, it's important to focus on the consumers of this module, but it needs to be easy for the maintainers to use as well."
7;thelonious/kld-intersections;33;2019-04-28T07:52:54Z;2019-05-03T23:19:12Z;2019-05-03T23:19:12Z;brettz9/svg-intersections;thelonious/kld-intersections;brettz9;1;thelonious;Thanks @brettz9! I will try to take a look at these early this week. I really appreciate you taking the effort to submit these
