No;mainline_repo;pr_no;created_at;closed_at;merged_at;repo_origin;repo_destin;pr_owner;no_commenters;pr_commenters;pr_comments
0;wcamarao/session.socket.io;51;2016-02-25T17:38:54Z;2016-09-20T15:34:08Z;2016-09-20T15:34:08Z;trotter/session.socket.io;wcamarao/session.socket.io;trotter;1;wcamarao;"Lol thanks trotter, hope you guys are having a blast over there at Riot.
"
