No;mainline_repo;pr_no;created_at;closed_at;merged_at;repo_origin;repo_destin;pr_owner;no_commenters;pr_commenters;pr_comments
0;yoshuawuyts/es2020;20;2016-09-03T07:35:24Z;2016-09-03T16:47:06Z;2016-09-03T16:47:06Z;krawaller/es2020;yoshuawuyts/es2020;krawaller;1;yoshuawuyts;"Fair enough. Thanks!
"
1;yoshuawuyts/es2020;14;2016-06-29T11:35:05Z;2016-06-29T11:38:41Z;2016-06-29T11:38:41Z;yoshuawuyts/es2020;yoshuawuyts/es2020;ahdinosaur;1;yoshuawuyts;"w00t!
"
